cor,course,course,fff2772
cor,course,department,fff2773
cor,course,faculty,fff2774
cor,course,person,fff2775
cor,course,researchproject,fff2776
cor,course,staff,fff2777
cor,course,student,fff2778
cor,department,course,fff2779
cor,department,department,fff2780
cor,department,faculty,fff2781
cor,department,person,fff2782
cor,department,researchproject,fff2783
cor,department,staff,fff2784
cor,department,student,fff2785
cor,faculty,course,fff2786
cor,faculty,department,fff2787
cor,faculty,faculty,fff2788
cor,faculty,person,fff2789
cor,faculty,researchproject,fff2790
cor,faculty,staff,fff2791
cor,faculty,student,fff2792
cor,person,course,fff2793
cor,person,department,fff2794
cor,person,faculty,fff2795
cor,person,person,fff2796
cor,person,researchproject,fff2797
cor,person,staff,fff2798
cor,person,student,fff2799
cor,researchproject,course,fff2800
cor,researchproject,department,fff2801
cor,researchproject,faculty,fff2802
cor,researchproject,person,fff2803
cor,researchproject,researchproject,fff2804
cor,researchproject,staff,fff2805
cor,researchproject,student,fff2806
cor,staff,course,fff2807
cor,staff,department,fff2808
cor,staff,faculty,fff2809
cor,staff,person,fff2810
cor,staff,researchproject,fff2811
cor,staff,staff,fff2812
cor,staff,student,fff2813
cor,student,course,fff2814
cor,student,department,fff2815
cor,student,faculty,fff2816
cor,student,person,fff2817
cor,student,researchproject,fff2818
cor,student,staff,fff2819
cor,student,student,fff2820
tex,course,course,fff2821
tex,course,department,fff2822
tex,course,faculty,fff2823
tex,course,person,fff2824
tex,course,researchproject,fff2825
tex,course,staff,fff2826
tex,course,student,fff2827
tex,department,course,fff2828
tex,department,department,fff2829
tex,department,faculty,fff2830
tex,department,person,fff2831
tex,department,researchproject,fff2832
tex,department,staff,fff2833
tex,department,student,fff2834
tex,faculty,course,fff2835
tex,faculty,department,fff2836
tex,faculty,faculty,fff2837
tex,faculty,person,fff2838
tex,faculty,researchproject,fff2839
tex,faculty,staff,fff2840
tex,faculty,student,fff2841
tex,person,course,fff2842
tex,person,department,fff2843
tex,person,faculty,fff2844
tex,person,person,fff2845
tex,person,researchproject,fff2846
tex,person,staff,fff2847
tex,person,student,fff2848
tex,researchproject,course,fff2849
tex,researchproject,department,fff2850
tex,researchproject,faculty,fff2851
tex,researchproject,person,fff2852
tex,researchproject,researchproject,fff2853
tex,researchproject,staff,fff2854
tex,researchproject,student,fff2855
tex,staff,course,fff2856
tex,staff,department,fff2857
tex,staff,faculty,fff2858
tex,staff,person,fff2859
tex,staff,researchproject,fff2860
tex,staff,staff,fff2861
tex,staff,student,fff2862
tex,student,course,fff2863
tex,student,department,fff2864
tex,student,faculty,fff2865
tex,student,person,fff2866
tex,student,researchproject,fff2867
tex,student,staff,fff2868
tex,student,student,fff2869
was,course,course,fff2870
was,course,department,fff2871
was,course,faculty,fff2872
was,course,person,fff2873
was,course,researchproject,fff2874
was,course,staff,fff2875
was,course,student,fff2876
was,department,course,fff2877
was,department,department,fff2878
was,department,faculty,fff2879
was,department,person,fff2880
was,department,researchproject,fff2881
was,department,staff,fff2882
was,department,student,fff2883
was,faculty,course,fff2884
was,faculty,department,fff2885
was,faculty,faculty,fff2886
was,faculty,person,fff2887
was,faculty,researchproject,fff2888
was,faculty,staff,fff2889
was,faculty,student,fff2890
was,person,course,fff2891
was,person,department,fff2892
was,person,faculty,fff2893
was,person,person,fff2894
was,person,researchproject,fff2895
was,person,staff,fff2896
was,person,student,fff2897
was,researchproject,course,fff2898
was,researchproject,department,fff2899
was,researchproject,faculty,fff2900
was,researchproject,person,fff2901
was,researchproject,researchproject,fff2902
was,researchproject,staff,fff2903
was,researchproject,student,fff2904
was,staff,course,fff2905
was,staff,department,fff2906
was,staff,faculty,fff2907
was,staff,person,fff2908
was,staff,researchproject,fff2909
was,staff,staff,fff2910
was,staff,student,fff2911
was,student,course,fff2912
was,student,department,fff2913
was,student,faculty,fff2914
was,student,person,fff2915
was,student,researchproject,fff2916
was,student,staff,fff2917
was,student,student,fff2918
wis,course,course,fff2919
wis,course,department,fff2920
wis,course,faculty,fff2921
wis,course,person,fff2922
wis,course,researchproject,fff2923
wis,course,staff,fff2924
wis,course,student,fff2925
wis,department,course,fff2926
wis,department,department,fff2927
wis,department,faculty,fff2928
wis,department,person,fff2929
wis,department,researchproject,fff2930
wis,department,staff,fff2931
wis,department,student,fff2932
wis,faculty,course,fff2933
wis,faculty,department,fff2934
wis,faculty,faculty,fff2935
wis,faculty,person,fff2936
wis,faculty,researchproject,fff2937
wis,faculty,staff,fff2938
wis,faculty,student,fff2939
wis,person,course,fff2940
wis,person,department,fff2941
wis,person,faculty,fff2942
wis,person,person,fff2943
wis,person,researchproject,fff2944
wis,person,staff,fff2945
wis,person,student,fff2946
wis,researchproject,course,fff2947
wis,researchproject,department,fff2948
wis,researchproject,faculty,fff2949
wis,researchproject,person,fff2950
wis,researchproject,researchproject,fff2951
wis,researchproject,staff,fff2952
wis,researchproject,student,fff2953
wis,staff,course,fff2954
wis,staff,department,fff2955
wis,staff,faculty,fff2956
wis,staff,person,fff2957
wis,staff,researchproject,fff2958
wis,staff,staff,fff2959
wis,staff,student,fff2960
wis,student,course,fff2961
wis,student,department,fff2962
wis,student,faculty,fff2963
wis,student,person,fff2964
wis,student,researchproject,fff2965
wis,student,staff,fff2966
wis,student,student,fff2967
