Department0-University0-FullProfessor7,Department0-University0,ff15934
Department1-University0-FullProfessor4,Department1-University0,ff15935
Department10-University0-FullProfessor5,Department10-University0,ff15936
Department11-University0-FullProfessor1,Department11-University0,ff15937
Department12-University0-FullProfessor2,Department12-University0,ff15938
Department13-University0-FullProfessor7,Department13-University0,ff15939
Department14-University0-FullProfessor6,Department14-University0,ff15940
Department2-University0-FullProfessor4,Department2-University0,ff15941
Department3-University0-FullProfessor4,Department3-University0,ff15942
Department4-University0-FullProfessor3,Department4-University0,ff15943
Department5-University0-FullProfessor4,Department5-University0,ff15944
Department6-University0-FullProfessor1,Department6-University0,ff15945
Department7-University0-FullProfessor1,Department7-University0,ff15946
Department8-University0-FullProfessor3,Department8-University0,ff15947
Department9-University0-FullProfessor0,Department9-University0,ff15948
