p4,p8
p8,p4
p5,p7
p7,p5
p7,p8
p8,p7
p4,p11
p11,p4
p3,p7
p7,p3
p2,p6
p6,p2
p4,p5
p5,p4
p7,p15
p15,p7
p1,p5
p5,p1
p14,p18
p18,p14
p6,p14
p14,p6
p1,p4
p4,p1
p8,p17
p17,p8
p12,p14
p14,p12
p7,p14
p14,p7
p10,p11
p11,p10
p3,p5
p5,p3
p16,p17
p17,p16
p6,p15
p15,p6
p3,p8
p8,p3
p6,p12
p12,p6
p4,p7
p7,p4
p5,p13
p13,p5
p1,p2
p2,p1
