p1,p11
p11,p1
p9,p13
p13,p9
p2,p9
p9,p2
p12,p16
p16,p12
p9,p11
p11,p9
p1,p5
p5,p1
p13,p14
p14,p13
p1,p10
p10,p1
p14,p16
p16,p14
p6,p14
p14,p6
p5,p6
p6,p5
p4,p10
p10,p4
p7,p14
p14,p7
p2,p8
p8,p2
p11,p12
p12,p11
p3,p11
p11,p3
p3,p4
p4,p3
p1,p2
p2,p1
