p16,p16,fff48
p16,p15,fff49
p16,p14,fff50
p16,p13,fff51
p16,p12,fff52
p16,p11,fff53
p16,p10,fff54
p16,p9,fff55
p16,p8,fff56
p16,p7,fff57
p16,p6,fff58
p16,p5,fff59
p16,p4,fff60
p16,p3,fff61
p16,p2,fff62
p16,p1,fff63
p15,p16,fff64
p15,p15,fff65
p15,p14,fff66
p15,p13,fff67
p15,p12,fff68
p15,p11,fff69
p15,p10,fff70
p15,p9,fff71
p15,p8,fff72
p15,p7,fff73
p15,p6,fff74
p15,p5,fff75
p15,p4,fff76
p15,p3,fff77
p15,p2,fff78
p15,p1,fff79
p14,p16,fff80
p14,p15,fff81
p14,p14,fff82
p14,p13,fff83
p14,p12,fff84
p14,p11,fff85
p14,p10,fff86
p14,p9,fff87
p14,p8,fff88
p14,p7,fff89
p14,p6,fff90
p14,p5,fff91
p14,p4,fff92
p14,p3,fff93
p14,p2,fff94
p14,p1,fff95
p13,p16,fff96
p13,p15,fff97
p13,p14,fff98
p13,p13,fff99
p13,p12,fff100
p13,p11,fff101
p13,p10,fff102
p13,p9,fff103
p13,p8,fff104
p13,p7,fff105
p13,p6,fff106
p13,p5,fff107
p13,p4,fff108
p13,p3,fff109
p13,p2,fff110
p13,p1,fff111
p12,p16,fff112
p12,p15,fff113
p12,p14,fff114
p12,p13,fff115
p12,p12,fff116
p12,p11,fff117
p12,p10,fff118
p12,p9,fff119
p12,p8,fff120
p12,p7,fff121
p12,p6,fff122
p12,p5,fff123
p12,p4,fff124
p12,p3,fff125
p12,p2,fff126
p12,p1,fff127
p11,p16,fff128
p11,p15,fff129
p11,p14,fff130
p11,p13,fff131
p11,p12,fff132
p11,p11,fff133
p11,p10,fff134
p11,p9,fff135
p11,p8,fff136
p11,p7,fff137
p11,p6,fff138
p11,p5,fff139
p11,p4,fff140
p11,p3,fff141
p11,p2,fff142
p11,p1,fff143
p10,p16,fff144
p10,p15,fff145
p10,p14,fff146
p10,p13,fff147
p10,p12,fff148
p10,p11,fff149
p10,p10,fff150
p10,p9,fff151
p10,p8,fff152
p10,p7,fff153
p10,p6,fff154
p10,p5,fff155
p10,p4,fff156
p10,p3,fff157
p10,p2,fff158
p10,p1,fff159
p9,p16,fff160
p9,p15,fff161
p9,p14,fff162
p9,p13,fff163
p9,p12,fff164
p9,p11,fff165
p9,p10,fff166
p9,p9,fff167
p9,p8,fff168
p9,p7,fff169
p9,p6,fff170
p9,p5,fff171
p9,p4,fff172
p9,p3,fff173
p9,p2,fff174
p9,p1,fff175
p8,p16,fff176
p8,p15,fff177
p8,p14,fff178
p8,p13,fff179
p8,p12,fff180
p8,p11,fff181
p8,p10,fff182
p8,p9,fff183
p8,p8,fff184
p8,p7,fff185
p8,p6,fff186
p8,p5,fff187
p8,p4,fff188
p8,p3,fff189
p8,p2,fff190
p8,p1,fff191
p7,p16,fff192
p7,p15,fff193
p7,p14,fff194
p7,p13,fff195
p7,p12,fff196
p7,p11,fff197
p7,p10,fff198
p7,p9,fff199
p7,p8,fff200
p7,p7,fff201
p7,p6,fff202
p7,p5,fff203
p7,p4,fff204
p7,p3,fff205
p7,p2,fff206
p7,p1,fff207
p6,p16,fff208
p6,p15,fff209
p6,p14,fff210
p6,p13,fff211
p6,p12,fff212
p6,p11,fff213
p6,p10,fff214
p6,p9,fff215
p6,p8,fff216
p6,p7,fff217
p6,p6,fff218
p6,p5,fff219
p6,p4,fff220
p6,p3,fff221
p6,p2,fff222
p6,p1,fff223
p5,p16,fff224
p5,p15,fff225
p5,p14,fff226
p5,p13,fff227
p5,p12,fff228
p5,p11,fff229
p5,p10,fff230
p5,p9,fff231
p5,p8,fff232
p5,p7,fff233
p5,p6,fff234
p5,p5,fff235
p5,p4,fff236
p5,p3,fff237
p5,p2,fff238
p5,p1,fff239
p4,p16,fff240
p4,p15,fff241
p4,p14,fff242
p4,p13,fff243
p4,p12,fff244
p4,p11,fff245
p4,p10,fff246
p4,p9,fff247
p4,p8,fff248
p4,p7,fff249
p4,p6,fff250
p4,p5,fff251
p4,p4,fff252
p4,p3,fff253
p4,p2,fff254
p4,p1,fff255
p3,p16,fff256
p3,p15,fff257
p3,p14,fff258
p3,p13,fff259
p3,p12,fff260
p3,p11,fff261
p3,p10,fff262
p3,p9,fff263
p3,p8,fff264
p3,p7,fff265
p3,p6,fff266
p3,p5,fff267
p3,p4,fff268
p3,p3,fff269
p3,p2,fff270
p3,p1,fff271
p2,p16,fff272
p2,p15,fff273
p2,p14,fff274
p2,p13,fff275
p2,p12,fff276
p2,p11,fff277
p2,p10,fff278
p2,p9,fff279
p2,p8,fff280
p2,p7,fff281
p2,p6,fff282
p2,p5,fff283
p2,p4,fff284
p2,p3,fff285
p2,p2,fff286
p2,p1,fff287
p1,p16,fff288
p1,p15,fff289
p1,p14,fff290
p1,p13,fff291
p1,p12,fff292
p1,p11,fff293
p1,p10,fff294
p1,p9,fff295
p1,p8,fff296
p1,p7,fff297
p1,p6,fff298
p1,p5,fff299
p1,p4,fff300
p1,p3,fff301
p1,p2,fff302
p1,p1,fff303
