Department0-University0-FullProfessor0,"Research20",ff57748
Department0-University0-FullProfessor1,"Research12",ff57749
Department0-University0-FullProfessor2,"Research28",ff57750
Department0-University0-FullProfessor3,"Research12",ff57751
Department0-University0-FullProfessor4,"Research7",ff57752
Department0-University0-FullProfessor5,"Research18",ff57753
Department0-University0-FullProfessor6,"Research10",ff57754
Department0-University0-FullProfessor7,"Research3",ff57755
Department0-University0-FullProfessor8,"Research26",ff57756
Department0-University0-FullProfessor9,"Research5",ff57757
Department0-University0-AssociateProfessor0,"Research20",ff57758
Department0-University0-AssociateProfessor1,"Research5",ff57759
Department0-University0-AssociateProfessor2,"Research7",ff57760
Department0-University0-AssociateProfessor3,"Research17",ff57761
Department0-University0-AssociateProfessor4,"Research29",ff57762
Department0-University0-AssociateProfessor5,"Research8",ff57763
Department0-University0-AssociateProfessor6,"Research21",ff57764
Department0-University0-AssociateProfessor7,"Research13",ff57765
Department0-University0-AssociateProfessor8,"Research9",ff57766
Department0-University0-AssociateProfessor9,"Research12",ff57767
Department0-University0-AssociateProfessor10,"Research10",ff57768
Department0-University0-AssociateProfessor11,"Research15",ff57769
Department0-University0-AssociateProfessor12,"Research26",ff57770
Department0-University0-AssociateProfessor13,"Research29",ff57771
Department0-University0-AssistantProfessor0,"Research13",ff57772
Department0-University0-AssistantProfessor1,"Research1",ff57773
Department0-University0-AssistantProfessor2,"Research15",ff57774
Department0-University0-AssistantProfessor3,"Research12",ff57775
Department0-University0-AssistantProfessor4,"Research8",ff57776
Department0-University0-AssistantProfessor5,"Research29",ff57777
Department0-University0-AssistantProfessor6,"Research25",ff57778
Department0-University0-AssistantProfessor7,"Research20",ff57779
Department0-University0-AssistantProfessor8,"Research11",ff57780
Department0-University0-AssistantProfessor9,"Research24",ff57781
Department1-University0-FullProfessor0,"Research19",ff57782
Department1-University0-FullProfessor1,"Research2",ff57783
Department1-University0-FullProfessor2,"Research16",ff57784
Department1-University0-FullProfessor3,"Research14",ff57785
Department1-University0-FullProfessor4,"Research16",ff57786
Department1-University0-FullProfessor5,"Research7",ff57787
Department1-University0-FullProfessor6,"Research1",ff57788
Department1-University0-FullProfessor7,"Research29",ff57789
Department1-University0-FullProfessor8,"Research16",ff57790
Department1-University0-FullProfessor9,"Research5",ff57791
Department1-University0-AssociateProfessor0,"Research26",ff57792
Department1-University0-AssociateProfessor1,"Research16",ff57793
Department1-University0-AssociateProfessor2,"Research10",ff57794
Department1-University0-AssociateProfessor3,"Research26",ff57795
Department1-University0-AssociateProfessor4,"Research22",ff57796
Department1-University0-AssociateProfessor5,"Research27",ff57797
Department1-University0-AssociateProfessor6,"Research17",ff57798
Department1-University0-AssociateProfessor7,"Research10",ff57799
Department1-University0-AssociateProfessor8,"Research20",ff57800
Department1-University0-AssociateProfessor9,"Research27",ff57801
Department1-University0-AssistantProfessor0,"Research13",ff57802
Department1-University0-AssistantProfessor1,"Research8",ff57803
Department1-University0-AssistantProfessor2,"Research25",ff57804
Department1-University0-AssistantProfessor3,"Research11",ff57805
Department1-University0-AssistantProfessor4,"Research1",ff57806
Department1-University0-AssistantProfessor5,"Research1",ff57807
Department1-University0-AssistantProfessor6,"Research28",ff57808
Department1-University0-AssistantProfessor7,"Research2",ff57809
Department10-University0-FullProfessor0,"Research13",ff57810
Department10-University0-FullProfessor1,"Research3",ff57811
Department10-University0-FullProfessor2,"Research21",ff57812
Department10-University0-FullProfessor3,"Research14",ff57813
Department10-University0-FullProfessor4,"Research7",ff57814
Department10-University0-FullProfessor5,"Research26",ff57815
Department10-University0-FullProfessor6,"Research20",ff57816
Department10-University0-AssociateProfessor0,"Research16",ff57817
Department10-University0-AssociateProfessor1,"Research25",ff57818
Department10-University0-AssociateProfessor2,"Research28",ff57819
Department10-University0-AssociateProfessor3,"Research19",ff57820
Department10-University0-AssociateProfessor4,"Research18",ff57821
Department10-University0-AssociateProfessor5,"Research17",ff57822
Department10-University0-AssociateProfessor6,"Research24",ff57823
Department10-University0-AssociateProfessor7,"Research23",ff57824
Department10-University0-AssociateProfessor8,"Research19",ff57825
Department10-University0-AssociateProfessor9,"Research10",ff57826
Department10-University0-AssociateProfessor10,"Research26",ff57827
Department10-University0-AssistantProfessor0,"Research4",ff57828
Department10-University0-AssistantProfessor1,"Research4",ff57829
Department10-University0-AssistantProfessor2,"Research27",ff57830
Department10-University0-AssistantProfessor3,"Research10",ff57831
Department10-University0-AssistantProfessor4,"Research26",ff57832
Department10-University0-AssistantProfessor5,"Research18",ff57833
Department10-University0-AssistantProfessor6,"Research13",ff57834
Department10-University0-AssistantProfessor7,"Research22",ff57835
Department10-University0-AssistantProfessor8,"Research0",ff57836
Department10-University0-AssistantProfessor9,"Research25",ff57837
Department10-University0-AssistantProfessor10,"Research16",ff57838
Department11-University0-FullProfessor0,"Research20",ff57839
Department11-University0-FullProfessor1,"Research21",ff57840
Department11-University0-FullProfessor2,"Research7",ff57841
Department11-University0-FullProfessor3,"Research29",ff57842
Department11-University0-FullProfessor4,"Research8",ff57843
Department11-University0-FullProfessor5,"Research17",ff57844
Department11-University0-FullProfessor6,"Research26",ff57845
Department11-University0-FullProfessor7,"Research22",ff57846
Department11-University0-AssociateProfessor0,"Research7",ff57847
Department11-University0-AssociateProfessor1,"Research29",ff57848
Department11-University0-AssociateProfessor2,"Research1",ff57849
Department11-University0-AssociateProfessor3,"Research0",ff57850
Department11-University0-AssociateProfessor4,"Research17",ff57851
Department11-University0-AssociateProfessor5,"Research0",ff57852
Department11-University0-AssociateProfessor6,"Research7",ff57853
Department11-University0-AssociateProfessor7,"Research6",ff57854
Department11-University0-AssociateProfessor8,"Research12",ff57855
Department11-University0-AssociateProfessor9,"Research20",ff57856
Department11-University0-AssociateProfessor10,"Research28",ff57857
Department11-University0-AssociateProfessor11,"Research22",ff57858
Department11-University0-AssociateProfessor12,"Research2",ff57859
Department11-University0-AssociateProfessor13,"Research16",ff57860
Department11-University0-AssistantProfessor0,"Research15",ff57861
Department11-University0-AssistantProfessor1,"Research11",ff57862
Department11-University0-AssistantProfessor2,"Research3",ff57863
Department11-University0-AssistantProfessor3,"Research5",ff57864
Department11-University0-AssistantProfessor4,"Research16",ff57865
Department11-University0-AssistantProfessor5,"Research4",ff57866
Department11-University0-AssistantProfessor6,"Research29",ff57867
Department11-University0-AssistantProfessor7,"Research18",ff57868
Department11-University0-AssistantProfessor8,"Research23",ff57869
Department11-University0-AssistantProfessor9,"Research1",ff57870
Department11-University0-AssistantProfessor10,"Research8",ff57871
Department12-University0-FullProfessor0,"Research18",ff57872
Department12-University0-FullProfessor1,"Research22",ff57873
Department12-University0-FullProfessor2,"Research20",ff57874
Department12-University0-FullProfessor3,"Research24",ff57875
Department12-University0-FullProfessor4,"Research0",ff57876
Department12-University0-FullProfessor5,"Research23",ff57877
Department12-University0-FullProfessor6,"Research12",ff57878
Department12-University0-FullProfessor7,"Research11",ff57879
Department12-University0-FullProfessor8,"Research14",ff57880
Department12-University0-AssociateProfessor0,"Research20",ff57881
Department12-University0-AssociateProfessor1,"Research10",ff57882
Department12-University0-AssociateProfessor2,"Research9",ff57883
Department12-University0-AssociateProfessor3,"Research0",ff57884
Department12-University0-AssociateProfessor4,"Research7",ff57885
Department12-University0-AssociateProfessor5,"Research29",ff57886
Department12-University0-AssociateProfessor6,"Research25",ff57887
Department12-University0-AssociateProfessor7,"Research0",ff57888
Department12-University0-AssociateProfessor8,"Research28",ff57889
Department12-University0-AssociateProfessor9,"Research17",ff57890
Department12-University0-AssociateProfessor10,"Research13",ff57891
Department12-University0-AssistantProfessor0,"Research0",ff57892
Department12-University0-AssistantProfessor1,"Research9",ff57893
Department12-University0-AssistantProfessor2,"Research26",ff57894
Department12-University0-AssistantProfessor3,"Research21",ff57895
Department12-University0-AssistantProfessor4,"Research28",ff57896
Department12-University0-AssistantProfessor5,"Research21",ff57897
Department12-University0-AssistantProfessor6,"Research0",ff57898
Department12-University0-AssistantProfessor7,"Research22",ff57899
Department12-University0-AssistantProfessor8,"Research13",ff57900
Department12-University0-AssistantProfessor9,"Research10",ff57901
Department12-University0-AssistantProfessor10,"Research4",ff57902
Department13-University0-FullProfessor0,"Research28",ff57903
Department13-University0-FullProfessor1,"Research1",ff57904
Department13-University0-FullProfessor2,"Research2",ff57905
Department13-University0-FullProfessor3,"Research7",ff57906
Department13-University0-FullProfessor4,"Research16",ff57907
Department13-University0-FullProfessor5,"Research20",ff57908
Department13-University0-FullProfessor6,"Research23",ff57909
Department13-University0-FullProfessor7,"Research15",ff57910
Department13-University0-AssociateProfessor0,"Research11",ff57911
Department13-University0-AssociateProfessor1,"Research6",ff57912
Department13-University0-AssociateProfessor2,"Research3",ff57913
Department13-University0-AssociateProfessor3,"Research20",ff57914
Department13-University0-AssociateProfessor4,"Research12",ff57915
Department13-University0-AssociateProfessor5,"Research16",ff57916
Department13-University0-AssociateProfessor6,"Research21",ff57917
Department13-University0-AssociateProfessor7,"Research19",ff57918
Department13-University0-AssociateProfessor8,"Research24",ff57919
Department13-University0-AssociateProfessor9,"Research12",ff57920
Department13-University0-AssociateProfessor10,"Research3",ff57921
Department13-University0-AssociateProfessor11,"Research2",ff57922
Department13-University0-AssociateProfessor12,"Research12",ff57923
Department13-University0-AssociateProfessor13,"Research1",ff57924
Department13-University0-AssistantProfessor0,"Research16",ff57925
Department13-University0-AssistantProfessor1,"Research15",ff57926
Department13-University0-AssistantProfessor2,"Research10",ff57927
Department13-University0-AssistantProfessor3,"Research20",ff57928
Department13-University0-AssistantProfessor4,"Research7",ff57929
Department13-University0-AssistantProfessor5,"Research12",ff57930
Department13-University0-AssistantProfessor6,"Research29",ff57931
Department13-University0-AssistantProfessor7,"Research19",ff57932
Department13-University0-AssistantProfessor8,"Research17",ff57933
Department13-University0-AssistantProfessor9,"Research21",ff57934
Department13-University0-AssistantProfessor10,"Research1",ff57935
Department14-University0-FullProfessor0,"Research29",ff57936
Department14-University0-FullProfessor1,"Research11",ff57937
Department14-University0-FullProfessor2,"Research26",ff57938
Department14-University0-FullProfessor3,"Research14",ff57939
Department14-University0-FullProfessor4,"Research25",ff57940
Department14-University0-FullProfessor5,"Research10",ff57941
Department14-University0-FullProfessor6,"Research1",ff57942
Department14-University0-AssociateProfessor0,"Research7",ff57943
Department14-University0-AssociateProfessor1,"Research3",ff57944
Department14-University0-AssociateProfessor2,"Research6",ff57945
Department14-University0-AssociateProfessor3,"Research6",ff57946
Department14-University0-AssociateProfessor4,"Research5",ff57947
Department14-University0-AssociateProfessor5,"Research16",ff57948
Department14-University0-AssociateProfessor6,"Research9",ff57949
Department14-University0-AssociateProfessor7,"Research26",ff57950
Department14-University0-AssociateProfessor8,"Research1",ff57951
Department14-University0-AssociateProfessor9,"Research0",ff57952
Department14-University0-AssociateProfessor10,"Research19",ff57953
Department14-University0-AssociateProfessor11,"Research23",ff57954
Department14-University0-AssistantProfessor0,"Research10",ff57955
Department14-University0-AssistantProfessor1,"Research20",ff57956
Department14-University0-AssistantProfessor2,"Research13",ff57957
Department14-University0-AssistantProfessor3,"Research25",ff57958
Department14-University0-AssistantProfessor4,"Research15",ff57959
Department14-University0-AssistantProfessor5,"Research19",ff57960
Department14-University0-AssistantProfessor6,"Research5",ff57961
Department14-University0-AssistantProfessor7,"Research11",ff57962
Department2-University0-FullProfessor0,"Research23",ff57963
Department2-University0-FullProfessor1,"Research10",ff57964
Department2-University0-FullProfessor2,"Research11",ff57965
Department2-University0-FullProfessor3,"Research6",ff57966
Department2-University0-FullProfessor4,"Research28",ff57967
Department2-University0-FullProfessor5,"Research26",ff57968
Department2-University0-FullProfessor6,"Research25",ff57969
Department2-University0-AssociateProfessor0,"Research18",ff57970
Department2-University0-AssociateProfessor1,"Research26",ff57971
Department2-University0-AssociateProfessor2,"Research12",ff57972
Department2-University0-AssociateProfessor3,"Research22",ff57973
Department2-University0-AssociateProfessor4,"Research27",ff57974
Department2-University0-AssociateProfessor5,"Research19",ff57975
Department2-University0-AssociateProfessor6,"Research13",ff57976
Department2-University0-AssociateProfessor7,"Research8",ff57977
Department2-University0-AssociateProfessor8,"Research6",ff57978
Department2-University0-AssociateProfessor9,"Research9",ff57979
Department2-University0-AssociateProfessor10,"Research3",ff57980
Department2-University0-AssociateProfessor11,"Research0",ff57981
Department2-University0-AssistantProfessor0,"Research11",ff57982
Department2-University0-AssistantProfessor1,"Research22",ff57983
Department2-University0-AssistantProfessor2,"Research23",ff57984
Department2-University0-AssistantProfessor3,"Research26",ff57985
Department2-University0-AssistantProfessor4,"Research14",ff57986
Department2-University0-AssistantProfessor5,"Research14",ff57987
Department2-University0-AssistantProfessor6,"Research1",ff57988
Department2-University0-AssistantProfessor7,"Research18",ff57989
Department3-University0-FullProfessor0,"Research25",ff57990
Department3-University0-FullProfessor1,"Research11",ff57991
Department3-University0-FullProfessor2,"Research24",ff57992
Department3-University0-FullProfessor3,"Research4",ff57993
Department3-University0-FullProfessor4,"Research29",ff57994
Department3-University0-FullProfessor5,"Research21",ff57995
Department3-University0-FullProfessor6,"Research12",ff57996
Department3-University0-FullProfessor7,"Research18",ff57997
Department3-University0-FullProfessor8,"Research27",ff57998
Department3-University0-AssociateProfessor0,"Research22",ff57999
Department3-University0-AssociateProfessor1,"Research22",ff58000
Department3-University0-AssociateProfessor2,"Research25",ff58001
Department3-University0-AssociateProfessor3,"Research7",ff58002
Department3-University0-AssociateProfessor4,"Research5",ff58003
Department3-University0-AssociateProfessor5,"Research0",ff58004
Department3-University0-AssociateProfessor6,"Research26",ff58005
Department3-University0-AssociateProfessor7,"Research10",ff58006
Department3-University0-AssociateProfessor8,"Research27",ff58007
Department3-University0-AssociateProfessor9,"Research17",ff58008
Department3-University0-AssociateProfessor10,"Research5",ff58009
Department3-University0-AssociateProfessor11,"Research15",ff58010
Department3-University0-AssistantProfessor0,"Research22",ff58011
Department3-University0-AssistantProfessor1,"Research26",ff58012
Department3-University0-AssistantProfessor2,"Research12",ff58013
Department3-University0-AssistantProfessor3,"Research11",ff58014
Department3-University0-AssistantProfessor4,"Research8",ff58015
Department3-University0-AssistantProfessor5,"Research19",ff58016
Department3-University0-AssistantProfessor6,"Research27",ff58017
Department3-University0-AssistantProfessor7,"Research7",ff58018
Department3-University0-AssistantProfessor8,"Research21",ff58019
Department3-University0-AssistantProfessor9,"Research21",ff58020
Department4-University0-FullProfessor0,"Research24",ff58021
Department4-University0-FullProfessor1,"Research13",ff58022
Department4-University0-FullProfessor2,"Research1",ff58023
Department4-University0-FullProfessor3,"Research26",ff58024
Department4-University0-FullProfessor4,"Research0",ff58025
Department4-University0-FullProfessor5,"Research10",ff58026
Department4-University0-FullProfessor6,"Research6",ff58027
Department4-University0-AssociateProfessor0,"Research13",ff58028
Department4-University0-AssociateProfessor1,"Research4",ff58029
Department4-University0-AssociateProfessor2,"Research27",ff58030
Department4-University0-AssociateProfessor3,"Research8",ff58031
Department4-University0-AssociateProfessor4,"Research6",ff58032
Department4-University0-AssociateProfessor5,"Research9",ff58033
Department4-University0-AssociateProfessor6,"Research8",ff58034
Department4-University0-AssociateProfessor7,"Research18",ff58035
Department4-University0-AssociateProfessor8,"Research17",ff58036
Department4-University0-AssociateProfessor9,"Research14",ff58037
Department4-University0-AssistantProfessor0,"Research1",ff58038
Department4-University0-AssistantProfessor1,"Research0",ff58039
Department4-University0-AssistantProfessor2,"Research12",ff58040
Department4-University0-AssistantProfessor3,"Research3",ff58041
Department4-University0-AssistantProfessor4,"Research17",ff58042
Department4-University0-AssistantProfessor5,"Research8",ff58043
Department4-University0-AssistantProfessor6,"Research29",ff58044
Department4-University0-AssistantProfessor7,"Research7",ff58045
Department4-University0-AssistantProfessor8,"Research1",ff58046
Department4-University0-AssistantProfessor9,"Research7",ff58047
Department5-University0-FullProfessor0,"Research23",ff58048
Department5-University0-FullProfessor1,"Research16",ff58049
Department5-University0-FullProfessor2,"Research8",ff58050
Department5-University0-FullProfessor3,"Research22",ff58051
Department5-University0-FullProfessor4,"Research29",ff58052
Department5-University0-FullProfessor5,"Research18",ff58053
Department5-University0-FullProfessor6,"Research22",ff58054
Department5-University0-FullProfessor7,"Research1",ff58055
Department5-University0-FullProfessor8,"Research25",ff58056
Department5-University0-FullProfessor9,"Research13",ff58057
Department5-University0-AssociateProfessor0,"Research28",ff58058
Department5-University0-AssociateProfessor1,"Research9",ff58059
Department5-University0-AssociateProfessor2,"Research27",ff58060
Department5-University0-AssociateProfessor3,"Research7",ff58061
Department5-University0-AssociateProfessor4,"Research20",ff58062
Department5-University0-AssociateProfessor5,"Research21",ff58063
Department5-University0-AssociateProfessor6,"Research15",ff58064
Department5-University0-AssociateProfessor7,"Research10",ff58065
Department5-University0-AssociateProfessor8,"Research10",ff58066
Department5-University0-AssociateProfessor9,"Research0",ff58067
Department5-University0-AssociateProfessor10,"Research18",ff58068
Department5-University0-AssistantProfessor0,"Research6",ff58069
Department5-University0-AssistantProfessor1,"Research4",ff58070
Department5-University0-AssistantProfessor2,"Research17",ff58071
Department5-University0-AssistantProfessor3,"Research29",ff58072
Department5-University0-AssistantProfessor4,"Research19",ff58073
Department5-University0-AssistantProfessor5,"Research18",ff58074
Department5-University0-AssistantProfessor6,"Research1",ff58075
Department5-University0-AssistantProfessor7,"Research27",ff58076
Department6-University0-FullProfessor0,"Research15",ff58077
Department6-University0-FullProfessor1,"Research28",ff58078
Department6-University0-FullProfessor2,"Research9",ff58079
Department6-University0-FullProfessor3,"Research29",ff58080
Department6-University0-FullProfessor4,"Research16",ff58081
Department6-University0-FullProfessor5,"Research1",ff58082
Department6-University0-FullProfessor6,"Research23",ff58083
Department6-University0-FullProfessor7,"Research9",ff58084
Department6-University0-FullProfessor8,"Research19",ff58085
Department6-University0-FullProfessor9,"Research22",ff58086
Department6-University0-AssociateProfessor0,"Research8",ff58087
Department6-University0-AssociateProfessor1,"Research26",ff58088
Department6-University0-AssociateProfessor2,"Research3",ff58089
Department6-University0-AssociateProfessor3,"Research4",ff58090
Department6-University0-AssociateProfessor4,"Research27",ff58091
Department6-University0-AssociateProfessor5,"Research10",ff58092
Department6-University0-AssociateProfessor6,"Research2",ff58093
Department6-University0-AssociateProfessor7,"Research19",ff58094
Department6-University0-AssociateProfessor8,"Research18",ff58095
Department6-University0-AssociateProfessor9,"Research27",ff58096
Department6-University0-AssistantProfessor0,"Research13",ff58097
Department6-University0-AssistantProfessor1,"Research14",ff58098
Department6-University0-AssistantProfessor2,"Research25",ff58099
Department6-University0-AssistantProfessor3,"Research16",ff58100
Department6-University0-AssistantProfessor4,"Research24",ff58101
Department6-University0-AssistantProfessor5,"Research27",ff58102
Department6-University0-AssistantProfessor6,"Research29",ff58103
Department6-University0-AssistantProfessor7,"Research16",ff58104
Department7-University0-FullProfessor0,"Research21",ff58105
Department7-University0-FullProfessor1,"Research13",ff58106
Department7-University0-FullProfessor2,"Research19",ff58107
Department7-University0-FullProfessor3,"Research28",ff58108
Department7-University0-FullProfessor4,"Research13",ff58109
Department7-University0-FullProfessor5,"Research2",ff58110
Department7-University0-FullProfessor6,"Research6",ff58111
Department7-University0-AssociateProfessor0,"Research11",ff58112
Department7-University0-AssociateProfessor1,"Research20",ff58113
Department7-University0-AssociateProfessor2,"Research16",ff58114
Department7-University0-AssociateProfessor3,"Research9",ff58115
Department7-University0-AssociateProfessor4,"Research9",ff58116
Department7-University0-AssociateProfessor5,"Research18",ff58117
Department7-University0-AssociateProfessor6,"Research3",ff58118
Department7-University0-AssociateProfessor7,"Research11",ff58119
Department7-University0-AssociateProfessor8,"Research13",ff58120
Department7-University0-AssociateProfessor9,"Research20",ff58121
Department7-University0-AssociateProfessor10,"Research15",ff58122
Department7-University0-AssociateProfessor11,"Research8",ff58123
Department7-University0-AssociateProfessor12,"Research21",ff58124
Department7-University0-AssociateProfessor13,"Research13",ff58125
Department7-University0-AssistantProfessor0,"Research25",ff58126
Department7-University0-AssistantProfessor1,"Research10",ff58127
Department7-University0-AssistantProfessor2,"Research17",ff58128
Department7-University0-AssistantProfessor3,"Research18",ff58129
Department7-University0-AssistantProfessor4,"Research22",ff58130
Department7-University0-AssistantProfessor5,"Research13",ff58131
Department7-University0-AssistantProfessor6,"Research29",ff58132
Department7-University0-AssistantProfessor7,"Research19",ff58133
Department7-University0-AssistantProfessor8,"Research19",ff58134
Department7-University0-AssistantProfessor9,"Research6",ff58135
Department8-University0-FullProfessor0,"Research23",ff58136
Department8-University0-FullProfessor1,"Research0",ff58137
Department8-University0-FullProfessor2,"Research25",ff58138
Department8-University0-FullProfessor3,"Research1",ff58139
Department8-University0-FullProfessor4,"Research24",ff58140
Department8-University0-FullProfessor5,"Research14",ff58141
Department8-University0-FullProfessor6,"Research2",ff58142
Department8-University0-FullProfessor7,"Research29",ff58143
Department8-University0-FullProfessor8,"Research8",ff58144
Department8-University0-AssociateProfessor0,"Research16",ff58145
Department8-University0-AssociateProfessor1,"Research25",ff58146
Department8-University0-AssociateProfessor2,"Research28",ff58147
Department8-University0-AssociateProfessor3,"Research3",ff58148
Department8-University0-AssociateProfessor4,"Research16",ff58149
Department8-University0-AssociateProfessor5,"Research25",ff58150
Department8-University0-AssociateProfessor6,"Research25",ff58151
Department8-University0-AssociateProfessor7,"Research13",ff58152
Department8-University0-AssociateProfessor8,"Research7",ff58153
Department8-University0-AssociateProfessor9,"Research15",ff58154
Department8-University0-AssociateProfessor10,"Research9",ff58155
Department8-University0-AssistantProfessor0,"Research2",ff58156
Department8-University0-AssistantProfessor1,"Research8",ff58157
Department8-University0-AssistantProfessor2,"Research25",ff58158
Department8-University0-AssistantProfessor3,"Research6",ff58159
Department8-University0-AssistantProfessor4,"Research25",ff58160
Department8-University0-AssistantProfessor5,"Research21",ff58161
Department8-University0-AssistantProfessor6,"Research8",ff58162
Department8-University0-AssistantProfessor7,"Research25",ff58163
Department8-University0-AssistantProfessor8,"Research12",ff58164
Department8-University0-AssistantProfessor9,"Research14",ff58165
Department8-University0-AssistantProfessor10,"Research8",ff58166
Department9-University0-FullProfessor0,"Research23",ff58167
Department9-University0-FullProfessor1,"Research1",ff58168
Department9-University0-FullProfessor2,"Research6",ff58169
Department9-University0-FullProfessor3,"Research6",ff58170
Department9-University0-FullProfessor4,"Research6",ff58171
Department9-University0-FullProfessor5,"Research5",ff58172
Department9-University0-FullProfessor6,"Research25",ff58173
Department9-University0-AssociateProfessor0,"Research24",ff58174
Department9-University0-AssociateProfessor1,"Research10",ff58175
Department9-University0-AssociateProfessor2,"Research12",ff58176
Department9-University0-AssociateProfessor3,"Research25",ff58177
Department9-University0-AssociateProfessor4,"Research23",ff58178
Department9-University0-AssociateProfessor5,"Research29",ff58179
Department9-University0-AssociateProfessor6,"Research2",ff58180
Department9-University0-AssociateProfessor7,"Research20",ff58181
Department9-University0-AssociateProfessor8,"Research24",ff58182
Department9-University0-AssociateProfessor9,"Research4",ff58183
Department9-University0-AssistantProfessor0,"Research4",ff58184
Department9-University0-AssistantProfessor1,"Research6",ff58185
Department9-University0-AssistantProfessor2,"Research18",ff58186
Department9-University0-AssistantProfessor3,"Research10",ff58187
Department9-University0-AssistantProfessor4,"Research23",ff58188
Department9-University0-AssistantProfessor5,"Research7",ff58189
Department9-University0-AssistantProfessor6,"Research29",ff58190
Department9-University0-AssistantProfessor7,"Research16",ff58191
Department9-University0-AssistantProfessor8,"Research24",ff58192
Department9-University0-AssistantProfessor9,"Research11",ff58193
Department9-University0-AssistantProfessor10,"Research0",ff58194
