Department0-University0,ff4251
Department1-University0,ff4252
Department10-University0,ff4253
Department11-University0,ff4254
Department12-University0,ff4255
Department13-University0,ff4256
Department14-University0,ff4257
Department2-University0,ff4258
Department3-University0,ff4259
Department4-University0,ff4260
Department5-University0,ff4261
Department6-University0,ff4262
Department7-University0,ff4263
Department8-University0,ff4264
Department9-University0,ff4265
