Department0-University0-GraduateStudent0,ff56977
Department0-University0-GraduateStudent3,ff56978
Department0-University0-GraduateStudent6,ff56979
Department0-University0-GraduateStudent8,ff56980
Department0-University0-GraduateStudent10,ff56981
Department0-University0-GraduateStudent11,ff56982
Department0-University0-GraduateStudent12,ff56983
Department0-University0-GraduateStudent21,ff56984
Department0-University0-GraduateStudent25,ff56985
Department0-University0-GraduateStudent29,ff56986
Department0-University0-GraduateStudent35,ff56987
Department0-University0-GraduateStudent38,ff56988
Department0-University0-GraduateStudent39,ff56989
Department0-University0-GraduateStudent42,ff56990
Department0-University0-GraduateStudent55,ff56991
Department0-University0-GraduateStudent56,ff56992
Department0-University0-GraduateStudent62,ff56993
Department0-University0-GraduateStudent64,ff56994
Department0-University0-GraduateStudent68,ff56995
Department0-University0-GraduateStudent70,ff56996
Department0-University0-GraduateStudent73,ff56997
Department0-University0-GraduateStudent75,ff56998
Department0-University0-GraduateStudent80,ff56999
Department0-University0-GraduateStudent85,ff57000
Department0-University0-GraduateStudent88,ff57001
Department0-University0-GraduateStudent91,ff57002
Department0-University0-GraduateStudent92,ff57003
Department0-University0-GraduateStudent98,ff57004
Department0-University0-GraduateStudent104,ff57005
Department0-University0-GraduateStudent105,ff57006
Department0-University0-GraduateStudent112,ff57007
Department0-University0-GraduateStudent117,ff57008
Department0-University0-GraduateStudent121,ff57009
Department0-University0-GraduateStudent122,ff57010
Department0-University0-GraduateStudent128,ff57011
Department0-University0-GraduateStudent131,ff57012
Department0-University0-GraduateStudent132,ff57013
Department0-University0-GraduateStudent135,ff57014
Department0-University0-GraduateStudent137,ff57015
Department1-University0-GraduateStudent1,ff57016
Department1-University0-GraduateStudent2,ff57017
Department1-University0-GraduateStudent11,ff57018
Department1-University0-GraduateStudent14,ff57019
Department1-University0-GraduateStudent18,ff57020
Department1-University0-GraduateStudent19,ff57021
Department1-University0-GraduateStudent21,ff57022
Department1-University0-GraduateStudent25,ff57023
Department1-University0-GraduateStudent29,ff57024
Department1-University0-GraduateStudent32,ff57025
Department1-University0-GraduateStudent33,ff57026
Department1-University0-GraduateStudent37,ff57027
Department1-University0-GraduateStudent38,ff57028
Department1-University0-GraduateStudent41,ff57029
Department1-University0-GraduateStudent42,ff57030
Department1-University0-GraduateStudent46,ff57031
Department1-University0-GraduateStudent51,ff57032
Department1-University0-GraduateStudent52,ff57033
Department1-University0-GraduateStudent53,ff57034
Department1-University0-GraduateStudent56,ff57035
Department1-University0-GraduateStudent60,ff57036
Department1-University0-GraduateStudent62,ff57037
Department1-University0-GraduateStudent63,ff57038
Department1-University0-GraduateStudent67,ff57039
Department1-University0-GraduateStudent71,ff57040
Department1-University0-GraduateStudent80,ff57041
Department1-University0-GraduateStudent81,ff57042
Department1-University0-GraduateStudent83,ff57043
Department1-University0-GraduateStudent88,ff57044
Department1-University0-GraduateStudent90,ff57045
Department1-University0-GraduateStudent96,ff57046
Department1-University0-GraduateStudent99,ff57047
Department1-University0-GraduateStudent101,ff57048
Department1-University0-GraduateStudent102,ff57049
Department1-University0-GraduateStudent103,ff57050
Department10-University0-GraduateStudent1,ff57051
Department10-University0-GraduateStudent3,ff57052
Department10-University0-GraduateStudent4,ff57053
Department10-University0-GraduateStudent5,ff57054
Department10-University0-GraduateStudent17,ff57055
Department10-University0-GraduateStudent19,ff57056
Department10-University0-GraduateStudent25,ff57057
Department10-University0-GraduateStudent29,ff57058
Department10-University0-GraduateStudent33,ff57059
Department10-University0-GraduateStudent34,ff57060
Department10-University0-GraduateStudent39,ff57061
Department10-University0-GraduateStudent41,ff57062
Department10-University0-GraduateStudent42,ff57063
Department10-University0-GraduateStudent44,ff57064
Department10-University0-GraduateStudent47,ff57065
Department10-University0-GraduateStudent48,ff57066
Department10-University0-GraduateStudent49,ff57067
Department10-University0-GraduateStudent54,ff57068
Department10-University0-GraduateStudent55,ff57069
Department10-University0-GraduateStudent61,ff57070
Department10-University0-GraduateStudent66,ff57071
Department10-University0-GraduateStudent73,ff57072
Department10-University0-GraduateStudent76,ff57073
Department10-University0-GraduateStudent77,ff57074
Department10-University0-GraduateStudent78,ff57075
Department10-University0-GraduateStudent81,ff57076
Department10-University0-GraduateStudent90,ff57077
Department10-University0-GraduateStudent92,ff57078
Department10-University0-GraduateStudent93,ff57079
Department10-University0-GraduateStudent100,ff57080
Department10-University0-GraduateStudent101,ff57081
Department10-University0-GraduateStudent105,ff57082
Department10-University0-GraduateStudent106,ff57083
Department10-University0-GraduateStudent108,ff57084
Department10-University0-GraduateStudent109,ff57085
Department10-University0-GraduateStudent110,ff57086
Department10-University0-GraduateStudent112,ff57087
Department10-University0-GraduateStudent114,ff57088
Department10-University0-GraduateStudent115,ff57089
Department10-University0-GraduateStudent116,ff57090
Department10-University0-GraduateStudent123,ff57091
Department10-University0-GraduateStudent124,ff57092
Department10-University0-GraduateStudent125,ff57093
Department10-University0-GraduateStudent127,ff57094
Department10-University0-GraduateStudent134,ff57095
Department10-University0-GraduateStudent136,ff57096
Department11-University0-GraduateStudent11,ff57097
Department11-University0-GraduateStudent12,ff57098
Department11-University0-GraduateStudent14,ff57099
Department11-University0-GraduateStudent17,ff57100
Department11-University0-GraduateStudent18,ff57101
Department11-University0-GraduateStudent19,ff57102
Department11-University0-GraduateStudent21,ff57103
Department11-University0-GraduateStudent26,ff57104
Department11-University0-GraduateStudent29,ff57105
Department11-University0-GraduateStudent31,ff57106
Department11-University0-GraduateStudent33,ff57107
Department11-University0-GraduateStudent34,ff57108
Department11-University0-GraduateStudent35,ff57109
Department11-University0-GraduateStudent37,ff57110
Department11-University0-GraduateStudent39,ff57111
Department11-University0-GraduateStudent41,ff57112
Department11-University0-GraduateStudent48,ff57113
Department11-University0-GraduateStudent51,ff57114
Department11-University0-GraduateStudent52,ff57115
Department11-University0-GraduateStudent56,ff57116
Department11-University0-GraduateStudent60,ff57117
Department11-University0-GraduateStudent63,ff57118
Department11-University0-GraduateStudent66,ff57119
Department11-University0-GraduateStudent71,ff57120
Department11-University0-GraduateStudent72,ff57121
Department11-University0-GraduateStudent81,ff57122
Department11-University0-GraduateStudent82,ff57123
Department11-University0-GraduateStudent86,ff57124
Department11-University0-GraduateStudent90,ff57125
Department11-University0-GraduateStudent93,ff57126
Department11-University0-GraduateStudent95,ff57127
Department11-University0-GraduateStudent96,ff57128
Department11-University0-GraduateStudent101,ff57129
Department11-University0-GraduateStudent105,ff57130
Department11-University0-GraduateStudent111,ff57131
Department11-University0-GraduateStudent123,ff57132
Department11-University0-GraduateStudent125,ff57133
Department11-University0-GraduateStudent128,ff57134
Department11-University0-GraduateStudent129,ff57135
Department11-University0-GraduateStudent134,ff57136
Department11-University0-GraduateStudent138,ff57137
Department11-University0-GraduateStudent139,ff57138
Department11-University0-GraduateStudent142,ff57139
Department11-University0-GraduateStudent146,ff57140
Department11-University0-GraduateStudent147,ff57141
Department12-University0-GraduateStudent2,ff57142
Department12-University0-GraduateStudent4,ff57143
Department12-University0-GraduateStudent6,ff57144
Department12-University0-GraduateStudent9,ff57145
Department12-University0-GraduateStudent11,ff57146
Department12-University0-GraduateStudent14,ff57147
Department12-University0-GraduateStudent16,ff57148
Department12-University0-GraduateStudent17,ff57149
Department12-University0-GraduateStudent26,ff57150
Department12-University0-GraduateStudent27,ff57151
Department12-University0-GraduateStudent29,ff57152
Department12-University0-GraduateStudent30,ff57153
Department12-University0-GraduateStudent31,ff57154
Department12-University0-GraduateStudent33,ff57155
Department12-University0-GraduateStudent34,ff57156
Department12-University0-GraduateStudent41,ff57157
Department12-University0-GraduateStudent47,ff57158
Department12-University0-GraduateStudent48,ff57159
Department12-University0-GraduateStudent53,ff57160
Department12-University0-GraduateStudent55,ff57161
Department12-University0-GraduateStudent56,ff57162
Department12-University0-GraduateStudent60,ff57163
Department12-University0-GraduateStudent64,ff57164
Department12-University0-GraduateStudent68,ff57165
Department12-University0-GraduateStudent70,ff57166
Department12-University0-GraduateStudent82,ff57167
Department12-University0-GraduateStudent84,ff57168
Department12-University0-GraduateStudent85,ff57169
Department12-University0-GraduateStudent88,ff57170
Department12-University0-GraduateStudent89,ff57171
Department12-University0-GraduateStudent103,ff57172
Department12-University0-GraduateStudent107,ff57173
Department12-University0-GraduateStudent111,ff57174
Department12-University0-GraduateStudent114,ff57175
Department13-University0-GraduateStudent0,ff57176
Department13-University0-GraduateStudent1,ff57177
Department13-University0-GraduateStudent9,ff57178
Department13-University0-GraduateStudent14,ff57179
Department13-University0-GraduateStudent15,ff57180
Department13-University0-GraduateStudent21,ff57181
Department13-University0-GraduateStudent32,ff57182
Department13-University0-GraduateStudent33,ff57183
Department13-University0-GraduateStudent39,ff57184
Department13-University0-GraduateStudent40,ff57185
Department13-University0-GraduateStudent44,ff57186
Department13-University0-GraduateStudent45,ff57187
Department13-University0-GraduateStudent47,ff57188
Department13-University0-GraduateStudent49,ff57189
Department13-University0-GraduateStudent57,ff57190
Department13-University0-GraduateStudent66,ff57191
Department13-University0-GraduateStudent70,ff57192
Department13-University0-GraduateStudent82,ff57193
Department13-University0-GraduateStudent85,ff57194
Department13-University0-GraduateStudent89,ff57195
Department13-University0-GraduateStudent92,ff57196
Department13-University0-GraduateStudent98,ff57197
Department13-University0-GraduateStudent102,ff57198
Department13-University0-GraduateStudent107,ff57199
Department13-University0-GraduateStudent108,ff57200
Department13-University0-GraduateStudent110,ff57201
Department13-University0-GraduateStudent119,ff57202
Department13-University0-GraduateStudent124,ff57203
Department13-University0-GraduateStudent125,ff57204
Department13-University0-GraduateStudent127,ff57205
Department13-University0-GraduateStudent130,ff57206
Department13-University0-GraduateStudent133,ff57207
Department13-University0-GraduateStudent138,ff57208
Department13-University0-GraduateStudent141,ff57209
Department13-University0-GraduateStudent142,ff57210
Department14-University0-GraduateStudent2,ff57211
Department14-University0-GraduateStudent4,ff57212
Department14-University0-GraduateStudent5,ff57213
Department14-University0-GraduateStudent8,ff57214
Department14-University0-GraduateStudent17,ff57215
Department14-University0-GraduateStudent18,ff57216
Department14-University0-GraduateStudent20,ff57217
Department14-University0-GraduateStudent23,ff57218
Department14-University0-GraduateStudent24,ff57219
Department14-University0-GraduateStudent26,ff57220
Department14-University0-GraduateStudent27,ff57221
Department14-University0-GraduateStudent30,ff57222
Department14-University0-GraduateStudent31,ff57223
Department14-University0-GraduateStudent37,ff57224
Department14-University0-GraduateStudent55,ff57225
Department14-University0-GraduateStudent56,ff57226
Department14-University0-GraduateStudent58,ff57227
Department14-University0-GraduateStudent64,ff57228
Department14-University0-GraduateStudent65,ff57229
Department14-University0-GraduateStudent68,ff57230
Department14-University0-GraduateStudent71,ff57231
Department14-University0-GraduateStudent72,ff57232
Department14-University0-GraduateStudent80,ff57233
Department14-University0-GraduateStudent91,ff57234
Department14-University0-GraduateStudent94,ff57235
Department14-University0-GraduateStudent96,ff57236
Department14-University0-GraduateStudent97,ff57237
Department14-University0-GraduateStudent104,ff57238
Department14-University0-GraduateStudent106,ff57239
Department14-University0-GraduateStudent108,ff57240
Department2-University0-GraduateStudent0,ff57241
Department2-University0-GraduateStudent3,ff57242
Department2-University0-GraduateStudent4,ff57243
Department2-University0-GraduateStudent7,ff57244
Department2-University0-GraduateStudent11,ff57245
Department2-University0-GraduateStudent12,ff57246
Department2-University0-GraduateStudent21,ff57247
Department2-University0-GraduateStudent33,ff57248
Department2-University0-GraduateStudent34,ff57249
Department2-University0-GraduateStudent35,ff57250
Department2-University0-GraduateStudent39,ff57251
Department2-University0-GraduateStudent41,ff57252
Department2-University0-GraduateStudent42,ff57253
Department2-University0-GraduateStudent50,ff57254
Department2-University0-GraduateStudent51,ff57255
Department2-University0-GraduateStudent53,ff57256
Department2-University0-GraduateStudent57,ff57257
Department2-University0-GraduateStudent60,ff57258
Department2-University0-GraduateStudent61,ff57259
Department2-University0-GraduateStudent62,ff57260
Department2-University0-GraduateStudent65,ff57261
Department2-University0-GraduateStudent68,ff57262
Department2-University0-GraduateStudent69,ff57263
Department2-University0-GraduateStudent70,ff57264
Department2-University0-GraduateStudent76,ff57265
Department2-University0-GraduateStudent78,ff57266
Department2-University0-GraduateStudent80,ff57267
Department2-University0-GraduateStudent81,ff57268
Department2-University0-GraduateStudent90,ff57269
Department2-University0-GraduateStudent96,ff57270
Department2-University0-GraduateStudent98,ff57271
Department2-University0-GraduateStudent101,ff57272
Department2-University0-GraduateStudent102,ff57273
Department2-University0-GraduateStudent104,ff57274
Department3-University0-GraduateStudent1,ff57275
Department3-University0-GraduateStudent10,ff57276
Department3-University0-GraduateStudent14,ff57277
Department3-University0-GraduateStudent19,ff57278
Department3-University0-GraduateStudent23,ff57279
Department3-University0-GraduateStudent33,ff57280
Department3-University0-GraduateStudent34,ff57281
Department3-University0-GraduateStudent37,ff57282
Department3-University0-GraduateStudent39,ff57283
Department3-University0-GraduateStudent43,ff57284
Department3-University0-GraduateStudent44,ff57285
Department3-University0-GraduateStudent47,ff57286
Department3-University0-GraduateStudent50,ff57287
Department3-University0-GraduateStudent55,ff57288
Department3-University0-GraduateStudent57,ff57289
Department3-University0-GraduateStudent58,ff57290
Department3-University0-GraduateStudent62,ff57291
Department3-University0-GraduateStudent64,ff57292
Department3-University0-GraduateStudent71,ff57293
Department3-University0-GraduateStudent73,ff57294
Department3-University0-GraduateStudent74,ff57295
Department3-University0-GraduateStudent79,ff57296
Department3-University0-GraduateStudent81,ff57297
Department3-University0-GraduateStudent87,ff57298
Department3-University0-GraduateStudent94,ff57299
Department3-University0-GraduateStudent95,ff57300
Department3-University0-GraduateStudent98,ff57301
Department3-University0-GraduateStudent100,ff57302
Department3-University0-GraduateStudent103,ff57303
Department3-University0-GraduateStudent105,ff57304
Department3-University0-GraduateStudent106,ff57305
Department3-University0-GraduateStudent107,ff57306
Department3-University0-GraduateStudent109,ff57307
Department3-University0-GraduateStudent112,ff57308
Department3-University0-GraduateStudent114,ff57309
Department3-University0-GraduateStudent117,ff57310
Department3-University0-GraduateStudent118,ff57311
Department4-University0-GraduateStudent0,ff57312
Department4-University0-GraduateStudent6,ff57313
Department4-University0-GraduateStudent11,ff57314
Department4-University0-GraduateStudent14,ff57315
Department4-University0-GraduateStudent16,ff57316
Department4-University0-GraduateStudent18,ff57317
Department4-University0-GraduateStudent26,ff57318
Department4-University0-GraduateStudent29,ff57319
Department4-University0-GraduateStudent34,ff57320
Department4-University0-GraduateStudent47,ff57321
Department4-University0-GraduateStudent49,ff57322
Department4-University0-GraduateStudent50,ff57323
Department4-University0-GraduateStudent53,ff57324
Department4-University0-GraduateStudent54,ff57325
Department4-University0-GraduateStudent58,ff57326
Department4-University0-GraduateStudent59,ff57327
Department4-University0-GraduateStudent60,ff57328
Department4-University0-GraduateStudent64,ff57329
Department4-University0-GraduateStudent67,ff57330
Department4-University0-GraduateStudent68,ff57331
Department4-University0-GraduateStudent72,ff57332
Department4-University0-GraduateStudent73,ff57333
Department4-University0-GraduateStudent75,ff57334
Department4-University0-GraduateStudent79,ff57335
Department4-University0-GraduateStudent82,ff57336
Department4-University0-GraduateStudent85,ff57337
Department4-University0-GraduateStudent88,ff57338
Department4-University0-GraduateStudent90,ff57339
Department4-University0-GraduateStudent91,ff57340
Department4-University0-GraduateStudent93,ff57341
Department4-University0-GraduateStudent94,ff57342
Department4-University0-GraduateStudent99,ff57343
Department4-University0-GraduateStudent102,ff57344
Department4-University0-GraduateStudent106,ff57345
Department4-University0-GraduateStudent109,ff57346
Department4-University0-GraduateStudent113,ff57347
Department4-University0-GraduateStudent116,ff57348
Department4-University0-GraduateStudent117,ff57349
Department4-University0-GraduateStudent118,ff57350
Department4-University0-GraduateStudent124,ff57351
Department4-University0-GraduateStudent125,ff57352
Department4-University0-GraduateStudent129,ff57353
Department4-University0-GraduateStudent130,ff57354
Department4-University0-GraduateStudent132,ff57355
Department5-University0-GraduateStudent8,ff57356
Department5-University0-GraduateStudent14,ff57357
Department5-University0-GraduateStudent18,ff57358
Department5-University0-GraduateStudent20,ff57359
Department5-University0-GraduateStudent24,ff57360
Department5-University0-GraduateStudent29,ff57361
Department5-University0-GraduateStudent30,ff57362
Department5-University0-GraduateStudent33,ff57363
Department5-University0-GraduateStudent43,ff57364
Department5-University0-GraduateStudent46,ff57365
Department5-University0-GraduateStudent52,ff57366
Department5-University0-GraduateStudent54,ff57367
Department5-University0-GraduateStudent55,ff57368
Department5-University0-GraduateStudent57,ff57369
Department5-University0-GraduateStudent60,ff57370
Department5-University0-GraduateStudent61,ff57371
Department5-University0-GraduateStudent63,ff57372
Department5-University0-GraduateStudent68,ff57373
Department5-University0-GraduateStudent72,ff57374
Department5-University0-GraduateStudent74,ff57375
Department5-University0-GraduateStudent77,ff57376
Department5-University0-GraduateStudent79,ff57377
Department5-University0-GraduateStudent82,ff57378
Department5-University0-GraduateStudent84,ff57379
Department5-University0-GraduateStudent86,ff57380
Department5-University0-GraduateStudent92,ff57381
Department5-University0-GraduateStudent98,ff57382
Department5-University0-GraduateStudent101,ff57383
Department5-University0-GraduateStudent103,ff57384
Department5-University0-GraduateStudent105,ff57385
Department5-University0-GraduateStudent106,ff57386
Department6-University0-GraduateStudent0,ff57387
Department6-University0-GraduateStudent2,ff57388
Department6-University0-GraduateStudent3,ff57389
Department6-University0-GraduateStudent4,ff57390
Department6-University0-GraduateStudent8,ff57391
Department6-University0-GraduateStudent9,ff57392
Department6-University0-GraduateStudent12,ff57393
Department6-University0-GraduateStudent19,ff57394
Department6-University0-GraduateStudent22,ff57395
Department6-University0-GraduateStudent31,ff57396
Department6-University0-GraduateStudent35,ff57397
Department6-University0-GraduateStudent38,ff57398
Department6-University0-GraduateStudent45,ff57399
Department6-University0-GraduateStudent49,ff57400
Department6-University0-GraduateStudent52,ff57401
Department6-University0-GraduateStudent53,ff57402
Department6-University0-GraduateStudent56,ff57403
Department6-University0-GraduateStudent63,ff57404
Department6-University0-GraduateStudent71,ff57405
Department6-University0-GraduateStudent73,ff57406
Department6-University0-GraduateStudent87,ff57407
Department6-University0-GraduateStudent91,ff57408
Department6-University0-GraduateStudent101,ff57409
Department6-University0-GraduateStudent102,ff57410
Department6-University0-GraduateStudent103,ff57411
Department6-University0-GraduateStudent105,ff57412
Department7-University0-GraduateStudent7,ff57413
Department7-University0-GraduateStudent8,ff57414
Department7-University0-GraduateStudent9,ff57415
Department7-University0-GraduateStudent17,ff57416
Department7-University0-GraduateStudent21,ff57417
Department7-University0-GraduateStudent23,ff57418
Department7-University0-GraduateStudent25,ff57419
Department7-University0-GraduateStudent27,ff57420
Department7-University0-GraduateStudent31,ff57421
Department7-University0-GraduateStudent32,ff57422
Department7-University0-GraduateStudent36,ff57423
Department7-University0-GraduateStudent39,ff57424
Department7-University0-GraduateStudent41,ff57425
Department7-University0-GraduateStudent42,ff57426
Department7-University0-GraduateStudent48,ff57427
Department7-University0-GraduateStudent50,ff57428
Department7-University0-GraduateStudent53,ff57429
Department7-University0-GraduateStudent56,ff57430
Department7-University0-GraduateStudent60,ff57431
Department7-University0-GraduateStudent61,ff57432
Department7-University0-GraduateStudent63,ff57433
Department7-University0-GraduateStudent66,ff57434
Department7-University0-GraduateStudent69,ff57435
Department7-University0-GraduateStudent70,ff57436
Department7-University0-GraduateStudent71,ff57437
Department7-University0-GraduateStudent76,ff57438
Department7-University0-GraduateStudent91,ff57439
Department7-University0-GraduateStudent104,ff57440
Department7-University0-GraduateStudent109,ff57441
Department7-University0-GraduateStudent111,ff57442
Department7-University0-GraduateStudent114,ff57443
Department7-University0-GraduateStudent121,ff57444
Department8-University0-GraduateStudent2,ff57445
Department8-University0-GraduateStudent3,ff57446
Department8-University0-GraduateStudent5,ff57447
Department8-University0-GraduateStudent10,ff57448
Department8-University0-GraduateStudent11,ff57449
Department8-University0-GraduateStudent15,ff57450
Department8-University0-GraduateStudent19,ff57451
Department8-University0-GraduateStudent22,ff57452
Department8-University0-GraduateStudent24,ff57453
Department8-University0-GraduateStudent27,ff57454
Department8-University0-GraduateStudent31,ff57455
Department8-University0-GraduateStudent37,ff57456
Department8-University0-GraduateStudent40,ff57457
Department8-University0-GraduateStudent50,ff57458
Department8-University0-GraduateStudent51,ff57459
Department8-University0-GraduateStudent52,ff57460
Department8-University0-GraduateStudent63,ff57461
Department8-University0-GraduateStudent68,ff57462
Department8-University0-GraduateStudent70,ff57463
Department8-University0-GraduateStudent72,ff57464
Department8-University0-GraduateStudent80,ff57465
Department8-University0-GraduateStudent82,ff57466
Department8-University0-GraduateStudent89,ff57467
Department8-University0-GraduateStudent90,ff57468
Department8-University0-GraduateStudent93,ff57469
Department8-University0-GraduateStudent94,ff57470
Department8-University0-GraduateStudent98,ff57471
Department8-University0-GraduateStudent99,ff57472
Department8-University0-GraduateStudent100,ff57473
Department8-University0-GraduateStudent101,ff57474
Department8-University0-GraduateStudent103,ff57475
Department8-University0-GraduateStudent105,ff57476
Department8-University0-GraduateStudent106,ff57477
Department8-University0-GraduateStudent108,ff57478
Department8-University0-GraduateStudent109,ff57479
Department8-University0-GraduateStudent111,ff57480
Department8-University0-GraduateStudent118,ff57481
Department8-University0-GraduateStudent120,ff57482
Department8-University0-GraduateStudent123,ff57483
Department8-University0-GraduateStudent124,ff57484
Department8-University0-GraduateStudent127,ff57485
Department8-University0-GraduateStudent132,ff57486
Department8-University0-GraduateStudent135,ff57487
Department8-University0-GraduateStudent137,ff57488
Department8-University0-GraduateStudent138,ff57489
Department8-University0-GraduateStudent141,ff57490
Department8-University0-GraduateStudent142,ff57491
Department9-University0-GraduateStudent7,ff57492
Department9-University0-GraduateStudent8,ff57493
Department9-University0-GraduateStudent9,ff57494
Department9-University0-GraduateStudent18,ff57495
Department9-University0-GraduateStudent22,ff57496
Department9-University0-GraduateStudent25,ff57497
Department9-University0-GraduateStudent26,ff57498
Department9-University0-GraduateStudent27,ff57499
Department9-University0-GraduateStudent30,ff57500
Department9-University0-GraduateStudent31,ff57501
Department9-University0-GraduateStudent32,ff57502
Department9-University0-GraduateStudent33,ff57503
Department9-University0-GraduateStudent40,ff57504
Department9-University0-GraduateStudent44,ff57505
Department9-University0-GraduateStudent53,ff57506
Department9-University0-GraduateStudent60,ff57507
Department9-University0-GraduateStudent61,ff57508
Department9-University0-GraduateStudent64,ff57509
Department9-University0-GraduateStudent67,ff57510
Department9-University0-GraduateStudent68,ff57511
Department9-University0-GraduateStudent72,ff57512
Department9-University0-GraduateStudent77,ff57513
Department9-University0-GraduateStudent81,ff57514
Department9-University0-GraduateStudent83,ff57515
Department9-University0-GraduateStudent89,ff57516
Department9-University0-GraduateStudent91,ff57517
Department9-University0-GraduateStudent93,ff57518
Department9-University0-GraduateStudent99,ff57519
Department9-University0-GraduateStudent103,ff57520
Department9-University0-GraduateStudent105,ff57521
Department9-University0-GraduateStudent108,ff57522
Department9-University0-GraduateStudent111,ff57523
