p14,p14,fff42
p14,p13,fff43
p14,p12,fff44
p14,p11,fff45
p14,p10,fff46
p14,p9,fff47
p14,p8,fff48
p14,p7,fff49
p14,p6,fff50
p14,p5,fff51
p14,p4,fff52
p14,p3,fff53
p14,p2,fff54
p14,p1,fff55
p13,p14,fff56
p13,p13,fff57
p13,p12,fff58
p13,p11,fff59
p13,p10,fff60
p13,p9,fff61
p13,p8,fff62
p13,p7,fff63
p13,p6,fff64
p13,p5,fff65
p13,p4,fff66
p13,p3,fff67
p13,p2,fff68
p13,p1,fff69
p12,p14,fff70
p12,p13,fff71
p12,p12,fff72
p12,p11,fff73
p12,p10,fff74
p12,p9,fff75
p12,p8,fff76
p12,p7,fff77
p12,p6,fff78
p12,p5,fff79
p12,p4,fff80
p12,p3,fff81
p12,p2,fff82
p12,p1,fff83
p11,p14,fff84
p11,p13,fff85
p11,p12,fff86
p11,p11,fff87
p11,p10,fff88
p11,p9,fff89
p11,p8,fff90
p11,p7,fff91
p11,p6,fff92
p11,p5,fff93
p11,p4,fff94
p11,p3,fff95
p11,p2,fff96
p11,p1,fff97
p10,p14,fff98
p10,p13,fff99
p10,p12,fff100
p10,p11,fff101
p10,p10,fff102
p10,p9,fff103
p10,p8,fff104
p10,p7,fff105
p10,p6,fff106
p10,p5,fff107
p10,p4,fff108
p10,p3,fff109
p10,p2,fff110
p10,p1,fff111
p9,p14,fff112
p9,p13,fff113
p9,p12,fff114
p9,p11,fff115
p9,p10,fff116
p9,p9,fff117
p9,p8,fff118
p9,p7,fff119
p9,p6,fff120
p9,p5,fff121
p9,p4,fff122
p9,p3,fff123
p9,p2,fff124
p9,p1,fff125
p8,p14,fff126
p8,p13,fff127
p8,p12,fff128
p8,p11,fff129
p8,p10,fff130
p8,p9,fff131
p8,p8,fff132
p8,p7,fff133
p8,p6,fff134
p8,p5,fff135
p8,p4,fff136
p8,p3,fff137
p8,p2,fff138
p8,p1,fff139
p7,p14,fff140
p7,p13,fff141
p7,p12,fff142
p7,p11,fff143
p7,p10,fff144
p7,p9,fff145
p7,p8,fff146
p7,p7,fff147
p7,p6,fff148
p7,p5,fff149
p7,p4,fff150
p7,p3,fff151
p7,p2,fff152
p7,p1,fff153
p6,p14,fff154
p6,p13,fff155
p6,p12,fff156
p6,p11,fff157
p6,p10,fff158
p6,p9,fff159
p6,p8,fff160
p6,p7,fff161
p6,p6,fff162
p6,p5,fff163
p6,p4,fff164
p6,p3,fff165
p6,p2,fff166
p6,p1,fff167
p5,p14,fff168
p5,p13,fff169
p5,p12,fff170
p5,p11,fff171
p5,p10,fff172
p5,p9,fff173
p5,p8,fff174
p5,p7,fff175
p5,p6,fff176
p5,p5,fff177
p5,p4,fff178
p5,p3,fff179
p5,p2,fff180
p5,p1,fff181
p4,p14,fff182
p4,p13,fff183
p4,p12,fff184
p4,p11,fff185
p4,p10,fff186
p4,p9,fff187
p4,p8,fff188
p4,p7,fff189
p4,p6,fff190
p4,p5,fff191
p4,p4,fff192
p4,p3,fff193
p4,p2,fff194
p4,p1,fff195
p3,p14,fff196
p3,p13,fff197
p3,p12,fff198
p3,p11,fff199
p3,p10,fff200
p3,p9,fff201
p3,p8,fff202
p3,p7,fff203
p3,p6,fff204
p3,p5,fff205
p3,p4,fff206
p3,p3,fff207
p3,p2,fff208
p3,p1,fff209
p2,p14,fff210
p2,p13,fff211
p2,p12,fff212
p2,p11,fff213
p2,p10,fff214
p2,p9,fff215
p2,p8,fff216
p2,p7,fff217
p2,p6,fff218
p2,p5,fff219
p2,p4,fff220
p2,p3,fff221
p2,p2,fff222
p2,p1,fff223
p1,p14,fff224
p1,p13,fff225
p1,p12,fff226
p1,p11,fff227
p1,p10,fff228
p1,p9,fff229
p1,p8,fff230
p1,p7,fff231
p1,p6,fff232
p1,p5,fff233
p1,p4,fff234
p1,p3,fff235
p1,p2,fff236
p1,p1,fff237
