p41,w11
p38,w11
p54,w11
p55,w11
p71,w11
p82,w11
p106,w11
p109,w11
p110,w11
p112,w11
p114,w11
p129,w11
p136,w11
p137,w11
p147,w11
p149,w11
p173,w11
p174,w11
p198,w11
p199,w11
p202,w11
p195,w11
p204,w11
p271,w11
p243,w11
p274,w11
p306,w11
p307,w11
p312,w11
p320,w11
p347,w11
p348,w11
p351,w11
p361,w11
p362,w11
p378,w11
p439,w11
p459,w11
p512,w11
p523,w11
p525,w11
p551,w11
p553,w11
p572,w11
p596,w11
p647,w11
p676,w11
p683,w11
p717,w11
p740,w11
p773,w11
p745,w11
p784,w11
p787,w11
p888,w11
p865,w11
p868,w11
p873,w11
p875,w11
p876,w11
p877,w11
p880,w11
p14,w17
p44,w17
p43,w17
p86,w17
p130,w17
p143,w17
p148,w17
p150,w17
p191,w17
p199,w17
p204,w17
p287,w17
p291,w17
p296,w17
p309,w17
p311,w17
p357,w17
p389,w17
p399,w17
p406,w17
p440,w17
p441,w17
p442,w17
p444,w17
p505,w17
p524,w17
p525,w17
p528,w17
p557,w17
p554,w17
p584,w17
p586,w17
p590,w17
p591,w17
p599,w17
p600,w17
p601,w17
p619,w17
p691,w17
p751,w17
p757,w17
p760,w17
p765,w17
p767,w17
p768,w17
p895,w17
p856,w17
p888,w17
p106,w19
p157,w19
p191,w19
p194,w19
p282,w19
p222,w19
p268,w19
p241,w19
p272,w19
p356,w19
p361,w19
p362,w19
p525,w19
p569,w19
p632,w19
p683,w19
p691,w19
p740,w19
p787,w19
p857,w19
p881,w19
p88,w23
p150,w23
p163,w23
p164,w23
p197,w23
p282,w23
p285,w23
p293,w23
p306,w23
p329,w23
p335,w23
p380,w23
p408,w23
p437,w23
p452,w23
p459,w23
p464,w23
p473,w23
p474,w23
p492,w23
p495,w23
p520,w23
p544,w23
p545,w23
p546,w23
p547,w23
p599,w23
p611,w23
p616,w23
p626,w23
p632,w23
p658,w23
p699,w23
p706,w23
p710,w23
p747,w23
p784,w23
p903,w23
p899,w23
p898,w23
p853,w23
p857,w23
p858,w23
p885,w23
p886,w23
p888,w23
p859,w23
p860,w23
p864,w23
p865,w23
p867,w23
p869,w23
p866,w23
p870,w23
p871,w23
p872,w23
p874,w23
p875,w23
p876,w23
p877,w23
p879,w23
p881,w23
p882,w23
p883,w23
p891,w23
p26,w24
p82,w24
p83,w24
p89,w24
p795,w24
p94,w24
p96,w24
p105,w24
p119,w24
p122,w24
p123,w24
p128,w24
p137,w24
p139,w24
p141,w24
p165,w24
p173,w24
p176,w24
p193,w24
p197,w24
p222,w24
p227,w24
p278,w24
p283,w24
p312,w24
p345,w24
p417,w24
p416,w24
p492,w24
p525,w24
p579,w24
p691,w24
p758,w24
p834,w24
p846,w24
p857,w24
p4,w31
p55,w31
p74,w31
p108,w31
p127,w31
p133,w31
p141,w31
p157,w31
p165,w31
p269,w31
p277,w31
p302,w31
p307,w31
p311,w31
p333,w31
p368,w31
p380,w31
p385,w31
p398,w31
p401,w31
p402,w31
p410,w31
p472,w31
p500,w31
p524,w31
p525,w31
p526,w31
p536,w31
p537,w31
p554,w31
p575,w31
p577,w31
p590,w31
p591,w31
p594,w31
p601,w31
p617,w31
p628,w31
p683,w31
p691,w31
p703,w31
p740,w31
p776,w31
p781,w31
p860,w31
p870,w31
p877,w31
p880,w31
p881,w31
p15,w48
p16,w48
p19,w48
p20,w48
p25,w48
p26,w48
p23,w48
p24,w48
p50,w48
p10,w48
p81,w48
p82,w48
p96,w48
p104,w48
p135,w48
p136,w48
p145,w48
p148,w48
p158,w48
p193,w48
p230,w48
p311,w48
p320,w48
p330,w48
p331,w48
p332,w48
p333,w48
p339,w48
p355,w48
p359,w48
p362,w48
p363,w48
p370,w48
p375,w48
p381,w48
p402,w48
p405,w48
p406,w48
p411,w48
p437,w48
p456,w48
p463,w48
p467,w48
p468,w48
p469,w48
p477,w48
p480,w48
p529,w48
p532,w48
p553,w48
p569,w48
p580,w48
p586,w48
p589,w48
p590,w48
p591,w48
p592,w48
p605,w48
p606,w48
p607,w48
p615,w48
p620,w48
p626,w48
p628,w48
p630,w48
p636,w48
p638,w48
p641,w48
p650,w48
p666,w48
p693,w48
p707,w48
p708,w48
p709,w48
p710,w48
p722,w48
p723,w48
p727,w48
p735,w48
p739,w48
p850,w48
p896,w48
p898,w48
p889,w48
p859,w48
p860,w48
p862,w48
p54,w74
p55,w74
p109,w74
p112,w74
p114,w74
p122,w74
p144,w74
p161,w74
p160,w74
p193,w74
p202,w74
p227,w74
p271,w74
p241,w74
p285,w74
p311,w74
p361,w74
p551,w74
p582,w74
p692,w74
p747,w74
p886,w74
p867,w74
p870,w74
p872,w74
p874,w74
p883,w74
p114,w81
p241,w81
p277,w81
p291,w81
p324,w81
p355,w81
p418,w81
p459,w81
p467,w81
p472,w81
p493,w81
p494,w81
p525,w81
p526,w81
p546,w81
p590,w81
p591,w81
p628,w81
p703,w81
p718,w81
p747,w81
p784,w81
p787,w81
p904,w81
p853,w81
p886,w81
p860,w81
p861,w81
p868,w81
p869,w81
p874,w81
p876,w81
p880,w81
p881,w81
p74,w85
p88,w85
p222,w85
p362,w85
p472,w85
p599,w85
p601,w85
p740,w85
p747,w85
p900,w85
p869,w85
p882,w85
p225,w90
p226,w90
p241,w90
p703,w90
p25,w93
p49,w93
p67,w93
p144,w93
p149,w93
p152,w93
p167,w93
p174,w93
p204,w93
p217,w93
p269,w93
p272,w93
p311,w93
p362,w93
p380,w93
p428,w93
p481,w93
p512,w93
p546,w93
p576,w93
p595,w93
p616,w93
p692,w93
p702,w93
p740,w93
p753,w93
p754,w93
p860,w93
p868,w93
p869,w93
p866,w93
p874,w93
p55,w94
p129,w94
p191,w94
p173,w94
p194,w94
p204,w94
p282,w94
p309,w94
p367,w94
p440,w94
p443,w94
p467,w94
p477,w94
p480,w94
p541,w94
p601,w94
p619,w94
p632,w94
p683,w94
p740,w94
p757,w94
p838,w94
p847,w94
p900,w94
p44,w100
p43,w100
p71,w100
p73,w100
p75,w100
p78,w100
p905,w100
p149,w100
p152,w100
p167,w100
p170,w100
p271,w100
p272,w100
p275,w100
p325,w100
p356,w100
p361,w100
p363,w100
p476,w100
p556,w100
p561,w100
p693,w100
p739,w100
p740,w100
p774,w100
p775,w100
p773,w100
p791,w100
p749,w100
p787,w100
p869,w100
p880,w100
p881,w100
p150,w105
p201,w105
p241,w105
p311,w105
p320,w105
p324,w105
p472,w105
p525,w105
p548,w105
p740,w105
p843,w105
p863,w105
p55,w133
p59,w133
p76,w133
p82,w133
p905,w133
p156,w133
p272,w133
p292,w133
p297,w133
p423,w133
p428,w133
p472,w133
p512,w133
p607,w133
p610,w133
p628,w133
p655,w133
p691,w133
p739,w133
p740,w133
p742,w133
p904,w133
p853,w133
p859,w133
p860,w133
p870,w133
p873,w133
p875,w133
p879,w133
p882,w133
p4,w136
p5,w136
p6,w136
p7,w136
p12,w136
p13,w136
p15,w136
p16,w136
p17,w136
p14,w136
p35,w136
p42,w136
p44,w136
p43,w136
p20,w136
p29,w136
p30,w136
p31,w136
p32,w136
p33,w136
p34,w136
p24,w136
p21,w136
p22,w136
p27,w136
p28,w136
p46,w136
p45,w136
p54,w136
p49,w136
p47,w136
p51,w136
p59,w136
p62,w136
p63,w136
p10,w136
p64,w136
p65,w136
p68,w136
p69,w136
p71,w136
p72,w136
p74,w136
p75,w136
p76,w136
p77,w136
p80,w136
p81,w136
p905,w136
p83,w136
p84,w136
p85,w136
p86,w136
p88,w136
p89,w136
p90,w136
p91,w136
p792,w136
p793,w136
p795,w136
p796,w136
p94,w136
p790,w136
p95,w136
p96,w136
p97,w136
p99,w136
p100,w136
p101,w136
p102,w136
p103,w136
p104,w136
p105,w136
p116,w136
p119,w136
p123,w136
p127,w136
p128,w136
p129,w136
p130,w136
p131,w136
p133,w136
p134,w136
p135,w136
p137,w136
p138,w136
p141,w136
p147,w136
p154,w136
p161,w136
p157,w136
p159,w136
p160,w136
p171,w136
p172,w136
p191,w136
p173,w136
p176,w136
p177,w136
p179,w136
p180,w136
p190,w136
p194,w136
p192,w136
p197,w136
p198,w136
p203,w136
p282,w136
p205,w136
p206,w136
p207,w136
p208,w136
p209,w136
p210,w136
p211,w136
p212,w136
p213,w136
p214,w136
p215,w136
p216,w136
p217,w136
p218,w136
p219,w136
p220,w136
p221,w136
p223,w136
p222,w136
p227,w136
p228,w136
p229,w136
p231,w136
p236,w136
p243,w136
p275,w136
p276,w136
p274,w136
p278,w136
p280,w136
p284,w136
p285,w136
p286,w136
p287,w136
p288,w136
p289,w136
p290,w136
p291,w136
p292,w136
p293,w136
p294,w136
p295,w136
p296,w136
p297,w136
p298,w136
p299,w136
p301,w136
p302,w136
p300,w136
p303,w136
p304,w136
p306,w136
p307,w136
p308,w136
p309,w136
p311,w136
p312,w136
p313,w136
p314,w136
p315,w136
p318,w136
p319,w136
p322,w136
p323,w136
p325,w136
p326,w136
p328,w136
p330,w136
p334,w136
p335,w136
p338,w136
p343,w136
p353,w136
p344,w136
p347,w136
p348,w136
p351,w136
p354,w136
p355,w136
p356,w136
p359,w136
p361,w136
p362,w136
p357,w136
p363,w136
p364,w136
p365,w136
p366,w136
p367,w136
p368,w136
p369,w136
p370,w136
p374,w136
p379,w136
p378,w136
p380,w136
p381,w136
p382,w136
p383,w136
p384,w136
p385,w136
p387,w136
p388,w136
p389,w136
p390,w136
p391,w136
p394,w136
p395,w136
p396,w136
p397,w136
p398,w136
p399,w136
p400,w136
p402,w136
p403,w136
p404,w136
p406,w136
p407,w136
p408,w136
p410,w136
p409,w136
p411,w136
p412,w136
p417,w136
p416,w136
p415,w136
p418,w136
p419,w136
p420,w136
p421,w136
p425,w136
p426,w136
p427,w136
p428,w136
p431,w136
p432,w136
p430,w136
p433,w136
p434,w136
p437,w136
p438,w136
p439,w136
p440,w136
p441,w136
p442,w136
p443,w136
p444,w136
p446,w136
p447,w136
p448,w136
p449,w136
p450,w136
p452,w136
p453,w136
p454,w136
p455,w136
p460,w136
p464,w136
p466,w136
p467,w136
p468,w136
p469,w136
p471,w136
p474,w136
p475,w136
p476,w136
p477,w136
p479,w136
p481,w136
p483,w136
p484,w136
p490,w136
p492,w136
p491,w136
p493,w136
p494,w136
p495,w136
p496,w136
p498,w136
p500,w136
p502,w136
p505,w136
p507,w136
p508,w136
p509,w136
p510,w136
p511,w136
p512,w136
p513,w136
p514,w136
p515,w136
p517,w136
p518,w136
p520,w136
p519,w136
p523,w136
p524,w136
p525,w136
p527,w136
p528,w136
p529,w136
p530,w136
p532,w136
p533,w136
p534,w136
p535,w136
p536,w136
p537,w136
p538,w136
p539,w136
p542,w136
p540,w136
p541,w136
p543,w136
p544,w136
p545,w136
p546,w136
p548,w136
p549,w136
p550,w136
p551,w136
p558,w136
p559,w136
p562,w136
p553,w136
p555,w136
p564,w136
p566,w136
p568,w136
p569,w136
p570,w136
p573,w136
p572,w136
p574,w136
p575,w136
p576,w136
p577,w136
p578,w136
p579,w136
p581,w136
p582,w136
p583,w136
p585,w136
p587,w136
p589,w136
p592,w136
p593,w136
p594,w136
p595,w136
p596,w136
p597,w136
p599,w136
p600,w136
p601,w136
p603,w136
p604,w136
p605,w136
p606,w136
p610,w136
p612,w136
p613,w136
p614,w136
p615,w136
p616,w136
p617,w136
p619,w136
p620,w136
p621,w136
p624,w136
p626,w136
p627,w136
p628,w136
p630,w136
p631,w136
p632,w136
p633,w136
p634,w136
p635,w136
p636,w136
p637,w136
p638,w136
p639,w136
p640,w136
p641,w136
p642,w136
p643,w136
p646,w136
p648,w136
p649,w136
p653,w136
p655,w136
p658,w136
p660,w136
p664,w136
p667,w136
p668,w136
p669,w136
p672,w136
p674,w136
p675,w136
p676,w136
p678,w136
p679,w136
p681,w136
p682,w136
p683,w136
p685,w136
p686,w136
p687,w136
p688,w136
p691,w136
p693,w136
p694,w136
p697,w136
p696,w136
p698,w136
p704,w136
p705,w136
p707,w136
p710,w136
p711,w136
p712,w136
p714,w136
p715,w136
p717,w136
p718,w136
p721,w136
p723,w136
p725,w136
p726,w136
p727,w136
p728,w136
p729,w136
p730,w136
p735,w136
p736,w136
p737,w136
p738,w136
p739,w136
p740,w136
p741,w136
p774,w136
p776,w136
p773,w136
p777,w136
p742,w136
p744,w136
p745,w136
p743,w136
p791,w136
p778,w136
p746,w136
p749,w136
p747,w136
p750,w136
p751,w136
p752,w136
p753,w136
p754,w136
p755,w136
p756,w136
p757,w136
p758,w136
p760,w136
p761,w136
p762,w136
p763,w136
p764,w136
p765,w136
p766,w136
p768,w136
p769,w136
p759,w136
p771,w136
p772,w136
p779,w136
p787,w136
p788,w136
p789,w136
p833,w136
p834,w136
p797,w136
p798,w136
p799,w136
p800,w136
p801,w136
p802,w136
p803,w136
p814,w136
p804,w136
p805,w136
p806,w136
p807,w136
p808,w136
p809,w136
p810,w136
p811,w136
p812,w136
p813,w136
p832,w136
p816,w136
p817,w136
p818,w136
p819,w136
p820,w136
p821,w136
p822,w136
p823,w136
p824,w136
p825,w136
p826,w136
p827,w136
p828,w136
p829,w136
p830,w136
p815,w136
p831,w136
p835,w136
p836,w136
p837,w136
p838,w136
p839,w136
p840,w136
p841,w136
p843,w136
p844,w136
p845,w136
p846,w136
p847,w136
p848,w136
p849,w136
p903,w136
p904,w136
p894,w136
p896,w136
p895,w136
p897,w136
p899,w136
p900,w136
p901,w136
p892,w136
p893,w136
p851,w136
p852,w136
p853,w136
p854,w136
p855,w136
p856,w136
p857,w136
p858,w136
p885,w136
p886,w136
p888,w136
p887,w136
p859,w136
p860,w136
p861,w136
p862,w136
p864,w136
p865,w136
p878,w136
p882,w136
p884,w136
p891,w136
p69,w139
p109,w139
p111,w139
p112,w139
p136,w139
p157,w139
p200,w139
p202,w139
p268,w139
p321,w139
p345,w139
p493,w139
p544,w139
p740,w139
p781,w139
p873,w139
p881,w139
p38,w143
p74,w143
p130,w143
p196,w143
p204,w143
p243,w143
p272,w143
p356,w143
p563,w143
p773,w143
p748,w143
p853,w143
p888,w143
p82,w150
p88,w150
p89,w150
p793,w150
p353,w150
p345,w150
p346,w150
p347,w150
p349,w150
p350,w150
p351,w150
p481,w150
p544,w150
p610,w150
p615,w150
p634,w150
p640,w150
p677,w150
p718,w150
p34,w167
p49,w167
p72,w167
p105,w167
p152,w167
p222,w167
p226,w167
p269,w167
p281,w167
p298,w167
p311,w167
p356,w167
p361,w167
p418,w167
p441,w167
p546,w167
p557,w167
p583,w167
p599,w167
p628,w167
p661,w167
p689,w167
p690,w167
p691,w167
p710,w167
p725,w167
p726,w167
p727,w167
p748,w167
p757,w167
p783,w167
p900,w167
p853,w167
p886,w167
p860,w167
p861,w167
p876,w167
p879,w167
p880,w167
p38,w175
p71,w175
p905,w175
p191,w175
p202,w175
p243,w175
p272,w175
p343,w175
p356,w175
p362,w175
p390,w175
p458,w175
p477,w175
p492,w175
p525,w175
p628,w175
p677,w175
p691,w175
p740,w175
p773,w175
p748,w175
p770,w175
p838,w175
p885,w175
p888,w175
p859,w175
p879,w175
p72,w179
p905,w179
p136,w179
p154,w179
p225,w179
p271,w179
p243,w179
p307,w179
p312,w179
p320,w179
p321,w179
p324,w179
p409,w179
p462,w179
p472,w179
p477,w179
p512,w179
p525,w179
p561,w179
p590,w179
p591,w179
p596,w179
p632,w179
p739,w179
p740,w179
p741,w179
p773,w179
p744,w179
p745,w179
p747,w179
p780,w179
p787,w179
p837,w179
p860,w179
p867,w179
p874,w179
p880,w179
p881,w179
p38,w188
p105,w188
p110,w188
p111,w188
p130,w188
p136,w188
p175,w188
p203,w188
p214,w188
p236,w188
p243,w188
p272,w188
p311,w188
p332,w188
p388,w188
p438,w188
p439,w188
p551,w188
p637,w188
p676,w188
p881,w188
p105,w191
p114,w191
p167,w191
p197,w191
p216,w191
p221,w191
p225,w191
p276,w191
p311,w191
p345,w191
p356,w191
p387,w191
p388,w191
p488,w191
p525,w191
p542,w191
p541,w191
p740,w191
p787,w191
p871,w191
p881,w191
p20,w210
p25,w210
p58,w210
p92,w210
p96,w210
p121,w210
p130,w210
p174,w210
p201,w210
p202,w210
p269,w210
p241,w210
p281,w210
p307,w210
p329,w210
p346,w210
p393,w210
p428,w210
p439,w210
p493,w210
p512,w210
p596,w210
p628,w210
p679,w210
p753,w210
p759,w210
p834,w210
p865,w210
p869,w210
p13,w230
p49,w230
p82,w230
p89,w230
p91,w230
p94,w230
p95,w230
p135,w230
p164,w230
p286,w230
p287,w230
p289,w230
p292,w230
p294,w230
p296,w230
p302,w230
p303,w230
p304,w230
p308,w230
p305,w230
p310,w230
p311,w230
p381,w230
p383,w230
p384,w230
p418,w230
p430,w230
p448,w230
p481,w230
p505,w230
p507,w230
p618,w230
p682,w230
p691,w230
p714,w230
p777,w230
p747,w230
p748,w230
p750,w230
p764,w230
p782,w230
p784,w230
p834,w230
p835,w230
p837,w230
p847,w230
p848,w230
p853,w230
p859,w230
p49,w231
p71,w231
p72,w231
p74,w231
p77,w231
p105,w231
p130,w231
p135,w231
p203,w231
p282,w231
p233,w231
p271,w231
p292,w231
p319,w231
p356,w231
p371,w231
p377,w231
p372,w231
p373,w231
p390,w231
p426,w231
p494,w231
p604,w231
p610,w231
p617,w231
p618,w231
p619,w231
p714,w231
p715,w231
p773,w231
p742,w231
p885,w231
p33,w235
p27,w235
p73,w235
p74,w235
p76,w235
p77,w235
p78,w235
p287,w235
p292,w235
p297,w235
p308,w235
p311,w235
p320,w235
p356,w235
p377,w235
p390,w235
p392,w235
p418,w235
p421,w235
p451,w235
p476,w235
p519,w235
p540,w235
p604,w235
p613,w235
p614,w235
p615,w235
p618,w235
p620,w235
p646,w235
p682,w235
p683,w235
p685,w235
p702,w235
p715,w235
p737,w235
p740,w235
p742,w235
p744,w235
p746,w235
p781,w235
p38,w241
p27,w241
p55,w241
p74,w241
p109,w241
p112,w241
p271,w241
p241,w241
p274,w241
p306,w241
p307,w241
p311,w241
p312,w241
p321,w241
p324,w241
p356,w241
p361,w241
p362,w241
p417,w241
p428,w241
p472,w241
p493,w241
p495,w241
p512,w241
p525,w241
p527,w241
p540,w241
p546,w241
p635,w241
p657,w241
p740,w241
p747,w241
p768,w241
p787,w241
p853,w241
p886,w241
p859,w241
p860,w241
p863,w241
p867,w241
p870,w241
p879,w241
p880,w241
p881,w241
p882,w241
p891,w241
p61,w254
p88,w254
p792,w254
p100,w254
p136,w254
p156,w254
p175,w254
p201,w254
p204,w254
p228,w254
p271,w254
p332,w254
p356,w254
p361,w254
p357,w254
p428,w254
p540,w254
p541,w254
p595,w254
p676,w254
p700,w254
p774,w254
p773,w254
p759,w254
p787,w254
p853,w254
p886,w254
p866,w254
p870,w254
p871,w254
p874,w254
p877,w254
p879,w254
p881,w254
p882,w254
p55,w258
p225,w258
p336,w258
p337,w258
p338,w258
p354,w258
p357,w258
p397,w258
p410,w258
p464,w258
p467,w258
p470,w258
p481,w258
p498,w258
p512,w258
p514,w258
p515,w258
p551,w258
p576,w258
p596,w258
p627,w258
p628,w258
p630,w258
p634,w258
p635,w258
p637,w258
p648,w258
p708,w258
p710,w258
p711,w258
p714,w258
p729,w258
p844,w258
p29,w273
p30,w273
p31,w273
p32,w273
p33,w273
p34,w273
p26,w273
p27,w273
p28,w273
p49,w273
p72,w273
p119,w273
p166,w273
p222,w273
p303,w273
p311,w273
p372,w273
p373,w273
p417,w273
p458,w273
p474,w273
p481,w273
p512,w273
p525,w273
p691,w273
p697,w273
p740,w273
p768,w273
p769,w273
p789,w273
p26,w282
p10,w282
p74,w282
p81,w282
p100,w282
p141,w282
p159,w282
p203,w282
p204,w282
p224,w282
p241,w282
p243,w282
p279,w282
p289,w282
p297,w282
p311,w282
p361,w282
p362,w282
p369,w282
p378,w282
p426,w282
p428,w282
p472,w282
p492,w282
p512,w282
p525,w282
p546,w282
p548,w282
p561,w282
p553,w282
p583,w282
p584,w282
p595,w282
p623,w282
p628,w282
p655,w282
p664,w282
p736,w282
p740,w282
p773,w282
p747,w282
p787,w282
p845,w282
p894,w282
p896,w282
p897,w282
p852,w282
p854,w282
p888,w282
p870,w282
p37,w283
p66,w283
p96,w283
p99,w283
p100,w283
p105,w283
p109,w283
p112,w283
p118,w283
p119,w283
p127,w283
p128,w283
p130,w283
p132,w283
p133,w283
p136,w283
p141,w283
p144,w283
p146,w283
p153,w283
p154,w283
p157,w283
p165,w283
p175,w283
p177,w283
p179,w283
p197,w283
p203,w283
p212,w283
p217,w283
p220,w283
p222,w283
p228,w283
p230,w283
p231,w283
p276,w283
p279,w283
p311,w283
p553,w283
p616,w283
p681,w283
p35,w291
p44,w291
p43,w291
p100,w291
p101,w291
p105,w291
p128,w291
p129,w291
p130,w291
p133,w291
p136,w291
p137,w291
p139,w291
p140,w291
p141,w291
p144,w291
p153,w291
p154,w291
p155,w291
p157,w291
p162,w291
p165,w291
p167,w291
p191,w291
p173,w291
p175,w291
p178,w291
p194,w291
p193,w291
p11,w291
p196,w291
p197,w291
p198,w291
p199,w291
p200,w291
p203,w291
p282,w291
p230,w291
p234,w291
p235,w291
p236,w291
p237,w291
p240,w291
p268,w291
p269,w291
p270,w291
p271,w291
p274,w291
p279,w291
p306,w291
p311,w291
p438,w291
p521,w291
p534,w291
p581,w291
p681,w291
p859,w291
p38,w301
p110,w301
p271,w301
p297,w301
p311,w301
p362,w301
p441,w301
p472,w301
p481,w301
p512,w301
p525,w301
p546,w301
p571,w301
p590,w301
p591,w301
p596,w301
p721,w301
p740,w301
p885,w301
p880,w301
p881,w301
p60,w299
p61,w299
p84,w299
p96,w299
p103,w299
p105,w299
p111,w299
p122,w299
p123,w299
p127,w299
p130,w299
p157,w299
p168,w299
p174,w299
p197,w299
p203,w299
p219,w299
p279,w299
p356,w299
p361,w299
p453,w299
p484,w299
p525,w299
p553,w299
p691,w299
p703,w299
p740,w299
p747,w299
p759,w299
p837,w299
p838,w299
p844,w299
p849,w299
p865,w299
p55,w312
p49,w312
p73,w312
p74,w312
p76,w312
p86,w312
p147,w312
p149,w312
p198,w312
p269,w312
p271,w312
p241,w312
p272,w312
p296,w312
p304,w312
p307,w312
p312,w312
p324,w312
p335,w312
p338,w312
p356,w312
p361,w312
p357,w312
p428,w312
p431,w312
p437,w312
p452,w312
p458,w312
p472,w312
p476,w312
p493,w312
p496,w312
p512,w312
p525,w312
p546,w312
p589,w312
p590,w312
p591,w312
p631,w312
p632,w312
p663,w312
p668,w312
p677,w312
p679,w312
p704,w312
p781,w312
p787,w312
p834,w312
p887,w312
p873,w312
p881,w312
p882,w312
p325,w314
p339,w314
p343,w314
p355,w314
p363,w314
p367,w314
p374,w314
p410,w314
p411,w314
p418,w314
p437,w314
p579,w314
p626,w314
p632,w314
p683,w314
p44,w325
p82,w325
p96,w325
p103,w325
p105,w325
p116,w325
p128,w325
p130,w325
p135,w325
p138,w325
p141,w325
p154,w325
p157,w325
p159,w325
p165,w325
p192,w325
p203,w325
p205,w325
p211,w325
p212,w325
p222,w325
p231,w325
p243,w325
p273,w325
p280,w325
p284,w325
p316,w325
p415,w325
p418,w325
p491,w325
p553,w325
p581,w325
p678,w325
p681,w325
p886,w325
p859,w325
p106,w327
p110,w327
p201,w327
p221,w327
p226,w327
p271,w327
p272,w327
p307,w327
p311,w327
p324,w327
p356,w327
p402,w327
p441,w327
p444,w327
p477,w327
p525,w327
p546,w327
p757,w327
p787,w327
p862,w327
p871,w327
p880,w327
p53,w326
p106,w326
p108,w326
p109,w326
p111,w326
p112,w326
p216,w326
p220,w326
p225,w326
p226,w326
p269,w326
p289,w326
p356,w326
p363,w326
p418,w326
p441,w326
p511,w326
p579,w326
p693,w326
p739,w326
p740,w326
p757,w326
p104,w341
p109,w341
p112,w341
p127,w341
p136,w341
p175,w341
p282,w341
p222,w341
p268,w341
p361,w341
p418,w341
p524,w341
p525,w341
p526,w341
p558,w341
p689,w341
p691,w341
p726,w341
p775,w341
p895,w341
p38,w353
p905,w353
p191,w353
p271,w353
p242,w353
p243,w353
p272,w353
p338,w353
p361,w353
p362,w353
p498,w353
p581,w353
p740,w353
p773,w353
p747,w353
p748,w353
p766,w353
p880,w353
p55,w365
p71,w365
p74,w365
p82,w365
p792,w365
p96,w365
p110,w365
p130,w365
p142,w365
p175,w365
p210,w365
p240,w365
p271,w365
p276,w365
p311,w365
p336,w365
p345,w365
p356,w365
p361,w365
p362,w365
p364,w365
p378,w365
p393,w365
p417,w365
p472,w365
p495,w365
p561,w365
p576,w365
p590,w365
p591,w365
p595,w365
p628,w365
p634,w365
p635,w365
p640,w365
p651,w365
p677,w365
p745,w365
p779,w365
p787,w365
p901,w365
p862,w365
p869,w365
p879,w365
p882,w365
p21,w391
p22,w391
p82,w391
p309,w391
p586,w391
p633,w391
p96,w410
p104,w410
p282,w410
p219,w410
p276,w410
p307,w410
p325,w410
p381,w410
p398,w410
p524,w410
p525,w410
p553,w410
p599,w410
p697,w410
p698,w410
p791,w410
p747,w410
p751,w410
p759,w410
p44,w422
p43,w422
p136,w422
p137,w422
p144,w422
p175,w422
p237,w422
p238,w422
p311,w422
p553,w422
p581,w422
p681,w422
p13,w423
p15,w423
p16,w423
p17,w423
p18,w423
p14,w423
p35,w423
p36,w423
p37,w423
p40,w423
p41,w423
p38,w423
p39,w423
p42,w423
p44,w423
p43,w423
p20,w423
p29,w423
p30,w423
p31,w423
p32,w423
p33,w423
p34,w423
p25,w423
p26,w423
p23,w423
p24,w423
p21,w423
p22,w423
p27,w423
p28,w423
p46,w423
p45,w423
p48,w423
p54,w423
p55,w423
p56,w423
p53,w423
p49,w423
p57,w423
p47,w423
p50,w423
p51,w423
p52,w423
p58,w423
p59,w423
p60,w423
p61,w423
p66,w423
p67,w423
p68,w423
p69,w423
p70,w423
p71,w423
p72,w423
p73,w423
p74,w423
p75,w423
p76,w423
p77,w423
p78,w423
p79,w423
p80,w423
p82,w423
p83,w423
p84,w423
p91,w423
p92,w423
p792,w423
p793,w423
p794,w423
p795,w423
p796,w423
p93,w423
p94,w423
p790,w423
p95,w423
p96,w423
p97,w423
p98,w423
p99,w423
p100,w423
p101,w423
p102,w423
p103,w423
p104,w423
p105,w423
p106,w423
p107,w423
p108,w423
p109,w423
p110,w423
p111,w423
p112,w423
p113,w423
p114,w423
p115,w423
p116,w423
p117,w423
p118,w423
p119,w423
p120,w423
p121,w423
p122,w423
p124,w423
p123,w423
p125,w423
p127,w423
p126,w423
p128,w423
p129,w423
p130,w423
p131,w423
p132,w423
p133,w423
p134,w423
p135,w423
p136,w423
p137,w423
p138,w423
p139,w423
p140,w423
p141,w423
p142,w423
p143,w423
p144,w423
p145,w423
p146,w423
p147,w423
p148,w423
p149,w423
p150,w423
p151,w423
p152,w423
p153,w423
p154,w423
p155,w423
p156,w423
p161,w423
p157,w423
p162,w423
p158,w423
p159,w423
p163,w423
p164,w423
p160,w423
p165,w423
p166,w423
p171,w423
p167,w423
p168,w423
p169,w423
p170,w423
p172,w423
p191,w423
p173,w423
p174,w423
p175,w423
p176,w423
p177,w423
p178,w423
p179,w423
p180,w423
p181,w423
p182,w423
p183,w423
p184,w423
p185,w423
p186,w423
p187,w423
p188,w423
p190,w423
p189,w423
p194,w423
p192,w423
p193,w423
p11,w423
p196,w423
p197,w423
p198,w423
p199,w423
p200,w423
p201,w423
p202,w423
p203,w423
p195,w423
p204,w423
p282,w423
p205,w423
p206,w423
p207,w423
p208,w423
p209,w423
p210,w423
p211,w423
p212,w423
p213,w423
p214,w423
p215,w423
p216,w423
p217,w423
p218,w423
p219,w423
p220,w423
p221,w423
p223,w423
p222,w423
p224,w423
p225,w423
p226,w423
p227,w423
p228,w423
p229,w423
p230,w423
p231,w423
p233,w423
p232,w423
p234,w423
p235,w423
p236,w423
p237,w423
p238,w423
p239,w423
p240,w423
p244,w423
p245,w423
p246,w423
p247,w423
p248,w423
p249,w423
p250,w423
p251,w423
p252,w423
p253,w423
p254,w423
p255,w423
p256,w423
p257,w423
p258,w423
p259,w423
p260,w423
p261,w423
p262,w423
p263,w423
p264,w423
p265,w423
p266,w423
p267,w423
p268,w423
p269,w423
p270,w423
p271,w423
p242,w423
p241,w423
p243,w423
p272,w423
p273,w423
p275,w423
p276,w423
p277,w423
p274,w423
p279,w423
p278,w423
p280,w423
p281,w423
p283,w423
p284,w423
p285,w423
p286,w423
p287,w423
p288,w423
p289,w423
p290,w423
p291,w423
p292,w423
p293,w423
p294,w423
p295,w423
p296,w423
p297,w423
p298,w423
p299,w423
p301,w423
p302,w423
p300,w423
p303,w423
p304,w423
p306,w423
p307,w423
p308,w423
p305,w423
p309,w423
p310,w423
p311,w423
p312,w423
p313,w423
p314,w423
p315,w423
p316,w423
p317,w423
p318,w423
p319,w423
p320,w423
p321,w423
p322,w423
p323,w423
p324,w423
p325,w423
p326,w423
p327,w423
p328,w423
p330,w423
p331,w423
p332,w423
p333,w423
p329,w423
p334,w423
p335,w423
p336,w423
p337,w423
p338,w423
p339,w423
p340,w423
p341,w423
p342,w423
p343,w423
p352,w423
p353,w423
p344,w423
p345,w423
p346,w423
p347,w423
p348,w423
p349,w423
p350,w423
p351,w423
p354,w423
p355,w423
p356,w423
p358,w423
p359,w423
p360,w423
p361,w423
p362,w423
p357,w423
p363,w423
p364,w423
p365,w423
p366,w423
p367,w423
p368,w423
p369,w423
p370,w423
p374,w423
p371,w423
p375,w423
p376,w423
p377,w423
p372,w423
p373,w423
p379,w423
p378,w423
p380,w423
p381,w423
p382,w423
p383,w423
p384,w423
p385,w423
p386,w423
p387,w423
p388,w423
p389,w423
p390,w423
p391,w423
p392,w423
p393,w423
p394,w423
p395,w423
p396,w423
p397,w423
p398,w423
p399,w423
p400,w423
p401,w423
p402,w423
p403,w423
p404,w423
p405,w423
p406,w423
p407,w423
p408,w423
p410,w423
p409,w423
p411,w423
p412,w423
p413,w423
p414,w423
p417,w423
p416,w423
p415,w423
p418,w423
p419,w423
p420,w423
p421,w423
p422,w423
p423,w423
p424,w423
p425,w423
p426,w423
p427,w423
p428,w423
p429,w423
p431,w423
p432,w423
p430,w423
p433,w423
p434,w423
p437,w423
p435,w423
p436,w423
p438,w423
p439,w423
p440,w423
p441,w423
p442,w423
p443,w423
p444,w423
p445,w423
p446,w423
p447,w423
p448,w423
p449,w423
p450,w423
p451,w423
p452,w423
p453,w423
p454,w423
p455,w423
p456,w423
p457,w423
p458,w423
p459,w423
p460,w423
p461,w423
p462,w423
p463,w423
p464,w423
p465,w423
p466,w423
p467,w423
p468,w423
p469,w423
p470,w423
p471,w423
p472,w423
p473,w423
p474,w423
p475,w423
p476,w423
p477,w423
p478,w423
p479,w423
p480,w423
p481,w423
p482,w423
p483,w423
p485,w423
p484,w423
p487,w423
p488,w423
p489,w423
p490,w423
p492,w423
p491,w423
p493,w423
p494,w423
p495,w423
p496,w423
p497,w423
p498,w423
p499,w423
p500,w423
p501,w423
p502,w423
p503,w423
p504,w423
p505,w423
p506,w423
p507,w423
p508,w423
p509,w423
p510,w423
p511,w423
p512,w423
p513,w423
p514,w423
p515,w423
p516,w423
p517,w423
p518,w423
p520,w423
p521,w423
p519,w423
p522,w423
p523,w423
p524,w423
p525,w423
p526,w423
p527,w423
p528,w423
p529,w423
p530,w423
p531,w423
p532,w423
p533,w423
p534,w423
p535,w423
p536,w423
p537,w423
p538,w423
p539,w423
p542,w423
p540,w423
p541,w423
p543,w423
p544,w423
p545,w423
p546,w423
p547,w423
p548,w423
p549,w423
p550,w423
p551,w423
p552,w423
p557,w423
p558,w423
p556,w423
p559,w423
p560,w423
p561,w423
p562,w423
p563,w423
p553,w423
p554,w423
p555,w423
p564,w423
p565,w423
p566,w423
p567,w423
p568,w423
p569,w423
p570,w423
p571,w423
p573,w423
p572,w423
p574,w423
p575,w423
p576,w423
p577,w423
p578,w423
p579,w423
p581,w423
p580,w423
p582,w423
p583,w423
p584,w423
p585,w423
p586,w423
p587,w423
p588,w423
p589,w423
p590,w423
p591,w423
p592,w423
p593,w423
p594,w423
p595,w423
p596,w423
p597,w423
p598,w423
p599,w423
p600,w423
p601,w423
p602,w423
p603,w423
p604,w423
p605,w423
p606,w423
p607,w423
p608,w423
p609,w423
p610,w423
p611,w423
p612,w423
p613,w423
p614,w423
p615,w423
p616,w423
p617,w423
p618,w423
p619,w423
p620,w423
p621,w423
p622,w423
p623,w423
p624,w423
p626,w423
p625,w423
p627,w423
p628,w423
p630,w423
p631,w423
p632,w423
p633,w423
p634,w423
p635,w423
p636,w423
p637,w423
p638,w423
p639,w423
p640,w423
p641,w423
p642,w423
p643,w423
p644,w423
p645,w423
p646,w423
p647,w423
p648,w423
p649,w423
p650,w423
p651,w423
p653,w423
p654,w423
p652,w423
p655,w423
p656,w423
p657,w423
p658,w423
p659,w423
p660,w423
p661,w423
p662,w423
p663,w423
p664,w423
p665,w423
p666,w423
p667,w423
p668,w423
p669,w423
p670,w423
p671,w423
p672,w423
p673,w423
p674,w423
p675,w423
p676,w423
p677,w423
p678,w423
p679,w423
p680,w423
p681,w423
p682,w423
p683,w423
p684,w423
p685,w423
p686,w423
p687,w423
p689,w423
p690,w423
p688,w423
p691,w423
p692,w423
p693,w423
p694,w423
p695,w423
p697,w423
p696,w423
p698,w423
p699,w423
p700,w423
p701,w423
p702,w423
p703,w423
p704,w423
p705,w423
p706,w423
p707,w423
p708,w423
p709,w423
p710,w423
p711,w423
p712,w423
p713,w423
p714,w423
p715,w423
p716,w423
p717,w423
p718,w423
p719,w423
p720,w423
p721,w423
p722,w423
p723,w423
p724,w423
p725,w423
p726,w423
p727,w423
p728,w423
p729,w423
p730,w423
p731,w423
p733,w423
p734,w423
p732,w423
p735,w423
p736,w423
p737,w423
p738,w423
p739,w423
p740,w423
p741,w423
p774,w423
p775,w423
p776,w423
p773,w423
p777,w423
p742,w423
p744,w423
p745,w423
p743,w423
p791,w423
p778,w423
p746,w423
p749,w423
p747,w423
p748,w423
p750,w423
p751,w423
p752,w423
p753,w423
p754,w423
p755,w423
p756,w423
p757,w423
p758,w423
p760,w423
p761,w423
p762,w423
p763,w423
p764,w423
p765,w423
p766,w423
p767,w423
p768,w423
p769,w423
p770,w423
p759,w423
p771,w423
p772,w423
p779,w423
p780,w423
p781,w423
p782,w423
p783,w423
p784,w423
p785,w423
p787,w423
p786,w423
p788,w423
p789,w423
p833,w423
p834,w423
p836,w423
p837,w423
p838,w423
p844,w423
p849,w423
p851,w423
p41,w424
p42,w424
p44,w424
p49,w424
p98,w424
p130,w424
p141,w424
p157,w424
p164,w424
p167,w424
p203,w424
p240,w424
p279,w424
p307,w424
p311,w424
p333,w424
p345,w424
p347,w424
p451,w424
p512,w424
p525,w424
p576,w424
p721,w424
p737,w424
p754,w424
p787,w424
p866,w424
p871,w424
p872,w424
p881,w424
p794,w437
p162,w437
p158,w437
p163,w437
p164,w437
p271,w437
p285,w437
p304,w437
p330,w437
p334,w437
p359,w437
p361,w437
p357,w437
p368,w437
p431,w437
p438,w437
p452,w437
p459,w437
p460,w437
p462,w437
p483,w437
p496,w437
p512,w437
p540,w437
p544,w437
p572,w437
p595,w437
p676,w437
p704,w437
p721,w437
p774,w437
p775,w437
p773,w437
p780,w437
p781,w437
p784,w437
p785,w437
p787,w437
p898,w437
p858,w437
p886,w437
p865,w437
p867,w437
p869,w437
p871,w437
p877,w437
p879,w437
p881,w437
p882,w437
p7,w442
p55,w442
p82,w442
p88,w442
p89,w442
p793,w442
p163,w442
p164,w442
p285,w442
p304,w442
p307,w442
p328,w442
p330,w442
p343,w442
p345,w442
p347,w442
p348,w442
p351,w442
p363,w442
p365,w442
p367,w442
p394,w442
p412,w442
p413,w442
p453,w442
p454,w442
p464,w442
p467,w442
p481,w442
p496,w442
p498,w442
p501,w442
p502,w442
p503,w442
p517,w442
p520,w442
p529,w442
p579,w442
p610,w442
p630,w442
p634,w442
p635,w442
p637,w442
p638,w442
p639,w442
p640,w442
p641,w442
p642,w442
p656,w442
p677,w442
p679,w442
p735,w442
p781,w442
p7,w446
p12,w446
p13,w446
p15,w446
p16,w446
p17,w446
p18,w446
p14,w446
p59,w446
p62,w446
p63,w446
p10,w446
p83,w446
p85,w446
p86,w446
p87,w446
p88,w446
p89,w446
p90,w446
p167,w446
p197,w446
p285,w446
p330,w446
p498,w446
p729,w446
p753,w446
p754,w446
p755,w446
p845,w446
p846,w446
p847,w446
p848,w446
p850,w446
p903,w446
p904,w446
p894,w446
p896,w446
p895,w446
p897,w446
p899,w446
p900,w446
p898,w446
p901,w446
p902,w446
p892,w446
p893,w446
p852,w446
p853,w446
p854,w446
p855,w446
p856,w446
p857,w446
p858,w446
p885,w446
p886,w446
p888,w446
p887,w446
p889,w446
p890,w446
p859,w446
p860,w446
p861,w446
p862,w446
p863,w446
p864,w446
p865,w446
p867,w446
p868,w446
p869,w446
p866,w446
p870,w446
p871,w446
p872,w446
p873,w446
p874,w446
p875,w446
p876,w446
p877,w446
p878,w446
p879,w446
p880,w446
p881,w446
p882,w446
p883,w446
p884,w446
p891,w446
p13,w457
p15,w457
p16,w457
p49,w457
p71,w457
p80,w457
p82,w457
p84,w457
p85,w457
p89,w457
p296,w457
p302,w457
p307,w457
p315,w457
p319,w457
p321,w457
p322,w457
p323,w457
p325,w457
p326,w457
p338,w457
p343,w457
p353,w457
p347,w457
p348,w457
p350,w457
p351,w457
p354,w457
p355,w457
p359,w457
p361,w457
p363,w457
p365,w457
p367,w457
p379,w457
p382,w457
p389,w457
p395,w457
p396,w457
p397,w457
p402,w457
p406,w457
p411,w457
p417,w457
p416,w457
p418,w457
p420,w457
p421,w457
p427,w457
p428,w457
p432,w457
p430,w457
p433,w457
p437,w457
p440,w457
p446,w457
p447,w457
p448,w457
p449,w457
p454,w457
p464,w457
p467,w457
p468,w457
p476,w457
p483,w457
p484,w457
p489,w457
p492,w457
p494,w457
p496,w457
p498,w457
p500,w457
p507,w457
p508,w457
p511,w457
p515,w457
p525,w457
p527,w457
p529,w457
p532,w457
p533,w457
p535,w457
p538,w457
p539,w457
p541,w457
p549,w457
p550,w457
p551,w457
p558,w457
p555,w457
p564,w457
p573,w457
p575,w457
p583,w457
p585,w457
p589,w457
p594,w457
p600,w457
p606,w457
p610,w457
p614,w457
p615,w457
p620,w457
p626,w457
p630,w457
p632,w457
p648,w457
p653,w457
p655,w457
p658,w457
p667,w457
p669,w457
p678,w457
p682,w457
p686,w457
p691,w457
p697,w457
p696,w457
p698,w457
p707,w457
p712,w457
p715,w457
p718,w457
p723,w457
p727,w457
p730,w457
p735,w457
p736,w457
p737,w457
p740,w457
p741,w457
p757,w457
p787,w457
p835,w457
p836,w457
p837,w457
p840,w457
p847,w457
p848,w457
p900,w457
p893,w457
p859,w457
p861,w457
p884,w457
p38,w479
p104,w479
p111,w479
p136,w479
p137,w479
p175,w479
p199,w479
p201,w479
p204,w479
p215,w479
p225,w479
p269,w479
p271,w479
p281,w479
p307,w479
p321,w479
p332,w479
p339,w479
p356,w479
p361,w479
p428,w479
p525,w479
p540,w479
p546,w479
p557,w479
p775,w479
p752,w479
p781,w479
p787,w479
p900,w479
p861,w479
p869,w479
p866,w479
p872,w479
p879,w479
p880,w479
p881,w479
p882,w479
p49,w482
p62,w482
p571,w482
p634,w482
p655,w482
p656,w482
p747,w482
p886,w482
p859,w482
p860,w482
p878,w482
p881,w482
p76,w531
p793,w531
p136,w531
p154,w531
p175,w531
p190,w531
p204,w531
p222,w531
p226,w531
p243,w531
p292,w531
p307,w531
p309,w531
p311,w531
p321,w531
p356,w531
p372,w531
p373,w531
p418,w531
p440,w531
p443,w531
p477,w531
p525,w531
p540,w531
p618,w531
p634,w531
p685,w531
p775,w531
p747,w531
p757,w531
p765,w531
p787,w531
p885,w531
p308,w538
p424,w538
p727,w538
p740,w538
p38,w542
p127,w542
p228,w542
p243,w542
p356,w542
p361,w542
p500,w542
p561,w542
p632,w542
p306,w543
p678,w543
p49,w553
p103,w553
p105,w553
p130,w553
p145,w553
p149,w553
p150,w553
p199,w553
p200,w553
p203,w553
p236,w553
p306,w553
p307,w553
p320,w553
p321,w553
p353,w553
p345,w553
p346,w553
p393,w553
p428,w553
p472,w553
p512,w553
p536,w553
p537,w553
p553,w553
p573,w553
p579,w553
p586,w553
p590,w553
p591,w553
p593,w553
p610,w553
p627,w553
p677,w553
p703,w553
p787,w553
p898,w553
p879,w553
p86,w556
p796,w556
p104,w556
p130,w556
p149,w556
p193,w556
p203,w556
p289,w556
p296,w556
p297,w556
p309,w556
p320,w556
p321,w556
p418,w556
p428,w556
p448,w556
p477,w556
p512,w556
p557,w556
p556,w556
p561,w556
p579,w556
p597,w556
p685,w556
p728,w556
p751,w556
p787,w556
p895,w556
p876,w556
p880,w556
p38,w586
p101,w586
p114,w586
p200,w586
p201,w586
p204,w586
p219,w586
p230,w586
p276,w586
p362,w586
p393,w586
p472,w586
p512,w586
p576,w586
p585,w586
p593,w586
p596,w586
p676,w586
p737,w586
p740,w586
p886,w586
p865,w586
p867,w586
p866,w586
p870,w586
p871,w586
p872,w586
p873,w586
p874,w586
p875,w586
p880,w586
p881,w586
p103,w593
p127,w593
p203,w593
p275,w593
p358,w593
p367,w593
p507,w593
p553,w593
p635,w593
p678,w593
p886,w593
p110,w594
p164,w594
p197,w594
p201,w594
p241,w594
p334,w594
p339,w594
p378,w594
p390,w594
p418,w594
p439,w594
p462,w594
p476,w594
p496,w594
p525,w594
p628,w594
p646,w594
p692,w594
p853,w594
p859,w594
p871,w594
p872,w594
p873,w594
p875,w594
p880,w594
p881,w594
p891,w594
p82,w596
p289,w596
p418,w596
p460,w596
p610,w596
p727,w596
p55,w604
p905,w604
p144,w604
p150,w604
p194,w604
p240,w604
p271,w604
p241,w604
p279,w604
p311,w604
p320,w604
p361,w604
p379,w604
p393,w604
p525,w604
p540,w604
p634,w604
p747,w604
p783,w604
p880,w604
p882,w604
p54,w607
p97,w607
p103,w607
p104,w607
p157,w607
p193,w607
p297,w607
p314,w607
p315,w607
p317,w607
p318,w607
p402,w607
p452,w607
p522,w607
p569,w607
p747,w607
p846,w607
p74,w619
p214,w619
p240,w619
p269,w619
p241,w619
p272,w619
p277,w619
p303,w619
p307,w619
p321,w619
p408,w619
p423,w619
p428,w619
p472,w619
p561,w619
p591,w619
p618,w619
p740,w619
p768,w619
p787,w619
p904,w619
p853,w619
p887,w619
p861,w619
p862,w619
p867,w619
p868,w619
p866,w619
p870,w619
p871,w619
p872,w619
p873,w619
p874,w619
p875,w619
p876,w619
p879,w619
p880,w619
p162,w623
p243,w623
p275,w623
p298,w623
p306,w623
p307,w623
p324,w623
p339,w623
p356,w623
p361,w623
p452,w623
p512,w623
p525,w623
p546,w623
p554,w623
p576,w623
p775,w623
p880,w623
p96,w622
p103,w622
p129,w622
p130,w622
p157,w622
p201,w622
p203,w622
p212,w622
p240,w622
p354,w622
p464,w622
p544,w622
p551,w622
p635,w622
p638,w622
p660,w622
p745,w622
p747,w622
p779,w622
p853,w622
p860,w622
p867,w622
p868,w622
p879,w622
p7,w638
p64,w638
p201,w638
p240,w638
p249,w638
p253,w638
p269,w638
p242,w638
p241,w638
p272,w638
p296,w638
p324,w638
p325,w638
p333,w638
p381,w638
p418,w638
p420,w638
p472,w638
p525,w638
p538,w638
p548,w638
p561,w638
p693,w638
p739,w638
p740,w638
p741,w638
p775,w638
p773,w638
p791,w638
p747,w638
p759,w638
p771,w638
p856,w638
p857,w638
p33,w644
p74,w644
p76,w644
p78,w644
p793,w644
p109,w644
p112,w644
p115,w644
p127,w644
p133,w644
p142,w644
p143,w644
p145,w644
p196,w644
p201,w644
p204,w644
p311,w644
p426,w644
p494,w644
p530,w644
p613,w644
p632,w644
p744,w644
p745,w644
p759,w644
p904,w644
p4,w651
p55,w651
p62,w651
p74,w651
p144,w651
p217,w651
p226,w651
p228,w651
p269,w651
p271,w651
p277,w651
p306,w651
p307,w651
p311,w651
p320,w651
p324,w651
p351,w651
p356,w651
p361,w651
p380,w651
p439,w651
p453,w651
p472,w651
p512,w651
p525,w651
p546,w651
p557,w651
p561,w651
p586,w651
p635,w651
p640,w651
p689,w651
p703,w651
p726,w651
p744,w651
p759,w651
p904,w651
p888,w651
p860,w651
p865,w651
p869,w651
p874,w651
p876,w651
p880,w651
p881,w651
p882,w651
p55,w654
p82,w654
p795,w654
p338,w654
p346,w654
p354,w654
p391,w654
p393,w654
p460,w654
p498,w654
p510,w654
p576,w654
p586,w654
p600,w654
p667,w654
p671,w654
p679,w654
p853,w654
p877,w654
p38,w660
p73,w660
p74,w660
p82,w660
p94,w660
p103,w660
p130,w660
p191,w660
p180,w660
p203,w660
p225,w660
p228,w660
p285,w660
p309,w660
p345,w660
p351,w660
p494,w660
p495,w660
p525,w660
p562,w660
p610,w660
p677,w660
p692,w660
p707,w660
p740,w660
p751,w660
p853,w660
p858,w660
p859,w660
p873,w660
p876,w660
p880,w660
p111,w664
p194,w664
p276,w664
p277,w664
p418,w664
p441,w664
p444,w664
p525,w664
p527,w664
p546,w664
p747,w664
p860,w664
p868,w664
p869,w664
p880,w664
p881,w664
p49,w670
p282,w670
p269,w670
p293,w670
p329,w670
p380,w670
p620,w670
p628,w670
p692,w670
p740,w670
p747,w670
p904,w670
p853,w670
p886,w670
p888,w670
p887,w670
p859,w670
p860,w670
p861,w670
p862,w670
p864,w670
p867,w670
p868,w670
p869,w670
p870,w670
p874,w670
p875,w670
p876,w670
p877,w670
p879,w670
p891,w670
p64,w671
p76,w671
p109,w671
p214,w671
p225,w671
p271,w671
p311,w671
p334,w671
p345,w671
p362,w671
p402,w671
p525,w671
p611,w671
p632,w671
p635,w671
p683,w671
p740,w671
p746,w671
p872,w671
p35,w672
p100,w672
p104,w672
p105,w672
p134,w672
p136,w672
p141,w672
p143,w672
p153,w672
p165,w672
p175,w672
p193,w672
p279,w672
p283,w672
p306,w672
p553,w672
p30,w681
p177,w681
p179,w681
p180,w681
p181,w681
p182,w681
p189,w681
p272,w681
p285,w681
p304,w681
p320,w681
p321,w681
p330,w681
p332,w681
p334,w681
p335,w681
p341,w681
p354,w681
p356,w681
p359,w681
p361,w681
p397,w681
p428,w681
p438,w681
p439,w681
p459,w681
p466,w681
p496,w681
p520,w681
p529,w681
p579,w681
p627,w681
p632,w681
p673,w681
p677,w681
p678,w681
p698,w681
p718,w681
p780,w681
p781,w681
p784,w681
p785,w681
p787,w681
p786,w681
p888,w681
p55,w716
p76,w716
p82,w716
p98,w716
p109,w716
p110,w716
p112,w716
p269,w716
p241,w716
p243,w716
p311,w716
p312,w716
p321,w716
p356,w716
p361,w716
p392,w716
p428,w716
p472,w716
p481,w716
p493,w716
p497,w716
p521,w716
p525,w716
p540,w716
p561,w716
p577,w716
p632,w716
p634,w716
p639,w716
p787,w716
p905,w721
p498,w721
p691,w721
p7,w730
p88,w730
p130,w730
p174,w730
p179,w730
p197,w730
p269,w730
p285,w730
p306,w730
p394,w730
p395,w730
p409,w730
p512,w730
p541,w730
p710,w730
p836,w730
p841,w730
p844,w730
p857,w730
p858,w730
p513,w734
p329,w733
p365,w733
p498,w733
p513,w733
p275,w736
p347,w736
p348,w736
p586,w736
p38,w737
p110,w737
p127,w737
p147,w737
p150,w737
p198,w737
p201,w737
p202,w737
p236,w737
p271,w737
p241,w737
p276,w737
p311,w737
p362,w737
p428,w737
p477,w737
p519,w737
p525,w737
p540,w737
p546,w737
p628,w737
p689,w737
p691,w737
p726,w737
p747,w737
p765,w737
p767,w737
p787,w737
p888,w737
p860,w737
p863,w737
p869,w737
p870,w737
p873,w737
p875,w737
p880,w737
p882,w737
p29,w738
p30,w738
p31,w738
p32,w738
p33,w738
p27,w738
p71,w738
p72,w738
p73,w738
p74,w738
p76,w738
p77,w738
p78,w738
p82,w738
p131,w738
p136,w738
p137,w738
p180,w738
p287,w738
p288,w738
p292,w738
p297,w738
p298,w738
p303,w738
p308,w738
p311,w738
p328,w738
p353,w738
p344,w738
p347,w738
p348,w738
p351,w738
p362,w738
p418,w738
p494,w738
p498,w738
p538,w738
p553,w738
p554,w738
p598,w738
p604,w738
p605,w738
p610,w738
p612,w738
p613,w738
p614,w738
p615,w738
p651,w738
p683,w738
p687,w738
p728,w738
p742,w738
p744,w738
p748,w738
p757,w738
p787,w738
p82,w751
p38,w752
p130,w752
p236,w752
p241,w752
p243,w752
p311,w752
p324,w752
p356,w752
p371,w752
p377,w752
p393,w752
p418,w752
p451,w752
p472,w752
p525,w752
p561,w752
p576,w752
p618,w752
p634,w752
p648,w752
p676,w752
p740,w752
p769,w752
p843,w752
p75,w758
p82,w758
p90,w758
p320,w758
p321,w758
p345,w758
p346,w758
p460,w758
p489,w758
p539,w758
p577,w758
p610,w758
p721,w758
p737,w758
p82,w759
p586,w759
p55,w767
p49,w767
p73,w767
p905,w767
p796,w767
p166,w767
p168,w767
p269,w767
p271,w767
p272,w767
p304,w767
p307,w767
p325,w767
p356,w767
p359,w767
p363,w767
p476,w767
p512,w767
p525,w767
p557,w767
p595,w767
p693,w767
p739,w767
p740,w767
p775,w767
p773,w767
p777,w767
p791,w767
p749,w767
p748,w767
p781,w767
p787,w767
p903,w767
p853,w767
p888,w767
