p17,p17,fff51
p17,p16,fff52
p17,p15,fff53
p17,p14,fff54
p17,p13,fff55
p17,p12,fff56
p17,p11,fff57
p17,p10,fff58
p17,p9,fff59
p17,p8,fff60
p17,p7,fff61
p17,p6,fff62
p17,p5,fff63
p17,p4,fff64
p17,p3,fff65
p17,p2,fff66
p17,p1,fff67
p16,p17,fff68
p16,p16,fff69
p16,p15,fff70
p16,p14,fff71
p16,p13,fff72
p16,p12,fff73
p16,p11,fff74
p16,p10,fff75
p16,p9,fff76
p16,p8,fff77
p16,p7,fff78
p16,p6,fff79
p16,p5,fff80
p16,p4,fff81
p16,p3,fff82
p16,p2,fff83
p16,p1,fff84
p15,p17,fff85
p15,p16,fff86
p15,p15,fff87
p15,p14,fff88
p15,p13,fff89
p15,p12,fff90
p15,p11,fff91
p15,p10,fff92
p15,p9,fff93
p15,p8,fff94
p15,p7,fff95
p15,p6,fff96
p15,p5,fff97
p15,p4,fff98
p15,p3,fff99
p15,p2,fff100
p15,p1,fff101
p14,p17,fff102
p14,p16,fff103
p14,p15,fff104
p14,p14,fff105
p14,p13,fff106
p14,p12,fff107
p14,p11,fff108
p14,p10,fff109
p14,p9,fff110
p14,p8,fff111
p14,p7,fff112
p14,p6,fff113
p14,p5,fff114
p14,p4,fff115
p14,p3,fff116
p14,p2,fff117
p14,p1,fff118
p13,p17,fff119
p13,p16,fff120
p13,p15,fff121
p13,p14,fff122
p13,p13,fff123
p13,p12,fff124
p13,p11,fff125
p13,p10,fff126
p13,p9,fff127
p13,p8,fff128
p13,p7,fff129
p13,p6,fff130
p13,p5,fff131
p13,p4,fff132
p13,p3,fff133
p13,p2,fff134
p13,p1,fff135
p12,p17,fff136
p12,p16,fff137
p12,p15,fff138
p12,p14,fff139
p12,p13,fff140
p12,p12,fff141
p12,p11,fff142
p12,p10,fff143
p12,p9,fff144
p12,p8,fff145
p12,p7,fff146
p12,p6,fff147
p12,p5,fff148
p12,p4,fff149
p12,p3,fff150
p12,p2,fff151
p12,p1,fff152
p11,p17,fff153
p11,p16,fff154
p11,p15,fff155
p11,p14,fff156
p11,p13,fff157
p11,p12,fff158
p11,p11,fff159
p11,p10,fff160
p11,p9,fff161
p11,p8,fff162
p11,p7,fff163
p11,p6,fff164
p11,p5,fff165
p11,p4,fff166
p11,p3,fff167
p11,p2,fff168
p11,p1,fff169
p10,p17,fff170
p10,p16,fff171
p10,p15,fff172
p10,p14,fff173
p10,p13,fff174
p10,p12,fff175
p10,p11,fff176
p10,p10,fff177
p10,p9,fff178
p10,p8,fff179
p10,p7,fff180
p10,p6,fff181
p10,p5,fff182
p10,p4,fff183
p10,p3,fff184
p10,p2,fff185
p10,p1,fff186
p9,p17,fff187
p9,p16,fff188
p9,p15,fff189
p9,p14,fff190
p9,p13,fff191
p9,p12,fff192
p9,p11,fff193
p9,p10,fff194
p9,p9,fff195
p9,p8,fff196
p9,p7,fff197
p9,p6,fff198
p9,p5,fff199
p9,p4,fff200
p9,p3,fff201
p9,p2,fff202
p9,p1,fff203
p8,p17,fff204
p8,p16,fff205
p8,p15,fff206
p8,p14,fff207
p8,p13,fff208
p8,p12,fff209
p8,p11,fff210
p8,p10,fff211
p8,p9,fff212
p8,p8,fff213
p8,p7,fff214
p8,p6,fff215
p8,p5,fff216
p8,p4,fff217
p8,p3,fff218
p8,p2,fff219
p8,p1,fff220
p7,p17,fff221
p7,p16,fff222
p7,p15,fff223
p7,p14,fff224
p7,p13,fff225
p7,p12,fff226
p7,p11,fff227
p7,p10,fff228
p7,p9,fff229
p7,p8,fff230
p7,p7,fff231
p7,p6,fff232
p7,p5,fff233
p7,p4,fff234
p7,p3,fff235
p7,p2,fff236
p7,p1,fff237
p6,p17,fff238
p6,p16,fff239
p6,p15,fff240
p6,p14,fff241
p6,p13,fff242
p6,p12,fff243
p6,p11,fff244
p6,p10,fff245
p6,p9,fff246
p6,p8,fff247
p6,p7,fff248
p6,p6,fff249
p6,p5,fff250
p6,p4,fff251
p6,p3,fff252
p6,p2,fff253
p6,p1,fff254
p5,p17,fff255
p5,p16,fff256
p5,p15,fff257
p5,p14,fff258
p5,p13,fff259
p5,p12,fff260
p5,p11,fff261
p5,p10,fff262
p5,p9,fff263
p5,p8,fff264
p5,p7,fff265
p5,p6,fff266
p5,p5,fff267
p5,p4,fff268
p5,p3,fff269
p5,p2,fff270
p5,p1,fff271
p4,p17,fff272
p4,p16,fff273
p4,p15,fff274
p4,p14,fff275
p4,p13,fff276
p4,p12,fff277
p4,p11,fff278
p4,p10,fff279
p4,p9,fff280
p4,p8,fff281
p4,p7,fff282
p4,p6,fff283
p4,p5,fff284
p4,p4,fff285
p4,p3,fff286
p4,p2,fff287
p4,p1,fff288
p3,p17,fff289
p3,p16,fff290
p3,p15,fff291
p3,p14,fff292
p3,p13,fff293
p3,p12,fff294
p3,p11,fff295
p3,p10,fff296
p3,p9,fff297
p3,p8,fff298
p3,p7,fff299
p3,p6,fff300
p3,p5,fff301
p3,p4,fff302
p3,p3,fff303
p3,p2,fff304
p3,p1,fff305
p2,p17,fff306
p2,p16,fff307
p2,p15,fff308
p2,p14,fff309
p2,p13,fff310
p2,p12,fff311
p2,p11,fff312
p2,p10,fff313
p2,p9,fff314
p2,p8,fff315
p2,p7,fff316
p2,p6,fff317
p2,p5,fff318
p2,p4,fff319
p2,p3,fff320
p2,p2,fff321
p2,p1,fff322
p1,p17,fff323
p1,p16,fff324
p1,p15,fff325
p1,p14,fff326
p1,p13,fff327
p1,p12,fff328
p1,p11,fff329
p1,p10,fff330
p1,p9,fff331
p1,p8,fff332
p1,p7,fff333
p1,p6,fff334
p1,p5,fff335
p1,p4,fff336
p1,p3,fff337
p1,p2,fff338
p1,p1,fff339
