Department0-University0-ResearchGroup0,ff57524
Department0-University0-ResearchGroup1,ff57525
Department0-University0-ResearchGroup2,ff57526
Department0-University0-ResearchGroup3,ff57527
Department0-University0-ResearchGroup4,ff57528
Department0-University0-ResearchGroup5,ff57529
Department0-University0-ResearchGroup6,ff57530
Department0-University0-ResearchGroup7,ff57531
Department0-University0-ResearchGroup8,ff57532
Department0-University0-ResearchGroup9,ff57533
Department1-University0-ResearchGroup0,ff57534
Department1-University0-ResearchGroup1,ff57535
Department1-University0-ResearchGroup2,ff57536
Department1-University0-ResearchGroup3,ff57537
Department1-University0-ResearchGroup4,ff57538
Department1-University0-ResearchGroup5,ff57539
Department1-University0-ResearchGroup6,ff57540
Department1-University0-ResearchGroup7,ff57541
Department1-University0-ResearchGroup8,ff57542
Department1-University0-ResearchGroup9,ff57543
Department1-University0-ResearchGroup10,ff57544
Department1-University0-ResearchGroup11,ff57545
Department1-University0-ResearchGroup12,ff57546
Department1-University0-ResearchGroup13,ff57547
Department1-University0-ResearchGroup14,ff57548
Department1-University0-ResearchGroup15,ff57549
Department1-University0-ResearchGroup16,ff57550
Department1-University0-ResearchGroup17,ff57551
Department1-University0-ResearchGroup18,ff57552
Department10-University0-ResearchGroup0,ff57553
Department10-University0-ResearchGroup1,ff57554
Department10-University0-ResearchGroup2,ff57555
Department10-University0-ResearchGroup3,ff57556
Department10-University0-ResearchGroup4,ff57557
Department10-University0-ResearchGroup5,ff57558
Department10-University0-ResearchGroup6,ff57559
Department10-University0-ResearchGroup7,ff57560
Department10-University0-ResearchGroup8,ff57561
Department10-University0-ResearchGroup9,ff57562
Department10-University0-ResearchGroup10,ff57563
Department10-University0-ResearchGroup11,ff57564
Department10-University0-ResearchGroup12,ff57565
Department10-University0-ResearchGroup13,ff57566
Department10-University0-ResearchGroup14,ff57567
Department11-University0-ResearchGroup0,ff57568
Department11-University0-ResearchGroup1,ff57569
Department11-University0-ResearchGroup2,ff57570
Department11-University0-ResearchGroup3,ff57571
Department11-University0-ResearchGroup4,ff57572
Department11-University0-ResearchGroup5,ff57573
Department11-University0-ResearchGroup6,ff57574
Department11-University0-ResearchGroup7,ff57575
Department11-University0-ResearchGroup8,ff57576
Department11-University0-ResearchGroup9,ff57577
Department11-University0-ResearchGroup10,ff57578
Department11-University0-ResearchGroup11,ff57579
Department11-University0-ResearchGroup12,ff57580
Department12-University0-ResearchGroup0,ff57581
Department12-University0-ResearchGroup1,ff57582
Department12-University0-ResearchGroup2,ff57583
Department12-University0-ResearchGroup3,ff57584
Department12-University0-ResearchGroup4,ff57585
Department12-University0-ResearchGroup5,ff57586
Department12-University0-ResearchGroup6,ff57587
Department12-University0-ResearchGroup7,ff57588
Department12-University0-ResearchGroup8,ff57589
Department12-University0-ResearchGroup9,ff57590
Department12-University0-ResearchGroup10,ff57591
Department13-University0-ResearchGroup0,ff57592
Department13-University0-ResearchGroup1,ff57593
Department13-University0-ResearchGroup2,ff57594
Department13-University0-ResearchGroup3,ff57595
Department13-University0-ResearchGroup4,ff57596
Department13-University0-ResearchGroup5,ff57597
Department13-University0-ResearchGroup6,ff57598
Department13-University0-ResearchGroup7,ff57599
Department13-University0-ResearchGroup8,ff57600
Department13-University0-ResearchGroup9,ff57601
Department13-University0-ResearchGroup10,ff57602
Department13-University0-ResearchGroup11,ff57603
Department13-University0-ResearchGroup12,ff57604
Department14-University0-ResearchGroup0,ff57605
Department14-University0-ResearchGroup1,ff57606
Department14-University0-ResearchGroup2,ff57607
Department14-University0-ResearchGroup3,ff57608
Department14-University0-ResearchGroup4,ff57609
Department14-University0-ResearchGroup5,ff57610
Department14-University0-ResearchGroup6,ff57611
Department14-University0-ResearchGroup7,ff57612
Department14-University0-ResearchGroup8,ff57613
Department14-University0-ResearchGroup9,ff57614
Department14-University0-ResearchGroup10,ff57615
Department14-University0-ResearchGroup11,ff57616
Department2-University0-ResearchGroup0,ff57617
Department2-University0-ResearchGroup1,ff57618
Department2-University0-ResearchGroup2,ff57619
Department2-University0-ResearchGroup3,ff57620
Department2-University0-ResearchGroup4,ff57621
Department2-University0-ResearchGroup5,ff57622
Department2-University0-ResearchGroup6,ff57623
Department2-University0-ResearchGroup7,ff57624
Department2-University0-ResearchGroup8,ff57625
Department2-University0-ResearchGroup9,ff57626
Department2-University0-ResearchGroup10,ff57627
Department2-University0-ResearchGroup11,ff57628
Department2-University0-ResearchGroup12,ff57629
Department3-University0-ResearchGroup0,ff57630
Department3-University0-ResearchGroup1,ff57631
Department3-University0-ResearchGroup2,ff57632
Department3-University0-ResearchGroup3,ff57633
Department3-University0-ResearchGroup4,ff57634
Department3-University0-ResearchGroup5,ff57635
Department3-University0-ResearchGroup6,ff57636
Department3-University0-ResearchGroup7,ff57637
Department3-University0-ResearchGroup8,ff57638
Department3-University0-ResearchGroup9,ff57639
Department3-University0-ResearchGroup10,ff57640
Department3-University0-ResearchGroup11,ff57641
Department3-University0-ResearchGroup12,ff57642
Department3-University0-ResearchGroup13,ff57643
Department3-University0-ResearchGroup14,ff57644
Department3-University0-ResearchGroup15,ff57645
Department3-University0-ResearchGroup16,ff57646
Department3-University0-ResearchGroup17,ff57647
Department4-University0-ResearchGroup0,ff57648
Department4-University0-ResearchGroup1,ff57649
Department4-University0-ResearchGroup2,ff57650
Department4-University0-ResearchGroup3,ff57651
Department4-University0-ResearchGroup4,ff57652
Department4-University0-ResearchGroup5,ff57653
Department4-University0-ResearchGroup6,ff57654
Department4-University0-ResearchGroup7,ff57655
Department4-University0-ResearchGroup8,ff57656
Department4-University0-ResearchGroup9,ff57657
Department4-University0-ResearchGroup10,ff57658
Department4-University0-ResearchGroup11,ff57659
Department4-University0-ResearchGroup12,ff57660
Department4-University0-ResearchGroup13,ff57661
Department4-University0-ResearchGroup14,ff57662
Department4-University0-ResearchGroup15,ff57663
Department4-University0-ResearchGroup16,ff57664
Department4-University0-ResearchGroup17,ff57665
Department4-University0-ResearchGroup18,ff57666
Department4-University0-ResearchGroup19,ff57667
Department5-University0-ResearchGroup0,ff57668
Department5-University0-ResearchGroup1,ff57669
Department5-University0-ResearchGroup2,ff57670
Department5-University0-ResearchGroup3,ff57671
Department5-University0-ResearchGroup4,ff57672
Department5-University0-ResearchGroup5,ff57673
Department5-University0-ResearchGroup6,ff57674
Department5-University0-ResearchGroup7,ff57675
Department5-University0-ResearchGroup8,ff57676
Department5-University0-ResearchGroup9,ff57677
Department5-University0-ResearchGroup10,ff57678
Department5-University0-ResearchGroup11,ff57679
Department5-University0-ResearchGroup12,ff57680
Department5-University0-ResearchGroup13,ff57681
Department6-University0-ResearchGroup0,ff57682
Department6-University0-ResearchGroup1,ff57683
Department6-University0-ResearchGroup2,ff57684
Department6-University0-ResearchGroup3,ff57685
Department6-University0-ResearchGroup4,ff57686
Department6-University0-ResearchGroup5,ff57687
Department6-University0-ResearchGroup6,ff57688
Department6-University0-ResearchGroup7,ff57689
Department6-University0-ResearchGroup8,ff57690
Department6-University0-ResearchGroup9,ff57691
Department6-University0-ResearchGroup10,ff57692
Department6-University0-ResearchGroup11,ff57693
Department6-University0-ResearchGroup12,ff57694
Department6-University0-ResearchGroup13,ff57695
Department6-University0-ResearchGroup14,ff57696
Department6-University0-ResearchGroup15,ff57697
Department7-University0-ResearchGroup0,ff57698
Department7-University0-ResearchGroup1,ff57699
Department7-University0-ResearchGroup2,ff57700
Department7-University0-ResearchGroup3,ff57701
Department7-University0-ResearchGroup4,ff57702
Department7-University0-ResearchGroup5,ff57703
Department7-University0-ResearchGroup6,ff57704
Department7-University0-ResearchGroup7,ff57705
Department7-University0-ResearchGroup8,ff57706
Department7-University0-ResearchGroup9,ff57707
Department7-University0-ResearchGroup10,ff57708
Department7-University0-ResearchGroup11,ff57709
Department7-University0-ResearchGroup12,ff57710
Department7-University0-ResearchGroup13,ff57711
Department7-University0-ResearchGroup14,ff57712
Department7-University0-ResearchGroup15,ff57713
Department7-University0-ResearchGroup16,ff57714
Department7-University0-ResearchGroup17,ff57715
Department7-University0-ResearchGroup18,ff57716
Department7-University0-ResearchGroup19,ff57717
Department8-University0-ResearchGroup0,ff57718
Department8-University0-ResearchGroup1,ff57719
Department8-University0-ResearchGroup2,ff57720
Department8-University0-ResearchGroup3,ff57721
Department8-University0-ResearchGroup4,ff57722
Department8-University0-ResearchGroup5,ff57723
Department8-University0-ResearchGroup6,ff57724
Department8-University0-ResearchGroup7,ff57725
Department8-University0-ResearchGroup8,ff57726
Department8-University0-ResearchGroup9,ff57727
Department8-University0-ResearchGroup10,ff57728
Department8-University0-ResearchGroup11,ff57729
Department8-University0-ResearchGroup12,ff57730
Department8-University0-ResearchGroup13,ff57731
Department8-University0-ResearchGroup14,ff57732
Department8-University0-ResearchGroup15,ff57733
Department8-University0-ResearchGroup16,ff57734
Department8-University0-ResearchGroup17,ff57735
Department9-University0-ResearchGroup0,ff57736
Department9-University0-ResearchGroup1,ff57737
Department9-University0-ResearchGroup2,ff57738
Department9-University0-ResearchGroup3,ff57739
Department9-University0-ResearchGroup4,ff57740
Department9-University0-ResearchGroup5,ff57741
Department9-University0-ResearchGroup6,ff57742
Department9-University0-ResearchGroup7,ff57743
Department9-University0-ResearchGroup8,ff57744
Department9-University0-ResearchGroup9,ff57745
Department9-University0-ResearchGroup10,ff57746
Department9-University0-ResearchGroup11,ff57747
