p1,p14
p14,p1
p6,p8
p8,p6
p1,p11
p11,p1
p6,p9
p9,p6
p9,p13
p13,p9
p4,p11
p11,p4
p3,p7
p7,p3
p7,p15
p15,p7
p4,p9
p9,p4
p1,p5
p5,p1
p2,p10
p10,p2
p7,p11
p11,p7
p9,p10
p10,p9
p2,p12
p12,p2
p1,p9
p9,p1
p4,p7
p7,p4
p2,p3
p3,p2
p3,p11
p11,p3
p1,p2
p2,p1
