Department0-University0,ff53646
Department0-University1,ff53647
Department0-University2,ff53648
Department0-University3,ff53649
Department0-University4,ff53650
Department0-University5,ff53651
Department0-University6,ff53652
Department0-University7,ff53653
Department0-University8,ff53654
Department0-University9,ff53655
Department10-University0,ff53656
Department10-University1,ff53657
Department10-University2,ff53658
Department10-University3,ff53659
Department10-University4,ff53660
Department10-University5,ff53661
Department10-University6,ff53662
Department10-University7,ff53663
Department10-University8,ff53664
Department10-University9,ff53665
Department11-University0,ff53666
Department11-University1,ff53667
Department11-University2,ff53668
Department11-University3,ff53669
Department11-University4,ff53670
Department11-University5,ff53671
Department11-University6,ff53672
Department11-University7,ff53673
Department11-University8,ff53674
Department11-University9,ff53675
Department12-University0,ff53676
Department12-University1,ff53677
Department12-University2,ff53678
Department12-University3,ff53679
Department12-University4,ff53680
Department12-University5,ff53681
Department12-University6,ff53682
Department12-University7,ff53683
Department12-University8,ff53684
Department12-University9,ff53685
Department13-University0,ff53686
Department13-University1,ff53687
Department13-University2,ff53688
Department13-University3,ff53689
Department13-University4,ff53690
Department13-University5,ff53691
Department13-University6,ff53692
Department13-University7,ff53693
Department13-University8,ff53694
Department13-University9,ff53695
Department14-University0,ff53696
Department14-University1,ff53697
Department14-University2,ff53698
Department14-University3,ff53699
Department14-University4,ff53700
Department14-University5,ff53701
Department14-University6,ff53702
Department14-University7,ff53703
Department14-University8,ff53704
Department14-University9,ff53705
Department15-University1,ff53706
Department15-University2,ff53707
Department15-University3,ff53708
Department15-University4,ff53709
Department15-University6,ff53710
Department15-University7,ff53711
Department15-University8,ff53712
Department15-University9,ff53713
Department16-University1,ff53714
Department16-University3,ff53715
Department16-University4,ff53716
Department16-University6,ff53717
Department16-University7,ff53718
Department16-University8,ff53719
Department16-University9,ff53720
Department17-University1,ff53721
Department17-University3,ff53722
Department17-University4,ff53723
Department17-University6,ff53724
Department17-University8,ff53725
Department17-University9,ff53726
Department18-University1,ff53727
Department18-University3,ff53728
Department18-University4,ff53729
Department18-University6,ff53730
Department18-University9,ff53731
Department19-University3,ff53732
Department19-University4,ff53733
Department19-University6,ff53734
Department19-University9,ff53735
Department1-University0,ff53736
Department1-University1,ff53737
Department1-University2,ff53738
Department1-University3,ff53739
Department1-University4,ff53740
Department1-University5,ff53741
Department1-University6,ff53742
Department1-University7,ff53743
Department1-University8,ff53744
Department1-University9,ff53745
Department20-University3,ff53746
Department20-University4,ff53747
Department20-University6,ff53748
Department20-University9,ff53749
Department21-University4,ff53750
Department21-University6,ff53751
Department21-University9,ff53752
Department22-University6,ff53753
Department23-University6,ff53754
Department2-University0,ff53755
Department2-University1,ff53756
Department2-University2,ff53757
Department2-University3,ff53758
Department2-University4,ff53759
Department2-University5,ff53760
Department2-University6,ff53761
Department2-University7,ff53762
Department2-University8,ff53763
Department2-University9,ff53764
Department3-University0,ff53765
Department3-University1,ff53766
Department3-University2,ff53767
Department3-University3,ff53768
Department3-University4,ff53769
Department3-University5,ff53770
Department3-University6,ff53771
Department3-University7,ff53772
Department3-University8,ff53773
Department3-University9,ff53774
Department4-University0,ff53775
Department4-University1,ff53776
Department4-University2,ff53777
Department4-University3,ff53778
Department4-University4,ff53779
Department4-University5,ff53780
Department4-University6,ff53781
Department4-University7,ff53782
Department4-University8,ff53783
Department4-University9,ff53784
Department5-University0,ff53785
Department5-University1,ff53786
Department5-University2,ff53787
Department5-University3,ff53788
Department5-University4,ff53789
Department5-University5,ff53790
Department5-University6,ff53791
Department5-University7,ff53792
Department5-University8,ff53793
Department5-University9,ff53794
Department6-University0,ff53795
Department6-University1,ff53796
Department6-University2,ff53797
Department6-University3,ff53798
Department6-University4,ff53799
Department6-University5,ff53800
Department6-University6,ff53801
Department6-University7,ff53802
Department6-University8,ff53803
Department6-University9,ff53804
Department7-University0,ff53805
Department7-University1,ff53806
Department7-University2,ff53807
Department7-University3,ff53808
Department7-University4,ff53809
Department7-University5,ff53810
Department7-University6,ff53811
Department7-University7,ff53812
Department7-University8,ff53813
Department7-University9,ff53814
Department8-University0,ff53815
Department8-University1,ff53816
Department8-University2,ff53817
Department8-University3,ff53818
Department8-University4,ff53819
Department8-University5,ff53820
Department8-University6,ff53821
Department8-University7,ff53822
Department8-University8,ff53823
Department8-University9,ff53824
Department9-University0,ff53825
Department9-University1,ff53826
Department9-University2,ff53827
Department9-University3,ff53828
Department9-University4,ff53829
Department9-University5,ff53830
Department9-University6,ff53831
Department9-University7,ff53832
Department9-University8,ff53833
Department9-University9,ff53834
