Department0-University0-Lecturer0,ff203091
Department0-University0-Lecturer1,ff203092
Department0-University0-Lecturer2,ff203093
Department0-University0-Lecturer3,ff203094
Department0-University0-Lecturer4,ff203095
Department0-University0-Lecturer5,ff203096
Department0-University0-Lecturer6,ff203097
Department0-University1-Lecturer0,ff203098
Department0-University1-Lecturer1,ff203099
Department0-University1-Lecturer2,ff203100
Department0-University1-Lecturer3,ff203101
Department0-University1-Lecturer4,ff203102
Department0-University1-Lecturer5,ff203103
Department0-University1-Lecturer6,ff203104
Department0-University2-Lecturer0,ff203105
Department0-University2-Lecturer1,ff203106
Department0-University2-Lecturer2,ff203107
Department0-University2-Lecturer3,ff203108
Department0-University2-Lecturer4,ff203109
Department0-University3-Lecturer0,ff203110
Department0-University3-Lecturer1,ff203111
Department0-University3-Lecturer2,ff203112
Department0-University3-Lecturer3,ff203113
Department0-University3-Lecturer4,ff203114
Department0-University4-Lecturer0,ff203115
Department0-University4-Lecturer1,ff203116
Department0-University4-Lecturer2,ff203117
Department0-University4-Lecturer3,ff203118
Department0-University4-Lecturer4,ff203119
Department0-University5-Lecturer0,ff203120
Department0-University5-Lecturer1,ff203121
Department0-University5-Lecturer2,ff203122
Department0-University5-Lecturer3,ff203123
Department0-University5-Lecturer4,ff203124
Department0-University6-Lecturer0,ff203125
Department0-University6-Lecturer1,ff203126
Department0-University6-Lecturer2,ff203127
Department0-University6-Lecturer3,ff203128
Department0-University6-Lecturer4,ff203129
Department0-University6-Lecturer5,ff203130
Department0-University7-Lecturer0,ff203131
Department0-University7-Lecturer1,ff203132
Department0-University7-Lecturer2,ff203133
Department0-University7-Lecturer3,ff203134
Department0-University7-Lecturer4,ff203135
Department0-University7-Lecturer5,ff203136
Department0-University8-Lecturer0,ff203137
Department0-University8-Lecturer1,ff203138
Department0-University8-Lecturer2,ff203139
Department0-University8-Lecturer3,ff203140
Department0-University8-Lecturer4,ff203141
Department0-University9-Lecturer0,ff203142
Department0-University9-Lecturer1,ff203143
Department0-University9-Lecturer2,ff203144
Department0-University9-Lecturer3,ff203145
Department0-University9-Lecturer4,ff203146
Department0-University9-Lecturer5,ff203147
Department0-University9-Lecturer6,ff203148
Department10-University0-Lecturer0,ff203149
Department10-University0-Lecturer1,ff203150
Department10-University0-Lecturer2,ff203151
Department10-University0-Lecturer3,ff203152
Department10-University0-Lecturer4,ff203153
Department10-University0-Lecturer5,ff203154
Department10-University0-Lecturer6,ff203155
Department10-University1-Lecturer0,ff203156
Department10-University1-Lecturer1,ff203157
Department10-University1-Lecturer2,ff203158
Department10-University1-Lecturer3,ff203159
Department10-University1-Lecturer4,ff203160
Department10-University2-Lecturer0,ff203161
Department10-University2-Lecturer1,ff203162
Department10-University2-Lecturer2,ff203163
Department10-University2-Lecturer3,ff203164
Department10-University2-Lecturer4,ff203165
Department10-University2-Lecturer5,ff203166
Department10-University3-Lecturer0,ff203167
Department10-University3-Lecturer1,ff203168
Department10-University3-Lecturer2,ff203169
Department10-University3-Lecturer3,ff203170
Department10-University3-Lecturer4,ff203171
Department10-University3-Lecturer5,ff203172
Department10-University4-Lecturer0,ff203173
Department10-University4-Lecturer1,ff203174
Department10-University4-Lecturer2,ff203175
Department10-University4-Lecturer3,ff203176
Department10-University4-Lecturer4,ff203177
Department10-University4-Lecturer5,ff203178
Department10-University4-Lecturer6,ff203179
Department10-University5-Lecturer0,ff203180
Department10-University5-Lecturer1,ff203181
Department10-University5-Lecturer2,ff203182
Department10-University5-Lecturer3,ff203183
Department10-University5-Lecturer4,ff203184
Department10-University5-Lecturer5,ff203185
Department10-University5-Lecturer6,ff203186
Department10-University6-Lecturer0,ff203187
Department10-University6-Lecturer1,ff203188
Department10-University6-Lecturer2,ff203189
Department10-University6-Lecturer3,ff203190
Department10-University6-Lecturer4,ff203191
Department10-University6-Lecturer5,ff203192
Department10-University6-Lecturer6,ff203193
Department10-University7-Lecturer0,ff203194
Department10-University7-Lecturer1,ff203195
Department10-University7-Lecturer2,ff203196
Department10-University7-Lecturer3,ff203197
Department10-University7-Lecturer4,ff203198
Department10-University7-Lecturer5,ff203199
Department10-University8-Lecturer0,ff203200
Department10-University8-Lecturer1,ff203201
Department10-University8-Lecturer2,ff203202
Department10-University8-Lecturer3,ff203203
Department10-University8-Lecturer4,ff203204
Department10-University8-Lecturer5,ff203205
Department10-University8-Lecturer6,ff203206
Department10-University9-Lecturer0,ff203207
Department10-University9-Lecturer1,ff203208
Department10-University9-Lecturer2,ff203209
Department10-University9-Lecturer3,ff203210
Department10-University9-Lecturer4,ff203211
Department10-University9-Lecturer5,ff203212
Department11-University0-Lecturer0,ff203213
Department11-University0-Lecturer1,ff203214
Department11-University0-Lecturer2,ff203215
Department11-University0-Lecturer3,ff203216
Department11-University0-Lecturer4,ff203217
Department11-University0-Lecturer5,ff203218
Department11-University1-Lecturer0,ff203219
Department11-University1-Lecturer1,ff203220
Department11-University1-Lecturer2,ff203221
Department11-University1-Lecturer3,ff203222
Department11-University1-Lecturer4,ff203223
Department11-University2-Lecturer0,ff203224
Department11-University2-Lecturer1,ff203225
Department11-University2-Lecturer2,ff203226
Department11-University2-Lecturer3,ff203227
Department11-University2-Lecturer4,ff203228
Department11-University2-Lecturer5,ff203229
Department11-University3-Lecturer0,ff203230
Department11-University3-Lecturer1,ff203231
Department11-University3-Lecturer2,ff203232
Department11-University3-Lecturer3,ff203233
Department11-University3-Lecturer4,ff203234
Department11-University3-Lecturer5,ff203235
Department11-University3-Lecturer6,ff203236
Department11-University4-Lecturer0,ff203237
Department11-University4-Lecturer1,ff203238
Department11-University4-Lecturer2,ff203239
Department11-University4-Lecturer3,ff203240
Department11-University4-Lecturer4,ff203241
Department11-University4-Lecturer5,ff203242
Department11-University4-Lecturer6,ff203243
Department11-University5-Lecturer0,ff203244
Department11-University5-Lecturer1,ff203245
Department11-University5-Lecturer2,ff203246
Department11-University5-Lecturer3,ff203247
Department11-University5-Lecturer4,ff203248
Department11-University6-Lecturer0,ff203249
Department11-University6-Lecturer1,ff203250
Department11-University6-Lecturer2,ff203251
Department11-University6-Lecturer3,ff203252
Department11-University6-Lecturer4,ff203253
Department11-University6-Lecturer5,ff203254
Department11-University7-Lecturer0,ff203255
Department11-University7-Lecturer1,ff203256
Department11-University7-Lecturer2,ff203257
Department11-University7-Lecturer3,ff203258
Department11-University7-Lecturer4,ff203259
Department11-University7-Lecturer5,ff203260
Department11-University7-Lecturer6,ff203261
Department11-University8-Lecturer0,ff203262
Department11-University8-Lecturer1,ff203263
Department11-University8-Lecturer2,ff203264
Department11-University8-Lecturer3,ff203265
Department11-University8-Lecturer4,ff203266
Department11-University9-Lecturer0,ff203267
Department11-University9-Lecturer1,ff203268
Department11-University9-Lecturer2,ff203269
Department11-University9-Lecturer3,ff203270
Department11-University9-Lecturer4,ff203271
Department11-University9-Lecturer5,ff203272
Department12-University0-Lecturer0,ff203273
Department12-University0-Lecturer1,ff203274
Department12-University0-Lecturer2,ff203275
Department12-University0-Lecturer3,ff203276
Department12-University0-Lecturer4,ff203277
Department12-University1-Lecturer0,ff203278
Department12-University1-Lecturer1,ff203279
Department12-University1-Lecturer2,ff203280
Department12-University1-Lecturer3,ff203281
Department12-University1-Lecturer4,ff203282
Department12-University1-Lecturer5,ff203283
Department12-University1-Lecturer6,ff203284
Department12-University2-Lecturer0,ff203285
Department12-University2-Lecturer1,ff203286
Department12-University2-Lecturer2,ff203287
Department12-University2-Lecturer3,ff203288
Department12-University2-Lecturer4,ff203289
Department12-University2-Lecturer5,ff203290
Department12-University2-Lecturer6,ff203291
Department12-University3-Lecturer0,ff203292
Department12-University3-Lecturer1,ff203293
Department12-University3-Lecturer2,ff203294
Department12-University3-Lecturer3,ff203295
Department12-University3-Lecturer4,ff203296
Department12-University3-Lecturer5,ff203297
Department12-University4-Lecturer0,ff203298
Department12-University4-Lecturer1,ff203299
Department12-University4-Lecturer2,ff203300
Department12-University4-Lecturer3,ff203301
Department12-University4-Lecturer4,ff203302
Department12-University4-Lecturer5,ff203303
Department12-University5-Lecturer0,ff203304
Department12-University5-Lecturer1,ff203305
Department12-University5-Lecturer2,ff203306
Department12-University5-Lecturer3,ff203307
Department12-University5-Lecturer4,ff203308
Department12-University6-Lecturer0,ff203309
Department12-University6-Lecturer1,ff203310
Department12-University6-Lecturer2,ff203311
Department12-University6-Lecturer3,ff203312
Department12-University6-Lecturer4,ff203313
Department12-University6-Lecturer5,ff203314
Department12-University7-Lecturer0,ff203315
Department12-University7-Lecturer1,ff203316
Department12-University7-Lecturer2,ff203317
Department12-University7-Lecturer3,ff203318
Department12-University7-Lecturer4,ff203319
Department12-University7-Lecturer5,ff203320
Department12-University7-Lecturer6,ff203321
Department12-University8-Lecturer0,ff203322
Department12-University8-Lecturer1,ff203323
Department12-University8-Lecturer2,ff203324
Department12-University8-Lecturer3,ff203325
Department12-University8-Lecturer4,ff203326
Department12-University8-Lecturer5,ff203327
Department12-University8-Lecturer6,ff203328
Department12-University9-Lecturer0,ff203329
Department12-University9-Lecturer1,ff203330
Department12-University9-Lecturer2,ff203331
Department12-University9-Lecturer3,ff203332
Department12-University9-Lecturer4,ff203333
Department12-University9-Lecturer5,ff203334
Department12-University9-Lecturer6,ff203335
Department13-University0-Lecturer0,ff203336
Department13-University0-Lecturer1,ff203337
Department13-University0-Lecturer2,ff203338
Department13-University0-Lecturer3,ff203339
Department13-University0-Lecturer4,ff203340
Department13-University1-Lecturer0,ff203341
Department13-University1-Lecturer1,ff203342
Department13-University1-Lecturer2,ff203343
Department13-University1-Lecturer3,ff203344
Department13-University1-Lecturer4,ff203345
Department13-University2-Lecturer0,ff203346
Department13-University2-Lecturer1,ff203347
Department13-University2-Lecturer2,ff203348
Department13-University2-Lecturer3,ff203349
Department13-University2-Lecturer4,ff203350
Department13-University3-Lecturer0,ff203351
Department13-University3-Lecturer1,ff203352
Department13-University3-Lecturer2,ff203353
Department13-University3-Lecturer3,ff203354
Department13-University3-Lecturer4,ff203355
Department13-University3-Lecturer5,ff203356
Department13-University3-Lecturer6,ff203357
Department13-University4-Lecturer0,ff203358
Department13-University4-Lecturer1,ff203359
Department13-University4-Lecturer2,ff203360
Department13-University4-Lecturer3,ff203361
Department13-University4-Lecturer4,ff203362
Department13-University5-Lecturer0,ff203363
Department13-University5-Lecturer1,ff203364
Department13-University5-Lecturer2,ff203365
Department13-University5-Lecturer3,ff203366
Department13-University5-Lecturer4,ff203367
Department13-University6-Lecturer0,ff203368
Department13-University6-Lecturer1,ff203369
Department13-University6-Lecturer2,ff203370
Department13-University6-Lecturer3,ff203371
Department13-University6-Lecturer4,ff203372
Department13-University7-Lecturer0,ff203373
Department13-University7-Lecturer1,ff203374
Department13-University7-Lecturer2,ff203375
Department13-University7-Lecturer3,ff203376
Department13-University7-Lecturer4,ff203377
Department13-University7-Lecturer5,ff203378
Department13-University7-Lecturer6,ff203379
Department13-University8-Lecturer0,ff203380
Department13-University8-Lecturer1,ff203381
Department13-University8-Lecturer2,ff203382
Department13-University8-Lecturer3,ff203383
Department13-University8-Lecturer4,ff203384
Department13-University8-Lecturer5,ff203385
Department13-University9-Lecturer0,ff203386
Department13-University9-Lecturer1,ff203387
Department13-University9-Lecturer2,ff203388
Department13-University9-Lecturer3,ff203389
Department13-University9-Lecturer4,ff203390
Department13-University9-Lecturer5,ff203391
Department14-University0-Lecturer0,ff203392
Department14-University0-Lecturer1,ff203393
Department14-University0-Lecturer2,ff203394
Department14-University0-Lecturer3,ff203395
Department14-University0-Lecturer4,ff203396
Department14-University0-Lecturer5,ff203397
Department14-University1-Lecturer0,ff203398
Department14-University1-Lecturer1,ff203399
Department14-University1-Lecturer2,ff203400
Department14-University1-Lecturer3,ff203401
Department14-University1-Lecturer4,ff203402
Department14-University2-Lecturer0,ff203403
Department14-University2-Lecturer1,ff203404
Department14-University2-Lecturer2,ff203405
Department14-University2-Lecturer3,ff203406
Department14-University2-Lecturer4,ff203407
Department14-University3-Lecturer0,ff203408
Department14-University3-Lecturer1,ff203409
Department14-University3-Lecturer2,ff203410
Department14-University3-Lecturer3,ff203411
Department14-University3-Lecturer4,ff203412
Department14-University3-Lecturer5,ff203413
Department14-University4-Lecturer0,ff203414
Department14-University4-Lecturer1,ff203415
Department14-University4-Lecturer2,ff203416
Department14-University4-Lecturer3,ff203417
Department14-University4-Lecturer4,ff203418
Department14-University4-Lecturer5,ff203419
Department14-University4-Lecturer6,ff203420
Department14-University5-Lecturer0,ff203421
Department14-University5-Lecturer1,ff203422
Department14-University5-Lecturer2,ff203423
Department14-University5-Lecturer3,ff203424
Department14-University5-Lecturer4,ff203425
Department14-University5-Lecturer5,ff203426
Department14-University6-Lecturer0,ff203427
Department14-University6-Lecturer1,ff203428
Department14-University6-Lecturer2,ff203429
Department14-University6-Lecturer3,ff203430
Department14-University6-Lecturer4,ff203431
Department14-University6-Lecturer5,ff203432
Department14-University7-Lecturer0,ff203433
Department14-University7-Lecturer1,ff203434
Department14-University7-Lecturer2,ff203435
Department14-University7-Lecturer3,ff203436
Department14-University7-Lecturer4,ff203437
Department14-University7-Lecturer5,ff203438
Department14-University8-Lecturer0,ff203439
Department14-University8-Lecturer1,ff203440
Department14-University8-Lecturer2,ff203441
Department14-University8-Lecturer3,ff203442
Department14-University8-Lecturer4,ff203443
Department14-University8-Lecturer5,ff203444
Department14-University9-Lecturer0,ff203445
Department14-University9-Lecturer1,ff203446
Department14-University9-Lecturer2,ff203447
Department14-University9-Lecturer3,ff203448
Department14-University9-Lecturer4,ff203449
Department15-University1-Lecturer0,ff203450
Department15-University1-Lecturer1,ff203451
Department15-University1-Lecturer2,ff203452
Department15-University1-Lecturer3,ff203453
Department15-University1-Lecturer4,ff203454
Department15-University2-Lecturer0,ff203455
Department15-University2-Lecturer1,ff203456
Department15-University2-Lecturer2,ff203457
Department15-University2-Lecturer3,ff203458
Department15-University2-Lecturer4,ff203459
Department15-University2-Lecturer5,ff203460
Department15-University2-Lecturer6,ff203461
Department15-University3-Lecturer0,ff203462
Department15-University3-Lecturer1,ff203463
Department15-University3-Lecturer2,ff203464
Department15-University3-Lecturer3,ff203465
Department15-University3-Lecturer4,ff203466
Department15-University3-Lecturer5,ff203467
Department15-University4-Lecturer0,ff203468
Department15-University4-Lecturer1,ff203469
Department15-University4-Lecturer2,ff203470
Department15-University4-Lecturer3,ff203471
Department15-University4-Lecturer4,ff203472
Department15-University4-Lecturer5,ff203473
Department15-University4-Lecturer6,ff203474
Department15-University6-Lecturer0,ff203475
Department15-University6-Lecturer1,ff203476
Department15-University6-Lecturer2,ff203477
Department15-University6-Lecturer3,ff203478
Department15-University6-Lecturer4,ff203479
Department15-University6-Lecturer5,ff203480
Department15-University7-Lecturer0,ff203481
Department15-University7-Lecturer1,ff203482
Department15-University7-Lecturer2,ff203483
Department15-University7-Lecturer3,ff203484
Department15-University7-Lecturer4,ff203485
Department15-University7-Lecturer5,ff203486
Department15-University7-Lecturer6,ff203487
Department15-University8-Lecturer0,ff203488
Department15-University8-Lecturer1,ff203489
Department15-University8-Lecturer2,ff203490
Department15-University8-Lecturer3,ff203491
Department15-University8-Lecturer4,ff203492
Department15-University8-Lecturer5,ff203493
Department15-University9-Lecturer0,ff203494
Department15-University9-Lecturer1,ff203495
Department15-University9-Lecturer2,ff203496
Department15-University9-Lecturer3,ff203497
Department15-University9-Lecturer4,ff203498
Department15-University9-Lecturer5,ff203499
Department16-University1-Lecturer0,ff203500
Department16-University1-Lecturer1,ff203501
Department16-University1-Lecturer2,ff203502
Department16-University1-Lecturer3,ff203503
Department16-University1-Lecturer4,ff203504
Department16-University1-Lecturer5,ff203505
Department16-University3-Lecturer0,ff203506
Department16-University3-Lecturer1,ff203507
Department16-University3-Lecturer2,ff203508
Department16-University3-Lecturer3,ff203509
Department16-University3-Lecturer4,ff203510
Department16-University3-Lecturer5,ff203511
Department16-University4-Lecturer0,ff203512
Department16-University4-Lecturer1,ff203513
Department16-University4-Lecturer2,ff203514
Department16-University4-Lecturer3,ff203515
Department16-University4-Lecturer4,ff203516
Department16-University4-Lecturer5,ff203517
Department16-University6-Lecturer0,ff203518
Department16-University6-Lecturer1,ff203519
Department16-University6-Lecturer2,ff203520
Department16-University6-Lecturer3,ff203521
Department16-University6-Lecturer4,ff203522
Department16-University6-Lecturer5,ff203523
Department16-University6-Lecturer6,ff203524
Department16-University7-Lecturer0,ff203525
Department16-University7-Lecturer1,ff203526
Department16-University7-Lecturer2,ff203527
Department16-University7-Lecturer3,ff203528
Department16-University7-Lecturer4,ff203529
Department16-University8-Lecturer0,ff203530
Department16-University8-Lecturer1,ff203531
Department16-University8-Lecturer2,ff203532
Department16-University8-Lecturer3,ff203533
Department16-University8-Lecturer4,ff203534
Department16-University8-Lecturer5,ff203535
Department16-University9-Lecturer0,ff203536
Department16-University9-Lecturer1,ff203537
Department16-University9-Lecturer2,ff203538
Department16-University9-Lecturer3,ff203539
Department16-University9-Lecturer4,ff203540
Department17-University1-Lecturer0,ff203541
Department17-University1-Lecturer1,ff203542
Department17-University1-Lecturer2,ff203543
Department17-University1-Lecturer3,ff203544
Department17-University1-Lecturer4,ff203545
Department17-University1-Lecturer5,ff203546
Department17-University1-Lecturer6,ff203547
Department17-University3-Lecturer0,ff203548
Department17-University3-Lecturer1,ff203549
Department17-University3-Lecturer2,ff203550
Department17-University3-Lecturer3,ff203551
Department17-University3-Lecturer4,ff203552
Department17-University3-Lecturer5,ff203553
Department17-University3-Lecturer6,ff203554
Department17-University4-Lecturer0,ff203555
Department17-University4-Lecturer1,ff203556
Department17-University4-Lecturer2,ff203557
Department17-University4-Lecturer3,ff203558
Department17-University4-Lecturer4,ff203559
Department17-University4-Lecturer5,ff203560
Department17-University4-Lecturer6,ff203561
Department17-University6-Lecturer0,ff203562
Department17-University6-Lecturer1,ff203563
Department17-University6-Lecturer2,ff203564
Department17-University6-Lecturer3,ff203565
Department17-University6-Lecturer4,ff203566
Department17-University8-Lecturer0,ff203567
Department17-University8-Lecturer1,ff203568
Department17-University8-Lecturer2,ff203569
Department17-University8-Lecturer3,ff203570
Department17-University8-Lecturer4,ff203571
Department17-University8-Lecturer5,ff203572
Department17-University8-Lecturer6,ff203573
Department17-University9-Lecturer0,ff203574
Department17-University9-Lecturer1,ff203575
Department17-University9-Lecturer2,ff203576
Department17-University9-Lecturer3,ff203577
Department17-University9-Lecturer4,ff203578
Department17-University9-Lecturer5,ff203579
Department18-University1-Lecturer0,ff203580
Department18-University1-Lecturer1,ff203581
Department18-University1-Lecturer2,ff203582
Department18-University1-Lecturer3,ff203583
Department18-University1-Lecturer4,ff203584
Department18-University3-Lecturer0,ff203585
Department18-University3-Lecturer1,ff203586
Department18-University3-Lecturer2,ff203587
Department18-University3-Lecturer3,ff203588
Department18-University3-Lecturer4,ff203589
Department18-University3-Lecturer5,ff203590
Department18-University4-Lecturer0,ff203591
Department18-University4-Lecturer1,ff203592
Department18-University4-Lecturer2,ff203593
Department18-University4-Lecturer3,ff203594
Department18-University4-Lecturer4,ff203595
Department18-University6-Lecturer0,ff203596
Department18-University6-Lecturer1,ff203597
Department18-University6-Lecturer2,ff203598
Department18-University6-Lecturer3,ff203599
Department18-University6-Lecturer4,ff203600
Department18-University6-Lecturer5,ff203601
Department18-University9-Lecturer0,ff203602
Department18-University9-Lecturer1,ff203603
Department18-University9-Lecturer2,ff203604
Department18-University9-Lecturer3,ff203605
Department18-University9-Lecturer4,ff203606
Department19-University3-Lecturer0,ff203607
Department19-University3-Lecturer1,ff203608
Department19-University3-Lecturer2,ff203609
Department19-University3-Lecturer3,ff203610
Department19-University3-Lecturer4,ff203611
Department19-University4-Lecturer0,ff203612
Department19-University4-Lecturer1,ff203613
Department19-University4-Lecturer2,ff203614
Department19-University4-Lecturer3,ff203615
Department19-University4-Lecturer4,ff203616
Department19-University4-Lecturer5,ff203617
Department19-University6-Lecturer0,ff203618
Department19-University6-Lecturer1,ff203619
Department19-University6-Lecturer2,ff203620
Department19-University6-Lecturer3,ff203621
Department19-University6-Lecturer4,ff203622
Department19-University6-Lecturer5,ff203623
Department19-University9-Lecturer0,ff203624
Department19-University9-Lecturer1,ff203625
Department19-University9-Lecturer2,ff203626
Department19-University9-Lecturer3,ff203627
Department19-University9-Lecturer4,ff203628
Department1-University0-Lecturer0,ff203629
Department1-University0-Lecturer1,ff203630
Department1-University0-Lecturer2,ff203631
Department1-University0-Lecturer3,ff203632
Department1-University0-Lecturer4,ff203633
Department1-University0-Lecturer5,ff203634
Department1-University1-Lecturer0,ff203635
Department1-University1-Lecturer1,ff203636
Department1-University1-Lecturer2,ff203637
Department1-University1-Lecturer3,ff203638
Department1-University1-Lecturer4,ff203639
Department1-University2-Lecturer0,ff203640
Department1-University2-Lecturer1,ff203641
Department1-University2-Lecturer2,ff203642
Department1-University2-Lecturer3,ff203643
Department1-University2-Lecturer4,ff203644
Department1-University3-Lecturer0,ff203645
Department1-University3-Lecturer1,ff203646
Department1-University3-Lecturer2,ff203647
Department1-University3-Lecturer3,ff203648
Department1-University3-Lecturer4,ff203649
Department1-University3-Lecturer5,ff203650
Department1-University3-Lecturer6,ff203651
Department1-University4-Lecturer0,ff203652
Department1-University4-Lecturer1,ff203653
Department1-University4-Lecturer2,ff203654
Department1-University4-Lecturer3,ff203655
Department1-University4-Lecturer4,ff203656
Department1-University4-Lecturer5,ff203657
Department1-University4-Lecturer6,ff203658
Department1-University5-Lecturer0,ff203659
Department1-University5-Lecturer1,ff203660
Department1-University5-Lecturer2,ff203661
Department1-University5-Lecturer3,ff203662
Department1-University5-Lecturer4,ff203663
Department1-University5-Lecturer5,ff203664
Department1-University6-Lecturer0,ff203665
Department1-University6-Lecturer1,ff203666
Department1-University6-Lecturer2,ff203667
Department1-University6-Lecturer3,ff203668
Department1-University6-Lecturer4,ff203669
Department1-University6-Lecturer5,ff203670
Department1-University7-Lecturer0,ff203671
Department1-University7-Lecturer1,ff203672
Department1-University7-Lecturer2,ff203673
Department1-University7-Lecturer3,ff203674
Department1-University7-Lecturer4,ff203675
Department1-University7-Lecturer5,ff203676
Department1-University7-Lecturer6,ff203677
Department1-University8-Lecturer0,ff203678
Department1-University8-Lecturer1,ff203679
Department1-University8-Lecturer2,ff203680
Department1-University8-Lecturer3,ff203681
Department1-University8-Lecturer4,ff203682
Department1-University8-Lecturer5,ff203683
Department1-University9-Lecturer0,ff203684
Department1-University9-Lecturer1,ff203685
Department1-University9-Lecturer2,ff203686
Department1-University9-Lecturer3,ff203687
Department1-University9-Lecturer4,ff203688
Department1-University9-Lecturer5,ff203689
Department1-University9-Lecturer6,ff203690
Department20-University3-Lecturer0,ff203691
Department20-University3-Lecturer1,ff203692
Department20-University3-Lecturer2,ff203693
Department20-University3-Lecturer3,ff203694
Department20-University3-Lecturer4,ff203695
Department20-University4-Lecturer0,ff203696
Department20-University4-Lecturer1,ff203697
Department20-University4-Lecturer2,ff203698
Department20-University4-Lecturer3,ff203699
Department20-University4-Lecturer4,ff203700
Department20-University6-Lecturer0,ff203701
Department20-University6-Lecturer1,ff203702
Department20-University6-Lecturer2,ff203703
Department20-University6-Lecturer3,ff203704
Department20-University6-Lecturer4,ff203705
Department20-University9-Lecturer0,ff203706
Department20-University9-Lecturer1,ff203707
Department20-University9-Lecturer2,ff203708
Department20-University9-Lecturer3,ff203709
Department20-University9-Lecturer4,ff203710
Department21-University4-Lecturer0,ff203711
Department21-University4-Lecturer1,ff203712
Department21-University4-Lecturer2,ff203713
Department21-University4-Lecturer3,ff203714
Department21-University4-Lecturer4,ff203715
Department21-University4-Lecturer5,ff203716
Department21-University4-Lecturer6,ff203717
Department21-University6-Lecturer0,ff203718
Department21-University6-Lecturer1,ff203719
Department21-University6-Lecturer2,ff203720
Department21-University6-Lecturer3,ff203721
Department21-University6-Lecturer4,ff203722
Department21-University6-Lecturer5,ff203723
Department21-University9-Lecturer0,ff203724
Department21-University9-Lecturer1,ff203725
Department21-University9-Lecturer2,ff203726
Department21-University9-Lecturer3,ff203727
Department21-University9-Lecturer4,ff203728
Department21-University9-Lecturer5,ff203729
Department22-University6-Lecturer0,ff203730
Department22-University6-Lecturer1,ff203731
Department22-University6-Lecturer2,ff203732
Department22-University6-Lecturer3,ff203733
Department22-University6-Lecturer4,ff203734
Department22-University6-Lecturer5,ff203735
Department22-University6-Lecturer6,ff203736
Department23-University6-Lecturer0,ff203737
Department23-University6-Lecturer1,ff203738
Department23-University6-Lecturer2,ff203739
Department23-University6-Lecturer3,ff203740
Department23-University6-Lecturer4,ff203741
Department2-University0-Lecturer0,ff203742
Department2-University0-Lecturer1,ff203743
Department2-University0-Lecturer2,ff203744
Department2-University0-Lecturer3,ff203745
Department2-University0-Lecturer4,ff203746
Department2-University0-Lecturer5,ff203747
Department2-University0-Lecturer6,ff203748
Department2-University1-Lecturer0,ff203749
Department2-University1-Lecturer1,ff203750
Department2-University1-Lecturer2,ff203751
Department2-University1-Lecturer3,ff203752
Department2-University1-Lecturer4,ff203753
Department2-University1-Lecturer5,ff203754
Department2-University1-Lecturer6,ff203755
Department2-University2-Lecturer0,ff203756
Department2-University2-Lecturer1,ff203757
Department2-University2-Lecturer2,ff203758
Department2-University2-Lecturer3,ff203759
Department2-University2-Lecturer4,ff203760
Department2-University2-Lecturer5,ff203761
Department2-University3-Lecturer0,ff203762
Department2-University3-Lecturer1,ff203763
Department2-University3-Lecturer2,ff203764
Department2-University3-Lecturer3,ff203765
Department2-University3-Lecturer4,ff203766
Department2-University3-Lecturer5,ff203767
Department2-University4-Lecturer0,ff203768
Department2-University4-Lecturer1,ff203769
Department2-University4-Lecturer2,ff203770
Department2-University4-Lecturer3,ff203771
Department2-University4-Lecturer4,ff203772
Department2-University4-Lecturer5,ff203773
Department2-University5-Lecturer0,ff203774
Department2-University5-Lecturer1,ff203775
Department2-University5-Lecturer2,ff203776
Department2-University5-Lecturer3,ff203777
Department2-University5-Lecturer4,ff203778
Department2-University5-Lecturer5,ff203779
Department2-University6-Lecturer0,ff203780
Department2-University6-Lecturer1,ff203781
Department2-University6-Lecturer2,ff203782
Department2-University6-Lecturer3,ff203783
Department2-University6-Lecturer4,ff203784
Department2-University6-Lecturer5,ff203785
Department2-University6-Lecturer6,ff203786
Department2-University7-Lecturer0,ff203787
Department2-University7-Lecturer1,ff203788
Department2-University7-Lecturer2,ff203789
Department2-University7-Lecturer3,ff203790
Department2-University7-Lecturer4,ff203791
Department2-University8-Lecturer0,ff203792
Department2-University8-Lecturer1,ff203793
Department2-University8-Lecturer2,ff203794
Department2-University8-Lecturer3,ff203795
Department2-University8-Lecturer4,ff203796
Department2-University8-Lecturer5,ff203797
Department2-University9-Lecturer0,ff203798
Department2-University9-Lecturer1,ff203799
Department2-University9-Lecturer2,ff203800
Department2-University9-Lecturer3,ff203801
Department2-University9-Lecturer4,ff203802
Department3-University0-Lecturer0,ff203803
Department3-University0-Lecturer1,ff203804
Department3-University0-Lecturer2,ff203805
Department3-University0-Lecturer3,ff203806
Department3-University0-Lecturer4,ff203807
Department3-University0-Lecturer5,ff203808
Department3-University1-Lecturer0,ff203809
Department3-University1-Lecturer1,ff203810
Department3-University1-Lecturer2,ff203811
Department3-University1-Lecturer3,ff203812
Department3-University1-Lecturer4,ff203813
Department3-University1-Lecturer5,ff203814
Department3-University1-Lecturer6,ff203815
Department3-University2-Lecturer0,ff203816
Department3-University2-Lecturer1,ff203817
Department3-University2-Lecturer2,ff203818
Department3-University2-Lecturer3,ff203819
Department3-University2-Lecturer4,ff203820
Department3-University2-Lecturer5,ff203821
Department3-University3-Lecturer0,ff203822
Department3-University3-Lecturer1,ff203823
Department3-University3-Lecturer2,ff203824
Department3-University3-Lecturer3,ff203825
Department3-University3-Lecturer4,ff203826
Department3-University3-Lecturer5,ff203827
Department3-University4-Lecturer0,ff203828
Department3-University4-Lecturer1,ff203829
Department3-University4-Lecturer2,ff203830
Department3-University4-Lecturer3,ff203831
Department3-University4-Lecturer4,ff203832
Department3-University5-Lecturer0,ff203833
Department3-University5-Lecturer1,ff203834
Department3-University5-Lecturer2,ff203835
Department3-University5-Lecturer3,ff203836
Department3-University5-Lecturer4,ff203837
Department3-University6-Lecturer0,ff203838
Department3-University6-Lecturer1,ff203839
Department3-University6-Lecturer2,ff203840
Department3-University6-Lecturer3,ff203841
Department3-University6-Lecturer4,ff203842
Department3-University7-Lecturer0,ff203843
Department3-University7-Lecturer1,ff203844
Department3-University7-Lecturer2,ff203845
Department3-University7-Lecturer3,ff203846
Department3-University7-Lecturer4,ff203847
Department3-University7-Lecturer5,ff203848
Department3-University8-Lecturer0,ff203849
Department3-University8-Lecturer1,ff203850
Department3-University8-Lecturer2,ff203851
Department3-University8-Lecturer3,ff203852
Department3-University8-Lecturer4,ff203853
Department3-University9-Lecturer0,ff203854
Department3-University9-Lecturer1,ff203855
Department3-University9-Lecturer2,ff203856
Department3-University9-Lecturer3,ff203857
Department3-University9-Lecturer4,ff203858
Department4-University0-Lecturer0,ff203859
Department4-University0-Lecturer1,ff203860
Department4-University0-Lecturer2,ff203861
Department4-University0-Lecturer3,ff203862
Department4-University0-Lecturer4,ff203863
Department4-University0-Lecturer5,ff203864
Department4-University0-Lecturer6,ff203865
Department4-University1-Lecturer0,ff203866
Department4-University1-Lecturer1,ff203867
Department4-University1-Lecturer2,ff203868
Department4-University1-Lecturer3,ff203869
Department4-University1-Lecturer4,ff203870
Department4-University1-Lecturer5,ff203871
Department4-University1-Lecturer6,ff203872
Department4-University2-Lecturer0,ff203873
Department4-University2-Lecturer1,ff203874
Department4-University2-Lecturer2,ff203875
Department4-University2-Lecturer3,ff203876
Department4-University2-Lecturer4,ff203877
Department4-University2-Lecturer5,ff203878
Department4-University3-Lecturer0,ff203879
Department4-University3-Lecturer1,ff203880
Department4-University3-Lecturer2,ff203881
Department4-University3-Lecturer3,ff203882
Department4-University3-Lecturer4,ff203883
Department4-University3-Lecturer5,ff203884
Department4-University4-Lecturer0,ff203885
Department4-University4-Lecturer1,ff203886
Department4-University4-Lecturer2,ff203887
Department4-University4-Lecturer3,ff203888
Department4-University4-Lecturer4,ff203889
Department4-University4-Lecturer5,ff203890
Department4-University5-Lecturer0,ff203891
Department4-University5-Lecturer1,ff203892
Department4-University5-Lecturer2,ff203893
Department4-University5-Lecturer3,ff203894
Department4-University5-Lecturer4,ff203895
Department4-University6-Lecturer0,ff203896
Department4-University6-Lecturer1,ff203897
Department4-University6-Lecturer2,ff203898
Department4-University6-Lecturer3,ff203899
Department4-University6-Lecturer4,ff203900
Department4-University6-Lecturer5,ff203901
Department4-University7-Lecturer0,ff203902
Department4-University7-Lecturer1,ff203903
Department4-University7-Lecturer2,ff203904
Department4-University7-Lecturer3,ff203905
Department4-University7-Lecturer4,ff203906
Department4-University7-Lecturer5,ff203907
Department4-University8-Lecturer0,ff203908
Department4-University8-Lecturer1,ff203909
Department4-University8-Lecturer2,ff203910
Department4-University8-Lecturer3,ff203911
Department4-University8-Lecturer4,ff203912
Department4-University9-Lecturer0,ff203913
Department4-University9-Lecturer1,ff203914
Department4-University9-Lecturer2,ff203915
Department4-University9-Lecturer3,ff203916
Department4-University9-Lecturer4,ff203917
Department5-University0-Lecturer0,ff203918
Department5-University0-Lecturer1,ff203919
Department5-University0-Lecturer2,ff203920
Department5-University0-Lecturer3,ff203921
Department5-University0-Lecturer4,ff203922
Department5-University0-Lecturer5,ff203923
Department5-University1-Lecturer0,ff203924
Department5-University1-Lecturer1,ff203925
Department5-University1-Lecturer2,ff203926
Department5-University1-Lecturer3,ff203927
Department5-University1-Lecturer4,ff203928
Department5-University1-Lecturer5,ff203929
Department5-University1-Lecturer6,ff203930
Department5-University2-Lecturer0,ff203931
Department5-University2-Lecturer1,ff203932
Department5-University2-Lecturer2,ff203933
Department5-University2-Lecturer3,ff203934
Department5-University2-Lecturer4,ff203935
Department5-University2-Lecturer5,ff203936
Department5-University2-Lecturer6,ff203937
Department5-University3-Lecturer0,ff203938
Department5-University3-Lecturer1,ff203939
Department5-University3-Lecturer2,ff203940
Department5-University3-Lecturer3,ff203941
Department5-University3-Lecturer4,ff203942
Department5-University4-Lecturer0,ff203943
Department5-University4-Lecturer1,ff203944
Department5-University4-Lecturer2,ff203945
Department5-University4-Lecturer3,ff203946
Department5-University4-Lecturer4,ff203947
Department5-University5-Lecturer0,ff203948
Department5-University5-Lecturer1,ff203949
Department5-University5-Lecturer2,ff203950
Department5-University5-Lecturer3,ff203951
Department5-University5-Lecturer4,ff203952
Department5-University5-Lecturer5,ff203953
Department5-University5-Lecturer6,ff203954
Department5-University6-Lecturer0,ff203955
Department5-University6-Lecturer1,ff203956
Department5-University6-Lecturer2,ff203957
Department5-University6-Lecturer3,ff203958
Department5-University6-Lecturer4,ff203959
Department5-University7-Lecturer0,ff203960
Department5-University7-Lecturer1,ff203961
Department5-University7-Lecturer2,ff203962
Department5-University7-Lecturer3,ff203963
Department5-University7-Lecturer4,ff203964
Department5-University7-Lecturer5,ff203965
Department5-University7-Lecturer6,ff203966
Department5-University8-Lecturer0,ff203967
Department5-University8-Lecturer1,ff203968
Department5-University8-Lecturer2,ff203969
Department5-University8-Lecturer3,ff203970
Department5-University8-Lecturer4,ff203971
Department5-University8-Lecturer5,ff203972
Department5-University9-Lecturer0,ff203973
Department5-University9-Lecturer1,ff203974
Department5-University9-Lecturer2,ff203975
Department5-University9-Lecturer3,ff203976
Department5-University9-Lecturer4,ff203977
Department5-University9-Lecturer5,ff203978
Department5-University9-Lecturer6,ff203979
Department6-University0-Lecturer0,ff203980
Department6-University0-Lecturer1,ff203981
Department6-University0-Lecturer2,ff203982
Department6-University0-Lecturer3,ff203983
Department6-University0-Lecturer4,ff203984
Department6-University0-Lecturer5,ff203985
Department6-University1-Lecturer0,ff203986
Department6-University1-Lecturer1,ff203987
Department6-University1-Lecturer2,ff203988
Department6-University1-Lecturer3,ff203989
Department6-University1-Lecturer4,ff203990
Department6-University1-Lecturer5,ff203991
Department6-University1-Lecturer6,ff203992
Department6-University2-Lecturer0,ff203993
Department6-University2-Lecturer1,ff203994
Department6-University2-Lecturer2,ff203995
Department6-University2-Lecturer3,ff203996
Department6-University2-Lecturer4,ff203997
Department6-University2-Lecturer5,ff203998
Department6-University2-Lecturer6,ff203999
Department6-University3-Lecturer0,ff204000
Department6-University3-Lecturer1,ff204001
Department6-University3-Lecturer2,ff204002
Department6-University3-Lecturer3,ff204003
Department6-University3-Lecturer4,ff204004
Department6-University4-Lecturer0,ff204005
Department6-University4-Lecturer1,ff204006
Department6-University4-Lecturer2,ff204007
Department6-University4-Lecturer3,ff204008
Department6-University4-Lecturer4,ff204009
Department6-University5-Lecturer0,ff204010
Department6-University5-Lecturer1,ff204011
Department6-University5-Lecturer2,ff204012
Department6-University5-Lecturer3,ff204013
Department6-University5-Lecturer4,ff204014
Department6-University6-Lecturer0,ff204015
Department6-University6-Lecturer1,ff204016
Department6-University6-Lecturer2,ff204017
Department6-University6-Lecturer3,ff204018
Department6-University6-Lecturer4,ff204019
Department6-University7-Lecturer0,ff204020
Department6-University7-Lecturer1,ff204021
Department6-University7-Lecturer2,ff204022
Department6-University7-Lecturer3,ff204023
Department6-University7-Lecturer4,ff204024
Department6-University8-Lecturer0,ff204025
Department6-University8-Lecturer1,ff204026
Department6-University8-Lecturer2,ff204027
Department6-University8-Lecturer3,ff204028
Department6-University8-Lecturer4,ff204029
Department6-University8-Lecturer5,ff204030
Department6-University8-Lecturer6,ff204031
Department6-University9-Lecturer0,ff204032
Department6-University9-Lecturer1,ff204033
Department6-University9-Lecturer2,ff204034
Department6-University9-Lecturer3,ff204035
Department6-University9-Lecturer4,ff204036
Department7-University0-Lecturer0,ff204037
Department7-University0-Lecturer1,ff204038
Department7-University0-Lecturer2,ff204039
Department7-University0-Lecturer3,ff204040
Department7-University0-Lecturer4,ff204041
Department7-University0-Lecturer5,ff204042
Department7-University1-Lecturer0,ff204043
Department7-University1-Lecturer1,ff204044
Department7-University1-Lecturer2,ff204045
Department7-University1-Lecturer3,ff204046
Department7-University1-Lecturer4,ff204047
Department7-University1-Lecturer5,ff204048
Department7-University1-Lecturer6,ff204049
Department7-University2-Lecturer0,ff204050
Department7-University2-Lecturer1,ff204051
Department7-University2-Lecturer2,ff204052
Department7-University2-Lecturer3,ff204053
Department7-University2-Lecturer4,ff204054
Department7-University3-Lecturer0,ff204055
Department7-University3-Lecturer1,ff204056
Department7-University3-Lecturer2,ff204057
Department7-University3-Lecturer3,ff204058
Department7-University3-Lecturer4,ff204059
Department7-University3-Lecturer5,ff204060
Department7-University4-Lecturer0,ff204061
Department7-University4-Lecturer1,ff204062
Department7-University4-Lecturer2,ff204063
Department7-University4-Lecturer3,ff204064
Department7-University4-Lecturer4,ff204065
Department7-University4-Lecturer5,ff204066
Department7-University5-Lecturer0,ff204067
Department7-University5-Lecturer1,ff204068
Department7-University5-Lecturer2,ff204069
Department7-University5-Lecturer3,ff204070
Department7-University5-Lecturer4,ff204071
Department7-University5-Lecturer5,ff204072
Department7-University5-Lecturer6,ff204073
Department7-University6-Lecturer0,ff204074
Department7-University6-Lecturer1,ff204075
Department7-University6-Lecturer2,ff204076
Department7-University6-Lecturer3,ff204077
Department7-University6-Lecturer4,ff204078
Department7-University6-Lecturer5,ff204079
Department7-University7-Lecturer0,ff204080
Department7-University7-Lecturer1,ff204081
Department7-University7-Lecturer2,ff204082
Department7-University7-Lecturer3,ff204083
Department7-University7-Lecturer4,ff204084
Department7-University8-Lecturer0,ff204085
Department7-University8-Lecturer1,ff204086
Department7-University8-Lecturer2,ff204087
Department7-University8-Lecturer3,ff204088
Department7-University8-Lecturer4,ff204089
Department7-University8-Lecturer5,ff204090
Department7-University8-Lecturer6,ff204091
Department7-University9-Lecturer0,ff204092
Department7-University9-Lecturer1,ff204093
Department7-University9-Lecturer2,ff204094
Department7-University9-Lecturer3,ff204095
Department7-University9-Lecturer4,ff204096
Department7-University9-Lecturer5,ff204097
Department8-University0-Lecturer0,ff204098
Department8-University0-Lecturer1,ff204099
Department8-University0-Lecturer2,ff204100
Department8-University0-Lecturer3,ff204101
Department8-University0-Lecturer4,ff204102
Department8-University0-Lecturer5,ff204103
Department8-University1-Lecturer0,ff204104
Department8-University1-Lecturer1,ff204105
Department8-University1-Lecturer2,ff204106
Department8-University1-Lecturer3,ff204107
Department8-University1-Lecturer4,ff204108
Department8-University1-Lecturer5,ff204109
Department8-University1-Lecturer6,ff204110
Department8-University2-Lecturer0,ff204111
Department8-University2-Lecturer1,ff204112
Department8-University2-Lecturer2,ff204113
Department8-University2-Lecturer3,ff204114
Department8-University2-Lecturer4,ff204115
Department8-University3-Lecturer0,ff204116
Department8-University3-Lecturer1,ff204117
Department8-University3-Lecturer2,ff204118
Department8-University3-Lecturer3,ff204119
Department8-University3-Lecturer4,ff204120
Department8-University4-Lecturer0,ff204121
Department8-University4-Lecturer1,ff204122
Department8-University4-Lecturer2,ff204123
Department8-University4-Lecturer3,ff204124
Department8-University4-Lecturer4,ff204125
Department8-University4-Lecturer5,ff204126
Department8-University5-Lecturer0,ff204127
Department8-University5-Lecturer1,ff204128
Department8-University5-Lecturer2,ff204129
Department8-University5-Lecturer3,ff204130
Department8-University5-Lecturer4,ff204131
Department8-University6-Lecturer0,ff204132
Department8-University6-Lecturer1,ff204133
Department8-University6-Lecturer2,ff204134
Department8-University6-Lecturer3,ff204135
Department8-University6-Lecturer4,ff204136
Department8-University7-Lecturer0,ff204137
Department8-University7-Lecturer1,ff204138
Department8-University7-Lecturer2,ff204139
Department8-University7-Lecturer3,ff204140
Department8-University7-Lecturer4,ff204141
Department8-University7-Lecturer5,ff204142
Department8-University7-Lecturer6,ff204143
Department8-University8-Lecturer0,ff204144
Department8-University8-Lecturer1,ff204145
Department8-University8-Lecturer2,ff204146
Department8-University8-Lecturer3,ff204147
Department8-University8-Lecturer4,ff204148
Department8-University8-Lecturer5,ff204149
Department8-University9-Lecturer0,ff204150
Department8-University9-Lecturer1,ff204151
Department8-University9-Lecturer2,ff204152
Department8-University9-Lecturer3,ff204153
Department8-University9-Lecturer4,ff204154
Department8-University9-Lecturer5,ff204155
Department9-University0-Lecturer0,ff204156
Department9-University0-Lecturer1,ff204157
Department9-University0-Lecturer2,ff204158
Department9-University0-Lecturer3,ff204159
Department9-University0-Lecturer4,ff204160
Department9-University0-Lecturer5,ff204161
Department9-University0-Lecturer6,ff204162
Department9-University1-Lecturer0,ff204163
Department9-University1-Lecturer1,ff204164
Department9-University1-Lecturer2,ff204165
Department9-University1-Lecturer3,ff204166
Department9-University1-Lecturer4,ff204167
Department9-University1-Lecturer5,ff204168
Department9-University2-Lecturer0,ff204169
Department9-University2-Lecturer1,ff204170
Department9-University2-Lecturer2,ff204171
Department9-University2-Lecturer3,ff204172
Department9-University2-Lecturer4,ff204173
Department9-University2-Lecturer5,ff204174
Department9-University2-Lecturer6,ff204175
Department9-University3-Lecturer0,ff204176
Department9-University3-Lecturer1,ff204177
Department9-University3-Lecturer2,ff204178
Department9-University3-Lecturer3,ff204179
Department9-University3-Lecturer4,ff204180
Department9-University3-Lecturer5,ff204181
Department9-University3-Lecturer6,ff204182
Department9-University4-Lecturer0,ff204183
Department9-University4-Lecturer1,ff204184
Department9-University4-Lecturer2,ff204185
Department9-University4-Lecturer3,ff204186
Department9-University4-Lecturer4,ff204187
Department9-University4-Lecturer5,ff204188
Department9-University5-Lecturer0,ff204189
Department9-University5-Lecturer1,ff204190
Department9-University5-Lecturer2,ff204191
Department9-University5-Lecturer3,ff204192
Department9-University5-Lecturer4,ff204193
Department9-University5-Lecturer5,ff204194
Department9-University5-Lecturer6,ff204195
Department9-University6-Lecturer0,ff204196
Department9-University6-Lecturer1,ff204197
Department9-University6-Lecturer2,ff204198
Department9-University6-Lecturer3,ff204199
Department9-University6-Lecturer4,ff204200
Department9-University7-Lecturer0,ff204201
Department9-University7-Lecturer1,ff204202
Department9-University7-Lecturer2,ff204203
Department9-University7-Lecturer3,ff204204
Department9-University7-Lecturer4,ff204205
Department9-University7-Lecturer5,ff204206
Department9-University8-Lecturer0,ff204207
Department9-University8-Lecturer1,ff204208
Department9-University8-Lecturer2,ff204209
Department9-University8-Lecturer3,ff204210
Department9-University8-Lecturer4,ff204211
Department9-University8-Lecturer5,ff204212
Department9-University8-Lecturer6,ff204213
Department9-University9-Lecturer0,ff204214
Department9-University9-Lecturer1,ff204215
Department9-University9-Lecturer2,ff204216
Department9-University9-Lecturer3,ff204217
Department9-University9-Lecturer4,ff204218
