p4,p11
p11,p4
p12,p13
p13,p12
p9,p11
p11,p9
p5,p11
p11,p5
p1,p5
p5,p1
p8,p14
p14,p8
p1,p4
p4,p1
p4,p14
p14,p4
p3,p6
p6,p3
p7,p14
p14,p7
p8,p10
p10,p8
p6,p11
p11,p6
p4,p6
p6,p4
p4,p7
p7,p4
p2,p3
p3,p2
p11,p12
p12,p11
p1,p8
p8,p1
p1,p2
p2,p1
p5,p8
p8,p5
