p11,p17
p17,p11
p1,p11
p11,p1
p15,p17
p17,p15
p3,p17
p17,p3
p2,p19
p19,p2
p14,p19
p19,p14
p3,p7
p7,p3
p3,p18
p18,p3
p4,p9
p9,p4
p7,p18
p18,p7
p8,p9
p9,p8
p10,p12
p12,p10
p6,p7
p7,p6
p10,p15
p15,p10
p3,p6
p6,p3
p10,p11
p11,p10
p3,p15
p15,p3
p2,p12
p12,p2
p9,p16
p16,p9
p2,p7
p7,p2
p5,p9
p9,p5
p2,p11
p11,p2
p3,p8
p8,p3
p6,p12
p12,p6
p2,p3
p3,p2
p11,p12
p12,p11
p1,p17
p17,p1
p7,p9
p9,p7
p10,p13
p13,p10
p6,p18
p18,p6
p1,p2
p2,p1
