Department0-University0-AssistantProfessor0,ff3101
Department0-University0-AssistantProfessor1,ff3102
Department0-University0-AssistantProfessor2,ff3103
Department0-University0-AssistantProfessor3,ff3104
Department0-University0-AssistantProfessor4,ff3105
Department0-University0-AssistantProfessor5,ff3106
Department0-University0-AssistantProfessor6,ff3107
Department0-University0-AssistantProfessor7,ff3108
Department0-University0-AssistantProfessor8,ff3109
Department0-University0-AssistantProfessor9,ff3110
Department1-University0-AssistantProfessor0,ff3111
Department1-University0-AssistantProfessor1,ff3112
Department1-University0-AssistantProfessor2,ff3113
Department1-University0-AssistantProfessor3,ff3114
Department1-University0-AssistantProfessor4,ff3115
Department1-University0-AssistantProfessor5,ff3116
Department1-University0-AssistantProfessor6,ff3117
Department1-University0-AssistantProfessor7,ff3118
Department10-University0-AssistantProfessor0,ff3119
Department10-University0-AssistantProfessor1,ff3120
Department10-University0-AssistantProfessor2,ff3121
Department10-University0-AssistantProfessor3,ff3122
Department10-University0-AssistantProfessor4,ff3123
Department10-University0-AssistantProfessor5,ff3124
Department10-University0-AssistantProfessor6,ff3125
Department10-University0-AssistantProfessor7,ff3126
Department10-University0-AssistantProfessor8,ff3127
Department10-University0-AssistantProfessor9,ff3128
Department10-University0-AssistantProfessor10,ff3129
Department11-University0-AssistantProfessor0,ff3130
Department11-University0-AssistantProfessor1,ff3131
Department11-University0-AssistantProfessor2,ff3132
Department11-University0-AssistantProfessor3,ff3133
Department11-University0-AssistantProfessor4,ff3134
Department11-University0-AssistantProfessor5,ff3135
Department11-University0-AssistantProfessor6,ff3136
Department11-University0-AssistantProfessor7,ff3137
Department11-University0-AssistantProfessor8,ff3138
Department11-University0-AssistantProfessor9,ff3139
Department11-University0-AssistantProfessor10,ff3140
Department12-University0-AssistantProfessor0,ff3141
Department12-University0-AssistantProfessor1,ff3142
Department12-University0-AssistantProfessor2,ff3143
Department12-University0-AssistantProfessor3,ff3144
Department12-University0-AssistantProfessor4,ff3145
Department12-University0-AssistantProfessor5,ff3146
Department12-University0-AssistantProfessor6,ff3147
Department12-University0-AssistantProfessor7,ff3148
Department12-University0-AssistantProfessor8,ff3149
Department12-University0-AssistantProfessor9,ff3150
Department12-University0-AssistantProfessor10,ff3151
Department13-University0-AssistantProfessor0,ff3152
Department13-University0-AssistantProfessor1,ff3153
Department13-University0-AssistantProfessor2,ff3154
Department13-University0-AssistantProfessor3,ff3155
Department13-University0-AssistantProfessor4,ff3156
Department13-University0-AssistantProfessor5,ff3157
Department13-University0-AssistantProfessor6,ff3158
Department13-University0-AssistantProfessor7,ff3159
Department13-University0-AssistantProfessor8,ff3160
Department13-University0-AssistantProfessor9,ff3161
Department13-University0-AssistantProfessor10,ff3162
Department14-University0-AssistantProfessor0,ff3163
Department14-University0-AssistantProfessor1,ff3164
Department14-University0-AssistantProfessor2,ff3165
Department14-University0-AssistantProfessor3,ff3166
Department14-University0-AssistantProfessor4,ff3167
Department14-University0-AssistantProfessor5,ff3168
Department14-University0-AssistantProfessor6,ff3169
Department14-University0-AssistantProfessor7,ff3170
Department2-University0-AssistantProfessor0,ff3171
Department2-University0-AssistantProfessor1,ff3172
Department2-University0-AssistantProfessor2,ff3173
Department2-University0-AssistantProfessor3,ff3174
Department2-University0-AssistantProfessor4,ff3175
Department2-University0-AssistantProfessor5,ff3176
Department2-University0-AssistantProfessor6,ff3177
Department2-University0-AssistantProfessor7,ff3178
Department3-University0-AssistantProfessor0,ff3179
Department3-University0-AssistantProfessor1,ff3180
Department3-University0-AssistantProfessor2,ff3181
Department3-University0-AssistantProfessor3,ff3182
Department3-University0-AssistantProfessor4,ff3183
Department3-University0-AssistantProfessor5,ff3184
Department3-University0-AssistantProfessor6,ff3185
Department3-University0-AssistantProfessor7,ff3186
Department3-University0-AssistantProfessor8,ff3187
Department3-University0-AssistantProfessor9,ff3188
Department4-University0-AssistantProfessor0,ff3189
Department4-University0-AssistantProfessor1,ff3190
Department4-University0-AssistantProfessor2,ff3191
Department4-University0-AssistantProfessor3,ff3192
Department4-University0-AssistantProfessor4,ff3193
Department4-University0-AssistantProfessor5,ff3194
Department4-University0-AssistantProfessor6,ff3195
Department4-University0-AssistantProfessor7,ff3196
Department4-University0-AssistantProfessor8,ff3197
Department4-University0-AssistantProfessor9,ff3198
Department5-University0-AssistantProfessor0,ff3199
Department5-University0-AssistantProfessor1,ff3200
Department5-University0-AssistantProfessor2,ff3201
Department5-University0-AssistantProfessor3,ff3202
Department5-University0-AssistantProfessor4,ff3203
Department5-University0-AssistantProfessor5,ff3204
Department5-University0-AssistantProfessor6,ff3205
Department5-University0-AssistantProfessor7,ff3206
Department6-University0-AssistantProfessor0,ff3207
Department6-University0-AssistantProfessor1,ff3208
Department6-University0-AssistantProfessor2,ff3209
Department6-University0-AssistantProfessor3,ff3210
Department6-University0-AssistantProfessor4,ff3211
Department6-University0-AssistantProfessor5,ff3212
Department6-University0-AssistantProfessor6,ff3213
Department6-University0-AssistantProfessor7,ff3214
Department7-University0-AssistantProfessor0,ff3215
Department7-University0-AssistantProfessor1,ff3216
Department7-University0-AssistantProfessor2,ff3217
Department7-University0-AssistantProfessor3,ff3218
Department7-University0-AssistantProfessor4,ff3219
Department7-University0-AssistantProfessor5,ff3220
Department7-University0-AssistantProfessor6,ff3221
Department7-University0-AssistantProfessor7,ff3222
Department7-University0-AssistantProfessor8,ff3223
Department7-University0-AssistantProfessor9,ff3224
Department8-University0-AssistantProfessor0,ff3225
Department8-University0-AssistantProfessor1,ff3226
Department8-University0-AssistantProfessor2,ff3227
Department8-University0-AssistantProfessor3,ff3228
Department8-University0-AssistantProfessor4,ff3229
Department8-University0-AssistantProfessor5,ff3230
Department8-University0-AssistantProfessor6,ff3231
Department8-University0-AssistantProfessor7,ff3232
Department8-University0-AssistantProfessor8,ff3233
Department8-University0-AssistantProfessor9,ff3234
Department8-University0-AssistantProfessor10,ff3235
Department9-University0-AssistantProfessor0,ff3236
Department9-University0-AssistantProfessor1,ff3237
Department9-University0-AssistantProfessor2,ff3238
Department9-University0-AssistantProfessor3,ff3239
Department9-University0-AssistantProfessor4,ff3240
Department9-University0-AssistantProfessor5,ff3241
Department9-University0-AssistantProfessor6,ff3242
Department9-University0-AssistantProfessor7,ff3243
Department9-University0-AssistantProfessor8,ff3244
Department9-University0-AssistantProfessor9,ff3245
Department9-University0-AssistantProfessor10,ff3246
