wait,w752
valu,w737
utexa,w734 
tcl,w681
sum,w664 
street,w654 
shown,w619
screen,w594 
score,w593
save,w586
refin,w556 
queue,w542 
qualit,w538
pst,w533 
particl,w482 
mime,w423 
metacrawl,w418 
madison,w391
integ,w327
independ,w312 
handout,w283 
grant,w273
enter,w210 
deriv,w167 
cornell,w136
column,w105 
choos,w93 
bug,w74
approxim,w31 
alloc,w19 
algebra,w17 
stack,w644 
ident,w301 
fault,w235 
char,w90
circuit,w94
iter,w341 
van,w738
step,w651 
friend,w258 
seattl,w596
prove,w531
signal,w623
int,w326
add,w11 
india,w314
sept,w607
syllabu,w672
danc,w150
devic,w175
anim,w23
west,w758 
cpu,w143 
failur,w231
directli,w179 
instructor,w325 
music,w442
midterm,w422
id,w299
ut,w733
surfac,w670 
count,w139 
switch,w671 
left,w365 
sp,w638 
doesn,w188 
figur,w241
mpeg,w437 
handl,w282 
minut,w424 
workstat,w767 
url,w730
true,w716 
quiz,w543
sign,w622 
homework,w291
style,w660 
sens,w604
announc,w24 
wa,w751 
doubl,w191 
ny,w457
paramet,w479 
cluster,w100 
record,w553
wi,w759
matlab,w410 
uw,w736 
ncsa,w446 
cell,w85 
(mode),w428 
kernel,w353
aug,w48 
calcul,w81 
frame,w254 
tx,w721
ladner,w357 
coordin,w133 
faculti,w230 
