p20,p20,fff60
p20,p19,fff61
p20,p18,fff62
p20,p17,fff63
p20,p16,fff64
p20,p15,fff65
p20,p14,fff66
p20,p13,fff67
p20,p12,fff68
p20,p11,fff69
p20,p10,fff70
p20,p9,fff71
p20,p8,fff72
p20,p7,fff73
p20,p6,fff74
p20,p5,fff75
p20,p4,fff76
p20,p3,fff77
p20,p2,fff78
p20,p1,fff79
p19,p20,fff80
p19,p19,fff81
p19,p18,fff82
p19,p17,fff83
p19,p16,fff84
p19,p15,fff85
p19,p14,fff86
p19,p13,fff87
p19,p12,fff88
p19,p11,fff89
p19,p10,fff90
p19,p9,fff91
p19,p8,fff92
p19,p7,fff93
p19,p6,fff94
p19,p5,fff95
p19,p4,fff96
p19,p3,fff97
p19,p2,fff98
p19,p1,fff99
p18,p20,fff100
p18,p19,fff101
p18,p18,fff102
p18,p17,fff103
p18,p16,fff104
p18,p15,fff105
p18,p14,fff106
p18,p13,fff107
p18,p12,fff108
p18,p11,fff109
p18,p10,fff110
p18,p9,fff111
p18,p8,fff112
p18,p7,fff113
p18,p6,fff114
p18,p5,fff115
p18,p4,fff116
p18,p3,fff117
p18,p2,fff118
p18,p1,fff119
p17,p20,fff120
p17,p19,fff121
p17,p18,fff122
p17,p17,fff123
p17,p16,fff124
p17,p15,fff125
p17,p14,fff126
p17,p13,fff127
p17,p12,fff128
p17,p11,fff129
p17,p10,fff130
p17,p9,fff131
p17,p8,fff132
p17,p7,fff133
p17,p6,fff134
p17,p5,fff135
p17,p4,fff136
p17,p3,fff137
p17,p2,fff138
p17,p1,fff139
p16,p20,fff140
p16,p19,fff141
p16,p18,fff142
p16,p17,fff143
p16,p16,fff144
p16,p15,fff145
p16,p14,fff146
p16,p13,fff147
p16,p12,fff148
p16,p11,fff149
p16,p10,fff150
p16,p9,fff151
p16,p8,fff152
p16,p7,fff153
p16,p6,fff154
p16,p5,fff155
p16,p4,fff156
p16,p3,fff157
p16,p2,fff158
p16,p1,fff159
p15,p20,fff160
p15,p19,fff161
p15,p18,fff162
p15,p17,fff163
p15,p16,fff164
p15,p15,fff165
p15,p14,fff166
p15,p13,fff167
p15,p12,fff168
p15,p11,fff169
p15,p10,fff170
p15,p9,fff171
p15,p8,fff172
p15,p7,fff173
p15,p6,fff174
p15,p5,fff175
p15,p4,fff176
p15,p3,fff177
p15,p2,fff178
p15,p1,fff179
p14,p20,fff180
p14,p19,fff181
p14,p18,fff182
p14,p17,fff183
p14,p16,fff184
p14,p15,fff185
p14,p14,fff186
p14,p13,fff187
p14,p12,fff188
p14,p11,fff189
p14,p10,fff190
p14,p9,fff191
p14,p8,fff192
p14,p7,fff193
p14,p6,fff194
p14,p5,fff195
p14,p4,fff196
p14,p3,fff197
p14,p2,fff198
p14,p1,fff199
p13,p20,fff200
p13,p19,fff201
p13,p18,fff202
p13,p17,fff203
p13,p16,fff204
p13,p15,fff205
p13,p14,fff206
p13,p13,fff207
p13,p12,fff208
p13,p11,fff209
p13,p10,fff210
p13,p9,fff211
p13,p8,fff212
p13,p7,fff213
p13,p6,fff214
p13,p5,fff215
p13,p4,fff216
p13,p3,fff217
p13,p2,fff218
p13,p1,fff219
p12,p20,fff220
p12,p19,fff221
p12,p18,fff222
p12,p17,fff223
p12,p16,fff224
p12,p15,fff225
p12,p14,fff226
p12,p13,fff227
p12,p12,fff228
p12,p11,fff229
p12,p10,fff230
p12,p9,fff231
p12,p8,fff232
p12,p7,fff233
p12,p6,fff234
p12,p5,fff235
p12,p4,fff236
p12,p3,fff237
p12,p2,fff238
p12,p1,fff239
p11,p20,fff240
p11,p19,fff241
p11,p18,fff242
p11,p17,fff243
p11,p16,fff244
p11,p15,fff245
p11,p14,fff246
p11,p13,fff247
p11,p12,fff248
p11,p11,fff249
p11,p10,fff250
p11,p9,fff251
p11,p8,fff252
p11,p7,fff253
p11,p6,fff254
p11,p5,fff255
p11,p4,fff256
p11,p3,fff257
p11,p2,fff258
p11,p1,fff259
p10,p20,fff260
p10,p19,fff261
p10,p18,fff262
p10,p17,fff263
p10,p16,fff264
p10,p15,fff265
p10,p14,fff266
p10,p13,fff267
p10,p12,fff268
p10,p11,fff269
p10,p10,fff270
p10,p9,fff271
p10,p8,fff272
p10,p7,fff273
p10,p6,fff274
p10,p5,fff275
p10,p4,fff276
p10,p3,fff277
p10,p2,fff278
p10,p1,fff279
p9,p20,fff280
p9,p19,fff281
p9,p18,fff282
p9,p17,fff283
p9,p16,fff284
p9,p15,fff285
p9,p14,fff286
p9,p13,fff287
p9,p12,fff288
p9,p11,fff289
p9,p10,fff290
p9,p9,fff291
p9,p8,fff292
p9,p7,fff293
p9,p6,fff294
p9,p5,fff295
p9,p4,fff296
p9,p3,fff297
p9,p2,fff298
p9,p1,fff299
p8,p20,fff300
p8,p19,fff301
p8,p18,fff302
p8,p17,fff303
p8,p16,fff304
p8,p15,fff305
p8,p14,fff306
p8,p13,fff307
p8,p12,fff308
p8,p11,fff309
p8,p10,fff310
p8,p9,fff311
p8,p8,fff312
p8,p7,fff313
p8,p6,fff314
p8,p5,fff315
p8,p4,fff316
p8,p3,fff317
p8,p2,fff318
p8,p1,fff319
p7,p20,fff320
p7,p19,fff321
p7,p18,fff322
p7,p17,fff323
p7,p16,fff324
p7,p15,fff325
p7,p14,fff326
p7,p13,fff327
p7,p12,fff328
p7,p11,fff329
p7,p10,fff330
p7,p9,fff331
p7,p8,fff332
p7,p7,fff333
p7,p6,fff334
p7,p5,fff335
p7,p4,fff336
p7,p3,fff337
p7,p2,fff338
p7,p1,fff339
p6,p20,fff340
p6,p19,fff341
p6,p18,fff342
p6,p17,fff343
p6,p16,fff344
p6,p15,fff345
p6,p14,fff346
p6,p13,fff347
p6,p12,fff348
p6,p11,fff349
p6,p10,fff350
p6,p9,fff351
p6,p8,fff352
p6,p7,fff353
p6,p6,fff354
p6,p5,fff355
p6,p4,fff356
p6,p3,fff357
p6,p2,fff358
p6,p1,fff359
p5,p20,fff360
p5,p19,fff361
p5,p18,fff362
p5,p17,fff363
p5,p16,fff364
p5,p15,fff365
p5,p14,fff366
p5,p13,fff367
p5,p12,fff368
p5,p11,fff369
p5,p10,fff370
p5,p9,fff371
p5,p8,fff372
p5,p7,fff373
p5,p6,fff374
p5,p5,fff375
p5,p4,fff376
p5,p3,fff377
p5,p2,fff378
p5,p1,fff379
p4,p20,fff380
p4,p19,fff381
p4,p18,fff382
p4,p17,fff383
p4,p16,fff384
p4,p15,fff385
p4,p14,fff386
p4,p13,fff387
p4,p12,fff388
p4,p11,fff389
p4,p10,fff390
p4,p9,fff391
p4,p8,fff392
p4,p7,fff393
p4,p6,fff394
p4,p5,fff395
p4,p4,fff396
p4,p3,fff397
p4,p2,fff398
p4,p1,fff399
p3,p20,fff400
p3,p19,fff401
p3,p18,fff402
p3,p17,fff403
p3,p16,fff404
p3,p15,fff405
p3,p14,fff406
p3,p13,fff407
p3,p12,fff408
p3,p11,fff409
p3,p10,fff410
p3,p9,fff411
p3,p8,fff412
p3,p7,fff413
p3,p6,fff414
p3,p5,fff415
p3,p4,fff416
p3,p3,fff417
p3,p2,fff418
p3,p1,fff419
p2,p20,fff420
p2,p19,fff421
p2,p18,fff422
p2,p17,fff423
p2,p16,fff424
p2,p15,fff425
p2,p14,fff426
p2,p13,fff427
p2,p12,fff428
p2,p11,fff429
p2,p10,fff430
p2,p9,fff431
p2,p8,fff432
p2,p7,fff433
p2,p6,fff434
p2,p5,fff435
p2,p4,fff436
p2,p3,fff437
p2,p2,fff438
p2,p1,fff439
p1,p20,fff440
p1,p19,fff441
p1,p18,fff442
p1,p17,fff443
p1,p16,fff444
p1,p15,fff445
p1,p14,fff446
p1,p13,fff447
p1,p12,fff448
p1,p11,fff449
p1,p10,fff450
p1,p9,fff451
p1,p8,fff452
p1,p7,fff453
p1,p6,fff454
p1,p5,fff455
p1,p4,fff456
p1,p3,fff457
p1,p2,fff458
p1,p1,fff459
