Department0-University0,University0,ff58195
Department0-University0-ResearchGroup0,Department0-University0,ff58196
Department0-University0-ResearchGroup1,Department0-University0,ff58197
Department0-University0-ResearchGroup2,Department0-University0,ff58198
Department0-University0-ResearchGroup3,Department0-University0,ff58199
Department0-University0-ResearchGroup4,Department0-University0,ff58200
Department0-University0-ResearchGroup5,Department0-University0,ff58201
Department0-University0-ResearchGroup6,Department0-University0,ff58202
Department0-University0-ResearchGroup7,Department0-University0,ff58203
Department0-University0-ResearchGroup8,Department0-University0,ff58204
Department0-University0-ResearchGroup9,Department0-University0,ff58205
Department1-University0,University0,ff58206
Department1-University0-ResearchGroup0,Department1-University0,ff58207
Department1-University0-ResearchGroup1,Department1-University0,ff58208
Department1-University0-ResearchGroup2,Department1-University0,ff58209
Department1-University0-ResearchGroup3,Department1-University0,ff58210
Department1-University0-ResearchGroup4,Department1-University0,ff58211
Department1-University0-ResearchGroup5,Department1-University0,ff58212
Department1-University0-ResearchGroup6,Department1-University0,ff58213
Department1-University0-ResearchGroup7,Department1-University0,ff58214
Department1-University0-ResearchGroup8,Department1-University0,ff58215
Department1-University0-ResearchGroup9,Department1-University0,ff58216
Department1-University0-ResearchGroup10,Department1-University0,ff58217
Department1-University0-ResearchGroup11,Department1-University0,ff58218
Department1-University0-ResearchGroup12,Department1-University0,ff58219
Department1-University0-ResearchGroup13,Department1-University0,ff58220
Department1-University0-ResearchGroup14,Department1-University0,ff58221
Department1-University0-ResearchGroup15,Department1-University0,ff58222
Department1-University0-ResearchGroup16,Department1-University0,ff58223
Department1-University0-ResearchGroup17,Department1-University0,ff58224
Department1-University0-ResearchGroup18,Department1-University0,ff58225
Department10-University0,University0,ff58226
Department10-University0-ResearchGroup0,Department10-University0,ff58227
Department10-University0-ResearchGroup1,Department10-University0,ff58228
Department10-University0-ResearchGroup2,Department10-University0,ff58229
Department10-University0-ResearchGroup3,Department10-University0,ff58230
Department10-University0-ResearchGroup4,Department10-University0,ff58231
Department10-University0-ResearchGroup5,Department10-University0,ff58232
Department10-University0-ResearchGroup6,Department10-University0,ff58233
Department10-University0-ResearchGroup7,Department10-University0,ff58234
Department10-University0-ResearchGroup8,Department10-University0,ff58235
Department10-University0-ResearchGroup9,Department10-University0,ff58236
Department10-University0-ResearchGroup10,Department10-University0,ff58237
Department10-University0-ResearchGroup11,Department10-University0,ff58238
Department10-University0-ResearchGroup12,Department10-University0,ff58239
Department10-University0-ResearchGroup13,Department10-University0,ff58240
Department10-University0-ResearchGroup14,Department10-University0,ff58241
Department11-University0,University0,ff58242
Department11-University0-ResearchGroup0,Department11-University0,ff58243
Department11-University0-ResearchGroup1,Department11-University0,ff58244
Department11-University0-ResearchGroup2,Department11-University0,ff58245
Department11-University0-ResearchGroup3,Department11-University0,ff58246
Department11-University0-ResearchGroup4,Department11-University0,ff58247
Department11-University0-ResearchGroup5,Department11-University0,ff58248
Department11-University0-ResearchGroup6,Department11-University0,ff58249
Department11-University0-ResearchGroup7,Department11-University0,ff58250
Department11-University0-ResearchGroup8,Department11-University0,ff58251
Department11-University0-ResearchGroup9,Department11-University0,ff58252
Department11-University0-ResearchGroup10,Department11-University0,ff58253
Department11-University0-ResearchGroup11,Department11-University0,ff58254
Department11-University0-ResearchGroup12,Department11-University0,ff58255
Department12-University0,University0,ff58256
Department12-University0-ResearchGroup0,Department12-University0,ff58257
Department12-University0-ResearchGroup1,Department12-University0,ff58258
Department12-University0-ResearchGroup2,Department12-University0,ff58259
Department12-University0-ResearchGroup3,Department12-University0,ff58260
Department12-University0-ResearchGroup4,Department12-University0,ff58261
Department12-University0-ResearchGroup5,Department12-University0,ff58262
Department12-University0-ResearchGroup6,Department12-University0,ff58263
Department12-University0-ResearchGroup7,Department12-University0,ff58264
Department12-University0-ResearchGroup8,Department12-University0,ff58265
Department12-University0-ResearchGroup9,Department12-University0,ff58266
Department12-University0-ResearchGroup10,Department12-University0,ff58267
Department13-University0,University0,ff58268
Department13-University0-ResearchGroup0,Department13-University0,ff58269
Department13-University0-ResearchGroup1,Department13-University0,ff58270
Department13-University0-ResearchGroup2,Department13-University0,ff58271
Department13-University0-ResearchGroup3,Department13-University0,ff58272
Department13-University0-ResearchGroup4,Department13-University0,ff58273
Department13-University0-ResearchGroup5,Department13-University0,ff58274
Department13-University0-ResearchGroup6,Department13-University0,ff58275
Department13-University0-ResearchGroup7,Department13-University0,ff58276
Department13-University0-ResearchGroup8,Department13-University0,ff58277
Department13-University0-ResearchGroup9,Department13-University0,ff58278
Department13-University0-ResearchGroup10,Department13-University0,ff58279
Department13-University0-ResearchGroup11,Department13-University0,ff58280
Department13-University0-ResearchGroup12,Department13-University0,ff58281
Department14-University0,University0,ff58282
Department14-University0-ResearchGroup0,Department14-University0,ff58283
Department14-University0-ResearchGroup1,Department14-University0,ff58284
Department14-University0-ResearchGroup2,Department14-University0,ff58285
Department14-University0-ResearchGroup3,Department14-University0,ff58286
Department14-University0-ResearchGroup4,Department14-University0,ff58287
Department14-University0-ResearchGroup5,Department14-University0,ff58288
Department14-University0-ResearchGroup6,Department14-University0,ff58289
Department14-University0-ResearchGroup7,Department14-University0,ff58290
Department14-University0-ResearchGroup8,Department14-University0,ff58291
Department14-University0-ResearchGroup9,Department14-University0,ff58292
Department14-University0-ResearchGroup10,Department14-University0,ff58293
Department14-University0-ResearchGroup11,Department14-University0,ff58294
Department2-University0,University0,ff58295
Department2-University0-ResearchGroup0,Department2-University0,ff58296
Department2-University0-ResearchGroup1,Department2-University0,ff58297
Department2-University0-ResearchGroup2,Department2-University0,ff58298
Department2-University0-ResearchGroup3,Department2-University0,ff58299
Department2-University0-ResearchGroup4,Department2-University0,ff58300
Department2-University0-ResearchGroup5,Department2-University0,ff58301
Department2-University0-ResearchGroup6,Department2-University0,ff58302
Department2-University0-ResearchGroup7,Department2-University0,ff58303
Department2-University0-ResearchGroup8,Department2-University0,ff58304
Department2-University0-ResearchGroup9,Department2-University0,ff58305
Department2-University0-ResearchGroup10,Department2-University0,ff58306
Department2-University0-ResearchGroup11,Department2-University0,ff58307
Department2-University0-ResearchGroup12,Department2-University0,ff58308
Department3-University0,University0,ff58309
Department3-University0-ResearchGroup0,Department3-University0,ff58310
Department3-University0-ResearchGroup1,Department3-University0,ff58311
Department3-University0-ResearchGroup2,Department3-University0,ff58312
Department3-University0-ResearchGroup3,Department3-University0,ff58313
Department3-University0-ResearchGroup4,Department3-University0,ff58314
Department3-University0-ResearchGroup5,Department3-University0,ff58315
Department3-University0-ResearchGroup6,Department3-University0,ff58316
Department3-University0-ResearchGroup7,Department3-University0,ff58317
Department3-University0-ResearchGroup8,Department3-University0,ff58318
Department3-University0-ResearchGroup9,Department3-University0,ff58319
Department3-University0-ResearchGroup10,Department3-University0,ff58320
Department3-University0-ResearchGroup11,Department3-University0,ff58321
Department3-University0-ResearchGroup12,Department3-University0,ff58322
Department3-University0-ResearchGroup13,Department3-University0,ff58323
Department3-University0-ResearchGroup14,Department3-University0,ff58324
Department3-University0-ResearchGroup15,Department3-University0,ff58325
Department3-University0-ResearchGroup16,Department3-University0,ff58326
Department3-University0-ResearchGroup17,Department3-University0,ff58327
Department4-University0,University0,ff58328
Department4-University0-ResearchGroup0,Department4-University0,ff58329
Department4-University0-ResearchGroup1,Department4-University0,ff58330
Department4-University0-ResearchGroup2,Department4-University0,ff58331
Department4-University0-ResearchGroup3,Department4-University0,ff58332
Department4-University0-ResearchGroup4,Department4-University0,ff58333
Department4-University0-ResearchGroup5,Department4-University0,ff58334
Department4-University0-ResearchGroup6,Department4-University0,ff58335
Department4-University0-ResearchGroup7,Department4-University0,ff58336
Department4-University0-ResearchGroup8,Department4-University0,ff58337
Department4-University0-ResearchGroup9,Department4-University0,ff58338
Department4-University0-ResearchGroup10,Department4-University0,ff58339
Department4-University0-ResearchGroup11,Department4-University0,ff58340
Department4-University0-ResearchGroup12,Department4-University0,ff58341
Department4-University0-ResearchGroup13,Department4-University0,ff58342
Department4-University0-ResearchGroup14,Department4-University0,ff58343
Department4-University0-ResearchGroup15,Department4-University0,ff58344
Department4-University0-ResearchGroup16,Department4-University0,ff58345
Department4-University0-ResearchGroup17,Department4-University0,ff58346
Department4-University0-ResearchGroup18,Department4-University0,ff58347
Department4-University0-ResearchGroup19,Department4-University0,ff58348
Department5-University0,University0,ff58349
Department5-University0-ResearchGroup0,Department5-University0,ff58350
Department5-University0-ResearchGroup1,Department5-University0,ff58351
Department5-University0-ResearchGroup2,Department5-University0,ff58352
Department5-University0-ResearchGroup3,Department5-University0,ff58353
Department5-University0-ResearchGroup4,Department5-University0,ff58354
Department5-University0-ResearchGroup5,Department5-University0,ff58355
Department5-University0-ResearchGroup6,Department5-University0,ff58356
Department5-University0-ResearchGroup7,Department5-University0,ff58357
Department5-University0-ResearchGroup8,Department5-University0,ff58358
Department5-University0-ResearchGroup9,Department5-University0,ff58359
Department5-University0-ResearchGroup10,Department5-University0,ff58360
Department5-University0-ResearchGroup11,Department5-University0,ff58361
Department5-University0-ResearchGroup12,Department5-University0,ff58362
Department5-University0-ResearchGroup13,Department5-University0,ff58363
Department6-University0,University0,ff58364
Department6-University0-ResearchGroup0,Department6-University0,ff58365
Department6-University0-ResearchGroup1,Department6-University0,ff58366
Department6-University0-ResearchGroup2,Department6-University0,ff58367
Department6-University0-ResearchGroup3,Department6-University0,ff58368
Department6-University0-ResearchGroup4,Department6-University0,ff58369
Department6-University0-ResearchGroup5,Department6-University0,ff58370
Department6-University0-ResearchGroup6,Department6-University0,ff58371
Department6-University0-ResearchGroup7,Department6-University0,ff58372
Department6-University0-ResearchGroup8,Department6-University0,ff58373
Department6-University0-ResearchGroup9,Department6-University0,ff58374
Department6-University0-ResearchGroup10,Department6-University0,ff58375
Department6-University0-ResearchGroup11,Department6-University0,ff58376
Department6-University0-ResearchGroup12,Department6-University0,ff58377
Department6-University0-ResearchGroup13,Department6-University0,ff58378
Department6-University0-ResearchGroup14,Department6-University0,ff58379
Department6-University0-ResearchGroup15,Department6-University0,ff58380
Department7-University0,University0,ff58381
Department7-University0-ResearchGroup0,Department7-University0,ff58382
Department7-University0-ResearchGroup1,Department7-University0,ff58383
Department7-University0-ResearchGroup2,Department7-University0,ff58384
Department7-University0-ResearchGroup3,Department7-University0,ff58385
Department7-University0-ResearchGroup4,Department7-University0,ff58386
Department7-University0-ResearchGroup5,Department7-University0,ff58387
Department7-University0-ResearchGroup6,Department7-University0,ff58388
Department7-University0-ResearchGroup7,Department7-University0,ff58389
Department7-University0-ResearchGroup8,Department7-University0,ff58390
Department7-University0-ResearchGroup9,Department7-University0,ff58391
Department7-University0-ResearchGroup10,Department7-University0,ff58392
Department7-University0-ResearchGroup11,Department7-University0,ff58393
Department7-University0-ResearchGroup12,Department7-University0,ff58394
Department7-University0-ResearchGroup13,Department7-University0,ff58395
Department7-University0-ResearchGroup14,Department7-University0,ff58396
Department7-University0-ResearchGroup15,Department7-University0,ff58397
Department7-University0-ResearchGroup16,Department7-University0,ff58398
Department7-University0-ResearchGroup17,Department7-University0,ff58399
Department7-University0-ResearchGroup18,Department7-University0,ff58400
Department7-University0-ResearchGroup19,Department7-University0,ff58401
Department8-University0,University0,ff58402
Department8-University0-ResearchGroup0,Department8-University0,ff58403
Department8-University0-ResearchGroup1,Department8-University0,ff58404
Department8-University0-ResearchGroup2,Department8-University0,ff58405
Department8-University0-ResearchGroup3,Department8-University0,ff58406
Department8-University0-ResearchGroup4,Department8-University0,ff58407
Department8-University0-ResearchGroup5,Department8-University0,ff58408
Department8-University0-ResearchGroup6,Department8-University0,ff58409
Department8-University0-ResearchGroup7,Department8-University0,ff58410
Department8-University0-ResearchGroup8,Department8-University0,ff58411
Department8-University0-ResearchGroup9,Department8-University0,ff58412
Department8-University0-ResearchGroup10,Department8-University0,ff58413
Department8-University0-ResearchGroup11,Department8-University0,ff58414
Department8-University0-ResearchGroup12,Department8-University0,ff58415
Department8-University0-ResearchGroup13,Department8-University0,ff58416
Department8-University0-ResearchGroup14,Department8-University0,ff58417
Department8-University0-ResearchGroup15,Department8-University0,ff58418
Department8-University0-ResearchGroup16,Department8-University0,ff58419
Department8-University0-ResearchGroup17,Department8-University0,ff58420
Department9-University0,University0,ff58421
Department9-University0-ResearchGroup0,Department9-University0,ff58422
Department9-University0-ResearchGroup1,Department9-University0,ff58423
Department9-University0-ResearchGroup2,Department9-University0,ff58424
Department9-University0-ResearchGroup3,Department9-University0,ff58425
Department9-University0-ResearchGroup4,Department9-University0,ff58426
Department9-University0-ResearchGroup5,Department9-University0,ff58427
Department9-University0-ResearchGroup6,Department9-University0,ff58428
Department9-University0-ResearchGroup7,Department9-University0,ff58429
Department9-University0-ResearchGroup8,Department9-University0,ff58430
Department9-University0-ResearchGroup9,Department9-University0,ff58431
Department9-University0-ResearchGroup10,Department9-University0,ff58432
Department9-University0-ResearchGroup11,Department9-University0,ff58433
