Department0-University0-AssociateProfessor0,ff3247
Department0-University0-AssociateProfessor1,ff3248
Department0-University0-AssociateProfessor2,ff3249
Department0-University0-AssociateProfessor3,ff3250
Department0-University0-AssociateProfessor4,ff3251
Department0-University0-AssociateProfessor5,ff3252
Department0-University0-AssociateProfessor6,ff3253
Department0-University0-AssociateProfessor7,ff3254
Department0-University0-AssociateProfessor8,ff3255
Department0-University0-AssociateProfessor9,ff3256
Department0-University0-AssociateProfessor10,ff3257
Department0-University0-AssociateProfessor11,ff3258
Department0-University0-AssociateProfessor12,ff3259
Department0-University0-AssociateProfessor13,ff3260
Department1-University0-AssociateProfessor0,ff3261
Department1-University0-AssociateProfessor1,ff3262
Department1-University0-AssociateProfessor2,ff3263
Department1-University0-AssociateProfessor3,ff3264
Department1-University0-AssociateProfessor4,ff3265
Department1-University0-AssociateProfessor5,ff3266
Department1-University0-AssociateProfessor6,ff3267
Department1-University0-AssociateProfessor7,ff3268
Department1-University0-AssociateProfessor8,ff3269
Department1-University0-AssociateProfessor9,ff3270
Department10-University0-AssociateProfessor0,ff3271
Department10-University0-AssociateProfessor1,ff3272
Department10-University0-AssociateProfessor2,ff3273
Department10-University0-AssociateProfessor3,ff3274
Department10-University0-AssociateProfessor4,ff3275
Department10-University0-AssociateProfessor5,ff3276
Department10-University0-AssociateProfessor6,ff3277
Department10-University0-AssociateProfessor7,ff3278
Department10-University0-AssociateProfessor8,ff3279
Department10-University0-AssociateProfessor9,ff3280
Department10-University0-AssociateProfessor10,ff3281
Department11-University0-AssociateProfessor0,ff3282
Department11-University0-AssociateProfessor1,ff3283
Department11-University0-AssociateProfessor2,ff3284
Department11-University0-AssociateProfessor3,ff3285
Department11-University0-AssociateProfessor4,ff3286
Department11-University0-AssociateProfessor5,ff3287
Department11-University0-AssociateProfessor6,ff3288
Department11-University0-AssociateProfessor7,ff3289
Department11-University0-AssociateProfessor8,ff3290
Department11-University0-AssociateProfessor9,ff3291
Department11-University0-AssociateProfessor10,ff3292
Department11-University0-AssociateProfessor11,ff3293
Department11-University0-AssociateProfessor12,ff3294
Department11-University0-AssociateProfessor13,ff3295
Department12-University0-AssociateProfessor0,ff3296
Department12-University0-AssociateProfessor1,ff3297
Department12-University0-AssociateProfessor2,ff3298
Department12-University0-AssociateProfessor3,ff3299
Department12-University0-AssociateProfessor4,ff3300
Department12-University0-AssociateProfessor5,ff3301
Department12-University0-AssociateProfessor6,ff3302
Department12-University0-AssociateProfessor7,ff3303
Department12-University0-AssociateProfessor8,ff3304
Department12-University0-AssociateProfessor9,ff3305
Department12-University0-AssociateProfessor10,ff3306
Department13-University0-AssociateProfessor0,ff3307
Department13-University0-AssociateProfessor1,ff3308
Department13-University0-AssociateProfessor2,ff3309
Department13-University0-AssociateProfessor3,ff3310
Department13-University0-AssociateProfessor4,ff3311
Department13-University0-AssociateProfessor5,ff3312
Department13-University0-AssociateProfessor6,ff3313
Department13-University0-AssociateProfessor7,ff3314
Department13-University0-AssociateProfessor8,ff3315
Department13-University0-AssociateProfessor9,ff3316
Department13-University0-AssociateProfessor10,ff3317
Department13-University0-AssociateProfessor11,ff3318
Department13-University0-AssociateProfessor12,ff3319
Department13-University0-AssociateProfessor13,ff3320
Department14-University0-AssociateProfessor0,ff3321
Department14-University0-AssociateProfessor1,ff3322
Department14-University0-AssociateProfessor2,ff3323
Department14-University0-AssociateProfessor3,ff3324
Department14-University0-AssociateProfessor4,ff3325
Department14-University0-AssociateProfessor5,ff3326
Department14-University0-AssociateProfessor6,ff3327
Department14-University0-AssociateProfessor7,ff3328
Department14-University0-AssociateProfessor8,ff3329
Department14-University0-AssociateProfessor9,ff3330
Department14-University0-AssociateProfessor10,ff3331
Department14-University0-AssociateProfessor11,ff3332
Department2-University0-AssociateProfessor0,ff3333
Department2-University0-AssociateProfessor1,ff3334
Department2-University0-AssociateProfessor2,ff3335
Department2-University0-AssociateProfessor3,ff3336
Department2-University0-AssociateProfessor4,ff3337
Department2-University0-AssociateProfessor5,ff3338
Department2-University0-AssociateProfessor6,ff3339
Department2-University0-AssociateProfessor7,ff3340
Department2-University0-AssociateProfessor8,ff3341
Department2-University0-AssociateProfessor9,ff3342
Department2-University0-AssociateProfessor10,ff3343
Department2-University0-AssociateProfessor11,ff3344
Department3-University0-AssociateProfessor0,ff3345
Department3-University0-AssociateProfessor1,ff3346
Department3-University0-AssociateProfessor2,ff3347
Department3-University0-AssociateProfessor3,ff3348
Department3-University0-AssociateProfessor4,ff3349
Department3-University0-AssociateProfessor5,ff3350
Department3-University0-AssociateProfessor6,ff3351
Department3-University0-AssociateProfessor7,ff3352
Department3-University0-AssociateProfessor8,ff3353
Department3-University0-AssociateProfessor9,ff3354
Department3-University0-AssociateProfessor10,ff3355
Department3-University0-AssociateProfessor11,ff3356
Department4-University0-AssociateProfessor0,ff3357
Department4-University0-AssociateProfessor1,ff3358
Department4-University0-AssociateProfessor2,ff3359
Department4-University0-AssociateProfessor3,ff3360
Department4-University0-AssociateProfessor4,ff3361
Department4-University0-AssociateProfessor5,ff3362
Department4-University0-AssociateProfessor6,ff3363
Department4-University0-AssociateProfessor7,ff3364
Department4-University0-AssociateProfessor8,ff3365
Department4-University0-AssociateProfessor9,ff3366
Department5-University0-AssociateProfessor0,ff3367
Department5-University0-AssociateProfessor1,ff3368
Department5-University0-AssociateProfessor2,ff3369
Department5-University0-AssociateProfessor3,ff3370
Department5-University0-AssociateProfessor4,ff3371
Department5-University0-AssociateProfessor5,ff3372
Department5-University0-AssociateProfessor6,ff3373
Department5-University0-AssociateProfessor7,ff3374
Department5-University0-AssociateProfessor8,ff3375
Department5-University0-AssociateProfessor9,ff3376
Department5-University0-AssociateProfessor10,ff3377
Department6-University0-AssociateProfessor0,ff3378
Department6-University0-AssociateProfessor1,ff3379
Department6-University0-AssociateProfessor2,ff3380
Department6-University0-AssociateProfessor3,ff3381
Department6-University0-AssociateProfessor4,ff3382
Department6-University0-AssociateProfessor5,ff3383
Department6-University0-AssociateProfessor6,ff3384
Department6-University0-AssociateProfessor7,ff3385
Department6-University0-AssociateProfessor8,ff3386
Department6-University0-AssociateProfessor9,ff3387
Department7-University0-AssociateProfessor0,ff3388
Department7-University0-AssociateProfessor1,ff3389
Department7-University0-AssociateProfessor2,ff3390
Department7-University0-AssociateProfessor3,ff3391
Department7-University0-AssociateProfessor4,ff3392
Department7-University0-AssociateProfessor5,ff3393
Department7-University0-AssociateProfessor6,ff3394
Department7-University0-AssociateProfessor7,ff3395
Department7-University0-AssociateProfessor8,ff3396
Department7-University0-AssociateProfessor9,ff3397
Department7-University0-AssociateProfessor10,ff3398
Department7-University0-AssociateProfessor11,ff3399
Department7-University0-AssociateProfessor12,ff3400
Department7-University0-AssociateProfessor13,ff3401
Department8-University0-AssociateProfessor0,ff3402
Department8-University0-AssociateProfessor1,ff3403
Department8-University0-AssociateProfessor2,ff3404
Department8-University0-AssociateProfessor3,ff3405
Department8-University0-AssociateProfessor4,ff3406
Department8-University0-AssociateProfessor5,ff3407
Department8-University0-AssociateProfessor6,ff3408
Department8-University0-AssociateProfessor7,ff3409
Department8-University0-AssociateProfessor8,ff3410
Department8-University0-AssociateProfessor9,ff3411
Department8-University0-AssociateProfessor10,ff3412
Department9-University0-AssociateProfessor0,ff3413
Department9-University0-AssociateProfessor1,ff3414
Department9-University0-AssociateProfessor2,ff3415
Department9-University0-AssociateProfessor3,ff3416
Department9-University0-AssociateProfessor4,ff3417
Department9-University0-AssociateProfessor5,ff3418
Department9-University0-AssociateProfessor6,ff3419
Department9-University0-AssociateProfessor7,ff3420
Department9-University0-AssociateProfessor8,ff3421
Department9-University0-AssociateProfessor9,ff3422
