Department0-University0-FullProfessor0,University241,ff4266
Department0-University0-FullProfessor1,University882,ff4267
Department0-University0-FullProfessor2,University653,ff4268
Department0-University0-FullProfessor3,University112,ff4269
Department0-University0-FullProfessor4,University143,ff4270
Department0-University0-FullProfessor5,University358,ff4271
Department0-University0-FullProfessor6,University135,ff4272
Department0-University0-FullProfessor7,University241,ff4273
Department0-University0-FullProfessor8,University371,ff4274
Department0-University0-FullProfessor9,University730,ff4275
Department0-University0-AssociateProfessor0,University534,ff4276
Department0-University0-AssociateProfessor1,University49,ff4277
Department0-University0-AssociateProfessor2,University223,ff4278
Department0-University0-AssociateProfessor3,University913,ff4279
Department0-University0-AssociateProfessor4,University508,ff4280
Department0-University0-AssociateProfessor5,University232,ff4281
Department0-University0-AssociateProfessor6,University477,ff4282
Department0-University0-AssociateProfessor7,University315,ff4283
Department0-University0-AssociateProfessor8,University782,ff4284
Department0-University0-AssociateProfessor9,University494,ff4285
Department0-University0-AssociateProfessor10,University317,ff4286
Department0-University0-AssociateProfessor11,University945,ff4287
Department0-University0-AssociateProfessor12,University785,ff4288
Department0-University0-AssociateProfessor13,University448,ff4289
Department0-University0-AssistantProfessor0,University643,ff4290
Department0-University0-AssistantProfessor1,University246,ff4291
Department0-University0-AssistantProfessor2,University158,ff4292
Department0-University0-AssistantProfessor3,University226,ff4293
Department0-University0-AssistantProfessor4,University462,ff4294
Department0-University0-AssistantProfessor5,University188,ff4295
Department0-University0-AssistantProfessor6,University575,ff4296
Department0-University0-AssistantProfessor7,University627,ff4297
Department0-University0-AssistantProfessor8,University868,ff4298
Department0-University0-AssistantProfessor9,University107,ff4299
Department0-University0-Lecturer0,University170,ff4300
Department0-University0-Lecturer1,University476,ff4301
Department0-University0-Lecturer2,University123,ff4302
Department0-University0-Lecturer3,University615,ff4303
Department0-University0-Lecturer4,University653,ff4304
Department0-University0-Lecturer5,University428,ff4305
Department0-University0-Lecturer6,University661,ff4306
Department1-University0-FullProfessor0,University963,ff4307
Department1-University0-FullProfessor1,University413,ff4308
Department1-University0-FullProfessor2,University718,ff4309
Department1-University0-FullProfessor3,University846,ff4310
Department1-University0-FullProfessor4,University539,ff4311
Department1-University0-FullProfessor5,University363,ff4312
Department1-University0-FullProfessor6,University984,ff4313
Department1-University0-FullProfessor7,University855,ff4314
Department1-University0-FullProfessor8,University786,ff4315
Department1-University0-FullProfessor9,University205,ff4316
Department1-University0-AssociateProfessor0,University525,ff4317
Department1-University0-AssociateProfessor1,University199,ff4318
Department1-University0-AssociateProfessor2,University193,ff4319
Department1-University0-AssociateProfessor3,University776,ff4320
Department1-University0-AssociateProfessor4,University546,ff4321
Department1-University0-AssociateProfessor5,University413,ff4322
Department1-University0-AssociateProfessor6,University515,ff4323
Department1-University0-AssociateProfessor7,University290,ff4324
Department1-University0-AssociateProfessor8,University450,ff4325
Department1-University0-AssociateProfessor9,University726,ff4326
Department1-University0-AssistantProfessor0,University438,ff4327
Department1-University0-AssistantProfessor1,University260,ff4328
Department1-University0-AssistantProfessor2,University934,ff4329
Department1-University0-AssistantProfessor3,University585,ff4330
Department1-University0-AssistantProfessor4,University730,ff4331
Department1-University0-AssistantProfessor5,University312,ff4332
Department1-University0-AssistantProfessor6,University96,ff4333
Department1-University0-AssistantProfessor7,University990,ff4334
Department1-University0-Lecturer0,University352,ff4335
Department1-University0-Lecturer1,University132,ff4336
Department1-University0-Lecturer2,University154,ff4337
Department1-University0-Lecturer3,University34,ff4338
Department1-University0-Lecturer4,University914,ff4339
Department1-University0-Lecturer5,University235,ff4340
Department10-University0-FullProfessor0,University651,ff4341
Department10-University0-FullProfessor1,University347,ff4342
Department10-University0-FullProfessor2,University212,ff4343
Department10-University0-FullProfessor3,University207,ff4344
Department10-University0-FullProfessor4,University19,ff4345
Department10-University0-FullProfessor5,University306,ff4346
Department10-University0-FullProfessor6,University914,ff4347
Department10-University0-AssociateProfessor0,University5,ff4348
Department10-University0-AssociateProfessor1,University214,ff4349
Department10-University0-AssociateProfessor2,University581,ff4350
Department10-University0-AssociateProfessor3,University923,ff4351
Department10-University0-AssociateProfessor4,University281,ff4352
Department10-University0-AssociateProfessor5,University543,ff4353
Department10-University0-AssociateProfessor6,University542,ff4354
Department10-University0-AssociateProfessor7,University950,ff4355
Department10-University0-AssociateProfessor8,University630,ff4356
Department10-University0-AssociateProfessor9,University315,ff4357
Department10-University0-AssociateProfessor10,University577,ff4358
Department10-University0-AssistantProfessor0,University115,ff4359
Department10-University0-AssistantProfessor1,University817,ff4360
Department10-University0-AssistantProfessor2,University584,ff4361
Department10-University0-AssistantProfessor3,University778,ff4362
Department10-University0-AssistantProfessor4,University395,ff4363
Department10-University0-AssistantProfessor5,University828,ff4364
Department10-University0-AssistantProfessor6,University959,ff4365
Department10-University0-AssistantProfessor7,University53,ff4366
Department10-University0-AssistantProfessor8,University460,ff4367
Department10-University0-AssistantProfessor9,University419,ff4368
Department10-University0-AssistantProfessor10,University592,ff4369
Department10-University0-Lecturer0,University68,ff4370
Department10-University0-Lecturer1,University164,ff4371
Department10-University0-Lecturer2,University452,ff4372
Department10-University0-Lecturer3,University498,ff4373
Department10-University0-Lecturer4,University828,ff4374
Department10-University0-Lecturer5,University908,ff4375
Department10-University0-Lecturer6,University56,ff4376
Department11-University0-FullProfessor0,University990,ff4377
Department11-University0-FullProfessor1,University192,ff4378
Department11-University0-FullProfessor2,University233,ff4379
Department11-University0-FullProfessor3,University645,ff4380
Department11-University0-FullProfessor4,University421,ff4381
Department11-University0-FullProfessor5,University511,ff4382
Department11-University0-FullProfessor6,University297,ff4383
Department11-University0-FullProfessor7,University50,ff4384
Department11-University0-AssociateProfessor0,University161,ff4385
Department11-University0-AssociateProfessor1,University766,ff4386
Department11-University0-AssociateProfessor2,University361,ff4387
Department11-University0-AssociateProfessor3,University299,ff4388
Department11-University0-AssociateProfessor4,University372,ff4389
Department11-University0-AssociateProfessor5,University689,ff4390
Department11-University0-AssociateProfessor6,University192,ff4391
Department11-University0-AssociateProfessor7,University427,ff4392
Department11-University0-AssociateProfessor8,University599,ff4393
Department11-University0-AssociateProfessor9,University886,ff4394
Department11-University0-AssociateProfessor10,University947,ff4395
Department11-University0-AssociateProfessor11,University692,ff4396
Department11-University0-AssociateProfessor12,University898,ff4397
Department11-University0-AssociateProfessor13,University322,ff4398
Department11-University0-AssistantProfessor0,University233,ff4399
Department11-University0-AssistantProfessor1,University356,ff4400
Department11-University0-AssistantProfessor2,University429,ff4401
Department11-University0-AssistantProfessor3,University117,ff4402
Department11-University0-AssistantProfessor4,University160,ff4403
Department11-University0-AssistantProfessor5,University180,ff4404
Department11-University0-AssistantProfessor6,University733,ff4405
Department11-University0-AssistantProfessor7,University739,ff4406
Department11-University0-AssistantProfessor8,University213,ff4407
Department11-University0-AssistantProfessor9,University183,ff4408
Department11-University0-AssistantProfessor10,University50,ff4409
Department11-University0-Lecturer0,University995,ff4410
Department11-University0-Lecturer1,University6,ff4411
Department11-University0-Lecturer2,University927,ff4412
Department11-University0-Lecturer3,University249,ff4413
Department11-University0-Lecturer4,University563,ff4414
Department11-University0-Lecturer5,University210,ff4415
Department12-University0-FullProfessor0,University927,ff4416
Department12-University0-FullProfessor1,University885,ff4417
Department12-University0-FullProfessor2,University94,ff4418
Department12-University0-FullProfessor3,University680,ff4419
Department12-University0-FullProfessor4,University521,ff4420
Department12-University0-FullProfessor5,University871,ff4421
Department12-University0-FullProfessor6,University717,ff4422
Department12-University0-FullProfessor7,University211,ff4423
Department12-University0-FullProfessor8,University175,ff4424
Department12-University0-AssociateProfessor0,University301,ff4425
Department12-University0-AssociateProfessor1,University894,ff4426
Department12-University0-AssociateProfessor2,University166,ff4427
Department12-University0-AssociateProfessor3,University879,ff4428
Department12-University0-AssociateProfessor4,University941,ff4429
Department12-University0-AssociateProfessor5,University879,ff4430
Department12-University0-AssociateProfessor6,University478,ff4431
Department12-University0-AssociateProfessor7,University888,ff4432
Department12-University0-AssociateProfessor8,University924,ff4433
Department12-University0-AssociateProfessor9,University369,ff4434
Department12-University0-AssociateProfessor10,University699,ff4435
Department12-University0-AssistantProfessor0,University152,ff4436
Department12-University0-AssistantProfessor1,University277,ff4437
Department12-University0-AssistantProfessor2,University621,ff4438
Department12-University0-AssistantProfessor3,University125,ff4439
Department12-University0-AssistantProfessor4,University140,ff4440
Department12-University0-AssistantProfessor5,University600,ff4441
Department12-University0-AssistantProfessor6,University415,ff4442
Department12-University0-AssistantProfessor7,University361,ff4443
Department12-University0-AssistantProfessor8,University850,ff4444
Department12-University0-AssistantProfessor9,University515,ff4445
Department12-University0-AssistantProfessor10,University249,ff4446
Department12-University0-Lecturer0,University671,ff4447
Department12-University0-Lecturer1,University265,ff4448
Department12-University0-Lecturer2,University197,ff4449
Department12-University0-Lecturer3,University848,ff4450
Department12-University0-Lecturer4,University787,ff4451
Department13-University0-FullProfessor0,University430,ff4452
Department13-University0-FullProfessor1,University178,ff4453
Department13-University0-FullProfessor2,University358,ff4454
Department13-University0-FullProfessor3,University631,ff4455
Department13-University0-FullProfessor4,University487,ff4456
Department13-University0-FullProfessor5,University303,ff4457
Department13-University0-FullProfessor6,University593,ff4458
Department13-University0-FullProfessor7,University496,ff4459
Department13-University0-AssociateProfessor0,University679,ff4460
Department13-University0-AssociateProfessor1,University405,ff4461
Department13-University0-AssociateProfessor2,University279,ff4462
Department13-University0-AssociateProfessor3,University430,ff4463
Department13-University0-AssociateProfessor4,University3,ff4464
Department13-University0-AssociateProfessor5,University865,ff4465
Department13-University0-AssociateProfessor6,University375,ff4466
Department13-University0-AssociateProfessor7,University653,ff4467
Department13-University0-AssociateProfessor8,University992,ff4468
Department13-University0-AssociateProfessor9,University541,ff4469
Department13-University0-AssociateProfessor10,University994,ff4470
Department13-University0-AssociateProfessor11,University957,ff4471
Department13-University0-AssociateProfessor12,University763,ff4472
Department13-University0-AssociateProfessor13,University777,ff4473
Department13-University0-AssistantProfessor0,University981,ff4474
Department13-University0-AssistantProfessor1,University206,ff4475
Department13-University0-AssistantProfessor2,University596,ff4476
Department13-University0-AssistantProfessor3,University102,ff4477
Department13-University0-AssistantProfessor4,University992,ff4478
Department13-University0-AssistantProfessor5,University625,ff4479
Department13-University0-AssistantProfessor6,University502,ff4480
Department13-University0-AssistantProfessor7,University996,ff4481
Department13-University0-AssistantProfessor8,University806,ff4482
Department13-University0-AssistantProfessor9,University28,ff4483
Department13-University0-AssistantProfessor10,University703,ff4484
Department13-University0-Lecturer0,University708,ff4485
Department13-University0-Lecturer1,University166,ff4486
Department13-University0-Lecturer2,University357,ff4487
Department13-University0-Lecturer3,University193,ff4488
Department13-University0-Lecturer4,University312,ff4489
Department14-University0-FullProfessor0,University580,ff4490
Department14-University0-FullProfessor1,University598,ff4491
Department14-University0-FullProfessor2,University618,ff4492
Department14-University0-FullProfessor3,University177,ff4493
Department14-University0-FullProfessor4,University801,ff4494
Department14-University0-FullProfessor5,University467,ff4495
Department14-University0-FullProfessor6,University523,ff4496
Department14-University0-AssociateProfessor0,University602,ff4497
Department14-University0-AssociateProfessor1,University342,ff4498
Department14-University0-AssociateProfessor2,University695,ff4499
Department14-University0-AssociateProfessor3,University89,ff4500
Department14-University0-AssociateProfessor4,University193,ff4501
Department14-University0-AssociateProfessor5,University630,ff4502
Department14-University0-AssociateProfessor6,University924,ff4503
Department14-University0-AssociateProfessor7,University807,ff4504
Department14-University0-AssociateProfessor8,University572,ff4505
Department14-University0-AssociateProfessor9,University188,ff4506
Department14-University0-AssociateProfessor10,University173,ff4507
Department14-University0-AssociateProfessor11,University244,ff4508
Department14-University0-AssistantProfessor0,University852,ff4509
Department14-University0-AssistantProfessor1,University953,ff4510
Department14-University0-AssistantProfessor2,University568,ff4511
Department14-University0-AssistantProfessor3,University721,ff4512
Department14-University0-AssistantProfessor4,University86,ff4513
Department14-University0-AssistantProfessor5,University207,ff4514
Department14-University0-AssistantProfessor6,University285,ff4515
Department14-University0-AssistantProfessor7,University242,ff4516
Department14-University0-Lecturer0,University123,ff4517
Department14-University0-Lecturer1,University3,ff4518
Department14-University0-Lecturer2,University209,ff4519
Department14-University0-Lecturer3,University992,ff4520
Department14-University0-Lecturer4,University879,ff4521
Department14-University0-Lecturer5,University122,ff4522
Department2-University0-FullProfessor0,University562,ff4523
Department2-University0-FullProfessor1,University768,ff4524
Department2-University0-FullProfessor2,University415,ff4525
Department2-University0-FullProfessor3,University354,ff4526
Department2-University0-FullProfessor4,University634,ff4527
Department2-University0-FullProfessor5,University538,ff4528
Department2-University0-FullProfessor6,University392,ff4529
Department2-University0-AssociateProfessor0,University445,ff4530
Department2-University0-AssociateProfessor1,University830,ff4531
Department2-University0-AssociateProfessor2,University252,ff4532
Department2-University0-AssociateProfessor3,University909,ff4533
Department2-University0-AssociateProfessor4,University479,ff4534
Department2-University0-AssociateProfessor5,University110,ff4535
Department2-University0-AssociateProfessor6,University889,ff4536
Department2-University0-AssociateProfessor7,University273,ff4537
Department2-University0-AssociateProfessor8,University900,ff4538
Department2-University0-AssociateProfessor9,University866,ff4539
Department2-University0-AssociateProfessor10,University170,ff4540
Department2-University0-AssociateProfessor11,University182,ff4541
Department2-University0-AssistantProfessor0,University555,ff4542
Department2-University0-AssistantProfessor1,University964,ff4543
Department2-University0-AssistantProfessor2,University150,ff4544
Department2-University0-AssistantProfessor3,University499,ff4545
Department2-University0-AssistantProfessor4,University289,ff4546
Department2-University0-AssistantProfessor5,University128,ff4547
Department2-University0-AssistantProfessor6,University960,ff4548
Department2-University0-AssistantProfessor7,University500,ff4549
Department2-University0-Lecturer0,University729,ff4550
Department2-University0-Lecturer1,University91,ff4551
Department2-University0-Lecturer2,University311,ff4552
Department2-University0-Lecturer3,University342,ff4553
Department2-University0-Lecturer4,University12,ff4554
Department2-University0-Lecturer5,University272,ff4555
Department2-University0-Lecturer6,University783,ff4556
Department3-University0-FullProfessor0,University110,ff4557
Department3-University0-FullProfessor1,University523,ff4558
Department3-University0-FullProfessor2,University145,ff4559
Department3-University0-FullProfessor3,University412,ff4560
Department3-University0-FullProfessor4,University231,ff4561
Department3-University0-FullProfessor5,University334,ff4562
Department3-University0-FullProfessor6,University326,ff4563
Department3-University0-FullProfessor7,University624,ff4564
Department3-University0-FullProfessor8,University469,ff4565
Department3-University0-AssociateProfessor0,University530,ff4566
Department3-University0-AssociateProfessor1,University221,ff4567
Department3-University0-AssociateProfessor2,University885,ff4568
Department3-University0-AssociateProfessor3,University998,ff4569
Department3-University0-AssociateProfessor4,University843,ff4570
Department3-University0-AssociateProfessor5,University983,ff4571
Department3-University0-AssociateProfessor6,University452,ff4572
Department3-University0-AssociateProfessor7,University429,ff4573
Department3-University0-AssociateProfessor8,University780,ff4574
Department3-University0-AssociateProfessor9,University722,ff4575
Department3-University0-AssociateProfessor10,University375,ff4576
Department3-University0-AssociateProfessor11,University796,ff4577
Department3-University0-AssistantProfessor0,University895,ff4578
Department3-University0-AssistantProfessor1,University910,ff4579
Department3-University0-AssistantProfessor2,University37,ff4580
Department3-University0-AssistantProfessor3,University836,ff4581
Department3-University0-AssistantProfessor4,University352,ff4582
Department3-University0-AssistantProfessor5,University608,ff4583
Department3-University0-AssistantProfessor6,University96,ff4584
Department3-University0-AssistantProfessor7,University328,ff4585
Department3-University0-AssistantProfessor8,University220,ff4586
Department3-University0-AssistantProfessor9,University373,ff4587
Department3-University0-Lecturer0,University19,ff4588
Department3-University0-Lecturer1,University365,ff4589
Department3-University0-Lecturer2,University255,ff4590
Department3-University0-Lecturer3,University272,ff4591
Department3-University0-Lecturer4,University968,ff4592
Department3-University0-Lecturer5,University959,ff4593
Department4-University0-FullProfessor0,University579,ff4594
Department4-University0-FullProfessor1,University480,ff4595
Department4-University0-FullProfessor2,University654,ff4596
Department4-University0-FullProfessor3,University184,ff4597
Department4-University0-FullProfessor4,University692,ff4598
Department4-University0-FullProfessor5,University685,ff4599
Department4-University0-FullProfessor6,University815,ff4600
Department4-University0-AssociateProfessor0,University978,ff4601
Department4-University0-AssociateProfessor1,University645,ff4602
Department4-University0-AssociateProfessor2,University919,ff4603
Department4-University0-AssociateProfessor3,University251,ff4604
Department4-University0-AssociateProfessor4,University616,ff4605
Department4-University0-AssociateProfessor5,University127,ff4606
Department4-University0-AssociateProfessor6,University767,ff4607
Department4-University0-AssociateProfessor7,University60,ff4608
Department4-University0-AssociateProfessor8,University619,ff4609
Department4-University0-AssociateProfessor9,University438,ff4610
Department4-University0-AssistantProfessor0,University721,ff4611
Department4-University0-AssistantProfessor1,University992,ff4612
Department4-University0-AssistantProfessor2,University927,ff4613
Department4-University0-AssistantProfessor3,University947,ff4614
Department4-University0-AssistantProfessor4,University402,ff4615
Department4-University0-AssistantProfessor5,University56,ff4616
Department4-University0-AssistantProfessor6,University137,ff4617
Department4-University0-AssistantProfessor7,University417,ff4618
Department4-University0-AssistantProfessor8,University517,ff4619
Department4-University0-AssistantProfessor9,University117,ff4620
Department4-University0-Lecturer0,University888,ff4621
Department4-University0-Lecturer1,University281,ff4622
Department4-University0-Lecturer2,University642,ff4623
Department4-University0-Lecturer3,University749,ff4624
Department4-University0-Lecturer4,University946,ff4625
Department4-University0-Lecturer5,University219,ff4626
Department4-University0-Lecturer6,University995,ff4627
Department5-University0-FullProfessor0,University543,ff4628
Department5-University0-FullProfessor1,University225,ff4629
Department5-University0-FullProfessor2,University514,ff4630
Department5-University0-FullProfessor3,University33,ff4631
Department5-University0-FullProfessor4,University213,ff4632
Department5-University0-FullProfessor5,University372,ff4633
Department5-University0-FullProfessor6,University710,ff4634
Department5-University0-FullProfessor7,University536,ff4635
Department5-University0-FullProfessor8,University247,ff4636
Department5-University0-FullProfessor9,University834,ff4637
Department5-University0-AssociateProfessor0,University119,ff4638
Department5-University0-AssociateProfessor1,University470,ff4639
Department5-University0-AssociateProfessor2,University383,ff4640
Department5-University0-AssociateProfessor3,University504,ff4641
Department5-University0-AssociateProfessor4,University499,ff4642
Department5-University0-AssociateProfessor5,University455,ff4643
Department5-University0-AssociateProfessor6,University233,ff4644
Department5-University0-AssociateProfessor7,University57,ff4645
Department5-University0-AssociateProfessor8,University703,ff4646
Department5-University0-AssociateProfessor9,University853,ff4647
Department5-University0-AssociateProfessor10,University507,ff4648
Department5-University0-AssistantProfessor0,University761,ff4649
Department5-University0-AssistantProfessor1,University21,ff4650
Department5-University0-AssistantProfessor2,University990,ff4651
Department5-University0-AssistantProfessor3,University666,ff4652
Department5-University0-AssistantProfessor4,University932,ff4653
Department5-University0-AssistantProfessor5,University5,ff4654
Department5-University0-AssistantProfessor6,University378,ff4655
Department5-University0-AssistantProfessor7,University971,ff4656
Department5-University0-Lecturer0,University892,ff4657
Department5-University0-Lecturer1,University996,ff4658
Department5-University0-Lecturer2,University733,ff4659
Department5-University0-Lecturer3,University440,ff4660
Department5-University0-Lecturer4,University384,ff4661
Department5-University0-Lecturer5,University749,ff4662
Department6-University0-FullProfessor0,University286,ff4663
Department6-University0-FullProfessor1,University946,ff4664
Department6-University0-FullProfessor2,University986,ff4665
Department6-University0-FullProfessor3,University618,ff4666
Department6-University0-FullProfessor4,University449,ff4667
Department6-University0-FullProfessor5,University295,ff4668
Department6-University0-FullProfessor6,University481,ff4669
Department6-University0-FullProfessor7,University223,ff4670
Department6-University0-FullProfessor8,University130,ff4671
Department6-University0-FullProfessor9,University972,ff4672
Department6-University0-AssociateProfessor0,University36,ff4673
Department6-University0-AssociateProfessor1,University388,ff4674
Department6-University0-AssociateProfessor2,University722,ff4675
Department6-University0-AssociateProfessor3,University773,ff4676
Department6-University0-AssociateProfessor4,University680,ff4677
Department6-University0-AssociateProfessor5,University595,ff4678
Department6-University0-AssociateProfessor6,University326,ff4679
Department6-University0-AssociateProfessor7,University735,ff4680
Department6-University0-AssociateProfessor8,University588,ff4681
Department6-University0-AssociateProfessor9,University431,ff4682
Department6-University0-AssistantProfessor0,University526,ff4683
Department6-University0-AssistantProfessor1,University879,ff4684
Department6-University0-AssistantProfessor2,University281,ff4685
Department6-University0-AssistantProfessor3,University925,ff4686
Department6-University0-AssistantProfessor4,University913,ff4687
Department6-University0-AssistantProfessor5,University172,ff4688
Department6-University0-AssistantProfessor6,University780,ff4689
Department6-University0-AssistantProfessor7,University244,ff4690
Department6-University0-Lecturer0,University131,ff4691
Department6-University0-Lecturer1,University785,ff4692
Department6-University0-Lecturer2,University839,ff4693
Department6-University0-Lecturer3,University233,ff4694
Department6-University0-Lecturer4,University316,ff4695
Department6-University0-Lecturer5,University996,ff4696
Department7-University0-FullProfessor0,University82,ff4697
Department7-University0-FullProfessor1,University288,ff4698
Department7-University0-FullProfessor2,University97,ff4699
Department7-University0-FullProfessor3,University879,ff4700
Department7-University0-FullProfessor4,University870,ff4701
Department7-University0-FullProfessor5,University627,ff4702
Department7-University0-FullProfessor6,University620,ff4703
Department7-University0-AssociateProfessor0,University698,ff4704
Department7-University0-AssociateProfessor1,University142,ff4705
Department7-University0-AssociateProfessor2,University125,ff4706
Department7-University0-AssociateProfessor3,University337,ff4707
Department7-University0-AssociateProfessor4,University857,ff4708
Department7-University0-AssociateProfessor5,University275,ff4709
Department7-University0-AssociateProfessor6,University273,ff4710
Department7-University0-AssociateProfessor7,University521,ff4711
Department7-University0-AssociateProfessor8,University982,ff4712
Department7-University0-AssociateProfessor9,University652,ff4713
Department7-University0-AssociateProfessor10,University706,ff4714
Department7-University0-AssociateProfessor11,University438,ff4715
Department7-University0-AssociateProfessor12,University436,ff4716
Department7-University0-AssociateProfessor13,University582,ff4717
Department7-University0-AssistantProfessor0,University556,ff4718
Department7-University0-AssistantProfessor1,University874,ff4719
Department7-University0-AssistantProfessor2,University14,ff4720
Department7-University0-AssistantProfessor3,University308,ff4721
Department7-University0-AssistantProfessor4,University294,ff4722
Department7-University0-AssistantProfessor5,University123,ff4723
Department7-University0-AssistantProfessor6,University307,ff4724
Department7-University0-AssistantProfessor7,University850,ff4725
Department7-University0-AssistantProfessor8,University31,ff4726
Department7-University0-AssistantProfessor9,University731,ff4727
Department7-University0-Lecturer0,University73,ff4728
Department7-University0-Lecturer1,University511,ff4729
Department7-University0-Lecturer2,University657,ff4730
Department7-University0-Lecturer3,University346,ff4731
Department7-University0-Lecturer4,University205,ff4732
Department7-University0-Lecturer5,University25,ff4733
Department8-University0-FullProfessor0,University920,ff4734
Department8-University0-FullProfessor1,University800,ff4735
Department8-University0-FullProfessor2,University568,ff4736
Department8-University0-FullProfessor3,University454,ff4737
Department8-University0-FullProfessor4,University223,ff4738
Department8-University0-FullProfessor5,University480,ff4739
Department8-University0-FullProfessor6,University521,ff4740
Department8-University0-FullProfessor7,University22,ff4741
Department8-University0-FullProfessor8,University679,ff4742
Department8-University0-AssociateProfessor0,University876,ff4743
Department8-University0-AssociateProfessor1,University899,ff4744
Department8-University0-AssociateProfessor2,University676,ff4745
Department8-University0-AssociateProfessor3,University903,ff4746
Department8-University0-AssociateProfessor4,University520,ff4747
Department8-University0-AssociateProfessor5,University135,ff4748
Department8-University0-AssociateProfessor6,University876,ff4749
Department8-University0-AssociateProfessor7,University102,ff4750
Department8-University0-AssociateProfessor8,University557,ff4751
Department8-University0-AssociateProfessor9,University514,ff4752
Department8-University0-AssociateProfessor10,University172,ff4753
Department8-University0-AssistantProfessor0,University900,ff4754
Department8-University0-AssistantProfessor1,University297,ff4755
Department8-University0-AssistantProfessor2,University876,ff4756
Department8-University0-AssistantProfessor3,University890,ff4757
Department8-University0-AssistantProfessor4,University518,ff4758
Department8-University0-AssistantProfessor5,University147,ff4759
Department8-University0-AssistantProfessor6,University413,ff4760
Department8-University0-AssistantProfessor7,University847,ff4761
Department8-University0-AssistantProfessor8,University830,ff4762
Department8-University0-AssistantProfessor9,University673,ff4763
Department8-University0-AssistantProfessor10,University5,ff4764
Department8-University0-Lecturer0,University889,ff4765
Department8-University0-Lecturer1,University724,ff4766
Department8-University0-Lecturer2,University664,ff4767
Department8-University0-Lecturer3,University216,ff4768
Department8-University0-Lecturer4,University209,ff4769
Department8-University0-Lecturer5,University862,ff4770
Department9-University0-FullProfessor0,University143,ff4771
Department9-University0-FullProfessor1,University927,ff4772
Department9-University0-FullProfessor2,University266,ff4773
Department9-University0-FullProfessor3,University845,ff4774
Department9-University0-FullProfessor4,University913,ff4775
Department9-University0-FullProfessor5,University811,ff4776
Department9-University0-FullProfessor6,University887,ff4777
Department9-University0-AssociateProfessor0,University493,ff4778
Department9-University0-AssociateProfessor1,University939,ff4779
Department9-University0-AssociateProfessor2,University229,ff4780
Department9-University0-AssociateProfessor3,University783,ff4781
Department9-University0-AssociateProfessor4,University83,ff4782
Department9-University0-AssociateProfessor5,University546,ff4783
Department9-University0-AssociateProfessor6,University696,ff4784
Department9-University0-AssociateProfessor7,University589,ff4785
Department9-University0-AssociateProfessor8,University309,ff4786
Department9-University0-AssociateProfessor9,University747,ff4787
Department9-University0-AssistantProfessor0,University179,ff4788
Department9-University0-AssistantProfessor1,University845,ff4789
Department9-University0-AssistantProfessor2,University24,ff4790
Department9-University0-AssistantProfessor3,University439,ff4791
Department9-University0-AssistantProfessor4,University523,ff4792
Department9-University0-AssistantProfessor5,University739,ff4793
Department9-University0-AssistantProfessor6,University247,ff4794
Department9-University0-AssistantProfessor7,University339,ff4795
Department9-University0-AssistantProfessor8,University218,ff4796
Department9-University0-AssistantProfessor9,University492,ff4797
Department9-University0-AssistantProfessor10,University111,ff4798
Department9-University0-Lecturer0,University866,ff4799
Department9-University0-Lecturer1,University191,ff4800
Department9-University0-Lecturer2,University697,ff4801
Department9-University0-Lecturer3,University242,ff4802
Department9-University0-Lecturer4,University25,ff4803
Department9-University0-Lecturer5,University459,ff4804
Department9-University0-Lecturer6,University314,ff4805
