p7,p8
p8,p7
p2,p9
p9,p2
p6,p13
p13,p6
p3,p7
p7,p3
p1,p3
p3,p1
p9,p11
p11,p9
p1,p5
p5,p1
p6,p7
p7,p6
p6,p14
p14,p6
p5,p6
p6,p5
p4,p15
p15,p4
p9,p16
p16,p9
p5,p9
p9,p5
p2,p4
p4,p2
p11,p15
p15,p11
p6,p15
p15,p6
p1,p9
p9,p1
p6,p12
p12,p6
p2,p13
p13,p2
p11,p12
p12,p11
p15,p16
p16,p15
p3,p11
p11,p3
