p91,p1
p5,p51
p52,p51
p54,p51
p395,p51
p26,p20
p51,p20
p59,p20
p88,p20
p91,p20
p93,p20
p95,p20
p286,p20
p395,p20
p791,p20
p20,p21
p20,p22
p21,p22
p22,p22
p28,p22
p51,p23
p20,p25
p22,p25
p26,p25
p20,p26
p23,p26
p25,p26
p51,p50
p51,p53
p51,p54
p56,p54
p51,p55
p51,p56
p48,p59
p51,p59
p56,p59
p59,p46
p395,p46
p45,p19
p46,p19
p45,p48
p46,p48
p59,p48
p48,p45
p791,p45
p45,p49
p46,p49
p48,p49
p45,p52
p46,p52
p45,p58
p46,p58
p48,p58
p51,p82
p13,p91
p59,p91
p88,p91
p93,p91
p95,p91
p137,p91
p139,p91
p278,p91
p286,p91
p287,p91
p308,p91
p432,p91
p434,p91
p479,p91
p596,p91
p694,p91
p715,p91
p730,p91
p744,p91
p791,p91
p86,p85
p91,p85
p93,p85
p91,p86
p93,p86
p91,p88
p88,p10
p14,p13
p88,p13
p13,p9
p897,p9
p88,p63
p432,p63
p88,p83
p630,p83
p91,p93
p91,p94
p479,p94
p91,p95
p308,p95
p95,p287
p286,p287
p287,p286
p788,p783
p864,p876
p897,p878
p897,p864
p898,p864
p791,p684
p139,p142
p548,p855
p278,p279
p137,p138
p330,p897
p864,p897
p390,p34
p479,p481
p163,p530
p139,p140
p135,p137
p138,p137
p91,p791
p93,p791
p95,p791
p286,p791
p144,p150
p788,p786
p163,p431
p432,p431
p79,p79
p287,p535
p308,p535
p897,p898
p897,p899
p479,p478
p434,p144
p137,p135
p304,p788
p783,p788
p785,p788
p786,p788
p791,p788
p479,p758
p568,p758
p791,p758
p94,p479
p758,p754
p91,p308
p287,p304
p308,p304
p788,p785
p898,p884
p395,p28
p88,p847
p484,p488
p488,p484
p617,p616
p140,p139
p142,p139
p279,p278
p144,p151
p351,p351
