p1,p14
p14,p1
p5,p10
p10,p5
p3,p10
p10,p3
p5,p7
p7,p5
p1,p7
p7,p1
p9,p13
p13,p9
p3,p7
p7,p3
p1,p3
p3,p1
p5,p15
p15,p5
p1,p15
p15,p1
p3,p14
p14,p3
p1,p5
p5,p1
p1,p10
p10,p1
p1,p4
p4,p1
p1,p6
p6,p1
p9,p10
p10,p9
p2,p7
p7,p2
p1,p9
p9,p1
p6,p12
p12,p6
p2,p13
p13,p2
