p4,p8
p8,p4
p3,p13
p13,p3
p9,p14
p14,p9
p5,p7
p7,p5
p5,p15
p15,p5
p2,p6
p6,p2
p1,p5
p5,p1
p1,p4
p4,p1
p1,p6
p6,p1
p2,p7
p7,p2
p10,p14
p14,p10
p2,p4
p4,p2
p11,p15
p15,p11
p1,p9
p9,p1
p7,p13
p13,p7
p3,p12
p12,p3
p7,p9
p9,p7
p5,p13
p13,p5
p1,p2
p2,p1
