p2,p5
p5,p2
p1,p14
p14,p1
p13,p17
p17,p13
p3,p13
p13,p3
p1,p7
p7,p1
p1,p3
p3,p1
p5,p15
p15,p5
p4,p5
p5,p4
p1,p5
p5,p1
p6,p7
p7,p6
p1,p10
p10,p1
p14,p18
p18,p14
p8,p13
p13,p8
p14,p17
p17,p14
p5,p9
p9,p5
p2,p11
p11,p2
p16,p17
p17,p16
p2,p4
p4,p2
p11,p16
p16,p11
p2,p13
p13,p2
p13,p16
p16,p13
p11,p12
p12,p11
p3,p12
p12,p3
p3,p4
p4,p3
p2,p17
p17,p2
p1,p2
p2,p1
