fff0,0.3
fff1,0.3
fff2,0.3
fff3,0.3
fff4,0.3
fff5,0.3
fff6,0.3
fff7,0.3
fff8,0.3
fff9,0.3
fff10,0.3
fff11,0.3
fff12,0.3
fff13,0.3
fff14,0.4
fff16,0.4
fff18,0.4
fff20,0.4
fff22,0.4
fff24,0.4
fff26,0.4
fff28,0.4
fff30,0.4
fff32,0.4
fff34,0.4
fff36,0.4
fff38,0.4
fff40,0.4
fff42,0.2
fff43,0.2
fff44,0.2
fff45,0.2
fff46,0.2
fff47,0.2
fff48,0.2
fff49,0.2
fff50,0.2
fff51,0.2
fff52,0.2
fff53,0.2
fff54,0.2
fff55,0.2
fff56,0.2
fff57,0.2
fff58,0.2
fff59,0.2
fff60,0.2
fff61,0.2
fff62,0.2
fff63,0.2
fff64,0.2
fff65,0.2
fff66,0.2
fff67,0.2
fff68,0.2
fff69,0.2
fff70,0.2
fff71,0.2
fff72,0.2
fff73,0.2
fff74,0.2
fff75,0.2
fff76,0.2
fff77,0.2
fff78,0.2
fff79,0.2
fff80,0.2
fff81,0.2
fff82,0.2
fff83,0.2
fff84,0.2
fff85,0.2
fff86,0.2
fff87,0.2
fff88,0.2
fff89,0.2
fff90,0.2
fff91,0.2
fff92,0.2
fff93,0.2
fff94,0.2
fff95,0.2
fff96,0.2
fff97,0.2
fff98,0.2
fff99,0.2
fff100,0.2
fff101,0.2
fff102,0.2
fff103,0.2
fff104,0.2
fff105,0.2
fff106,0.2
fff107,0.2
fff108,0.2
fff109,0.2
fff110,0.2
fff111,0.2
fff112,0.2
fff113,0.2
fff114,0.2
fff115,0.2
fff116,0.2
fff117,0.2
fff118,0.2
fff119,0.2
fff120,0.2
fff121,0.2
fff122,0.2
fff123,0.2
fff124,0.2
fff125,0.2
fff126,0.2
fff127,0.2
fff128,0.2
fff129,0.2
fff130,0.2
fff131,0.2
fff132,0.2
fff133,0.2
fff134,0.2
fff135,0.2
fff136,0.2
fff137,0.2
fff138,0.2
fff139,0.2
fff140,0.2
fff141,0.2
fff142,0.2
fff143,0.2
fff144,0.2
fff145,0.2
fff146,0.2
fff147,0.2
fff148,0.2
fff149,0.2
fff150,0.2
fff151,0.2
fff152,0.2
fff153,0.2
fff154,0.2
fff155,0.2
fff156,0.2
fff157,0.2
fff158,0.2
fff159,0.2
fff160,0.2
fff161,0.2
fff162,0.2
fff163,0.2
fff164,0.2
fff165,0.2
fff166,0.2
fff167,0.2
fff168,0.2
fff169,0.2
fff170,0.2
fff171,0.2
fff172,0.2
fff173,0.2
fff174,0.2
fff175,0.2
fff176,0.2
fff177,0.2
fff178,0.2
fff179,0.2
fff180,0.2
fff181,0.2
fff182,0.2
fff183,0.2
fff184,0.2
fff185,0.2
fff186,0.2
fff187,0.2
fff188,0.2
fff189,0.2
fff190,0.2
fff191,0.2
fff192,0.2
fff193,0.2
fff194,0.2
fff195,0.2
fff196,0.2
fff197,0.2
fff198,0.2
fff199,0.2
fff200,0.2
fff201,0.2
fff202,0.2
fff203,0.2
fff204,0.2
fff205,0.2
fff206,0.2
fff207,0.2
fff208,0.2
fff209,0.2
fff210,0.2
fff211,0.2
fff212,0.2
fff213,0.2
fff214,0.2
fff215,0.2
fff216,0.2
fff217,0.2
fff218,0.2
fff219,0.2
fff220,0.2
fff221,0.2
fff222,0.2
fff223,0.2
fff224,0.2
fff225,0.2
fff226,0.2
fff227,0.2
fff228,0.2
fff229,0.2
fff230,0.2
fff231,0.2
fff232,0.2
fff233,0.2
fff234,0.2
fff235,0.2
fff236,0.2
fff237,0.2
