University643,ff1264732
University389,ff1264733
University924,ff1264734
University246,ff1264735
University895,ff1264736
University644,ff1264737
University158,ff1264738
University0,ff1264739
University782,ff1264740
University226,ff1264741
University751,ff1264742
University819,ff1264743
University462,ff1264744
University615,ff1264745
University562,ff1264746
University188,ff1264747
University170,ff1264748
University818,ff1264749
University575,ff1264750
University817,ff1264751
University815,ff1264752
University627,ff1264753
University974,ff1264754
University40,ff1264755
University868,ff1264756
University523,ff1264757
University279,ff1264758
University107,ff1264759
University367,ff1264760
University298,ff1264761
University534,ff1264762
University271,ff1264763
University151,ff1264764
University317,ff1264765
University460,ff1264766
University393,ff1264767
University945,ff1264768
University352,ff1264769
University126,ff1264770
University785,ff1264771
University102,ff1264772
University546,ff1264773
University448,ff1264774
University794,ff1264775
University416,ff1264776
University49,ff1264777
University753,ff1264778
University428,ff1264779
University223,ff1264780
University671,ff1264781
University911,ff1264782
University913,ff1264783
University593,ff1264784
University986,ff1264785
University508,ff1264786
University645,ff1264787
University155,ff1264788
University232,ff1264789
University98,ff1264790
University6,ff1264791
University477,ff1264792
University81,ff1264793
University702,ff1264794
University315,ff1264795
University872,ff1264796
University373,ff1264797
University715,ff1264798
University778,ff1264799
University494,ff1264800
University654,ff1264801
University362,ff1264802
University241,ff1264803
University875,ff1264804
University84,ff1264805
University882,ff1264806
University503,ff1264807
University260,ff1264808
University653,ff1264809
University125,ff1264810
University862,ff1264811
University112,ff1264812
University336,ff1264813
University74,ff1264814
University143,ff1264815
University737,ff1264816
University608,ff1264817
University358,ff1264818
University718,ff1264819
University451,ff1264820
University135,ff1264821
University662,ff1264822
University297,ff1264823
University901,ff1264824
University243,ff1264825
University371,ff1264826
University605,ff1264827
University222,ff1264828
University730,ff1264829
University963,ff1264830
University688,ff1264831
University366,ff1264832
University648,ff1264833
University995,ff1264834
University45,ff1264835
University890,ff1264836
University851,ff1264837
University915,ff1264838
University697,ff1264839
University880,ff1264840
University211,ff1264841
University65,ff1264842
University876,ff1264843
University314,ff1264844
University162,ff1264845
University989,ff1264846
University638,ff1264847
University952,ff1264848
University321,ff1264849
University687,ff1264850
University178,ff1264851
University857,ff1264852
University474,ff1264853
University590,ff1264854
University259,ff1264855
University114,ff1264856
University368,ff1264857
University423,ff1264858
University4,ff1264859
University669,ff1264860
University672,ff1264861
University1,ff1264862
University543,ff1264863
University36,ff1264864
University59,ff1264865
University877,ff1264866
University564,ff1264867
University940,ff1264868
University850,ff1264869
University941,ff1264870
University846,ff1264871
University103,ff1264872
University417,ff1264873
University852,ff1264874
University72,ff1264875
University667,ff1264876
University517,ff1264877
University996,ff1264878
University239,ff1264879
University716,ff1264880
University145,ff1264881
University27,ff1264882
University628,ff1264883
University429,ff1264884
University618,ff1264885
University291,ff1264886
University536,ff1264887
University893,ff1264888
University700,ff1264889
University426,ff1264890
University63,ff1264891
University422,ff1264892
University765,ff1264893
University950,ff1264894
University630,ff1264895
University661,ff1264896
University990,ff1264897
University370,ff1264898
University475,ff1264899
University139,ff1264900
University527,ff1264901
University144,ff1264902
University440,ff1264903
University971,ff1264904
University252,ff1264905
University869,ff1264906
University391,ff1264907
University943,ff1264908
University5,ff1264909
University228,ff1264910
University570,ff1264911
University67,ff1264912
University140,ff1264913
University959,ff1264914
University349,ff1264915
University7,ff1264916
University579,ff1264917
University292,ff1264918
University60,ff1264919
University573,ff1264920
University528,ff1264921
University130,ff1264922
University186,ff1264923
University490,ff1264924
University991,ff1264925
University958,ff1264926
University610,ff1264927
University788,ff1264928
University810,ff1264929
University303,ff1264930
University53,ff1264931
University280,ff1264932
University674,ff1264933
University173,ff1264934
University752,ff1264935
University166,ff1264936
University606,ff1264937
University464,ff1264938
University920,ff1264939
University62,ff1264940
University934,ff1264941
University205,ff1264942
University277,ff1264943
University318,ff1264944
University14,ff1264945
University323,ff1264946
University116,ff1264947
University339,ff1264948
University708,ff1264949
University574,ff1264950
University816,ff1264951
University892,ff1264952
University927,ff1264953
University156,ff1264954
University2,ff1264955
University994,ff1264956
University612,ff1264957
University476,ff1264958
University32,ff1264959
University497,ff1264960
University123,ff1264961
University820,ff1264962
University16,ff1264963
University900,ff1264964
University340,ff1264965
University149,ff1264966
University77,ff1264967
University977,ff1264968
University267,ff1264969
University138,ff1264970
University698,ff1264971
University268,ff1264972
University979,ff1264973
University972,ff1264974
University969,ff1264975
University946,ff1264976
University720,ff1264977
University750,ff1264978
University97,ff1264979
University78,ff1264980
University584,ff1264981
University848,ff1264982
University498,ff1264983
University415,ff1264984
University251,ff1264985
University405,ff1264986
University210,ff1264987
University853,ff1264988
University229,ff1264989
University885,ff1264990
University485,ff1264991
University587,ff1264992
University998,ff1264993
University206,ff1264994
University432,ff1264995
University805,ff1264996
University33,ff1264997
University620,ff1264998
University374,ff1264999
University526,ff1265000
University94,ff1265001
University833,ff1265002
University180,ff1265003
University76,ff1265004
University203,ff1265005
University705,ff1265006
University550,ff1265007
University863,ff1265008
University511,ff1265009
University701,ff1265010
University823,ff1265011
University957,ff1265012
University696,ff1265013
University35,ff1265014
University742,ff1265015
University262,ff1265016
University592,ff1265017
University234,ff1265018
University689,ff1265019
University955,ff1265020
University888,ff1265021
University220,ff1265022
University345,ff1265023
University598,ff1265024
University683,ff1265025
University87,ff1265026
University522,ff1265027
University58,ff1265028
University899,ff1265029
University922,ff1265030
University611,ff1265031
University784,ff1265032
University748,ff1265033
University332,ff1265034
University843,ff1265035
University691,ff1265036
University860,ff1265037
University565,ff1265038
University10,ff1265039
University993,ff1265040
University581,ff1265041
University330,ff1265042
University677,ff1265043
University383,ff1265044
University706,ff1265045
University29,ff1265046
University122,ff1265047
University515,ff1265048
University42,ff1265049
University137,ff1265050
University948,ff1265051
University424,ff1265052
University86,ff1265053
University897,ff1265054
University273,ff1265055
University199,ff1265056
University777,ff1265057
University184,ff1265058
University962,ff1265059
University842,ff1265060
University8,ff1265061
University359,ff1265062
University443,ff1265063
University309,ff1265064
University410,ff1265065
University163,ff1265066
University577,ff1265067
University622,ff1265068
University907,ff1265069
University703,ff1265070
University274,ff1265071
University796,ff1265072
University394,ff1265073
University225,ff1265074
University230,ff1265075
University384,ff1265076
University944,ff1265077
University973,ff1265078
University56,ff1265079
University529,ff1265080
University153,ff1265081
University779,ff1265082
University183,ff1265083
University747,ff1265084
University909,ff1265085
University346,ff1265086
University681,ff1265087
University198,ff1265088
University459,ff1265089
University266,ff1265090
University704,ff1265091
University105,ff1265092
University427,ff1265093
University914,ff1265094
University589,ff1265095
University646,ff1265096
University43,ff1265097
University728,ff1265098
University61,ff1265099
University970,ff1265100
University992,ff1265101
University141,ff1265102
University257,ff1265103
University695,ff1265104
University936,ff1265105
University776,ff1265106
University21,ff1265107
University905,ff1265108
University306,ff1265109
University763,ff1265110
University463,ff1265111
University31,ff1265112
University519,ff1265113
University641,ff1265114
University401,ff1265115
University975,ff1265116
University749,ff1265117
University878,ff1265118
University486,ff1265119
University108,ff1265120
University236,ff1265121
University30,ff1265122
University159,ff1265123
University563,ff1265124
University324,ff1265125
University588,ff1265126
University91,ff1265127
University296,ff1265128
University256,ff1265129
University147,ff1265130
University617,ff1265131
University313,ff1265132
University676,ff1265133
University624,ff1265134
University445,ff1265135
University743,ff1265136
University768,ff1265137
University457,ff1265138
University411,ff1265139
University530,ff1265140
University399,ff1265141
University553,ff1265142
University635,ff1265143
University767,ff1265144
University583,ff1265145
University473,ff1265146
University70,ff1265147
University791,ff1265148
University947,ff1265149
University694,ff1265150
University131,ff1265151
University419,ff1265152
University786,ff1265153
University835,ff1265154
University208,ff1265155
University984,ff1265156
University981,ff1265157
University544,ff1265158
University436,ff1265159
University609,ff1265160
University834,ff1265161
University421,ff1265162
University365,ff1265163
University458,ff1265164
University350,ff1265165
University101,ff1265166
University491,ff1265167
University197,ff1265168
University129,ff1265169
University903,ff1265170
University117,ff1265171
University576,ff1265172
University201,ff1265173
University881,ff1265174
University24,ff1265175
University493,ff1265176
University396,ff1265177
University190,ff1265178
University859,ff1265179
University231,ff1265180
University757,ff1265181
University194,ff1265182
University328,ff1265183
University38,ff1265184
University555,ff1265185
University388,ff1265186
University467,ff1265187
University224,ff1265188
University20,ff1265189
University509,ff1265190
University249,ff1265191
University47,ff1265192
University849,ff1265193
University480,ff1265194
University861,ff1265195
University760,ff1265196
University603,ff1265197
University487,ff1265198
University692,ff1265199
University664,ff1265200
University744,ff1265201
University307,ff1265202
University675,ff1265203
University738,ff1265204
University690,ff1265205
University305,ff1265206
University825,ff1265207
University953,ff1265208
University120,ff1265209
University221,ff1265210
University482,ff1265211
University685,ff1265212
University886,ff1265213
University789,ff1265214
University48,ff1265215
University556,ff1265216
University510,ff1265217
University600,ff1265218
University582,ff1265219
University118,ff1265220
University189,ff1265221
University387,ff1265222
University164,ff1265223
University312,ff1265224
University774,ff1265225
University169,ff1265226
University937,ff1265227
University171,ff1265228
University729,ff1265229
University602,ff1265230
University965,ff1265231
University798,ff1265232
University80,ff1265233
University682,ff1265234
University121,ff1265235
University755,ff1265236
University894,ff1265237
University801,ff1265238
University193,ff1265239
University89,ff1265240
University560,ff1265241
University912,ff1265242
University855,ff1265243
University916,ff1265244
University988,ff1265245
University647,ff1265246
University613,ff1265247
University75,ff1265248
University354,ff1265249
University308,ff1265250
University714,ff1265251
University649,ff1265252
University538,ff1265253
University100,ff1265254
University806,ff1265255
University357,ff1265256
University134,ff1265257
University561,ff1265258
University928,ff1265259
University142,ff1265260
University270,ff1265261
University507,ff1265262
University238,ff1265263
University571,ff1265264
University930,ff1265265
University395,ff1265266
University326,ff1265267
University814,ff1265268
University269,ff1265269
University132,ff1265270
University93,ff1265271
University951,ff1265272
University874,ff1265273
University66,ff1265274
University484,ff1265275
University119,ff1265276
University213,ff1265277
University26,ff1265278
University918,ff1265279
University844,ff1265280
University261,ff1265281
University572,ff1265282
University402,ff1265283
University124,ff1265284
University542,ff1265285
University174,ff1265286
University960,ff1265287
University804,ff1265288
University248,ff1265289
University596,ff1265290
University386,ff1265291
University722,ff1265292
University949,ff1265293
University516,ff1265294
University233,ff1265295
University961,ff1265296
University376,ff1265297
University847,ff1265298
University54,ff1265299
University302,ff1265300
University829,ff1265301
University586,ff1265302
University109,ff1265303
University761,ff1265304
University172,ff1265305
University380,ff1265306
University769,ff1265307
University398,ff1265308
University933,ff1265309
University456,ff1265310
University929,ff1265311
University866,ff1265312
University758,ff1265313
University976,ff1265314
University439,ff1265315
University218,ff1265316
University3,ff1265317
University904,ff1265318
University17,ff1265319
University500,ff1265320
University372,ff1265321
University420,ff1265322
University454,ff1265323
University375,ff1265324
University505,ff1265325
University275,ff1265326
University651,ff1265327
University322,ff1265328
University83,ff1265329
University148,ff1265330
University921,ff1265331
University568,ff1265332
University337,ff1265333
University185,ff1265334
University329,ff1265335
University175,ff1265336
University655,ff1265337
University442,ff1265338
University822,ff1265339
University283,ff1265340
University707,ff1265341
University435,ff1265342
University871,ff1265343
University663,ff1265344
University614,ff1265345
University724,ff1265346
University209,ff1265347
University167,ff1265348
University369,ff1265349
University263,ff1265350
University540,ff1265351
University771,ff1265352
University406,ff1265353
University12,ff1265354
University504,ff1265355
University23,ff1265356
University433,ff1265357
University25,ff1265358
University841,ff1265359
University409,ff1265360
University898,ff1265361
University90,ff1265362
University595,ff1265363
University549,ff1265364
University717,ff1265365
University483,ff1265366
University938,ff1265367
University633,ff1265368
University115,ff1265369
University377,ff1265370
University812,ff1265371
University656,ff1265372
University539,ff1265373
University551,ff1265374
University625,ff1265375
University827,ff1265376
University254,ff1265377
University745,ff1265378
University557,ff1265379
University382,ff1265380
University721,ff1265381
University64,ff1265382
University397,ff1265383
University585,ff1265384
University764,ff1265385
University18,ff1265386
University207,ff1265387
University783,ff1265388
University790,ff1265389
University580,ff1265390
University364,ff1265391
University438,ff1265392
University465,ff1265393
University453,ff1265394
University780,ff1265395
University404,ff1265396
University723,ff1265397
University666,ff1265398
University288,ff1265399
University824,ff1265400
University734,ff1265401
University496,ff1265402
University521,ff1265403
University854,ff1265404
University711,ff1265405
University471,ff1265406
University532,ff1265407
University351,ff1265408
University353,ff1265409
University289,ff1265410
University79,ff1265411
University578,ff1265412
University347,ff1265413
University461,ff1265414
University320,ff1265415
University106,ff1265416
University341,ff1265417
University52,ff1265418
University535,ff1265419
University967,ff1265420
University558,ff1265421
University418,ff1265422
University891,ff1265423
University348,ff1265424
University935,ff1265425
University887,ff1265426
University179,ff1265427
University253,ff1265428
University240,ff1265429
University22,ff1265430
University343,ff1265431
University215,ff1265432
University884,ff1265433
University569,ff1265434
University925,ff1265435
University99,ff1265436
University431,ff1265437
University518,ff1265438
University665,ff1265439
University413,ff1265440
University177,ff1265441
University839,ff1265442
University772,ff1265443
University73,ff1265444
University650,ff1265445
University626,ff1265446
University631,ff1265447
University502,ff1265448
University344,ff1265449
University710,ff1265450
University739,ff1265451
University295,ff1265452
University803,ff1265453
University867,ff1265454
University111,ff1265455
University15,ff1265456
University403,ff1265457
University363,ff1265458
University276,ff1265459
University161,ff1265460
University591,ff1265461
University865,ff1265462
University255,ff1265463
University192,ff1265464
University150,ff1265465
University360,ff1265466
University731,ff1265467
University300,ff1265468
University547,ff1265469
University250,ff1265470
University980,ff1265471
University766,ff1265472
University545,ff1265473
University88,ff1265474
University412,ff1265475
University499,ff1265476
University41,ff1265477
University917,ff1265478
University873,ff1265479
University495,ff1265480
University968,ff1265481
University44,ff1265482
University754,ff1265483
University987,ff1265484
University13,ff1265485
University639,ff1265486
University686,ff1265487
University831,ff1265488
University92,ff1265489
University34,ff1265490
University826,ff1265491
University152,ff1265492
University616,ff1265493
University293,ff1265494
University212,ff1265495
University629,ff1265496
University770,ff1265497
University775,ff1265498
University832,ff1265499
University200,ff1265500
University191,ff1265501
University264,ff1265502
University325,ff1265503
University599,ff1265504
University216,ff1265505
University290,ff1265506
University284,ff1265507
University678,ff1265508
University331,ff1265509
University640,ff1265510
University658,ff1265511
University879,ff1265512
University285,ff1265513
University713,ff1265514
University294,ff1265515
University334,ff1265516
University9,ff1265517
University319,ff1265518
University983,ff1265519
University333,ff1265520
University982,ff1265521
University247,ff1265522
University845,ff1265523
University680,ff1265524
University478,ff1265525
University524,ff1265526
University400,ff1265527
University181,ff1265528
University361,ff1265529
University652,ff1265530
University792,ff1265531
University242,ff1265532
University811,ff1265533
University157,ff1265534
University176,ff1265535
University601,ff1265536
University566,ff1265537
University719,ff1265538
University85,ff1265539
University634,ff1265540
University964,ff1265541
University286,ff1265542
University513,ff1265543
University450,ff1265544
University908,ff1265545
University838,ff1265546
University954,ff1265547
University659,ff1265548
University447,ff1265549
University342,ff1265550
University746,ff1265551
University11,ff1265552
University501,ff1265553
University69,ff1265554
University265,ff1265555
University481,ff1265556
University554,ff1265557
University55,ff1265558
University619,ff1265559
University670,ff1265560
University407,ff1265561
University492,ff1265562
University356,ff1265563
University113,ff1265564
University978,ff1265565
University282,ff1265566
University821,ff1265567
University594,ff1265568
University773,ff1265569
University956,ff1265570
University95,ff1265571
University37,ff1265572
University797,ff1265573
University278,ff1265574
University165,ff1265575
University217,ff1265576
University381,ff1265577
University452,ff1265578
University196,ff1265579
University807,ff1265580
University146,ff1265581
University759,ff1265582
University434,ff1265583
University385,ff1265584
University828,ff1265585
University227,ff1265586
University50,ff1265587
University906,ff1265588
University466,ff1265589
University468,ff1265590
University245,ff1265591
University813,ff1265592
University762,ff1265593
University272,ff1265594
University187,ff1265595
University287,ff1265596
University219,ff1265597
University128,ff1265598
University673,ff1265599
University338,ff1265600
University71,ff1265601
University204,ff1265602
University68,ff1265603
University46,ff1265604
University621,ff1265605
University736,ff1265606
University802,ff1265607
University985,ff1265608
University182,ff1265609
University735,ff1265610
University202,ff1265611
University430,ff1265612
University414,ff1265613
University168,ff1265614
University684,ff1265615
University870,ff1265616
University559,ff1265617
University966,ff1265618
University488,ff1265619
University378,ff1265620
University425,ff1265621
University437,ff1265622
University919,ff1265623
University793,ff1265624
University932,ff1265625
University82,ff1265626
University258,ff1265627
University840,ff1265628
University548,ff1265629
University514,ff1265630
University809,ff1265631
University726,ff1265632
University597,ff1265633
University237,ff1265634
University567,ff1265635
University392,ff1265636
University214,ff1265637
University923,ff1265638
University281,ff1265639
University636,ff1265640
University942,ff1265641
University19,ff1265642
University709,ff1265643
University552,ff1265644
University896,ff1265645
University725,ff1265646
University133,ff1265647
University533,ff1265648
University799,ff1265649
University727,ff1265650
University740,ff1265651
University479,ff1265652
University541,ff1265653
University446,ff1265654
University408,ff1265655
University449,ff1265656
University304,ff1265657
University910,ff1265658
University999,ff1265659
University512,ff1265660
University693,ff1265661
University96,ff1265662
University244,ff1265663
University800,ff1265664
University537,ff1265665
University110,ff1265666
University310,ff1265667
University154,ff1265668
University489,ff1265669
University327,ff1265670
University732,ff1265671
University931,ff1265672
University195,ff1265673
University637,ff1265674
University858,ff1265675
University455,ff1265676
University889,ff1265677
University506,ff1265678
University531,ff1265679
University997,ff1265680
University379,ff1265681
University316,ff1265682
University470,ff1265683
University808,ff1265684
University836,ff1265685
University926,ff1265686
University127,ff1265687
University299,ff1265688
University525,ff1265689
University160,ff1265690
University136,ff1265691
University604,ff1265692
University623,ff1265693
University311,ff1265694
University642,ff1265695
University235,ff1265696
University335,ff1265697
University856,ff1265698
University39,ff1265699
University441,ff1265700
University883,ff1265701
University902,ff1265702
University837,ff1265703
University795,ff1265704
University632,ff1265705
University679,ff1265706
University712,ff1265707
University668,ff1265708
University787,ff1265709
University355,ff1265710
University444,ff1265711
University756,ff1265712
University104,ff1265713
University469,ff1265714
University939,ff1265715
University390,ff1265716
University301,ff1265717
University51,ff1265718
University733,ff1265719
University741,ff1265720
University657,ff1265721
University28,ff1265722
University699,ff1265723
University660,ff1265724
University607,ff1265725
University781,ff1265726
University472,ff1265727
University830,ff1265728
University520,ff1265729
University57,ff1265730
University864,ff1265731
