p2,p5
p5,p2
p13,p17
p17,p13
p9,p14
p14,p9
p1,p11
p11,p1
p6,p9
p9,p6
p2,p9
p9,p2
p12,p13
p13,p12
p8,p9
p9,p8
p13,p14
p14,p13
p6,p7
p7,p6
p9,p15
p15,p9
p14,p16
p16,p14
p12,p17
p17,p12
p5,p19
p19,p5
p2,p12
p12,p2
p2,p7
p7,p2
p14,p17
p17,p14
p10,p19
p19,p10
p1,p9
p9,p1
p11,p16
p16,p11
p2,p8
p8,p2
p2,p3
p3,p2
p5,p18
p18,p5
p3,p4
p4,p3
p1,p2
p2,p1
p7,p20
p20,p7
