p20,fff0
p19,fff1
p18,fff2
p17,fff3
p16,fff4
p15,fff5
p14,fff6
p13,fff7
p12,fff8
p11,fff9
p10,fff10
p9,fff11
p8,fff12
p7,fff13
p6,fff14
p5,fff15
p4,fff16
p3,fff17
p2,fff18
p1,fff19
