p19,fff19
p18,fff21
p17,fff23
p16,fff25
p15,fff27
p14,fff29
p13,fff31
p12,fff33
p11,fff35
p10,fff37
p9,fff39
p8,fff41
p7,fff43
p6,fff45
p5,fff47
p4,fff49
p3,fff51
p2,fff53
p1,fff55
