fff0,0.08234177
fff1,0.05820921
fff2,0.05136519
fff3,0.08711184
fff4,0.07644376
fff5,0.06485839
fff6,0.08631261
fff7,0.01749477
fff8,0.01573234
fff9,0.06819666
fff10,0.03191806
fff11,0.04714238
fff12,0.06059947
fff13,0.05914647
fff14,0.01306837
fff15,0.00572076
fff16,0.01499190
fff17,0.07591085
fff18,0.04180104
fff19,0.02089189
fff20,0.02829256
fff21,0.06037794
fff22,0.07120382
fff23,0.00606099
fff24,0.01696491
fff25,0.07672013
fff26,0.06649450
fff27,0.08833404
fff28,0.04550977
fff29,0.07685241
fff30,0.08275520
fff31,0.03503576
fff32,0.09024271
fff33,0.05151213
fff34,0.06453919
fff35,0.05111402
fff36,0.06857072
fff37,0.06305948
fff38,0.07659011
fff39,0.09327764
fff40,0.04426012
fff41,0.08693021
fff42,0.03041262
fff43,0.06073288
fff44,0.09923014
fff45,0.08938123
fff46,0.02245554
fff47,0.09269714
fff48,0.01177375
fff49,0.03156461
fff50,0.08868243
fff51,0.00611530
fff52,0.07617905
fff53,0.01982621
fff54,0.05632704
fff55,0.09610347
fff56,0.03595482
fff57,0.02912274
fff58,0.09381802
fff59,0.08093851
fff60,0.03034422
fff61,0.09950774
fff62,0.09960715
fff63,0.02997685
fff64,0.04094848
fff65,0.05076347
fff66,0.02006297
fff67,0.01386750
fff68,0.02825523
fff69,0.08349502
fff70,0.06908907
fff71,0.09442231
fff72,0.01435121
fff73,0.08434367
fff74,0.01963537
fff75,0.07810566
fff76,0.07616921
fff77,0.04845849
fff78,0.06911238
fff79,0.07604839
fff80,0.07237555
fff81,0.04017190
fff82,0.04017107
fff83,0.01972458
fff84,0.09706325
fff85,0.01830110
fff86,0.02280559
fff87,0.00308551
fff88,0.00519083
fff89,0.03579356
fff90,0.07284634
fff91,0.07012701
fff92,0.01617419
fff93,0.03848410
fff94,0.00756270
fff95,0.05504618
fff96,0.05301691
fff97,0.07969907
fff98,0.03904968
fff99,0.00844386
fff100,0.00893529
fff101,0.09188002
fff102,0.07715134
fff103,0.08037519
fff104,0.02162927
fff105,0.07679866
fff106,0.06198708
fff107,0.05967244
fff108,0.00425460
fff109,0.05738033
fff110,0.08350679
fff111,0.09183069
fff112,0.03067179
fff113,0.03275208
fff114,0.03181949
fff115,0.04986319
fff116,0.05788461
fff117,0.03908159
fff118,0.08606117
fff119,0.02405307
fff120,0.06105395
fff121,0.06040287
fff122,0.01597205
fff123,0.03082546
fff124,0.03253576
fff125,0.09474821
fff126,0.08719344
fff127,0.00938924
fff128,0.06604110
fff129,0.02095475
fff130,0.01526061
fff131,0.07677280
fff132,0.06853827
fff133,0.02870813
fff134,0.04357405
fff135,0.02988508
fff136,0.08463660
fff137,0.09972859
fff138,0.05767360
fff139,0.02386676
fff140,0.04341147
fff141,0.05285432
fff142,0.08998939
fff143,0.00654851
fff144,0.09849579
fff145,0.08782410
fff146,0.00263024
fff147,0.04419861
fff148,0.07328169
fff149,0.01211222
fff150,0.03185671
fff151,0.04559049
fff152,0.04503604
fff153,0.08539583
fff154,0.02711594
fff155,0.04228976
fff156,0.03429569
fff157,0.09507795
fff158,0.04256021
fff159,0.04792040
fff160,0.06717855
fff161,0.01228821
fff162,0.09949570
fff163,0.07676584
fff164,0.00315020
fff165,0.05545484
fff166,0.09606335
fff167,0.09531424
fff168,0.09613815
fff169,0.04723607
fff170,0.02181391
fff171,0.09675899
fff172,0.08709872
fff173,0.04553412
fff174,0.08905792
fff175,0.05367388
fff176,0.09692217
fff177,0.04926576
fff178,0.02412810
fff179,0.02127574
fff180,0.01035665
fff181,0.08066178
fff182,0.04993209
fff183,0.00374260
fff184,0.03638561
fff185,0.02306184
fff186,0.05114679
fff187,0.05250605
fff188,0.02366756
fff189,0.01352600
fff190,0.07609195
fff191,0.09712513
fff192,0.00285442
fff193,0.03699574
fff194,0.01123585
fff195,0.06696804
fff196,0.03067817
fff197,0.04721522
fff198,0.08720609
fff199,0.04992853
fff200,0.04579462
fff201,0.00305840
fff202,0.09745152
fff203,0.05894260
fff204,0.00523194
fff205,0.00828700
fff206,0.05380757
fff207,0.01726934
fff208,0.05779759
fff209,0.05468060
fff210,0.06970701
fff211,0.05155035
fff212,0.05459667
fff213,0.04921879
fff214,0.08724884
fff215,0.02920917
fff216,0.05513806
fff217,0.00430375
fff218,0.03589214
fff219,0.02876844
fff220,0.01901199
fff221,0.00801311
fff222,0.00974968
fff223,0.06906094
fff224,0.04254434
fff225,0.00930284
fff226,0.06395972
fff227,0.06243389
fff228,0.08050075
fff229,0.07361254
fff230,0.05477879
fff231,0.05616978
fff232,0.09257333
fff233,0.06287777
fff234,0.07266333
fff235,0.05827604
fff236,0.05340487
fff237,0.02472802
fff238,0.06149680
fff239,0.06301377
fff240,0.06318952
fff241,0.01493000
fff242,0.02757454
fff243,0.07936624
fff244,0.09745910
fff245,0.00354008
fff246,0.06138380
fff247,0.04608322
fff248,0.00241543
fff249,0.00324205
fff250,0.04244327
fff251,0.07153492
fff252,0.04945151
fff253,0.05296297
fff254,0.01630337
fff255,0.06089690
fff256,0.02772221
fff257,0.03549438
fff258,0.05783943
fff259,0.04349231
fff260,0.08866127
fff261,0.06566632
fff262,0.08370600
fff263,0.02193689
fff264,0.00143250
fff265,0.05582775
fff266,0.09483618
fff267,0.01263732
fff268,0.06914613
fff269,0.09157557
fff270,0.09302437
fff271,0.01218208
fff272,0.06734111
fff273,0.01742083
fff274,0.08595934
fff275,0.03293401
fff276,0.02863179
fff277,0.00887276
fff278,0.08946593
fff279,0.04127777
fff280,0.02138236
fff281,0.09601505
fff282,0.07417400
fff283,0.08230670
fff284,0.02944752
fff285,0.03509337
fff286,0.06000150
fff287,0.01626088
fff288,0.07613376
fff289,0.04073691
fff290,0.00612872
fff291,0.03931631
fff292,0.08621567
fff293,0.06800064
fff294,0.09432717
fff295,0.08421658
fff296,0.01521195
fff297,0.05421210
fff298,0.02590714
fff299,0.06148993
fff300,0.09171765
fff301,0.01747776
fff302,0.09181438
fff303,0.07854689
fff304,0.02808272
fff305,0.08762792
fff306,0.02431039
fff307,0.02882141
fff308,0.03625664
fff309,0.06012622
fff310,0.04427677
fff311,0.04298765
fff312,0.09422492
fff313,0.04266709
fff314,0.09464709
fff315,0.07998098
fff316,0.07399543
fff317,0.04426552
fff318,0.09931898
fff319,0.00511704
fff320,0.06941052
fff321,0.05162176
fff322,0.08169259
fff323,0.09266950
fff324,0.03048675
fff325,0.03722243
fff326,0.06831964
fff327,0.06876014
fff328,0.06984767
fff329,0.01659609
fff330,0.08317193
fff331,0.00104941
fff332,0.02085470
fff333,0.09302300
fff334,0.09623327
fff335,0.09094264
fff336,0.08908803
fff337,0.01476354
fff338,0.07892472
fff339,0.09983981
fff340,0.06893845
fff341,0.02002653
fff342,0.00348406
fff343,0.06417629
fff344,0.05744235
fff345,0.00380834
fff346,0.01107513
fff347,0.02599002
fff348,0.00352467
fff349,0.07279611
fff350,0.01230279
fff351,0.03403376
fff352,0.04574860
fff353,0.02031146
fff354,0.02162715
fff355,0.01270719
fff356,0.04245539
fff357,0.09931445
fff358,0.07138934
fff359,0.00165762
fff360,0.07359734
fff361,0.02429569
fff362,0.05925827
fff363,0.04981434
fff364,0.05466436
fff365,0.09308511
fff366,0.08101226
fff367,0.09060642
fff368,0.04050975
fff369,0.01612764
fff370,0.01760546
fff371,0.04913073
fff372,0.03934880
fff373,0.08030262
fff374,0.01791237
fff375,0.04900603
fff376,0.05483721
fff377,0.02592842
fff378,0.03303959
fff379,0.07323408
fff380,0.03420462
fff381,0.09560974
fff382,0.02773606
fff383,0.00887050
fff384,0.04975224
fff385,0.01936782
fff386,0.01335149
fff387,0.08215097
fff388,0.00464916
fff389,0.08065253
fff390,0.05570092
fff391,0.06422424
fff392,0.05970021
fff393,0.02645619
fff394,0.02457531
fff395,0.04886174
fff396,0.02959264
fff397,0.08702002
fff398,0.02538358
fff399,0.00385173
fff400,0.05272607
fff401,0.03900056
fff402,0.08325918
fff403,0.02806458
fff404,0.05673895
fff405,0.03802577
fff406,0.03872598
fff407,0.08747560
fff408,0.07650873
fff409,0.01828663
fff410,0.01806395
fff411,0.08037587
fff412,0.06598447
fff413,0.07312281
fff414,0.08043483
fff415,0.03512542
fff416,0.01930125
fff417,0.07654029
fff418,0.02655729
fff419,0.05585400
fff420,0.03813055
fff421,0.02052537
fff422,0.03021090
fff423,0.03403236
fff424,0.07754173
fff425,0.03839184
fff426,0.00761511
fff427,0.03758168
fff428,0.06778314
fff429,0.07459335
fff430,0.02487139
fff431,0.02740633
fff432,0.05200665
fff433,0.01397419
fff434,0.05639841
fff435,0.00415252
fff436,0.07153925
fff437,0.06464244
fff438,0.00636155
fff439,0.05327088
fff440,0.04520696
fff441,0.08977296
fff442,0.09475404
fff443,0.02435016
fff444,0.06143944
fff445,0.06272491
fff446,0.00225814
fff447,0.08704871
fff448,0.01308621
fff449,0.08033292
fff450,0.03769595
fff451,0.03278395
fff452,0.07149575
fff453,0.01222398
fff454,0.01602186
fff455,0.00195090
fff456,0.07918769
fff457,0.02639512
fff458,0.03917810
fff459,0.07977917
fff460,0.00266430
fff461,0.05421505
fff462,0.04872000
fff463,0.04096333
fff464,0.03610310
fff465,0.01207612
fff466,0.04871543
fff467,0.01038578
fff468,0.06724378
fff469,0.01151469
fff470,0.00380303
fff471,0.02821039
fff472,0.08862802
fff473,0.04460772
fff474,0.07044022
fff475,0.05602516
fff476,0.09579712
fff477,0.07955708
fff478,0.02496166
fff479,0.00861115
fff480,0.08195152
fff481,0.04408802
fff482,0.05302064
fff483,0.07073471
fff484,0.05958080
fff485,0.06806344
fff486,0.03711651
fff487,0.06388047
fff488,0.07372815
fff489,0.00645114
fff490,0.06668290
fff491,0.01603488
fff492,0.02419568
fff493,0.02244416
fff494,0.03879204
fff495,0.00151857
fff496,0.03873837
fff497,0.02268354
fff498,0.00129673
fff499,0.05370251
fff500,0.07736869
fff501,0.05284308
fff502,0.07161169
fff503,0.04403697
fff504,0.01488995
fff505,0.05527571
fff506,0.04317880
fff507,0.03601779
fff508,0.09314809
fff509,0.03507715
fff510,0.03570563
fff511,0.08757562
fff512,0.07349141
fff513,0.02744899
fff514,0.07652300
fff515,0.04188835
fff516,0.03577616
fff517,0.03623635
fff518,0.03099464
fff519,0.04224684
fff520,0.02654725
fff521,0.01338074
fff522,0.04919704
fff523,0.03388876
fff524,0.05802720
fff525,0.09879582
fff526,0.08094249
fff527,0.02188992
fff528,0.01735136
fff529,0.00307232
fff530,0.01593769
fff531,0.02168740
fff532,0.09619054
fff533,0.07287779
fff534,0.00622339
fff535,0.02029461
fff536,0.05907671
fff537,0.09901086
fff538,0.04295323
fff539,0.01955519
fff540,0.02862740
fff541,0.03014575
fff542,0.02918009
fff543,0.01345282
fff544,0.09669789
fff545,0.08842223
fff546,0.03109178
fff547,0.04237916
fff548,0.02013991
fff549,0.05998036
fff550,0.07281759
fff551,0.03971544
fff552,0.08698238
fff553,0.02095290
fff554,0.00139410
fff555,0.05925016
fff556,0.02784663
fff557,0.08087403
fff558,0.01277778
fff559,0.03882493
fff560,0.09942260
fff561,0.05591652
fff562,0.07603287
fff563,0.07039313
fff564,0.07487808
fff565,0.06602768
fff566,0.01373681
fff567,0.00261200
fff568,0.01268578
fff569,0.00405263
fff570,0.09006475
fff571,0.03154349
fff572,0.04855976
fff573,0.09097330
fff574,0.03326425
fff575,0.05116818
fff576,0.03783266
fff577,0.08324626
fff578,0.04552163
fff579,0.04905632
fff580,0.02327934
fff581,0.08662921
fff582,0.03421376
fff583,0.01321526
fff584,0.05300736
fff585,0.09623395
fff586,0.04927613
fff587,0.00206222
fff588,0.05041099
fff589,0.09349684
fff590,0.06123590
fff591,0.09340222
fff592,0.03384852
fff593,0.07817360
fff594,0.02959813
fff595,0.02519343
fff596,0.01775320
fff597,0.06509468
fff598,0.03923733
fff599,0.00276683
fff600,0.06074328
fff601,0.09504207
fff602,0.01615399
fff603,0.02734539
fff604,0.05877900
fff605,0.00801707
fff606,0.06593216
fff607,0.03008402
fff608,0.08754053
fff609,0.07724383
fff610,0.01846499
fff611,0.00654959
fff612,0.03316854
fff613,0.03007541
fff614,0.05723883
fff615,0.07513855
fff616,0.00211565
fff617,0.08077158
fff618,0.01390561
fff619,0.04025826
fff620,0.09912323
fff621,0.06274495
fff622,0.02976605
fff623,0.04452704
fff624,0.09215330
fff625,0.05207149
fff626,0.07154992
fff627,0.00607446
fff628,0.03360104
fff629,0.01075817
fff630,0.03751558
fff631,0.07680402
fff632,0.04448510
fff633,0.06414327
fff634,0.02346818
fff635,0.03801744
fff636,0.06949793
fff637,0.04473502
fff638,0.02309616
fff639,0.09932001
fff640,0.08071842
fff641,0.00814063
fff642,0.08730378
fff643,0.04731590
fff644,0.06148748
fff645,0.04128364
fff646,0.01889738
fff647,0.01087632
fff648,0.03122970
fff649,0.06712367
fff650,0.08165091
fff651,0.05708788
fff652,0.02765189
fff653,0.04246390
fff654,0.09889794
fff655,0.03979619
fff656,0.07774666
fff657,0.02888399
fff658,0.06854376
fff659,0.03394379
fff660,0.08196751
fff661,0.06499582
fff662,0.00681572
fff663,0.04924558
fff664,0.08328261
fff665,0.07470571
fff666,0.05069177
fff667,0.02637048
fff668,0.06976033
fff669,0.03302383
fff670,0.03528992
fff671,0.06087257
fff672,0.07920422
fff673,0.06363741
fff674,0.02602103
fff675,0.03749978
fff676,0.03732736
fff677,0.05987134
fff678,0.05477792
fff679,0.04349252
fff680,0.04075516
fff681,0.07238381
fff682,0.05306743
fff683,0.06829002
fff684,0.07557592
fff685,0.07142497
fff686,0.07165292
fff687,0.07082819
fff688,0.00410723
fff689,0.01290863
fff690,0.07521170
fff691,0.07998984
fff692,0.03113983
fff693,0.01842552
fff694,0.08365811
fff695,0.01588745
fff696,0.05133243
fff697,0.07859797
fff698,0.07812333
fff699,0.09106014
fff700,0.03602374
fff701,0.06822106
fff702,0.08459857
fff703,0.07565756
fff704,0.04124213
fff705,0.04857349
fff706,0.07492643
fff707,0.04961422
fff708,0.09747000
fff709,0.06524961
fff710,0.02182962
fff711,0.09543732
fff712,0.02070842
fff713,0.01426821
fff714,0.01942384
fff715,0.02946784
fff716,0.00883084
fff717,0.05362757
fff718,0.03079864
fff719,0.04838898
fff720,0.05087946
fff721,0.08938928
fff722,0.04319609
fff723,0.07551068
fff724,0.02146527
fff725,0.05683231
fff726,0.06722140
fff727,0.07460876
fff728,0.09993042
fff729,0.04606168
fff730,0.07749040
fff731,0.05966593
fff732,0.08720421
fff733,0.03944186
fff734,0.02208035
fff735,0.04157524
fff736,0.05102117
fff737,0.00135178
fff738,0.05875099
fff739,0.00529330
fff740,0.06756370
fff741,0.07060505
fff742,0.02073546
fff743,0.00943900
fff744,0.05831466
fff745,0.04347999
fff746,0.07363758
fff747,0.09064573
fff748,0.08014301
fff749,0.04452534
fff750,0.05486740
fff751,0.07976589
fff752,0.00162520
fff753,0.05462962
fff754,0.04070822
fff755,0.01060760
fff756,0.00948591
fff757,0.04795401
fff758,0.07198279
fff759,0.08384019
fff760,0.06727348
fff761,0.03594269
fff762,0.04679736
fff763,0.04629037
fff764,0.00117844
fff765,0.04715150
fff766,0.06912668
fff767,0.07834764
fff768,0.08338571
fff769,0.07093366
fff770,0.03915071
fff771,0.06188005
fff772,0.02614367
fff773,0.04737870
fff774,0.00524377
fff775,0.08583773
fff776,0.04870418
fff777,0.02058730
fff778,0.08445267
fff779,0.03807213
fff780,0.09611391
fff781,0.00737096
fff782,0.08354018
fff783,0.04381165
fff784,0.09985298
fff785,0.07951929
fff786,0.00665772
fff787,0.02213238
fff788,0.01576160
fff789,0.02042129
fff790,0.09855887
fff791,0.01511560
fff792,0.03529835
fff793,0.09607805
fff794,0.06429975
fff795,0.00209367
fff796,0.06783913
fff797,0.09714415
fff798,0.07623596
fff799,0.00521990
fff800,0.02778426
fff801,0.00855224
fff802,0.04930698
fff803,0.00708222
fff804,0.07728018
fff805,0.04879182
fff806,0.08566922
fff807,0.07718008
fff808,0.04520495
fff809,0.00275796
fff810,0.05685700
fff811,0.09237516
fff812,0.04198725
fff813,0.01263045
fff814,0.04049139
fff815,0.02326667
fff816,0.05183520
fff817,0.03208966
fff818,0.06867423
fff819,0.06521034
fff820,0.00412760
fff821,0.01840079
fff822,0.04094901
fff823,0.02545535
fff824,0.06642714
fff825,0.09709019
fff826,0.02875537
fff827,0.05621818
fff828,0.04480651
fff829,0.05813151
fff830,0.09330549
fff831,0.07038897
fff832,0.03735370
fff833,0.08925633
fff834,0.00889936
fff835,0.09801180
fff836,0.04350164
fff837,0.01785525
fff838,0.07987880
fff839,0.03598312
fff840,0.03227794
fff841,0.07568203
fff842,0.02939238
fff843,0.00145922
fff844,0.04630617
fff845,0.07915526
fff846,0.01972000
fff847,0.01988564
fff848,0.02759732
fff849,0.08117945
fff850,0.08797336
fff851,0.01250981
fff852,0.04693413
fff853,0.07092115
fff854,0.07494145
fff855,0.09687478
fff856,0.09727683
fff857,0.06417406
fff858,0.03693632
fff859,0.05306909
fff860,0.08059058
fff861,0.03328648
fff862,0.03929504
fff863,0.04085900
fff864,0.04149065
fff865,0.01920781
fff866,0.09580137
fff867,0.07884519
fff868,0.05033300
fff869,0.07311086
fff870,0.05820811
fff871,0.00607556
fff872,0.01588247
fff873,0.01751626
fff874,0.05371627
fff875,0.09894731
fff876,0.09626863
fff877,0.07797562
fff878,0.02923256
fff879,0.07200591
fff880,0.07581195
fff881,0.06414523
fff882,0.08833461
fff883,0.03940425
fff884,0.07953237
fff885,0.07064132
fff886,0.03574050
fff887,0.08576198
fff888,0.04120220
fff889,0.03425360
fff890,0.00261811
fff891,0.02564269
fff892,0.09236903
fff893,0.00345602
fff894,0.03578839
fff895,0.08590805
fff896,0.02190162
fff897,0.09766533
fff898,0.07616692
fff899,0.09425249
fff900,0.04074424
fff901,0.01588529
fff902,0.03557958
fff903,0.08479721
fff904,0.02890503
fff905,0.02510673
fff906,0.03441924
fff907,0.04732171
fff908,0.04898612
fff909,0.01641562
fff910,0.09155044
fff911,0.06222101
fff912,0.02984458
fff913,0.09997080
fff914,0.05106778
fff915,0.01400608
fff916,0.05849830
fff917,0.03768900
fff918,0.04331264
fff919,0.06603260
fff920,0.09802868
fff921,0.02846898
fff922,0.07653061
fff923,0.02405284
fff924,0.01428984
fff925,0.06994947
fff926,0.01965813
fff927,0.08143010
fff928,0.03215560
fff929,0.04556018
fff930,0.04380672
fff931,0.06480730
fff932,0.08162041
fff933,0.02247419
fff934,0.07681375
fff935,0.02449655
fff936,0.09915799
fff937,0.04409061
fff938,0.06271784
fff939,0.01681715
fff940,0.01709139
fff941,0.04535032
fff942,0.07510665
fff943,0.05849072
fff944,0.03331280
fff945,0.05529154
fff946,0.00418955
fff947,0.07256903
fff948,0.08392926
fff949,0.06481378
fff950,0.06039238
fff951,0.01594667
fff952,0.03433332
fff953,0.07089235
fff954,0.09651711
fff955,0.05665058
fff956,0.05483373
fff957,0.09997999
fff958,0.05147831
fff959,0.06521833
fff960,0.06831288
fff961,0.07801931
fff962,0.02640180
fff963,0.08348294
fff964,0.00555369
fff965,0.04977787
fff966,0.02775010
fff967,0.02481392
fff968,0.03675998
fff969,0.00353068
fff970,0.09710771
fff971,0.05721078
fff972,0.08899603
fff973,0.00664028
fff974,0.06533610
fff975,0.06548840
fff976,0.05217473
fff977,0.09081221
fff978,0.07838340
fff979,0.00417860
fff980,0.08559643
fff981,0.05103243
fff982,0.05288382
fff983,0.07921603
fff984,0.05744259
fff985,0.06799040
fff986,0.02276796
fff987,0.07799135
fff988,0.03389266
fff989,0.01150131
fff990,0.09232714
fff991,0.00965358
fff992,0.08786774
fff993,0.01776158
fff994,0.07368717
fff995,0.01645836
fff996,0.08438929
fff997,0.09966872
fff998,0.01017369
fff999,0.08565791
fff1000,0.09556031
fff1001,0.01505977
fff1002,0.08079956
fff1003,0.02800028
fff1004,0.06072507
fff1005,0.00990687
fff1006,0.01824188
fff1007,0.05545200
fff1008,0.09385886
fff1009,0.06994032
fff1010,0.08116306
fff1011,0.08309234
fff1012,0.04544600
fff1013,0.01178315
fff1014,0.04128582
fff1015,0.08527659
fff1016,0.03783622
fff1017,0.03117284
fff1018,0.02651884
fff1019,0.04693117
fff1020,0.02584389
fff1021,0.05405709
fff1022,0.03010058
fff1023,0.01023035
fff1024,0.08589972
fff1025,0.03271293
fff1026,0.09925434
fff1027,0.09908941
fff1028,0.03532796
fff1029,0.07188835
fff1030,0.06436876
fff1031,0.06007777
fff1032,0.00624267
fff1033,0.07570982
fff1034,0.01044595
fff1035,0.04780245
fff1036,0.03288151
fff1037,0.09148554
fff1038,0.00704347
fff1039,0.07660130
fff1040,0.03977418
fff1041,0.05018102
fff1042,0.01618382
fff1043,0.04989831
fff1044,0.08076165
fff1045,0.02108324
fff1046,0.08467828
fff1047,0.07555266
fff1048,0.06956396
fff1049,0.01229727
fff1050,0.04337855
fff1051,0.08421700
fff1052,0.05380680
fff1053,0.04721682
fff1054,0.03821408
fff1055,0.09239789
fff1056,0.04223157
fff1057,0.02085606
fff1058,0.03120278
fff1059,0.08475199
fff1060,0.09694569
fff1061,0.08780332
fff1062,0.05038085
fff1063,0.05617114
fff1064,0.03459085
fff1065,0.03527484
fff1066,0.05329073
fff1067,0.09855214
fff1068,0.09014516
fff1069,0.00890033
fff1070,0.04347641
fff1071,0.06262607
fff1072,0.08330908
fff1073,0.05722217
fff1074,0.00966269
fff1075,0.08614696
fff1076,0.07793946
fff1077,0.00238967
fff1078,0.04382799
fff1079,0.07813677
fff1080,0.01890681
fff1081,0.08217020
fff1082,0.07050455
fff1083,0.02799530
fff1084,0.04746986
fff1085,0.07018380
fff1086,0.05148599
fff1087,0.07154780
fff1088,0.07980369
fff1089,0.07176710
fff1090,0.01038382
fff1091,0.04872761
fff1092,0.09681316
fff1093,0.01283682
fff1094,0.00846333
fff1095,0.07015679
fff1096,0.04607234
fff1097,0.01614859
fff1098,0.07199233
fff1099,0.00769735
fff1100,0.01304281
fff1101,0.04780970
fff1102,0.00694275
fff1103,0.04307580
fff1104,0.05694860
fff1105,0.08746376
fff1106,0.05208046
fff1107,0.01748947
fff1108,0.05518051
fff1109,0.01174364
fff1110,0.03555644
fff1111,0.07637200
fff1112,0.02633379
fff1113,0.01864216
fff1114,0.07019851
fff1115,0.04853611
fff1116,0.06689432
fff1117,0.05573982
fff1118,0.06871867
fff1119,0.04506478
fff1120,0.06857284
fff1121,0.03442660
fff1122,0.03567173
fff1123,0.09761367
fff1124,0.05418397
fff1125,0.01636018
fff1126,0.04754500
fff1127,0.03823865
fff1128,0.01394597
fff1129,0.08137129
fff1130,0.00772242
fff1131,0.03262469
fff1132,0.03454374
fff1133,0.09929744
fff1134,0.00755246
fff1135,0.08364094
fff1136,0.06553181
fff1137,0.05034478
fff1138,0.07433339
fff1139,0.04426398
fff1140,0.01439651
fff1141,0.04428822
fff1142,0.00973930
fff1143,0.04211394
fff1144,0.00517697
fff1145,0.07683004
fff1146,0.01789707
fff1147,0.07529046
fff1148,0.07926844
fff1149,0.08812894
fff1150,0.07091734
fff1151,0.02494468
fff1152,0.09001273
fff1153,0.08611681
fff1154,0.05519050
fff1155,0.02607292
fff1156,0.04505914
fff1157,0.09902864
fff1158,0.09422536
fff1159,0.05592221
fff1160,0.03177041
fff1161,0.08986032
fff1162,0.08931132
fff1163,0.00376689
fff1164,0.06931131
fff1165,0.08535242
fff1166,0.00303254
fff1167,0.08806618
fff1168,0.00803275
fff1169,0.08702990
fff1170,0.07075967
fff1171,0.04301374
fff1172,0.03698121
fff1173,0.02372098
fff1174,0.06357349
fff1175,0.06604121
fff1176,0.06897794
fff1177,0.07381638
fff1178,0.09924331
fff1179,0.04582205
fff1180,0.03170932
fff1181,0.09082197
fff1182,0.09800929
fff1183,0.01359366
fff1184,0.09328089
fff1185,0.04826343
fff1186,0.08246978
fff1187,0.02012273
fff1188,0.09548950
fff1189,0.07070175
fff1190,0.06332335
fff1191,0.01108720
fff1192,0.09019918
fff1193,0.03840405
fff1194,0.01913853
fff1195,0.02149842
fff1196,0.03202589
fff1197,0.04141614
fff1198,0.04568511
fff1199,0.05157509
fff1200,0.02764599
fff1201,0.08330125
fff1202,0.08140248
fff1203,0.02107957
fff1204,0.06463476
fff1205,0.06936782
fff1206,0.08031291
fff1207,0.01917493
fff1208,0.08935183
fff1209,0.04788095
fff1210,0.03025167
fff1211,0.06896910
fff1212,0.04024453
fff1213,0.08795262
fff1214,0.03837759
fff1215,0.05151629
fff1216,0.06021212
fff1217,0.02401559
fff1218,0.09996507
fff1219,0.09083580
fff1220,0.07066807
fff1221,0.00596273
fff1222,0.08357060
fff1223,0.03602399
fff1224,0.01223500
fff1225,0.05866257
fff1226,0.01456814
fff1227,0.00983099
fff1228,0.01644772
fff1229,0.01407467
fff1230,0.07583633
fff1231,0.07017302
fff1232,0.08633345
fff1233,0.00744014
fff1234,0.03363157
fff1235,0.00148458
fff1236,0.04238342
fff1237,0.05426557
fff1238,0.08457876
fff1239,0.07329482
fff1240,0.01457329
fff1241,0.03897076
fff1242,0.06152070
fff1243,0.09766703
fff1244,0.07559283
fff1245,0.08310212
fff1246,0.03262157
fff1247,0.02259590
fff1248,0.06164749
fff1249,0.08810431
fff1250,0.00205255
fff1251,0.01865158
fff1252,0.05906431
fff1253,0.05416333
fff1254,0.02572653
fff1255,0.07529969
fff1256,0.08426690
fff1257,0.00761887
fff1258,0.05026438
fff1259,0.01618386
fff1260,0.04566296
fff1261,0.09991133
fff1262,0.07850498
fff1263,0.02894517
fff1264,0.03638370
fff1265,0.02633407
fff1266,0.08999553
fff1267,0.03274765
fff1268,0.08982912
fff1269,0.09454885
fff1270,0.07765012
fff1271,0.01762190
fff1272,0.05332244
fff1273,0.03002749
fff1274,0.03481376
fff1275,0.00562751
fff1276,0.03528874
fff1277,0.08465930
fff1278,0.03209811
fff1279,0.08583029
fff1280,0.03612718
fff1281,0.03083126
fff1282,0.00331796
fff1283,0.04828127
fff1284,0.03665107
fff1285,0.03157782
fff1286,0.09219930
fff1287,0.03123995
fff1288,0.05342229
fff1289,0.03153635
fff1290,0.05428544
fff1291,0.09828020
fff1292,0.09460603
fff1293,0.04498496
fff1294,0.08348997
fff1295,0.08190204
fff1296,0.09580552
fff1297,0.04146065
fff1298,0.05534783
fff1299,0.08057083
fff1300,0.04461031
fff1301,0.02915656
fff1302,0.00897172
fff1303,0.09600889
fff1304,0.06334213
fff1305,0.03099414
fff1306,0.01750322
fff1307,0.03850613
fff1308,0.04928647
fff1309,0.05429329
fff1310,0.04078629
fff1311,0.03792572
fff1312,0.03948459
fff1313,0.01922891
fff1314,0.03723544
fff1315,0.01816538
fff1316,0.06283156
fff1317,0.04235054
fff1318,0.05161412
fff1319,0.03778619
fff1320,0.00966615
fff1321,0.03872671
fff1322,0.03527361
fff1323,0.03456559
fff1324,0.01429615
fff1325,0.08701503
fff1326,0.05993267
fff1327,0.01686216
fff1328,0.06142454
fff1329,0.05000399
fff1330,0.02046224
fff1331,0.05865080
fff1332,0.09001136
fff1333,0.01378669
fff1334,0.08158867
fff1335,0.06720067
fff1336,0.03513151
fff1337,0.09815328
fff1338,0.08470664
fff1339,0.06505456
fff1340,0.09873194
fff1341,0.06235329
fff1342,0.07182350
fff1343,0.05675673
fff1344,0.09362241
fff1345,0.06161369
fff1346,0.07210963
fff1347,0.03889848
fff1348,0.01783707
fff1349,0.06180815
fff1350,0.02771163
fff1351,0.03644380
fff1352,0.09803110
fff1353,0.06083089
fff1354,0.04731615
fff1355,0.08503949
fff1356,0.01236836
fff1357,0.00854471
fff1358,0.06877236
fff1359,0.07990017
fff1360,0.01861386
fff1361,0.09703022
fff1362,0.09469073
fff1363,0.09645210
fff1364,0.00208634
fff1365,0.01144262
fff1366,0.02749432
fff1367,0.02462293
fff1368,0.08997163
fff1369,0.02655863
fff1370,0.05705099
fff1371,0.06692622
fff1372,0.01409946
fff1373,0.04688780
fff1374,0.06958128
fff1375,0.01441435
fff1376,0.09847443
fff1377,0.08614596
fff1378,0.08120320
fff1379,0.00353045
fff1380,0.07810316
fff1381,0.05709404
fff1382,0.04755878
fff1383,0.00649444
fff1384,0.06589540
fff1385,0.03987451
fff1386,0.09395074
fff1387,0.09408990
fff1388,0.03744854
fff1389,0.06447930
fff1390,0.03478672
fff1391,0.00140581
fff1392,0.01014036
fff1393,0.05760275
fff1394,0.08075996
fff1395,0.04630714
fff1396,0.02354017
fff1397,0.02840534
fff1398,0.08661043
fff1399,0.01831306
fff1400,0.07264250
fff1401,0.05744723
fff1402,0.02998836
fff1403,0.06942820
fff1404,0.03598825
fff1405,0.07892279
fff1406,0.02211359
fff1407,0.07797000
fff1408,0.09189123
fff1409,0.07153006
fff1410,0.05679879
fff1411,0.06426875
fff1412,0.02394433
fff1413,0.03579202
fff1414,0.00607398
fff1415,0.08145303
fff1416,0.03445681
fff1417,0.00609587
fff1418,0.01156396
fff1419,0.03079239
fff1420,0.06455394
fff1421,0.09386160
fff1422,0.03211393
fff1423,0.01502241
fff1424,0.01362309
fff1425,0.07554867
fff1426,0.04168533
fff1427,0.00284912
fff1428,0.03544958
fff1429,0.00140947
fff1430,0.00583560
fff1431,0.03473854
fff1432,0.06155869
fff1433,0.04225583
fff1434,0.09418073
fff1435,0.09508803
fff1436,0.05506622
fff1437,0.02702355
fff1438,0.08088888
fff1439,0.02823504
fff1440,0.08730628
fff1441,0.02212677
fff1442,0.02317895
fff1443,0.05752076
fff1444,0.08046124
fff1445,0.06878715
fff1446,0.06065622
fff1447,0.08691171
fff1448,0.03811798
fff1449,0.09428842
fff1450,0.07958184
fff1451,0.09391313
fff1452,0.05448441
fff1453,0.01475783
fff1454,0.03545648
fff1455,0.09982364
fff1456,0.05065655
fff1457,0.05397803
fff1458,0.08901535
fff1459,0.04033702
fff1460,0.04051985
fff1461,0.04208447
fff1462,0.03047836
fff1463,0.01621618
fff1464,0.01362025
fff1465,0.06187257
fff1466,0.03165130
fff1467,0.01701220
fff1468,0.03820196
fff1469,0.07845707
fff1470,0.08937139
fff1471,0.07659149
fff1472,0.05458715
fff1473,0.01028346
fff1474,0.08095127
fff1475,0.07616780
fff1476,0.09244276
fff1477,0.03884908
fff1478,0.08280834
fff1479,0.06361211
fff1480,0.02483225
fff1481,0.05809993
fff1482,0.01192610
fff1483,0.05441327
fff1484,0.07348233
fff1485,0.00122510
fff1486,0.03907643
fff1487,0.01910131
fff1488,0.03812423
fff1489,0.08355428
fff1490,0.04008778
fff1491,0.00382832
fff1492,0.03435250
fff1493,0.02924341
fff1494,0.06849022
fff1495,0.09850069
fff1496,0.07297577
fff1497,0.07378253
fff1498,0.00131543
fff1499,0.09938571
fff1500,0.01743625
fff1501,0.03561914
fff1502,0.04750272
fff1503,0.06557725
fff1504,0.04504746
fff1505,0.02852745
fff1506,0.07934006
fff1507,0.08144597
fff1508,0.04788319
fff1509,0.02932349
fff1510,0.00205445
fff1511,0.04182050
fff1512,0.04632049
fff1513,0.00171487
fff1514,0.06226242
fff1515,0.00296799
fff1516,0.02375257
fff1517,0.03219084
fff1518,0.04316708
fff1519,0.04579956
fff1520,0.04136900
fff1521,0.04060162
fff1522,0.01294055
fff1523,0.05400745
fff1524,0.05158527
fff1525,0.04841782
fff1526,0.09002105
fff1527,0.09814263
fff1528,0.09594305
fff1529,0.06617415
fff1530,0.08620427
fff1531,0.00323838
fff1532,0.04136115
fff1533,0.02848627
fff1534,0.04253494
fff1535,0.00556472
fff1536,0.09289549
fff1537,0.01868987
fff1538,0.01002625
fff1539,0.00771325
fff1540,0.03713493
fff1541,0.03439372
fff1542,0.01998978
fff1543,0.08669230
fff1544,0.05526894
fff1545,0.03117584
fff1546,0.09288809
fff1547,0.00318361
fff1548,0.07219540
fff1549,0.08032408
fff1550,0.01208107
fff1551,0.00173017
fff1552,0.04392377
fff1553,0.03762819
fff1554,0.07923900
fff1555,0.08891965
fff1556,0.02087561
fff1557,0.07809461
fff1558,0.09520915
fff1559,0.02061570
fff1560,0.06294904
fff1561,0.03726380
fff1562,0.07838530
fff1563,0.04440637
fff1564,0.05717134
fff1565,0.02979066
fff1566,0.04104284
fff1567,0.02929766
fff1568,0.06101505
fff1569,0.09673919
fff1570,0.04004939
fff1571,0.04231584
fff1572,0.07924267
fff1573,0.06167295
fff1574,0.07572488
fff1575,0.07148102
fff1576,0.01297980
fff1577,0.02241703
fff1578,0.07049750
fff1579,0.08170853
fff1580,0.07582819
fff1581,0.06454999
fff1582,0.04226012
fff1583,0.03041349
fff1584,0.06112441
fff1585,0.07305116
fff1586,0.00976808
fff1587,0.00668878
fff1588,0.07284889
fff1589,0.01213746
fff1590,0.01456169
fff1591,0.06467775
fff1592,0.01938180
fff1593,0.04613262
fff1594,0.09457029
fff1595,0.00224677
fff1596,0.05195204
fff1597,0.05932444
fff1598,0.01979296
fff1599,0.06713901
fff1600,0.06676540
fff1601,0.01162583
fff1602,0.07046723
fff1603,0.05516413
fff1604,0.02005381
fff1605,0.04384507
fff1606,0.03502792
fff1607,0.07972239
fff1608,0.08367707
fff1609,0.02424144
fff1610,0.04989950
fff1611,0.04192958
fff1612,0.07345088
fff1613,0.09389693
fff1614,0.07004242
fff1615,0.08512618
fff1616,0.05590938
fff1617,0.01683461
fff1618,0.00479160
fff1619,0.08168380
fff1620,0.03122239
fff1621,0.02323667
fff1622,0.03853347
fff1623,0.06162151
fff1624,0.06990170
fff1625,0.01013146
fff1626,0.06586891
fff1627,0.04173208
fff1628,0.04168175
fff1629,0.01732054
fff1630,0.03934820
fff1631,0.07518763
fff1632,0.05077808
fff1633,0.05930013
fff1634,0.05101068
fff1635,0.06536627
fff1636,0.00773641
fff1637,0.09112566
fff1638,0.00804230
fff1639,0.06302224
fff1640,0.08596724
fff1641,0.01393403
fff1642,0.05989150
fff1643,0.02980122
fff1644,0.01683021
fff1645,0.00344030
fff1646,0.02491061
fff1647,0.04753819
fff1648,0.06519906
fff1649,0.05648150
fff1650,0.04915103
fff1651,0.08923136
fff1652,0.08801360
fff1653,0.08662028
fff1654,0.03667151
fff1655,0.00734371
fff1656,0.03632468
fff1657,0.00889073
fff1658,0.05429045
fff1659,0.02966038
fff1660,0.07236107
fff1661,0.09341618
fff1662,0.02012348
fff1663,0.04023717
fff1664,0.02087474
fff1665,0.02106762
fff1666,0.05636393
fff1667,0.03024671
fff1668,0.02598094
fff1669,0.03614301
fff1670,0.03528721
fff1671,0.02875455
fff1672,0.07886844
fff1673,0.03353074
fff1674,0.05247868
fff1675,0.05769544
fff1676,0.00650023
fff1677,0.08917750
fff1678,0.07894196
fff1679,0.00315220
fff1680,0.09868407
fff1681,0.06836015
fff1682,0.08632931
fff1683,0.06309718
fff1684,0.07903137
fff1685,0.04675884
fff1686,0.06577772
fff1687,0.08118696
fff1688,0.04444032
fff1689,0.07313648
fff1690,0.06042317
fff1691,0.04942213
fff1692,0.04414578
fff1693,0.03820926
fff1694,0.02643696
fff1695,0.03691590
fff1696,0.09015725
fff1697,0.06961519
fff1698,0.04724332
fff1699,0.00323190
fff1700,0.06804356
fff1701,0.09435050
fff1702,0.08547544
fff1703,0.06727523
fff1704,0.02023172
fff1705,0.03834825
fff1706,0.06202822
fff1707,0.00437723
fff1708,0.07834511
fff1709,0.09042984
fff1710,0.09680039
fff1711,0.09804252
fff1712,0.01957526
fff1713,0.09600909
fff1714,0.08027687
fff1715,0.03932929
fff1716,0.05158372
fff1717,0.06485836
fff1718,0.09321677
fff1719,0.07105221
fff1720,0.02341489
fff1721,0.08966388
fff1722,0.05228371
fff1723,0.07473080
fff1724,0.01858779
fff1725,0.04115949
fff1726,0.01600220
fff1727,0.07091895
fff1728,0.00386776
fff1729,0.03775293
fff1730,0.04835250
fff1731,0.00498821
fff1732,0.07106670
fff1733,0.03128360
fff1734,0.00543879
fff1735,0.01728291
fff1736,0.01711309
fff1737,0.04267353
fff1738,0.05953281
fff1739,0.05655426
fff1740,0.07945618
fff1741,0.07487847
fff1742,0.02585456
fff1743,0.04363139
fff1744,0.07128058
fff1745,0.00962406
fff1746,0.05369815
fff1747,0.04890742
fff1748,0.04169364
fff1749,0.06663779
fff1750,0.06576788
fff1751,0.05736583
fff1752,0.02714104
fff1753,0.00348114
fff1754,0.02060126
fff1755,0.01716148
fff1756,0.01607871
fff1757,0.02054797
fff1758,0.03429003
fff1759,0.07812315
fff1760,0.01545326
fff1761,0.04066967
fff1762,0.02617063
fff1763,0.03776864
fff1764,0.03231462
fff1765,0.00312511
fff1766,0.04127556
fff1767,0.06087915
fff1768,0.04359546
fff1769,0.01685916
fff1770,0.09120321
fff1771,0.00355812
fff1772,0.00728993
fff1773,0.05906135
fff1774,0.07485342
fff1775,0.02568343
fff1776,0.08075839
fff1777,0.06951636
fff1778,0.09637685
fff1779,0.01623203
fff1780,0.03263466
fff1781,0.01118246
fff1782,0.05749757
fff1783,0.09206759
fff1784,0.05581015
fff1785,0.00413456
fff1786,0.09077502
fff1787,0.09008697
fff1788,0.04946354
fff1789,0.02691270
fff1790,0.00429279
fff1791,0.05846454
fff1792,0.09465940
fff1793,0.01735572
fff1794,0.08944260
fff1795,0.04302977
fff1796,0.06439039
fff1797,0.07437215
fff1798,0.06517515
fff1799,0.03226983
fff1800,0.05595050
fff1801,0.02020343
fff1802,0.01055426
fff1803,0.09692285
fff1804,0.09599947
fff1805,0.04711608
fff1806,0.01054801
fff1807,0.03573704
fff1808,0.00894599
fff1809,0.00170498
fff1810,0.04015992
fff1811,0.06894223
fff1812,0.00211936
fff1813,0.09240897
fff1814,0.04154952
fff1815,0.03875044
fff1816,0.03087986
fff1817,0.07412822
fff1818,0.05507839
fff1819,0.08885541
fff1820,0.02251670
fff1821,0.06457461
fff1822,0.09699297
fff1823,0.08788441
fff1824,0.01867378
fff1825,0.01446931
fff1826,0.00733606
fff1827,0.03019078
fff1828,0.05954989
fff1829,0.08209272
fff1830,0.09097668
fff1831,0.03279538
fff1832,0.07135425
fff1833,0.02155179
fff1834,0.03362377
fff1835,0.01438496
fff1836,0.03131111
fff1837,0.07517404
fff1838,0.01740210
fff1839,0.01198153
fff1840,0.03945736
fff1841,0.02021246
fff1842,0.05844249
fff1843,0.08240151
fff1844,0.01576427
fff1845,0.06567297
fff1846,0.08363219
fff1847,0.01758736
fff1848,0.01526361
fff1849,0.06019436
fff1850,0.00425887
fff1851,0.04066326
fff1852,0.09213040
fff1853,0.05929852
fff1854,0.07978570
fff1855,0.03037467
fff1856,0.09198738
fff1857,0.00504076
fff1858,0.08918233
fff1859,0.04111520
fff1860,0.05297499
fff1861,0.05144290
fff1862,0.06828008
fff1863,0.07283447
fff1864,0.04892588
fff1865,0.08070395
fff1866,0.03480009
fff1867,0.03525195
fff1868,0.01744625
fff1869,0.01206055
fff1870,0.05854516
fff1871,0.05006416
fff1872,0.00777312
fff1873,0.07540320
fff1874,0.06859263
fff1875,0.05556635
fff1876,0.08236440
fff1877,0.09893099
fff1878,0.04794853
fff1879,0.08978059
fff1880,0.00871078
fff1881,0.00205384
fff1882,0.05429364
fff1883,0.06339911
fff1884,0.07011122
fff1885,0.04934021
fff1886,0.01582382
fff1887,0.02463348
fff1888,0.08036667
fff1889,0.07771450
fff1890,0.04146406
fff1891,0.09235312
fff1892,0.03618872
fff1893,0.02769907
fff1894,0.09407731
fff1895,0.06426586
fff1896,0.07057228
fff1897,0.06876347
fff1898,0.04743089
fff1899,0.08244215
fff1900,0.08668967
fff1901,0.06079508
fff1902,0.02000697
fff1903,0.01218993
fff1904,0.05979074
fff1905,0.05095726
fff1906,0.07784281
fff1907,0.00819139
fff1908,0.07295476
fff1909,0.03411164
fff1910,0.01857017
fff1911,0.00692181
fff1912,0.05671993
fff1913,0.09973864
fff1914,0.00970419
fff1915,0.00806802
fff1916,0.05671798
fff1917,0.03374945
fff1918,0.00975860
fff1919,0.00354730
fff1920,0.03680216
fff1921,0.05832831
fff1922,0.06430425
fff1923,0.02662076
fff1924,0.04486646
fff1925,0.01139422
fff1926,0.08208406
fff1927,0.01867431
fff1928,0.02746467
fff1929,0.06169167
fff1930,0.02481032
fff1931,0.04402688
fff1932,0.09968716
fff1933,0.04951812
fff1934,0.03056723
fff1935,0.06501714
fff1936,0.04438755
fff1937,0.05786548
fff1938,0.06318733
fff1939,0.02724355
fff1940,0.09780660
fff1941,0.09960593
fff1942,0.08506397
fff1943,0.01439939
fff1944,0.08976568
fff1945,0.03832802
fff1946,0.01682121
fff1947,0.09382930
fff1948,0.00205568
fff1949,0.08508732
fff1950,0.07591101
fff1951,0.01416885
fff1952,0.03632622
fff1953,0.08105136
fff1954,0.06509905
fff1955,0.09893869
fff1956,0.06514775
fff1957,0.05694871
fff1958,0.03439521
fff1959,0.05046709
fff1960,0.07422502
fff1961,0.03093823
fff1962,0.03948200
fff1963,0.03711494
fff1964,0.06782343
fff1965,0.05191753
fff1966,0.02061372
fff1967,0.04376629
fff1968,0.05532249
fff1969,0.02697028
fff1970,0.05855494
fff1971,0.02686906
fff1972,0.03886706
fff1973,0.07239026
fff1974,0.09206450
fff1975,0.04351307
fff1976,0.02557174
fff1977,0.07821236
fff1978,0.03970662
fff1979,0.01514186
fff1980,0.04944056
fff1981,0.08106861
fff1982,0.02508744
fff1983,0.01433671
fff1984,0.02946062
fff1985,0.01226969
fff1986,0.03612098
fff1987,0.00398353
fff1988,0.09804821
fff1989,0.05007734
fff1990,0.07731642
fff1991,0.01385878
fff1992,0.09856939
fff1993,0.09379577
fff1994,0.04850688
fff1995,0.04787739
fff1996,0.04490747
fff1997,0.05086935
fff1998,0.00346338
fff1999,0.01029184
fff2000,0.07364147
fff2001,0.08683399
fff2002,0.06829768
fff2003,0.04593904
fff2004,0.02943757
fff2005,0.08169892
fff2006,0.09314135
fff2007,0.00870948
fff2008,0.01780067
fff2009,0.09002825
fff2010,0.01908683
fff2011,0.00763353
fff2012,0.01989682
fff2013,0.04611421
fff2014,0.01006194
fff2015,0.04471572
fff2016,0.00488121
fff2017,0.04391321
fff2018,0.07531906
fff2019,0.00260255
fff2020,0.04402117
fff2021,0.02309823
fff2022,0.00787130
fff2023,0.08440492
fff2024,0.09023457
fff2025,0.05230902
fff2026,0.02378694
fff2027,0.01567444
fff2028,0.00705336
fff2029,0.01903330
fff2030,0.00812584
fff2031,0.04825343
fff2032,0.01773375
fff2033,0.06840175
fff2034,0.03518142
fff2035,0.04732706
fff2036,0.05244338
fff2037,0.01456770
fff2038,0.02862558
fff2039,0.09044244
fff2040,0.09326879
fff2041,0.09018001
fff2042,0.02702859
fff2043,0.06395539
fff2044,0.00638706
fff2045,0.06203818
fff2046,0.04835123
fff2047,0.00648799
fff2048,0.02559524
fff2049,0.08321972
fff2050,0.03283726
fff2051,0.01957400
fff2052,0.03014806
fff2053,0.00833092
fff2054,0.03384052
fff2055,0.06439286
fff2056,0.05676557
fff2057,0.06545532
fff2058,0.01132524
fff2059,0.01126460
fff2060,0.03554412
fff2061,0.05449646
fff2062,0.09173494
fff2063,0.07076067
fff2064,0.03739530
fff2065,0.09023392
fff2066,0.04391900
fff2067,0.01471519
fff2068,0.00549959
fff2069,0.09546020
fff2070,0.02302603
fff2071,0.03167758
fff2072,0.00374218
fff2073,0.03345376
fff2074,0.07921729
fff2075,0.02807134
fff2076,0.02354206
fff2077,0.00515784
fff2078,0.08794054
fff2079,0.09899699
fff2080,0.03326654
fff2081,0.07002767
fff2082,0.03838619
fff2083,0.07975858
fff2084,0.07293358
fff2085,0.09901725
fff2086,0.09230930
fff2087,0.01202594
fff2088,0.09190407
fff2089,0.04464557
fff2090,0.06681696
fff2091,0.03033131
fff2092,0.09216350
fff2093,0.01364403
fff2094,0.03270485
fff2095,0.02120510
fff2096,0.06427771
fff2097,0.06903110
fff2098,0.01072180
fff2099,0.01606752
fff2100,0.08457288
fff2101,0.09035034
fff2102,0.04735955
fff2103,0.01449237
fff2104,0.02927263
fff2105,0.09692627
fff2106,0.07875348
fff2107,0.00772977
fff2108,0.07095686
fff2109,0.02518733
fff2110,0.06340288
fff2111,0.04322237
fff2112,0.00224479
fff2113,0.05392233
fff2114,0.04900231
fff2115,0.03045833
fff2116,0.08886661
fff2117,0.04628263
fff2118,0.02121662
fff2119,0.00503163
fff2120,0.06169691
fff2121,0.02253748
fff2122,0.07441660
fff2123,0.02907358
fff2124,0.04516173
fff2125,0.07831063
fff2126,0.03394705
fff2127,0.03115792
fff2128,0.02597573
fff2129,0.03449175
fff2130,0.09444530
fff2131,0.09343986
fff2132,0.07058558
fff2133,0.08640536
fff2134,0.01760275
fff2135,0.04228777
fff2136,0.08171492
fff2137,0.06380283
fff2138,0.02829841
fff2139,0.07733379
fff2140,0.07039977
fff2141,0.01323702
fff2142,0.04685451
fff2143,0.07196657
fff2144,0.01573042
fff2145,0.03605331
fff2146,0.01830635
fff2147,0.02868701
fff2148,0.08769347
fff2149,0.09142453
fff2150,0.07826366
fff2151,0.06957477
fff2152,0.08146004
fff2153,0.01242761
fff2154,0.00235026
fff2155,0.03194539
fff2156,0.07388397
fff2157,0.08959327
fff2158,0.02278078
fff2159,0.07752020
fff2160,0.08572189
fff2161,0.05577495
fff2162,0.06023960
fff2163,0.03007734
fff2164,0.08244211
fff2165,0.05354685
fff2166,0.03369190
fff2167,0.00877689
fff2168,0.08064347
fff2169,0.03767598
fff2170,0.09281160
fff2171,0.01528196
fff2172,0.08523511
fff2173,0.03198563
fff2174,0.09889374
fff2175,0.00851884
fff2176,0.05812225
fff2177,0.00784880
fff2178,0.00825493
fff2179,0.04680135
fff2180,0.05387262
fff2181,0.02161006
fff2182,0.06386701
fff2183,0.06443691
fff2184,0.09259264
fff2185,0.00931838
fff2186,0.07607897
fff2187,0.06569007
fff2188,0.09472452
fff2189,0.08440582
fff2190,0.04687884
fff2191,0.01842751
fff2192,0.00526856
fff2193,0.01001329
fff2194,0.09480958
fff2195,0.07578265
fff2196,0.08879985
fff2197,0.05440911
fff2198,0.00221348
fff2199,0.01936258
fff2200,0.09275389
fff2201,0.04173606
fff2202,0.06377358
fff2203,0.09948476
fff2204,0.07703040
fff2205,0.04226535
fff2206,0.04035342
fff2207,0.05670924
fff2208,0.05439825
fff2209,0.06006278
fff2210,0.01856569
fff2211,0.06691646
fff2212,0.09352911
fff2213,0.06213585
fff2214,0.08944399
fff2215,0.03322145
fff2216,0.04722396
fff2217,0.02285998
fff2218,0.00443709
fff2219,0.04317641
fff2220,0.03068442
fff2221,0.04318876
fff2222,0.06514316
fff2223,0.06217820
fff2224,0.00167103
fff2225,0.04328326
fff2226,0.05655444
fff2227,0.04984694
fff2228,0.09071391
fff2229,0.06397517
fff2230,0.09405944
fff2231,0.02371282
fff2232,0.02179324
fff2233,0.06188044
fff2234,0.00544692
fff2235,0.05682196
fff2236,0.06792286
fff2237,0.05643729
fff2238,0.01732241
fff2239,0.00799842
fff2240,0.03338167
fff2241,0.07828404
fff2242,0.07824413
fff2243,0.05071643
fff2244,0.08590804
fff2245,0.00950159
fff2246,0.05473393
fff2247,0.03334131
fff2248,0.08493589
fff2249,0.05040669
fff2250,0.03474038
fff2251,0.03812194
fff2252,0.06473576
fff2253,0.08405429
fff2254,0.08548905
fff2255,0.08582035
fff2256,0.05163845
fff2257,0.00979209
fff2258,0.05001807
fff2259,0.04989762
fff2260,0.06026122
fff2261,0.05738385
fff2262,0.06212650
fff2263,0.02121045
fff2264,0.04791107
fff2265,0.01690308
fff2266,0.06143878
fff2267,0.03136836
fff2268,0.01089343
fff2269,0.04212703
fff2270,0.01201271
fff2271,0.08177757
fff2272,0.09574009
fff2273,0.02301311
fff2274,0.07508727
fff2275,0.09591469
fff2276,0.05156327
fff2277,0.08682199
fff2278,0.05494485
fff2279,0.07683786
fff2280,0.04862470
fff2281,0.05515084
fff2282,0.00262974
fff2283,0.09666266
fff2284,0.06156299
fff2285,0.01781520
fff2286,0.03649564
fff2287,0.07231437
fff2288,0.09630839
fff2289,0.07169453
fff2290,0.00983894
fff2291,0.07378424
fff2292,0.05589555
fff2293,0.09854154
fff2294,0.09745409
fff2295,0.06491609
fff2296,0.07118271
fff2297,0.02377859
fff2298,0.08806004
fff2299,0.03747805
fff2300,0.06366201
fff2301,0.00480523
fff2302,0.03375769
fff2303,0.03093384
fff2304,0.05423371
fff2305,0.08978359
fff2306,0.00133384
fff2307,0.08266493
fff2308,0.03380086
fff2309,0.04650116
fff2310,0.01662586
fff2311,0.04212561
fff2312,0.03917826
fff2313,0.01780323
fff2314,0.08859796
fff2315,0.00415386
fff2316,0.04414343
fff2317,0.04588654
fff2318,0.06531661
fff2319,0.06997285
fff2320,0.08332158
fff2321,0.05465782
fff2322,0.08879012
fff2323,0.02032413
fff2324,0.04905224
fff2325,0.01112092
fff2326,0.02141902
fff2327,0.02229546
fff2328,0.08324360
fff2329,0.08170416
fff2330,0.08524867
fff2331,0.09523157
fff2332,0.09844566
fff2333,0.09555579
fff2334,0.06154434
fff2335,0.04156630
fff2336,0.09640966
fff2337,0.04567515
fff2338,0.05654481
fff2339,0.09496472
fff2340,0.05693077
fff2341,0.01054058
fff2342,0.09675224
fff2343,0.01689951
fff2344,0.00745119
fff2345,0.00183167
fff2346,0.01621303
fff2347,0.08247390
fff2348,0.06976639
fff2349,0.00471063
fff2350,0.01480916
fff2351,0.07891376
fff2352,0.04412534
fff2353,0.09382294
fff2354,0.07951382
fff2355,0.04390707
fff2356,0.08487639
fff2357,0.09683214
fff2358,0.05619858
fff2359,0.09010451
fff2360,0.09459753
fff2361,0.01837139
fff2362,0.05118936
fff2363,0.04451940
fff2364,0.09902418
fff2365,0.05357550
fff2366,0.04415836
fff2367,0.05301654
fff2368,0.08495196
fff2369,0.08755518
fff2370,0.02456954
fff2371,0.01497458
fff2372,0.00526638
fff2373,0.01197699
fff2374,0.08084870
fff2375,0.00924204
fff2376,0.09468055
fff2377,0.06385590
fff2378,0.05969701
fff2379,0.09260583
fff2380,0.04173396
fff2381,0.02213413
fff2382,0.06499657
fff2383,0.06497240
fff2384,0.01682837
fff2385,0.03595976
fff2386,0.01815478
fff2387,0.01302968
fff2388,0.05111263
fff2389,0.01877348
fff2390,0.01894831
fff2391,0.09271845
fff2392,0.02471866
fff2393,0.06330071
fff2394,0.00253873
fff2395,0.09221221
fff2396,0.09576608
fff2397,0.04048077
fff2398,0.06199677
fff2399,0.05923113
fff2400,0.07980856
fff2401,0.02041909
fff2402,0.09739038
fff2403,0.00811818
fff2404,0.01079158
fff2405,0.05498875
fff2406,0.07793323
fff2407,0.03684382
fff2408,0.07286958
fff2409,0.01378421
fff2410,0.08986896
fff2411,0.03826468
fff2412,0.00155325
fff2413,0.05671436
fff2414,0.02796631
fff2415,0.01204810
fff2416,0.02897515
fff2417,0.07569937
fff2418,0.02048885
fff2419,0.06883743
fff2420,0.07172194
fff2421,0.08630815
fff2422,0.00488648
fff2423,0.02317921
fff2424,0.02290807
fff2425,0.08177910
fff2426,0.06097982
fff2427,0.01094294
fff2428,0.07625571
fff2429,0.00165642
fff2430,0.00709083
fff2431,0.08716363
fff2432,0.00112834
fff2433,0.07649503
fff2434,0.07321161
fff2435,0.08191294
fff2436,0.04562294
fff2437,0.06778814
fff2438,0.02180203
fff2439,0.06314468
fff2440,0.03101739
fff2441,0.03773092
fff2442,0.04571334
fff2443,0.05174007
fff2444,0.01444851
fff2445,0.00295366
fff2446,0.03915540
fff2447,0.01971098
fff2448,0.06288733
fff2449,0.03049529
fff2450,0.07477915
fff2451,0.01976088
fff2452,0.06543516
fff2453,0.02870548
fff2454,0.03876849
fff2455,0.02385214
fff2456,0.07236778
fff2457,0.00711880
fff2458,0.06835031
fff2459,0.04394569
fff2460,0.04925116
fff2461,0.08436683
fff2462,0.08520911
fff2463,0.02351807
fff2464,0.04171526
fff2465,0.08334196
fff2466,0.05530736
fff2467,0.07194654
fff2468,0.03701784
fff2469,0.08119882
fff2470,0.07775334
fff2471,0.06632176
fff2472,0.09737136
fff2473,0.09972686
fff2474,0.00988806
fff2475,0.04249524
fff2476,0.06590317
fff2477,0.09995491
fff2478,0.03500956
fff2479,0.02781743
fff2480,0.06085975
fff2481,0.08732680
fff2482,0.08655048
fff2483,0.01373681
fff2484,0.09610933
fff2485,0.05750387
fff2486,0.02004678
fff2487,0.01589559
fff2488,0.03042930
fff2489,0.01131448
fff2490,0.07438031
fff2491,0.09999379
fff2492,0.08842574
fff2493,0.01686720
fff2494,0.03776783
fff2495,0.05939788
fff2496,0.01890376
fff2497,0.04664037
fff2498,0.01338970
fff2499,0.00421051
fff2500,0.07099151
fff2501,0.04622499
fff2502,0.05057638
fff2503,0.07296779
fff2504,0.03244723
fff2505,0.09191638
fff2506,0.09656445
fff2507,0.02854045
fff2508,0.01466349
fff2509,0.02588884
fff2510,0.00245997
fff2511,0.01323460
fff2512,0.07695629
fff2513,0.07572603
fff2514,0.05619373
fff2515,0.07707616
fff2516,0.01701243
fff2517,0.09656197
fff2518,0.05203496
fff2519,0.06373445
fff2520,0.04495297
fff2521,0.08138909
fff2522,0.02256756
fff2523,0.02365303
fff2524,0.04395593
fff2525,0.05270329
fff2526,0.05300500
fff2527,0.09391148
fff2528,0.02398130
fff2529,0.03540397
fff2530,0.06337683
fff2531,0.09381432
fff2532,0.05453593
fff2533,0.07352176
fff2534,0.02624047
fff2535,0.00286000
fff2536,0.01906580
fff2537,0.09749998
fff2538,0.03725981
fff2539,0.09910127
fff2540,0.06013998
fff2541,0.09905528
fff2542,0.00542590
fff2543,0.04541424
fff2544,0.08017163
fff2545,0.08416291
fff2546,0.07666972
fff2547,0.09815603
fff2548,0.05824988
fff2549,0.03923049
fff2550,0.05541682
fff2551,0.04320937
fff2552,0.05439931
fff2553,0.06639404
fff2554,0.04346718
fff2555,0.09967971
fff2556,0.07399740
fff2557,0.02304301
fff2558,0.07391637
fff2559,0.03884681
fff2560,0.00131373
fff2561,0.09127859
fff2562,0.06495862
fff2563,0.09628533
fff2564,0.04598707
fff2565,0.00466870
fff2566,0.05234721
fff2567,0.04003917
fff2568,0.04186769
fff2569,0.02540947
fff2570,0.05507154
fff2571,0.04567917
fff2572,0.01487523
fff2573,0.08107132
fff2574,0.06638357
fff2575,0.02104701
fff2576,0.05787648
fff2577,0.00286526
fff2578,0.09679015
fff2579,0.06456827
fff2580,0.08463730
fff2581,0.01112282
fff2582,0.08360778
fff2583,0.07601631
fff2584,0.07484050
fff2585,0.00866961
fff2586,0.01070790
fff2587,0.00797424
fff2588,0.02061111
fff2589,0.02443145
fff2590,0.09804000
fff2591,0.00247769
fff2592,0.06120182
fff2593,0.08296195
fff2594,0.07743625
fff2595,0.01822450
fff2596,0.02183730
fff2597,0.02340880
fff2598,0.08425986
fff2599,0.03513451
fff2600,0.02161649
fff2601,0.07427919
fff2602,0.01741726
fff2603,0.07137184
fff2604,0.09738313
fff2605,0.01270096
fff2606,0.07446733
fff2607,0.06874886
fff2608,0.05376272
fff2609,0.02575542
fff2610,0.00829092
fff2611,0.03825811
fff2612,0.00560475
fff2613,0.05993964
fff2614,0.03115917
fff2615,0.07111321
fff2616,0.06282925
fff2617,0.05793034
fff2618,0.05294277
fff2619,0.04519130
fff2620,0.08733929
fff2621,0.08086201
fff2622,0.00902488
fff2623,0.05690277
fff2624,0.03896956
fff2625,0.04662196
fff2626,0.05572203
fff2627,0.07937095
fff2628,0.07571638
fff2629,0.07229345
fff2630,0.07788199
fff2631,0.09094966
fff2632,0.03791567
fff2633,0.07866610
fff2634,0.01475345
fff2635,0.04782555
fff2636,0.02894474
fff2637,0.09087203
fff2638,0.07707542
fff2639,0.09355904
fff2640,0.06302137
fff2641,0.08335995
fff2642,0.00928933
fff2643,0.04676177
fff2644,0.08643897
fff2645,0.04192271
fff2646,0.01369086
fff2647,0.06681822
fff2648,0.01711356
fff2649,0.01912832
fff2650,0.08162324
fff2651,0.09838596
fff2652,0.07720160
fff2653,0.00715581
fff2654,0.03995557
fff2655,0.00114709
fff2656,0.01432757
fff2657,0.02946154
fff2658,0.07671067
fff2659,0.00916531
fff2660,0.02968930
fff2661,0.05236648
fff2662,0.09831724
fff2663,0.09510910
fff2664,0.04651250
fff2665,0.09657080
fff2666,0.05549693
fff2667,0.03965863
fff2668,0.03793362
fff2669,0.03600987
fff2670,0.04058456
fff2671,0.02737600
fff2672,0.08317855
fff2673,0.01184891
fff2674,0.00808547
fff2675,0.01615353
fff2676,0.08869032
fff2677,0.07773112
fff2678,0.07143241
fff2679,0.05229250
fff2680,0.09841252
fff2681,0.06258299
fff2682,0.01409899
fff2683,0.04300010
fff2684,0.00305669
fff2685,0.08225043
fff2686,0.09767627
fff2687,0.03287580
fff2688,0.08005295
fff2689,0.09245809
fff2690,0.06237063
fff2691,0.06595062
fff2692,0.09205589
fff2693,0.00966476
fff2694,0.09690816
fff2695,0.00258858
fff2696,0.02422178
fff2697,0.02128487
fff2698,0.09243985
fff2699,0.04339991
fff2700,0.04266743
fff2701,0.09526089
fff2702,0.09327981
fff2703,0.01590211
fff2704,0.04077624
fff2705,0.08519216
fff2706,0.08079887
fff2707,0.03007554
fff2708,0.00584033
fff2709,0.07416330
fff2710,0.02655024
fff2711,0.00408716
fff2712,0.01539248
fff2713,0.08244847
fff2714,0.01912434
fff2715,0.01800223
fff2716,0.01389827
fff2717,0.04097635
fff2718,0.07817891
fff2719,0.07489050
fff2720,0.06165008
fff2721,0.09572025
fff2722,0.08615644
fff2723,0.07220323
fff2724,0.04232201
fff2725,0.05232611
fff2726,0.02397360
fff2727,0.02933619
fff2728,0.03842593
fff2729,0.06554820
fff2730,0.02662164
fff2731,0.02678808
fff2732,0.06127036
fff2733,0.08934444
fff2734,0.08668084
fff2735,0.00143114
fff2736,0.05897084
fff2737,0.09037625
fff2738,0.04546501
fff2739,0.04191035
fff2740,0.05718687
fff2741,0.06342060
fff2742,0.04108731
fff2743,0.06378278
fff2744,0.05193421
fff2745,0.06806986
fff2746,0.02768414
fff2747,0.08358548
fff2748,0.03584280
fff2749,0.01679411
fff2750,0.09911334
fff2751,0.01104732
fff2752,0.06361711
fff2753,0.07570260
fff2754,0.06053297
fff2755,0.06839017
fff2756,0.08043047
fff2757,0.09066272
fff2758,0.09629612
fff2759,0.06295330
fff2760,0.07719565
fff2761,0.06167491
fff2762,0.07489547
fff2763,0.02478192
fff2764,0.04425342
fff2765,0.07575296
fff2766,0.05792404
fff2767,0.03564200
fff2768,0.04921062
fff2769,0.01650266
fff2770,0.08736144
fff2771,0.01212624
fff2772,0.06744343
fff2773,0.09673944
fff2774,0.03619777
fff2775,0.06764759
fff2776,0.03810352
fff2777,0.07915532
fff2778,0.06954413
fff2779,0.05373265
fff2780,0.02002546
fff2781,0.03389496
fff2782,0.04064933
fff2783,0.07315117
fff2784,0.02359681
fff2785,0.07777236
fff2786,0.09940489
fff2787,0.08001253
fff2788,0.07517819
fff2789,0.07143148
fff2790,0.06523069
fff2791,0.04685882
fff2792,0.05886865
fff2793,0.06827177
fff2794,0.03590921
fff2795,0.04777911
fff2796,0.07887156
fff2797,0.03930858
fff2798,0.07704758
fff2799,0.08113836
fff2800,0.00384525
fff2801,0.02379610
fff2802,0.04814323
fff2803,0.07959455
fff2804,0.00377063
fff2805,0.01962222
fff2806,0.02292691
fff2807,0.02141796
fff2808,0.07712809
fff2809,0.07308931
fff2810,0.09073700
fff2811,0.03781762
fff2812,0.04290264
fff2813,0.01066283
fff2814,0.07887992
fff2815,0.03094101
fff2816,0.08115295
fff2817,0.04214491
fff2818,0.06471414
fff2819,0.01233438
fff2820,0.09500474
fff2821,0.02769096
fff2822,0.05982005
fff2823,0.00112719
fff2824,0.03252774
fff2825,0.05062659
fff2826,0.06127165
fff2827,0.02428358
fff2828,0.09273483
fff2829,0.00909588
fff2830,0.01345397
fff2831,0.01688096
fff2832,0.05542599
fff2833,0.01534440
fff2834,0.03403470
fff2835,0.09659996
fff2836,0.01424674
fff2837,0.07403497
fff2838,0.08762561
fff2839,0.04704341
fff2840,0.00841079
fff2841,0.02789250
fff2842,0.01585395
fff2843,0.08951087
fff2844,0.09860594
fff2845,0.04910272
fff2846,0.05040771
fff2847,0.07977266
fff2848,0.04515881
fff2849,0.03549540
fff2850,0.08961238
fff2851,0.03392515
fff2852,0.08669902
fff2853,0.05850843
fff2854,0.02240958
fff2855,0.09971829
fff2856,0.09152023
fff2857,0.08140648
fff2858,0.02591248
fff2859,0.02223884
fff2860,0.02903900
fff2861,0.04758650
fff2862,0.08947372
fff2863,0.05918155
fff2864,0.05681149
fff2865,0.05242959
fff2866,0.05414200
fff2867,0.01005170
fff2868,0.06539778
fff2869,0.08073240
fff2870,0.09649309
fff2871,0.03091680
fff2872,0.04129950
fff2873,0.05698726
fff2874,0.01194169
fff2875,0.01571430
fff2876,0.09566603
fff2877,0.08637530
fff2878,0.02632098
fff2879,0.03963663
fff2880,0.05337191
fff2881,0.04745477
fff2882,0.05350868
fff2883,0.04980773
fff2884,0.06277235
fff2885,0.04907391
fff2886,0.07955672
fff2887,0.02494066
fff2888,0.00216576
fff2889,0.00724840
fff2890,0.03352198
fff2891,0.00661986
fff2892,0.00496666
fff2893,0.09514790
fff2894,0.02918673
fff2895,0.01287465
fff2896,0.03466903
fff2897,0.01999717
fff2898,0.04715540
fff2899,0.04046159
fff2900,0.08689248
fff2901,0.09591196
fff2902,0.02297968
fff2903,0.07197939
fff2904,0.01559847
fff2905,0.00296321
fff2906,0.00706122
fff2907,0.02723985
fff2908,0.00798923
fff2909,0.06216861
fff2910,0.00512032
fff2911,0.05077194
fff2912,0.03131133
fff2913,0.07996301
fff2914,0.07915781
fff2915,0.04144096
fff2916,0.00831871
fff2917,0.07178546
fff2918,0.05934938
fff2919,0.06861750
fff2920,0.03573851
fff2921,0.07033305
fff2922,0.04129640
fff2923,0.00385872
fff2924,0.00969892
fff2925,0.02460513
fff2926,0.08084383
fff2927,0.06170819
fff2928,0.00903078
fff2929,0.06388207
fff2930,0.07451553
fff2931,0.08758372
fff2932,0.05162551
fff2933,0.06299263
fff2934,0.03127162
fff2935,0.07724917
fff2936,0.08276937
fff2937,0.07014446
fff2938,0.08068839
fff2939,0.02394180
fff2940,0.09741002
fff2941,0.09434363
fff2942,0.09318372
fff2943,0.07025889
fff2944,0.07114991
fff2945,0.08268354
fff2946,0.01514585
fff2947,0.05144142
fff2948,0.04700901
fff2949,0.08580900
fff2950,0.03072797
fff2951,0.05941325
fff2952,0.04974696
fff2953,0.07464693
fff2954,0.09158605
fff2955,0.00296556
fff2956,0.07258864
fff2957,0.04757117
fff2958,0.07693049
fff2959,0.00566661
fff2960,0.07756389
fff2961,0.03269052
fff2962,0.07262753
fff2963,0.05036730
fff2964,0.08999809
fff2965,0.09971035
fff2966,0.09544975
fff2967,0.07993623
