cor,w11,course,fff0
cor,w11,department,fff1
cor,w11,faculty,fff2
cor,w11,person,fff3
cor,w11,researchproject,fff4
cor,w11,staff,fff5
cor,w11,student,fff6
cor,w17,course,fff7
cor,w17,department,fff8
cor,w17,faculty,fff9
cor,w17,person,fff10
cor,w17,researchproject,fff11
cor,w17,staff,fff12
cor,w17,student,fff13
cor,w19,course,fff14
cor,w19,department,fff15
cor,w19,faculty,fff16
cor,w19,person,fff17
cor,w19,researchproject,fff18
cor,w19,staff,fff19
cor,w19,student,fff20
cor,w23,course,fff21
cor,w23,department,fff22
cor,w23,faculty,fff23
cor,w23,person,fff24
cor,w23,researchproject,fff25
cor,w23,staff,fff26
cor,w23,student,fff27
cor,w24,course,fff28
cor,w24,department,fff29
cor,w24,faculty,fff30
cor,w24,person,fff31
cor,w24,researchproject,fff32
cor,w24,staff,fff33
cor,w24,student,fff34
cor,w31,course,fff35
cor,w31,department,fff36
cor,w31,faculty,fff37
cor,w31,person,fff38
cor,w31,researchproject,fff39
cor,w31,staff,fff40
cor,w31,student,fff41
cor,w48,course,fff42
cor,w48,department,fff43
cor,w48,faculty,fff44
cor,w48,person,fff45
cor,w48,researchproject,fff46
cor,w48,staff,fff47
cor,w48,student,fff48
cor,w74,course,fff49
cor,w74,department,fff50
cor,w74,faculty,fff51
cor,w74,person,fff52
cor,w74,researchproject,fff53
cor,w74,staff,fff54
cor,w74,student,fff55
cor,w81,course,fff56
cor,w81,department,fff57
cor,w81,faculty,fff58
cor,w81,person,fff59
cor,w81,researchproject,fff60
cor,w81,staff,fff61
cor,w81,student,fff62
cor,w85,course,fff63
cor,w85,department,fff64
cor,w85,faculty,fff65
cor,w85,person,fff66
cor,w85,researchproject,fff67
cor,w85,staff,fff68
cor,w85,student,fff69
cor,w90,course,fff70
cor,w90,department,fff71
cor,w90,faculty,fff72
cor,w90,person,fff73
cor,w90,researchproject,fff74
cor,w90,staff,fff75
cor,w90,student,fff76
cor,w93,course,fff77
cor,w93,department,fff78
cor,w93,faculty,fff79
cor,w93,person,fff80
cor,w93,researchproject,fff81
cor,w93,staff,fff82
cor,w93,student,fff83
cor,w94,course,fff84
cor,w94,department,fff85
cor,w94,faculty,fff86
cor,w94,person,fff87
cor,w94,researchproject,fff88
cor,w94,staff,fff89
cor,w94,student,fff90
cor,w100,course,fff91
cor,w100,department,fff92
cor,w100,faculty,fff93
cor,w100,person,fff94
cor,w100,researchproject,fff95
cor,w100,staff,fff96
cor,w100,student,fff97
cor,w105,course,fff98
cor,w105,department,fff99
cor,w105,faculty,fff100
cor,w105,person,fff101
cor,w105,researchproject,fff102
cor,w105,staff,fff103
cor,w105,student,fff104
cor,w133,course,fff105
cor,w133,department,fff106
cor,w133,faculty,fff107
cor,w133,person,fff108
cor,w133,researchproject,fff109
cor,w133,staff,fff110
cor,w133,student,fff111
cor,w136,course,fff112
cor,w136,department,fff113
cor,w136,faculty,fff114
cor,w136,person,fff115
cor,w136,researchproject,fff116
cor,w136,staff,fff117
cor,w136,student,fff118
cor,w139,course,fff119
cor,w139,department,fff120
cor,w139,faculty,fff121
cor,w139,person,fff122
cor,w139,researchproject,fff123
cor,w139,staff,fff124
cor,w139,student,fff125
cor,w143,course,fff126
cor,w143,department,fff127
cor,w143,faculty,fff128
cor,w143,person,fff129
cor,w143,researchproject,fff130
cor,w143,staff,fff131
cor,w143,student,fff132
cor,w150,course,fff133
cor,w150,department,fff134
cor,w150,faculty,fff135
cor,w150,person,fff136
cor,w150,researchproject,fff137
cor,w150,staff,fff138
cor,w150,student,fff139
cor,w167,course,fff140
cor,w167,department,fff141
cor,w167,faculty,fff142
cor,w167,person,fff143
cor,w167,researchproject,fff144
cor,w167,staff,fff145
cor,w167,student,fff146
cor,w175,course,fff147
cor,w175,department,fff148
cor,w175,faculty,fff149
cor,w175,person,fff150
cor,w175,researchproject,fff151
cor,w175,staff,fff152
cor,w175,student,fff153
cor,w179,course,fff154
cor,w179,department,fff155
cor,w179,faculty,fff156
cor,w179,person,fff157
cor,w179,researchproject,fff158
cor,w179,staff,fff159
cor,w179,student,fff160
cor,w188,course,fff161
cor,w188,department,fff162
cor,w188,faculty,fff163
cor,w188,person,fff164
cor,w188,researchproject,fff165
cor,w188,staff,fff166
cor,w188,student,fff167
cor,w191,course,fff168
cor,w191,department,fff169
cor,w191,faculty,fff170
cor,w191,person,fff171
cor,w191,researchproject,fff172
cor,w191,staff,fff173
cor,w191,student,fff174
cor,w210,course,fff175
cor,w210,department,fff176
cor,w210,faculty,fff177
cor,w210,person,fff178
cor,w210,researchproject,fff179
cor,w210,staff,fff180
cor,w210,student,fff181
cor,w230,course,fff182
cor,w230,department,fff183
cor,w230,faculty,fff184
cor,w230,person,fff185
cor,w230,researchproject,fff186
cor,w230,staff,fff187
cor,w230,student,fff188
cor,w231,course,fff189
cor,w231,department,fff190
cor,w231,faculty,fff191
cor,w231,person,fff192
cor,w231,researchproject,fff193
cor,w231,staff,fff194
cor,w231,student,fff195
cor,w235,course,fff196
cor,w235,department,fff197
cor,w235,faculty,fff198
cor,w235,person,fff199
cor,w235,researchproject,fff200
cor,w235,staff,fff201
cor,w235,student,fff202
cor,w241,course,fff203
cor,w241,department,fff204
cor,w241,faculty,fff205
cor,w241,person,fff206
cor,w241,researchproject,fff207
cor,w241,staff,fff208
cor,w241,student,fff209
cor,w254,course,fff210
cor,w254,department,fff211
cor,w254,faculty,fff212
cor,w254,person,fff213
cor,w254,researchproject,fff214
cor,w254,staff,fff215
cor,w254,student,fff216
cor,w258,course,fff217
cor,w258,department,fff218
cor,w258,faculty,fff219
cor,w258,person,fff220
cor,w258,researchproject,fff221
cor,w258,staff,fff222
cor,w258,student,fff223
cor,w273,course,fff224
cor,w273,department,fff225
cor,w273,faculty,fff226
cor,w273,person,fff227
cor,w273,researchproject,fff228
cor,w273,staff,fff229
cor,w273,student,fff230
cor,w282,course,fff231
cor,w282,department,fff232
cor,w282,faculty,fff233
cor,w282,person,fff234
cor,w282,researchproject,fff235
cor,w282,staff,fff236
cor,w282,student,fff237
cor,w283,course,fff238
cor,w283,department,fff239
cor,w283,faculty,fff240
cor,w283,person,fff241
cor,w283,researchproject,fff242
cor,w283,staff,fff243
cor,w283,student,fff244
cor,w291,course,fff245
cor,w291,department,fff246
cor,w291,faculty,fff247
cor,w291,person,fff248
cor,w291,researchproject,fff249
cor,w291,staff,fff250
cor,w291,student,fff251
cor,w299,course,fff252
cor,w299,department,fff253
cor,w299,faculty,fff254
cor,w299,person,fff255
cor,w299,researchproject,fff256
cor,w299,staff,fff257
cor,w299,student,fff258
cor,w301,course,fff259
cor,w301,department,fff260
cor,w301,faculty,fff261
cor,w301,person,fff262
cor,w301,researchproject,fff263
cor,w301,staff,fff264
cor,w301,student,fff265
cor,w312,course,fff266
cor,w312,department,fff267
cor,w312,faculty,fff268
cor,w312,person,fff269
cor,w312,researchproject,fff270
cor,w312,staff,fff271
cor,w312,student,fff272
cor,w314,course,fff273
cor,w314,department,fff274
cor,w314,faculty,fff275
cor,w314,person,fff276
cor,w314,researchproject,fff277
cor,w314,staff,fff278
cor,w314,student,fff279
cor,w325,course,fff280
cor,w325,department,fff281
cor,w325,faculty,fff282
cor,w325,person,fff283
cor,w325,researchproject,fff284
cor,w325,staff,fff285
cor,w325,student,fff286
cor,w326,course,fff287
cor,w326,department,fff288
cor,w326,faculty,fff289
cor,w326,person,fff290
cor,w326,researchproject,fff291
cor,w326,staff,fff292
cor,w326,student,fff293
cor,w327,course,fff294
cor,w327,department,fff295
cor,w327,faculty,fff296
cor,w327,person,fff297
cor,w327,researchproject,fff298
cor,w327,staff,fff299
cor,w327,student,fff300
cor,w341,course,fff301
cor,w341,department,fff302
cor,w341,faculty,fff303
cor,w341,person,fff304
cor,w341,researchproject,fff305
cor,w341,staff,fff306
cor,w341,student,fff307
cor,w353,course,fff308
cor,w353,department,fff309
cor,w353,faculty,fff310
cor,w353,person,fff311
cor,w353,researchproject,fff312
cor,w353,staff,fff313
cor,w353,student,fff314
cor,w357,course,fff315
cor,w357,department,fff316
cor,w357,faculty,fff317
cor,w357,person,fff318
cor,w357,researchproject,fff319
cor,w357,staff,fff320
cor,w357,student,fff321
cor,w365,course,fff322
cor,w365,department,fff323
cor,w365,faculty,fff324
cor,w365,person,fff325
cor,w365,researchproject,fff326
cor,w365,staff,fff327
cor,w365,student,fff328
cor,w391,course,fff329
cor,w391,department,fff330
cor,w391,faculty,fff331
cor,w391,person,fff332
cor,w391,researchproject,fff333
cor,w391,staff,fff334
cor,w391,student,fff335
cor,w410,course,fff336
cor,w410,department,fff337
cor,w410,faculty,fff338
cor,w410,person,fff339
cor,w410,researchproject,fff340
cor,w410,staff,fff341
cor,w410,student,fff342
cor,w418,course,fff343
cor,w418,department,fff344
cor,w418,faculty,fff345
cor,w418,person,fff346
cor,w418,researchproject,fff347
cor,w418,staff,fff348
cor,w418,student,fff349
cor,w422,course,fff350
cor,w422,department,fff351
cor,w422,faculty,fff352
cor,w422,person,fff353
cor,w422,researchproject,fff354
cor,w422,staff,fff355
cor,w422,student,fff356
cor,w423,course,fff357
cor,w423,department,fff358
cor,w423,faculty,fff359
cor,w423,person,fff360
cor,w423,researchproject,fff361
cor,w423,staff,fff362
cor,w423,student,fff363
cor,w424,course,fff364
cor,w424,department,fff365
cor,w424,faculty,fff366
cor,w424,person,fff367
cor,w424,researchproject,fff368
cor,w424,staff,fff369
cor,w424,student,fff370
cor,w428,course,fff371
cor,w428,department,fff372
cor,w428,faculty,fff373
cor,w428,person,fff374
cor,w428,researchproject,fff375
cor,w428,staff,fff376
cor,w428,student,fff377
cor,w437,course,fff378
cor,w437,department,fff379
cor,w437,faculty,fff380
cor,w437,person,fff381
cor,w437,researchproject,fff382
cor,w437,staff,fff383
cor,w437,student,fff384
cor,w442,course,fff385
cor,w442,department,fff386
cor,w442,faculty,fff387
cor,w442,person,fff388
cor,w442,researchproject,fff389
cor,w442,staff,fff390
cor,w442,student,fff391
cor,w446,course,fff392
cor,w446,department,fff393
cor,w446,faculty,fff394
cor,w446,person,fff395
cor,w446,researchproject,fff396
cor,w446,staff,fff397
cor,w446,student,fff398
cor,w457,course,fff399
cor,w457,department,fff400
cor,w457,faculty,fff401
cor,w457,person,fff402
cor,w457,researchproject,fff403
cor,w457,staff,fff404
cor,w457,student,fff405
cor,w479,course,fff406
cor,w479,department,fff407
cor,w479,faculty,fff408
cor,w479,person,fff409
cor,w479,researchproject,fff410
cor,w479,staff,fff411
cor,w479,student,fff412
cor,w482,course,fff413
cor,w482,department,fff414
cor,w482,faculty,fff415
cor,w482,person,fff416
cor,w482,researchproject,fff417
cor,w482,staff,fff418
cor,w482,student,fff419
cor,w531,course,fff420
cor,w531,department,fff421
cor,w531,faculty,fff422
cor,w531,person,fff423
cor,w531,researchproject,fff424
cor,w531,staff,fff425
cor,w531,student,fff426
cor,w533,course,fff427
cor,w533,department,fff428
cor,w533,faculty,fff429
cor,w533,person,fff430
cor,w533,researchproject,fff431
cor,w533,staff,fff432
cor,w533,student,fff433
cor,w538,course,fff434
cor,w538,department,fff435
cor,w538,faculty,fff436
cor,w538,person,fff437
cor,w538,researchproject,fff438
cor,w538,staff,fff439
cor,w538,student,fff440
cor,w542,course,fff441
cor,w542,department,fff442
cor,w542,faculty,fff443
cor,w542,person,fff444
cor,w542,researchproject,fff445
cor,w542,staff,fff446
cor,w542,student,fff447
cor,w543,course,fff448
cor,w543,department,fff449
cor,w543,faculty,fff450
cor,w543,person,fff451
cor,w543,researchproject,fff452
cor,w543,staff,fff453
cor,w543,student,fff454
cor,w553,course,fff455
cor,w553,department,fff456
cor,w553,faculty,fff457
cor,w553,person,fff458
cor,w553,researchproject,fff459
cor,w553,staff,fff460
cor,w553,student,fff461
cor,w556,course,fff462
cor,w556,department,fff463
cor,w556,faculty,fff464
cor,w556,person,fff465
cor,w556,researchproject,fff466
cor,w556,staff,fff467
cor,w556,student,fff468
cor,w586,course,fff469
cor,w586,department,fff470
cor,w586,faculty,fff471
cor,w586,person,fff472
cor,w586,researchproject,fff473
cor,w586,staff,fff474
cor,w586,student,fff475
cor,w593,course,fff476
cor,w593,department,fff477
cor,w593,faculty,fff478
cor,w593,person,fff479
cor,w593,researchproject,fff480
cor,w593,staff,fff481
cor,w593,student,fff482
cor,w594,course,fff483
cor,w594,department,fff484
cor,w594,faculty,fff485
cor,w594,person,fff486
cor,w594,researchproject,fff487
cor,w594,staff,fff488
cor,w594,student,fff489
cor,w596,course,fff490
cor,w596,department,fff491
cor,w596,faculty,fff492
cor,w596,person,fff493
cor,w596,researchproject,fff494
cor,w596,staff,fff495
cor,w596,student,fff496
cor,w604,course,fff497
cor,w604,department,fff498
cor,w604,faculty,fff499
cor,w604,person,fff500
cor,w604,researchproject,fff501
cor,w604,staff,fff502
cor,w604,student,fff503
cor,w607,course,fff504
cor,w607,department,fff505
cor,w607,faculty,fff506
cor,w607,person,fff507
cor,w607,researchproject,fff508
cor,w607,staff,fff509
cor,w607,student,fff510
cor,w619,course,fff511
cor,w619,department,fff512
cor,w619,faculty,fff513
cor,w619,person,fff514
cor,w619,researchproject,fff515
cor,w619,staff,fff516
cor,w619,student,fff517
cor,w622,course,fff518
cor,w622,department,fff519
cor,w622,faculty,fff520
cor,w622,person,fff521
cor,w622,researchproject,fff522
cor,w622,staff,fff523
cor,w622,student,fff524
cor,w623,course,fff525
cor,w623,department,fff526
cor,w623,faculty,fff527
cor,w623,person,fff528
cor,w623,researchproject,fff529
cor,w623,staff,fff530
cor,w623,student,fff531
cor,w638,course,fff532
cor,w638,department,fff533
cor,w638,faculty,fff534
cor,w638,person,fff535
cor,w638,researchproject,fff536
cor,w638,staff,fff537
cor,w638,student,fff538
cor,w644,course,fff539
cor,w644,department,fff540
cor,w644,faculty,fff541
cor,w644,person,fff542
cor,w644,researchproject,fff543
cor,w644,staff,fff544
cor,w644,student,fff545
cor,w651,course,fff546
cor,w651,department,fff547
cor,w651,faculty,fff548
cor,w651,person,fff549
cor,w651,researchproject,fff550
cor,w651,staff,fff551
cor,w651,student,fff552
cor,w654,course,fff553
cor,w654,department,fff554
cor,w654,faculty,fff555
cor,w654,person,fff556
cor,w654,researchproject,fff557
cor,w654,staff,fff558
cor,w654,student,fff559
cor,w660,course,fff560
cor,w660,department,fff561
cor,w660,faculty,fff562
cor,w660,person,fff563
cor,w660,researchproject,fff564
cor,w660,staff,fff565
cor,w660,student,fff566
cor,w664,course,fff567
cor,w664,department,fff568
cor,w664,faculty,fff569
cor,w664,person,fff570
cor,w664,researchproject,fff571
cor,w664,staff,fff572
cor,w664,student,fff573
cor,w670,course,fff574
cor,w670,department,fff575
cor,w670,faculty,fff576
cor,w670,person,fff577
cor,w670,researchproject,fff578
cor,w670,staff,fff579
cor,w670,student,fff580
cor,w671,course,fff581
cor,w671,department,fff582
cor,w671,faculty,fff583
cor,w671,person,fff584
cor,w671,researchproject,fff585
cor,w671,staff,fff586
cor,w671,student,fff587
cor,w672,course,fff588
cor,w672,department,fff589
cor,w672,faculty,fff590
cor,w672,person,fff591
cor,w672,researchproject,fff592
cor,w672,staff,fff593
cor,w672,student,fff594
cor,w681,course,fff595
cor,w681,department,fff596
cor,w681,faculty,fff597
cor,w681,person,fff598
cor,w681,researchproject,fff599
cor,w681,staff,fff600
cor,w681,student,fff601
cor,w716,course,fff602
cor,w716,department,fff603
cor,w716,faculty,fff604
cor,w716,person,fff605
cor,w716,researchproject,fff606
cor,w716,staff,fff607
cor,w716,student,fff608
cor,w721,course,fff609
cor,w721,department,fff610
cor,w721,faculty,fff611
cor,w721,person,fff612
cor,w721,researchproject,fff613
cor,w721,staff,fff614
cor,w721,student,fff615
cor,w730,course,fff616
cor,w730,department,fff617
cor,w730,faculty,fff618
cor,w730,person,fff619
cor,w730,researchproject,fff620
cor,w730,staff,fff621
cor,w730,student,fff622
cor,w733,course,fff623
cor,w733,department,fff624
cor,w733,faculty,fff625
cor,w733,person,fff626
cor,w733,researchproject,fff627
cor,w733,staff,fff628
cor,w733,student,fff629
cor,w734,course,fff630
cor,w734,department,fff631
cor,w734,faculty,fff632
cor,w734,person,fff633
cor,w734,researchproject,fff634
cor,w734,staff,fff635
cor,w734,student,fff636
cor,w736,course,fff637
cor,w736,department,fff638
cor,w736,faculty,fff639
cor,w736,person,fff640
cor,w736,researchproject,fff641
cor,w736,staff,fff642
cor,w736,student,fff643
cor,w737,course,fff644
cor,w737,department,fff645
cor,w737,faculty,fff646
cor,w737,person,fff647
cor,w737,researchproject,fff648
cor,w737,staff,fff649
cor,w737,student,fff650
cor,w738,course,fff651
cor,w738,department,fff652
cor,w738,faculty,fff653
cor,w738,person,fff654
cor,w738,researchproject,fff655
cor,w738,staff,fff656
cor,w738,student,fff657
cor,w751,course,fff658
cor,w751,department,fff659
cor,w751,faculty,fff660
cor,w751,person,fff661
cor,w751,researchproject,fff662
cor,w751,staff,fff663
cor,w751,student,fff664
cor,w752,course,fff665
cor,w752,department,fff666
cor,w752,faculty,fff667
cor,w752,person,fff668
cor,w752,researchproject,fff669
cor,w752,staff,fff670
cor,w752,student,fff671
cor,w758,course,fff672
cor,w758,department,fff673
cor,w758,faculty,fff674
cor,w758,person,fff675
cor,w758,researchproject,fff676
cor,w758,staff,fff677
cor,w758,student,fff678
cor,w759,course,fff679
cor,w759,department,fff680
cor,w759,faculty,fff681
cor,w759,person,fff682
cor,w759,researchproject,fff683
cor,w759,staff,fff684
cor,w759,student,fff685
cor,w767,course,fff686
cor,w767,department,fff687
cor,w767,faculty,fff688
cor,w767,person,fff689
cor,w767,researchproject,fff690
cor,w767,staff,fff691
cor,w767,student,fff692
tex,w11,course,fff693
tex,w11,department,fff694
tex,w11,faculty,fff695
tex,w11,person,fff696
tex,w11,researchproject,fff697
tex,w11,staff,fff698
tex,w11,student,fff699
tex,w17,course,fff700
tex,w17,department,fff701
tex,w17,faculty,fff702
tex,w17,person,fff703
tex,w17,researchproject,fff704
tex,w17,staff,fff705
tex,w17,student,fff706
tex,w19,course,fff707
tex,w19,department,fff708
tex,w19,faculty,fff709
tex,w19,person,fff710
tex,w19,researchproject,fff711
tex,w19,staff,fff712
tex,w19,student,fff713
tex,w23,course,fff714
tex,w23,department,fff715
tex,w23,faculty,fff716
tex,w23,person,fff717
tex,w23,researchproject,fff718
tex,w23,staff,fff719
tex,w23,student,fff720
tex,w24,course,fff721
tex,w24,department,fff722
tex,w24,faculty,fff723
tex,w24,person,fff724
tex,w24,researchproject,fff725
tex,w24,staff,fff726
tex,w24,student,fff727
tex,w31,course,fff728
tex,w31,department,fff729
tex,w31,faculty,fff730
tex,w31,person,fff731
tex,w31,researchproject,fff732
tex,w31,staff,fff733
tex,w31,student,fff734
tex,w48,course,fff735
tex,w48,department,fff736
tex,w48,faculty,fff737
tex,w48,person,fff738
tex,w48,researchproject,fff739
tex,w48,staff,fff740
tex,w48,student,fff741
tex,w74,course,fff742
tex,w74,department,fff743
tex,w74,faculty,fff744
tex,w74,person,fff745
tex,w74,researchproject,fff746
tex,w74,staff,fff747
tex,w74,student,fff748
tex,w81,course,fff749
tex,w81,department,fff750
tex,w81,faculty,fff751
tex,w81,person,fff752
tex,w81,researchproject,fff753
tex,w81,staff,fff754
tex,w81,student,fff755
tex,w85,course,fff756
tex,w85,department,fff757
tex,w85,faculty,fff758
tex,w85,person,fff759
tex,w85,researchproject,fff760
tex,w85,staff,fff761
tex,w85,student,fff762
tex,w90,course,fff763
tex,w90,department,fff764
tex,w90,faculty,fff765
tex,w90,person,fff766
tex,w90,researchproject,fff767
tex,w90,staff,fff768
tex,w90,student,fff769
tex,w93,course,fff770
tex,w93,department,fff771
tex,w93,faculty,fff772
tex,w93,person,fff773
tex,w93,researchproject,fff774
tex,w93,staff,fff775
tex,w93,student,fff776
tex,w94,course,fff777
tex,w94,department,fff778
tex,w94,faculty,fff779
tex,w94,person,fff780
tex,w94,researchproject,fff781
tex,w94,staff,fff782
tex,w94,student,fff783
tex,w100,course,fff784
tex,w100,department,fff785
tex,w100,faculty,fff786
tex,w100,person,fff787
tex,w100,researchproject,fff788
tex,w100,staff,fff789
tex,w100,student,fff790
tex,w105,course,fff791
tex,w105,department,fff792
tex,w105,faculty,fff793
tex,w105,person,fff794
tex,w105,researchproject,fff795
tex,w105,staff,fff796
tex,w105,student,fff797
tex,w133,course,fff798
tex,w133,department,fff799
tex,w133,faculty,fff800
tex,w133,person,fff801
tex,w133,researchproject,fff802
tex,w133,staff,fff803
tex,w133,student,fff804
tex,w136,course,fff805
tex,w136,department,fff806
tex,w136,faculty,fff807
tex,w136,person,fff808
tex,w136,researchproject,fff809
tex,w136,staff,fff810
tex,w136,student,fff811
tex,w139,course,fff812
tex,w139,department,fff813
tex,w139,faculty,fff814
tex,w139,person,fff815
tex,w139,researchproject,fff816
tex,w139,staff,fff817
tex,w139,student,fff818
tex,w143,course,fff819
tex,w143,department,fff820
tex,w143,faculty,fff821
tex,w143,person,fff822
tex,w143,researchproject,fff823
tex,w143,staff,fff824
tex,w143,student,fff825
tex,w150,course,fff826
tex,w150,department,fff827
tex,w150,faculty,fff828
tex,w150,person,fff829
tex,w150,researchproject,fff830
tex,w150,staff,fff831
tex,w150,student,fff832
tex,w167,course,fff833
tex,w167,department,fff834
tex,w167,faculty,fff835
tex,w167,person,fff836
tex,w167,researchproject,fff837
tex,w167,staff,fff838
tex,w167,student,fff839
tex,w175,course,fff840
tex,w175,department,fff841
tex,w175,faculty,fff842
tex,w175,person,fff843
tex,w175,researchproject,fff844
tex,w175,staff,fff845
tex,w175,student,fff846
tex,w179,course,fff847
tex,w179,department,fff848
tex,w179,faculty,fff849
tex,w179,person,fff850
tex,w179,researchproject,fff851
tex,w179,staff,fff852
tex,w179,student,fff853
tex,w188,course,fff854
tex,w188,department,fff855
tex,w188,faculty,fff856
tex,w188,person,fff857
tex,w188,researchproject,fff858
tex,w188,staff,fff859
tex,w188,student,fff860
tex,w191,course,fff861
tex,w191,department,fff862
tex,w191,faculty,fff863
tex,w191,person,fff864
tex,w191,researchproject,fff865
tex,w191,staff,fff866
tex,w191,student,fff867
tex,w210,course,fff868
tex,w210,department,fff869
tex,w210,faculty,fff870
tex,w210,person,fff871
tex,w210,researchproject,fff872
tex,w210,staff,fff873
tex,w210,student,fff874
tex,w230,course,fff875
tex,w230,department,fff876
tex,w230,faculty,fff877
tex,w230,person,fff878
tex,w230,researchproject,fff879
tex,w230,staff,fff880
tex,w230,student,fff881
tex,w231,course,fff882
tex,w231,department,fff883
tex,w231,faculty,fff884
tex,w231,person,fff885
tex,w231,researchproject,fff886
tex,w231,staff,fff887
tex,w231,student,fff888
tex,w235,course,fff889
tex,w235,department,fff890
tex,w235,faculty,fff891
tex,w235,person,fff892
tex,w235,researchproject,fff893
tex,w235,staff,fff894
tex,w235,student,fff895
tex,w241,course,fff896
tex,w241,department,fff897
tex,w241,faculty,fff898
tex,w241,person,fff899
tex,w241,researchproject,fff900
tex,w241,staff,fff901
tex,w241,student,fff902
tex,w254,course,fff903
tex,w254,department,fff904
tex,w254,faculty,fff905
tex,w254,person,fff906
tex,w254,researchproject,fff907
tex,w254,staff,fff908
tex,w254,student,fff909
tex,w258,course,fff910
tex,w258,department,fff911
tex,w258,faculty,fff912
tex,w258,person,fff913
tex,w258,researchproject,fff914
tex,w258,staff,fff915
tex,w258,student,fff916
tex,w273,course,fff917
tex,w273,department,fff918
tex,w273,faculty,fff919
tex,w273,person,fff920
tex,w273,researchproject,fff921
tex,w273,staff,fff922
tex,w273,student,fff923
tex,w282,course,fff924
tex,w282,department,fff925
tex,w282,faculty,fff926
tex,w282,person,fff927
tex,w282,researchproject,fff928
tex,w282,staff,fff929
tex,w282,student,fff930
tex,w283,course,fff931
tex,w283,department,fff932
tex,w283,faculty,fff933
tex,w283,person,fff934
tex,w283,researchproject,fff935
tex,w283,staff,fff936
tex,w283,student,fff937
tex,w291,course,fff938
tex,w291,department,fff939
tex,w291,faculty,fff940
tex,w291,person,fff941
tex,w291,researchproject,fff942
tex,w291,staff,fff943
tex,w291,student,fff944
tex,w299,course,fff945
tex,w299,department,fff946
tex,w299,faculty,fff947
tex,w299,person,fff948
tex,w299,researchproject,fff949
tex,w299,staff,fff950
tex,w299,student,fff951
tex,w301,course,fff952
tex,w301,department,fff953
tex,w301,faculty,fff954
tex,w301,person,fff955
tex,w301,researchproject,fff956
tex,w301,staff,fff957
tex,w301,student,fff958
tex,w312,course,fff959
tex,w312,department,fff960
tex,w312,faculty,fff961
tex,w312,person,fff962
tex,w312,researchproject,fff963
tex,w312,staff,fff964
tex,w312,student,fff965
tex,w314,course,fff966
tex,w314,department,fff967
tex,w314,faculty,fff968
tex,w314,person,fff969
tex,w314,researchproject,fff970
tex,w314,staff,fff971
tex,w314,student,fff972
tex,w325,course,fff973
tex,w325,department,fff974
tex,w325,faculty,fff975
tex,w325,person,fff976
tex,w325,researchproject,fff977
tex,w325,staff,fff978
tex,w325,student,fff979
tex,w326,course,fff980
tex,w326,department,fff981
tex,w326,faculty,fff982
tex,w326,person,fff983
tex,w326,researchproject,fff984
tex,w326,staff,fff985
tex,w326,student,fff986
tex,w327,course,fff987
tex,w327,department,fff988
tex,w327,faculty,fff989
tex,w327,person,fff990
tex,w327,researchproject,fff991
tex,w327,staff,fff992
tex,w327,student,fff993
tex,w341,course,fff994
tex,w341,department,fff995
tex,w341,faculty,fff996
tex,w341,person,fff997
tex,w341,researchproject,fff998
tex,w341,staff,fff999
tex,w341,student,fff1000
tex,w353,course,fff1001
tex,w353,department,fff1002
tex,w353,faculty,fff1003
tex,w353,person,fff1004
tex,w353,researchproject,fff1005
tex,w353,staff,fff1006
tex,w353,student,fff1007
tex,w357,course,fff1008
tex,w357,department,fff1009
tex,w357,faculty,fff1010
tex,w357,person,fff1011
tex,w357,researchproject,fff1012
tex,w357,staff,fff1013
tex,w357,student,fff1014
tex,w365,course,fff1015
tex,w365,department,fff1016
tex,w365,faculty,fff1017
tex,w365,person,fff1018
tex,w365,researchproject,fff1019
tex,w365,staff,fff1020
tex,w365,student,fff1021
tex,w391,course,fff1022
tex,w391,department,fff1023
tex,w391,faculty,fff1024
tex,w391,person,fff1025
tex,w391,researchproject,fff1026
tex,w391,staff,fff1027
tex,w391,student,fff1028
tex,w410,course,fff1029
tex,w410,department,fff1030
tex,w410,faculty,fff1031
tex,w410,person,fff1032
tex,w410,researchproject,fff1033
tex,w410,staff,fff1034
tex,w410,student,fff1035
tex,w418,course,fff1036
tex,w418,department,fff1037
tex,w418,faculty,fff1038
tex,w418,person,fff1039
tex,w418,researchproject,fff1040
tex,w418,staff,fff1041
tex,w418,student,fff1042
tex,w422,course,fff1043
tex,w422,department,fff1044
tex,w422,faculty,fff1045
tex,w422,person,fff1046
tex,w422,researchproject,fff1047
tex,w422,staff,fff1048
tex,w422,student,fff1049
tex,w423,course,fff1050
tex,w423,department,fff1051
tex,w423,faculty,fff1052
tex,w423,person,fff1053
tex,w423,researchproject,fff1054
tex,w423,staff,fff1055
tex,w423,student,fff1056
tex,w424,course,fff1057
tex,w424,department,fff1058
tex,w424,faculty,fff1059
tex,w424,person,fff1060
tex,w424,researchproject,fff1061
tex,w424,staff,fff1062
tex,w424,student,fff1063
tex,w428,course,fff1064
tex,w428,department,fff1065
tex,w428,faculty,fff1066
tex,w428,person,fff1067
tex,w428,researchproject,fff1068
tex,w428,staff,fff1069
tex,w428,student,fff1070
tex,w437,course,fff1071
tex,w437,department,fff1072
tex,w437,faculty,fff1073
tex,w437,person,fff1074
tex,w437,researchproject,fff1075
tex,w437,staff,fff1076
tex,w437,student,fff1077
tex,w442,course,fff1078
tex,w442,department,fff1079
tex,w442,faculty,fff1080
tex,w442,person,fff1081
tex,w442,researchproject,fff1082
tex,w442,staff,fff1083
tex,w442,student,fff1084
tex,w446,course,fff1085
tex,w446,department,fff1086
tex,w446,faculty,fff1087
tex,w446,person,fff1088
tex,w446,researchproject,fff1089
tex,w446,staff,fff1090
tex,w446,student,fff1091
tex,w457,course,fff1092
tex,w457,department,fff1093
tex,w457,faculty,fff1094
tex,w457,person,fff1095
tex,w457,researchproject,fff1096
tex,w457,staff,fff1097
tex,w457,student,fff1098
tex,w479,course,fff1099
tex,w479,department,fff1100
tex,w479,faculty,fff1101
tex,w479,person,fff1102
tex,w479,researchproject,fff1103
tex,w479,staff,fff1104
tex,w479,student,fff1105
tex,w482,course,fff1106
tex,w482,department,fff1107
tex,w482,faculty,fff1108
tex,w482,person,fff1109
tex,w482,researchproject,fff1110
tex,w482,staff,fff1111
tex,w482,student,fff1112
tex,w531,course,fff1113
tex,w531,department,fff1114
tex,w531,faculty,fff1115
tex,w531,person,fff1116
tex,w531,researchproject,fff1117
tex,w531,staff,fff1118
tex,w531,student,fff1119
tex,w533,course,fff1120
tex,w533,department,fff1121
tex,w533,faculty,fff1122
tex,w533,person,fff1123
tex,w533,researchproject,fff1124
tex,w533,staff,fff1125
tex,w533,student,fff1126
tex,w538,course,fff1127
tex,w538,department,fff1128
tex,w538,faculty,fff1129
tex,w538,person,fff1130
tex,w538,researchproject,fff1131
tex,w538,staff,fff1132
tex,w538,student,fff1133
tex,w542,course,fff1134
tex,w542,department,fff1135
tex,w542,faculty,fff1136
tex,w542,person,fff1137
tex,w542,researchproject,fff1138
tex,w542,staff,fff1139
tex,w542,student,fff1140
tex,w543,course,fff1141
tex,w543,department,fff1142
tex,w543,faculty,fff1143
tex,w543,person,fff1144
tex,w543,researchproject,fff1145
tex,w543,staff,fff1146
tex,w543,student,fff1147
tex,w553,course,fff1148
tex,w553,department,fff1149
tex,w553,faculty,fff1150
tex,w553,person,fff1151
tex,w553,researchproject,fff1152
tex,w553,staff,fff1153
tex,w553,student,fff1154
tex,w556,course,fff1155
tex,w556,department,fff1156
tex,w556,faculty,fff1157
tex,w556,person,fff1158
tex,w556,researchproject,fff1159
tex,w556,staff,fff1160
tex,w556,student,fff1161
tex,w586,course,fff1162
tex,w586,department,fff1163
tex,w586,faculty,fff1164
tex,w586,person,fff1165
tex,w586,researchproject,fff1166
tex,w586,staff,fff1167
tex,w586,student,fff1168
tex,w593,course,fff1169
tex,w593,department,fff1170
tex,w593,faculty,fff1171
tex,w593,person,fff1172
tex,w593,researchproject,fff1173
tex,w593,staff,fff1174
tex,w593,student,fff1175
tex,w594,course,fff1176
tex,w594,department,fff1177
tex,w594,faculty,fff1178
tex,w594,person,fff1179
tex,w594,researchproject,fff1180
tex,w594,staff,fff1181
tex,w594,student,fff1182
tex,w596,course,fff1183
tex,w596,department,fff1184
tex,w596,faculty,fff1185
tex,w596,person,fff1186
tex,w596,researchproject,fff1187
tex,w596,staff,fff1188
tex,w596,student,fff1189
tex,w604,course,fff1190
tex,w604,department,fff1191
tex,w604,faculty,fff1192
tex,w604,person,fff1193
tex,w604,researchproject,fff1194
tex,w604,staff,fff1195
tex,w604,student,fff1196
tex,w607,course,fff1197
tex,w607,department,fff1198
tex,w607,faculty,fff1199
tex,w607,person,fff1200
tex,w607,researchproject,fff1201
tex,w607,staff,fff1202
tex,w607,student,fff1203
tex,w619,course,fff1204
tex,w619,department,fff1205
tex,w619,faculty,fff1206
tex,w619,person,fff1207
tex,w619,researchproject,fff1208
tex,w619,staff,fff1209
tex,w619,student,fff1210
tex,w622,course,fff1211
tex,w622,department,fff1212
tex,w622,faculty,fff1213
tex,w622,person,fff1214
tex,w622,researchproject,fff1215
tex,w622,staff,fff1216
tex,w622,student,fff1217
tex,w623,course,fff1218
tex,w623,department,fff1219
tex,w623,faculty,fff1220
tex,w623,person,fff1221
tex,w623,researchproject,fff1222
tex,w623,staff,fff1223
tex,w623,student,fff1224
tex,w638,course,fff1225
tex,w638,department,fff1226
tex,w638,faculty,fff1227
tex,w638,person,fff1228
tex,w638,researchproject,fff1229
tex,w638,staff,fff1230
tex,w638,student,fff1231
tex,w644,course,fff1232
tex,w644,department,fff1233
tex,w644,faculty,fff1234
tex,w644,person,fff1235
tex,w644,researchproject,fff1236
tex,w644,staff,fff1237
tex,w644,student,fff1238
tex,w651,course,fff1239
tex,w651,department,fff1240
tex,w651,faculty,fff1241
tex,w651,person,fff1242
tex,w651,researchproject,fff1243
tex,w651,staff,fff1244
tex,w651,student,fff1245
tex,w654,course,fff1246
tex,w654,department,fff1247
tex,w654,faculty,fff1248
tex,w654,person,fff1249
tex,w654,researchproject,fff1250
tex,w654,staff,fff1251
tex,w654,student,fff1252
tex,w660,course,fff1253
tex,w660,department,fff1254
tex,w660,faculty,fff1255
tex,w660,person,fff1256
tex,w660,researchproject,fff1257
tex,w660,staff,fff1258
tex,w660,student,fff1259
tex,w664,course,fff1260
tex,w664,department,fff1261
tex,w664,faculty,fff1262
tex,w664,person,fff1263
tex,w664,researchproject,fff1264
tex,w664,staff,fff1265
tex,w664,student,fff1266
tex,w670,course,fff1267
tex,w670,department,fff1268
tex,w670,faculty,fff1269
tex,w670,person,fff1270
tex,w670,researchproject,fff1271
tex,w670,staff,fff1272
tex,w670,student,fff1273
tex,w671,course,fff1274
tex,w671,department,fff1275
tex,w671,faculty,fff1276
tex,w671,person,fff1277
tex,w671,researchproject,fff1278
tex,w671,staff,fff1279
tex,w671,student,fff1280
tex,w672,course,fff1281
tex,w672,department,fff1282
tex,w672,faculty,fff1283
tex,w672,person,fff1284
tex,w672,researchproject,fff1285
tex,w672,staff,fff1286
tex,w672,student,fff1287
tex,w681,course,fff1288
tex,w681,department,fff1289
tex,w681,faculty,fff1290
tex,w681,person,fff1291
tex,w681,researchproject,fff1292
tex,w681,staff,fff1293
tex,w681,student,fff1294
tex,w716,course,fff1295
tex,w716,department,fff1296
tex,w716,faculty,fff1297
tex,w716,person,fff1298
tex,w716,researchproject,fff1299
tex,w716,staff,fff1300
tex,w716,student,fff1301
tex,w721,course,fff1302
tex,w721,department,fff1303
tex,w721,faculty,fff1304
tex,w721,person,fff1305
tex,w721,researchproject,fff1306
tex,w721,staff,fff1307
tex,w721,student,fff1308
tex,w730,course,fff1309
tex,w730,department,fff1310
tex,w730,faculty,fff1311
tex,w730,person,fff1312
tex,w730,researchproject,fff1313
tex,w730,staff,fff1314
tex,w730,student,fff1315
tex,w733,course,fff1316
tex,w733,department,fff1317
tex,w733,faculty,fff1318
tex,w733,person,fff1319
tex,w733,researchproject,fff1320
tex,w733,staff,fff1321
tex,w733,student,fff1322
tex,w734,course,fff1323
tex,w734,department,fff1324
tex,w734,faculty,fff1325
tex,w734,person,fff1326
tex,w734,researchproject,fff1327
tex,w734,staff,fff1328
tex,w734,student,fff1329
tex,w736,course,fff1330
tex,w736,department,fff1331
tex,w736,faculty,fff1332
tex,w736,person,fff1333
tex,w736,researchproject,fff1334
tex,w736,staff,fff1335
tex,w736,student,fff1336
tex,w737,course,fff1337
tex,w737,department,fff1338
tex,w737,faculty,fff1339
tex,w737,person,fff1340
tex,w737,researchproject,fff1341
tex,w737,staff,fff1342
tex,w737,student,fff1343
tex,w738,course,fff1344
tex,w738,department,fff1345
tex,w738,faculty,fff1346
tex,w738,person,fff1347
tex,w738,researchproject,fff1348
tex,w738,staff,fff1349
tex,w738,student,fff1350
tex,w751,course,fff1351
tex,w751,department,fff1352
tex,w751,faculty,fff1353
tex,w751,person,fff1354
tex,w751,researchproject,fff1355
tex,w751,staff,fff1356
tex,w751,student,fff1357
tex,w752,course,fff1358
tex,w752,department,fff1359
tex,w752,faculty,fff1360
tex,w752,person,fff1361
tex,w752,researchproject,fff1362
tex,w752,staff,fff1363
tex,w752,student,fff1364
tex,w758,course,fff1365
tex,w758,department,fff1366
tex,w758,faculty,fff1367
tex,w758,person,fff1368
tex,w758,researchproject,fff1369
tex,w758,staff,fff1370
tex,w758,student,fff1371
tex,w759,course,fff1372
tex,w759,department,fff1373
tex,w759,faculty,fff1374
tex,w759,person,fff1375
tex,w759,researchproject,fff1376
tex,w759,staff,fff1377
tex,w759,student,fff1378
tex,w767,course,fff1379
tex,w767,department,fff1380
tex,w767,faculty,fff1381
tex,w767,person,fff1382
tex,w767,researchproject,fff1383
tex,w767,staff,fff1384
tex,w767,student,fff1385
was,w11,course,fff1386
was,w11,department,fff1387
was,w11,faculty,fff1388
was,w11,person,fff1389
was,w11,researchproject,fff1390
was,w11,staff,fff1391
was,w11,student,fff1392
was,w17,course,fff1393
was,w17,department,fff1394
was,w17,faculty,fff1395
was,w17,person,fff1396
was,w17,researchproject,fff1397
was,w17,staff,fff1398
was,w17,student,fff1399
was,w19,course,fff1400
was,w19,department,fff1401
was,w19,faculty,fff1402
was,w19,person,fff1403
was,w19,researchproject,fff1404
was,w19,staff,fff1405
was,w19,student,fff1406
was,w23,course,fff1407
was,w23,department,fff1408
was,w23,faculty,fff1409
was,w23,person,fff1410
was,w23,researchproject,fff1411
was,w23,staff,fff1412
was,w23,student,fff1413
was,w24,course,fff1414
was,w24,department,fff1415
was,w24,faculty,fff1416
was,w24,person,fff1417
was,w24,researchproject,fff1418
was,w24,staff,fff1419
was,w24,student,fff1420
was,w31,course,fff1421
was,w31,department,fff1422
was,w31,faculty,fff1423
was,w31,person,fff1424
was,w31,researchproject,fff1425
was,w31,staff,fff1426
was,w31,student,fff1427
was,w48,course,fff1428
was,w48,department,fff1429
was,w48,faculty,fff1430
was,w48,person,fff1431
was,w48,researchproject,fff1432
was,w48,staff,fff1433
was,w48,student,fff1434
was,w74,course,fff1435
was,w74,department,fff1436
was,w74,faculty,fff1437
was,w74,person,fff1438
was,w74,researchproject,fff1439
was,w74,staff,fff1440
was,w74,student,fff1441
was,w81,course,fff1442
was,w81,department,fff1443
was,w81,faculty,fff1444
was,w81,person,fff1445
was,w81,researchproject,fff1446
was,w81,staff,fff1447
was,w81,student,fff1448
was,w85,course,fff1449
was,w85,department,fff1450
was,w85,faculty,fff1451
was,w85,person,fff1452
was,w85,researchproject,fff1453
was,w85,staff,fff1454
was,w85,student,fff1455
was,w90,course,fff1456
was,w90,department,fff1457
was,w90,faculty,fff1458
was,w90,person,fff1459
was,w90,researchproject,fff1460
was,w90,staff,fff1461
was,w90,student,fff1462
was,w93,course,fff1463
was,w93,department,fff1464
was,w93,faculty,fff1465
was,w93,person,fff1466
was,w93,researchproject,fff1467
was,w93,staff,fff1468
was,w93,student,fff1469
was,w94,course,fff1470
was,w94,department,fff1471
was,w94,faculty,fff1472
was,w94,person,fff1473
was,w94,researchproject,fff1474
was,w94,staff,fff1475
was,w94,student,fff1476
was,w100,course,fff1477
was,w100,department,fff1478
was,w100,faculty,fff1479
was,w100,person,fff1480
was,w100,researchproject,fff1481
was,w100,staff,fff1482
was,w100,student,fff1483
was,w105,course,fff1484
was,w105,department,fff1485
was,w105,faculty,fff1486
was,w105,person,fff1487
was,w105,researchproject,fff1488
was,w105,staff,fff1489
was,w105,student,fff1490
was,w133,course,fff1491
was,w133,department,fff1492
was,w133,faculty,fff1493
was,w133,person,fff1494
was,w133,researchproject,fff1495
was,w133,staff,fff1496
was,w133,student,fff1497
was,w136,course,fff1498
was,w136,department,fff1499
was,w136,faculty,fff1500
was,w136,person,fff1501
was,w136,researchproject,fff1502
was,w136,staff,fff1503
was,w136,student,fff1504
was,w139,course,fff1505
was,w139,department,fff1506
was,w139,faculty,fff1507
was,w139,person,fff1508
was,w139,researchproject,fff1509
was,w139,staff,fff1510
was,w139,student,fff1511
was,w143,course,fff1512
was,w143,department,fff1513
was,w143,faculty,fff1514
was,w143,person,fff1515
was,w143,researchproject,fff1516
was,w143,staff,fff1517
was,w143,student,fff1518
was,w150,course,fff1519
was,w150,department,fff1520
was,w150,faculty,fff1521
was,w150,person,fff1522
was,w150,researchproject,fff1523
was,w150,staff,fff1524
was,w150,student,fff1525
was,w167,course,fff1526
was,w167,department,fff1527
was,w167,faculty,fff1528
was,w167,person,fff1529
was,w167,researchproject,fff1530
was,w167,staff,fff1531
was,w167,student,fff1532
was,w175,course,fff1533
was,w175,department,fff1534
was,w175,faculty,fff1535
was,w175,person,fff1536
was,w175,researchproject,fff1537
was,w175,staff,fff1538
was,w175,student,fff1539
was,w179,course,fff1540
was,w179,department,fff1541
was,w179,faculty,fff1542
was,w179,person,fff1543
was,w179,researchproject,fff1544
was,w179,staff,fff1545
was,w179,student,fff1546
was,w188,course,fff1547
was,w188,department,fff1548
was,w188,faculty,fff1549
was,w188,person,fff1550
was,w188,researchproject,fff1551
was,w188,staff,fff1552
was,w188,student,fff1553
was,w191,course,fff1554
was,w191,department,fff1555
was,w191,faculty,fff1556
was,w191,person,fff1557
was,w191,researchproject,fff1558
was,w191,staff,fff1559
was,w191,student,fff1560
was,w210,course,fff1561
was,w210,department,fff1562
was,w210,faculty,fff1563
was,w210,person,fff1564
was,w210,researchproject,fff1565
was,w210,staff,fff1566
was,w210,student,fff1567
was,w230,course,fff1568
was,w230,department,fff1569
was,w230,faculty,fff1570
was,w230,person,fff1571
was,w230,researchproject,fff1572
was,w230,staff,fff1573
was,w230,student,fff1574
was,w231,course,fff1575
was,w231,department,fff1576
was,w231,faculty,fff1577
was,w231,person,fff1578
was,w231,researchproject,fff1579
was,w231,staff,fff1580
was,w231,student,fff1581
was,w235,course,fff1582
was,w235,department,fff1583
was,w235,faculty,fff1584
was,w235,person,fff1585
was,w235,researchproject,fff1586
was,w235,staff,fff1587
was,w235,student,fff1588
was,w241,course,fff1589
was,w241,department,fff1590
was,w241,faculty,fff1591
was,w241,person,fff1592
was,w241,researchproject,fff1593
was,w241,staff,fff1594
was,w241,student,fff1595
was,w254,course,fff1596
was,w254,department,fff1597
was,w254,faculty,fff1598
was,w254,person,fff1599
was,w254,researchproject,fff1600
was,w254,staff,fff1601
was,w254,student,fff1602
was,w258,course,fff1603
was,w258,department,fff1604
was,w258,faculty,fff1605
was,w258,person,fff1606
was,w258,researchproject,fff1607
was,w258,staff,fff1608
was,w258,student,fff1609
was,w273,course,fff1610
was,w273,department,fff1611
was,w273,faculty,fff1612
was,w273,person,fff1613
was,w273,researchproject,fff1614
was,w273,staff,fff1615
was,w273,student,fff1616
was,w282,course,fff1617
was,w282,department,fff1618
was,w282,faculty,fff1619
was,w282,person,fff1620
was,w282,researchproject,fff1621
was,w282,staff,fff1622
was,w282,student,fff1623
was,w283,course,fff1624
was,w283,department,fff1625
was,w283,faculty,fff1626
was,w283,person,fff1627
was,w283,researchproject,fff1628
was,w283,staff,fff1629
was,w283,student,fff1630
was,w291,course,fff1631
was,w291,department,fff1632
was,w291,faculty,fff1633
was,w291,person,fff1634
was,w291,researchproject,fff1635
was,w291,staff,fff1636
was,w291,student,fff1637
was,w299,course,fff1638
was,w299,department,fff1639
was,w299,faculty,fff1640
was,w299,person,fff1641
was,w299,researchproject,fff1642
was,w299,staff,fff1643
was,w299,student,fff1644
was,w301,course,fff1645
was,w301,department,fff1646
was,w301,faculty,fff1647
was,w301,person,fff1648
was,w301,researchproject,fff1649
was,w301,staff,fff1650
was,w301,student,fff1651
was,w312,course,fff1652
was,w312,department,fff1653
was,w312,faculty,fff1654
was,w312,person,fff1655
was,w312,researchproject,fff1656
was,w312,staff,fff1657
was,w312,student,fff1658
was,w314,course,fff1659
was,w314,department,fff1660
was,w314,faculty,fff1661
was,w314,person,fff1662
was,w314,researchproject,fff1663
was,w314,staff,fff1664
was,w314,student,fff1665
was,w325,course,fff1666
was,w325,department,fff1667
was,w325,faculty,fff1668
was,w325,person,fff1669
was,w325,researchproject,fff1670
was,w325,staff,fff1671
was,w325,student,fff1672
was,w326,course,fff1673
was,w326,department,fff1674
was,w326,faculty,fff1675
was,w326,person,fff1676
was,w326,researchproject,fff1677
was,w326,staff,fff1678
was,w326,student,fff1679
was,w327,course,fff1680
was,w327,department,fff1681
was,w327,faculty,fff1682
was,w327,person,fff1683
was,w327,researchproject,fff1684
was,w327,staff,fff1685
was,w327,student,fff1686
was,w341,course,fff1687
was,w341,department,fff1688
was,w341,faculty,fff1689
was,w341,person,fff1690
was,w341,researchproject,fff1691
was,w341,staff,fff1692
was,w341,student,fff1693
was,w353,course,fff1694
was,w353,department,fff1695
was,w353,faculty,fff1696
was,w353,person,fff1697
was,w353,researchproject,fff1698
was,w353,staff,fff1699
was,w353,student,fff1700
was,w357,course,fff1701
was,w357,department,fff1702
was,w357,faculty,fff1703
was,w357,person,fff1704
was,w357,researchproject,fff1705
was,w357,staff,fff1706
was,w357,student,fff1707
was,w365,course,fff1708
was,w365,department,fff1709
was,w365,faculty,fff1710
was,w365,person,fff1711
was,w365,researchproject,fff1712
was,w365,staff,fff1713
was,w365,student,fff1714
was,w391,course,fff1715
was,w391,department,fff1716
was,w391,faculty,fff1717
was,w391,person,fff1718
was,w391,researchproject,fff1719
was,w391,staff,fff1720
was,w391,student,fff1721
was,w410,course,fff1722
was,w410,department,fff1723
was,w410,faculty,fff1724
was,w410,person,fff1725
was,w410,researchproject,fff1726
was,w410,staff,fff1727
was,w410,student,fff1728
was,w418,course,fff1729
was,w418,department,fff1730
was,w418,faculty,fff1731
was,w418,person,fff1732
was,w418,researchproject,fff1733
was,w418,staff,fff1734
was,w418,student,fff1735
was,w422,course,fff1736
was,w422,department,fff1737
was,w422,faculty,fff1738
was,w422,person,fff1739
was,w422,researchproject,fff1740
was,w422,staff,fff1741
was,w422,student,fff1742
was,w423,course,fff1743
was,w423,department,fff1744
was,w423,faculty,fff1745
was,w423,person,fff1746
was,w423,researchproject,fff1747
was,w423,staff,fff1748
was,w423,student,fff1749
was,w424,course,fff1750
was,w424,department,fff1751
was,w424,faculty,fff1752
was,w424,person,fff1753
was,w424,researchproject,fff1754
was,w424,staff,fff1755
was,w424,student,fff1756
was,w428,course,fff1757
was,w428,department,fff1758
was,w428,faculty,fff1759
was,w428,person,fff1760
was,w428,researchproject,fff1761
was,w428,staff,fff1762
was,w428,student,fff1763
was,w437,course,fff1764
was,w437,department,fff1765
was,w437,faculty,fff1766
was,w437,person,fff1767
was,w437,researchproject,fff1768
was,w437,staff,fff1769
was,w437,student,fff1770
was,w442,course,fff1771
was,w442,department,fff1772
was,w442,faculty,fff1773
was,w442,person,fff1774
was,w442,researchproject,fff1775
was,w442,staff,fff1776
was,w442,student,fff1777
was,w446,course,fff1778
was,w446,department,fff1779
was,w446,faculty,fff1780
was,w446,person,fff1781
was,w446,researchproject,fff1782
was,w446,staff,fff1783
was,w446,student,fff1784
was,w457,course,fff1785
was,w457,department,fff1786
was,w457,faculty,fff1787
was,w457,person,fff1788
was,w457,researchproject,fff1789
was,w457,staff,fff1790
was,w457,student,fff1791
was,w479,course,fff1792
was,w479,department,fff1793
was,w479,faculty,fff1794
was,w479,person,fff1795
was,w479,researchproject,fff1796
was,w479,staff,fff1797
was,w479,student,fff1798
was,w482,course,fff1799
was,w482,department,fff1800
was,w482,faculty,fff1801
was,w482,person,fff1802
was,w482,researchproject,fff1803
was,w482,staff,fff1804
was,w482,student,fff1805
was,w531,course,fff1806
was,w531,department,fff1807
was,w531,faculty,fff1808
was,w531,person,fff1809
was,w531,researchproject,fff1810
was,w531,staff,fff1811
was,w531,student,fff1812
was,w533,course,fff1813
was,w533,department,fff1814
was,w533,faculty,fff1815
was,w533,person,fff1816
was,w533,researchproject,fff1817
was,w533,staff,fff1818
was,w533,student,fff1819
was,w538,course,fff1820
was,w538,department,fff1821
was,w538,faculty,fff1822
was,w538,person,fff1823
was,w538,researchproject,fff1824
was,w538,staff,fff1825
was,w538,student,fff1826
was,w542,course,fff1827
was,w542,department,fff1828
was,w542,faculty,fff1829
was,w542,person,fff1830
was,w542,researchproject,fff1831
was,w542,staff,fff1832
was,w542,student,fff1833
was,w543,course,fff1834
was,w543,department,fff1835
was,w543,faculty,fff1836
was,w543,person,fff1837
was,w543,researchproject,fff1838
was,w543,staff,fff1839
was,w543,student,fff1840
was,w553,course,fff1841
was,w553,department,fff1842
was,w553,faculty,fff1843
was,w553,person,fff1844
was,w553,researchproject,fff1845
was,w553,staff,fff1846
was,w553,student,fff1847
was,w556,course,fff1848
was,w556,department,fff1849
was,w556,faculty,fff1850
was,w556,person,fff1851
was,w556,researchproject,fff1852
was,w556,staff,fff1853
was,w556,student,fff1854
was,w586,course,fff1855
was,w586,department,fff1856
was,w586,faculty,fff1857
was,w586,person,fff1858
was,w586,researchproject,fff1859
was,w586,staff,fff1860
was,w586,student,fff1861
was,w593,course,fff1862
was,w593,department,fff1863
was,w593,faculty,fff1864
was,w593,person,fff1865
was,w593,researchproject,fff1866
was,w593,staff,fff1867
was,w593,student,fff1868
was,w594,course,fff1869
was,w594,department,fff1870
was,w594,faculty,fff1871
was,w594,person,fff1872
was,w594,researchproject,fff1873
was,w594,staff,fff1874
was,w594,student,fff1875
was,w596,course,fff1876
was,w596,department,fff1877
was,w596,faculty,fff1878
was,w596,person,fff1879
was,w596,researchproject,fff1880
was,w596,staff,fff1881
was,w596,student,fff1882
was,w604,course,fff1883
was,w604,department,fff1884
was,w604,faculty,fff1885
was,w604,person,fff1886
was,w604,researchproject,fff1887
was,w604,staff,fff1888
was,w604,student,fff1889
was,w607,course,fff1890
was,w607,department,fff1891
was,w607,faculty,fff1892
was,w607,person,fff1893
was,w607,researchproject,fff1894
was,w607,staff,fff1895
was,w607,student,fff1896
was,w619,course,fff1897
was,w619,department,fff1898
was,w619,faculty,fff1899
was,w619,person,fff1900
was,w619,researchproject,fff1901
was,w619,staff,fff1902
was,w619,student,fff1903
was,w622,course,fff1904
was,w622,department,fff1905
was,w622,faculty,fff1906
was,w622,person,fff1907
was,w622,researchproject,fff1908
was,w622,staff,fff1909
was,w622,student,fff1910
was,w623,course,fff1911
was,w623,department,fff1912
was,w623,faculty,fff1913
was,w623,person,fff1914
was,w623,researchproject,fff1915
was,w623,staff,fff1916
was,w623,student,fff1917
was,w638,course,fff1918
was,w638,department,fff1919
was,w638,faculty,fff1920
was,w638,person,fff1921
was,w638,researchproject,fff1922
was,w638,staff,fff1923
was,w638,student,fff1924
was,w644,course,fff1925
was,w644,department,fff1926
was,w644,faculty,fff1927
was,w644,person,fff1928
was,w644,researchproject,fff1929
was,w644,staff,fff1930
was,w644,student,fff1931
was,w651,course,fff1932
was,w651,department,fff1933
was,w651,faculty,fff1934
was,w651,person,fff1935
was,w651,researchproject,fff1936
was,w651,staff,fff1937
was,w651,student,fff1938
was,w654,course,fff1939
was,w654,department,fff1940
was,w654,faculty,fff1941
was,w654,person,fff1942
was,w654,researchproject,fff1943
was,w654,staff,fff1944
was,w654,student,fff1945
was,w660,course,fff1946
was,w660,department,fff1947
was,w660,faculty,fff1948
was,w660,person,fff1949
was,w660,researchproject,fff1950
was,w660,staff,fff1951
was,w660,student,fff1952
was,w664,course,fff1953
was,w664,department,fff1954
was,w664,faculty,fff1955
was,w664,person,fff1956
was,w664,researchproject,fff1957
was,w664,staff,fff1958
was,w664,student,fff1959
was,w670,course,fff1960
was,w670,department,fff1961
was,w670,faculty,fff1962
was,w670,person,fff1963
was,w670,researchproject,fff1964
was,w670,staff,fff1965
was,w670,student,fff1966
was,w671,course,fff1967
was,w671,department,fff1968
was,w671,faculty,fff1969
was,w671,person,fff1970
was,w671,researchproject,fff1971
was,w671,staff,fff1972
was,w671,student,fff1973
was,w672,course,fff1974
was,w672,department,fff1975
was,w672,faculty,fff1976
was,w672,person,fff1977
was,w672,researchproject,fff1978
was,w672,staff,fff1979
was,w672,student,fff1980
was,w681,course,fff1981
was,w681,department,fff1982
was,w681,faculty,fff1983
was,w681,person,fff1984
was,w681,researchproject,fff1985
was,w681,staff,fff1986
was,w681,student,fff1987
was,w716,course,fff1988
was,w716,department,fff1989
was,w716,faculty,fff1990
was,w716,person,fff1991
was,w716,researchproject,fff1992
was,w716,staff,fff1993
was,w716,student,fff1994
was,w721,course,fff1995
was,w721,department,fff1996
was,w721,faculty,fff1997
was,w721,person,fff1998
was,w721,researchproject,fff1999
was,w721,staff,fff2000
was,w721,student,fff2001
was,w730,course,fff2002
was,w730,department,fff2003
was,w730,faculty,fff2004
was,w730,person,fff2005
was,w730,researchproject,fff2006
was,w730,staff,fff2007
was,w730,student,fff2008
was,w733,course,fff2009
was,w733,department,fff2010
was,w733,faculty,fff2011
was,w733,person,fff2012
was,w733,researchproject,fff2013
was,w733,staff,fff2014
was,w733,student,fff2015
was,w734,course,fff2016
was,w734,department,fff2017
was,w734,faculty,fff2018
was,w734,person,fff2019
was,w734,researchproject,fff2020
was,w734,staff,fff2021
was,w734,student,fff2022
was,w736,course,fff2023
was,w736,department,fff2024
was,w736,faculty,fff2025
was,w736,person,fff2026
was,w736,researchproject,fff2027
was,w736,staff,fff2028
was,w736,student,fff2029
was,w737,course,fff2030
was,w737,department,fff2031
was,w737,faculty,fff2032
was,w737,person,fff2033
was,w737,researchproject,fff2034
was,w737,staff,fff2035
was,w737,student,fff2036
was,w738,course,fff2037
was,w738,department,fff2038
was,w738,faculty,fff2039
was,w738,person,fff2040
was,w738,researchproject,fff2041
was,w738,staff,fff2042
was,w738,student,fff2043
was,w751,course,fff2044
was,w751,department,fff2045
was,w751,faculty,fff2046
was,w751,person,fff2047
was,w751,researchproject,fff2048
was,w751,staff,fff2049
was,w751,student,fff2050
was,w752,course,fff2051
was,w752,department,fff2052
was,w752,faculty,fff2053
was,w752,person,fff2054
was,w752,researchproject,fff2055
was,w752,staff,fff2056
was,w752,student,fff2057
was,w758,course,fff2058
was,w758,department,fff2059
was,w758,faculty,fff2060
was,w758,person,fff2061
was,w758,researchproject,fff2062
was,w758,staff,fff2063
was,w758,student,fff2064
was,w759,course,fff2065
was,w759,department,fff2066
was,w759,faculty,fff2067
was,w759,person,fff2068
was,w759,researchproject,fff2069
was,w759,staff,fff2070
was,w759,student,fff2071
was,w767,course,fff2072
was,w767,department,fff2073
was,w767,faculty,fff2074
was,w767,person,fff2075
was,w767,researchproject,fff2076
was,w767,staff,fff2077
was,w767,student,fff2078
wis,w11,course,fff2079
wis,w11,department,fff2080
wis,w11,faculty,fff2081
wis,w11,person,fff2082
wis,w11,researchproject,fff2083
wis,w11,staff,fff2084
wis,w11,student,fff2085
wis,w17,course,fff2086
wis,w17,department,fff2087
wis,w17,faculty,fff2088
wis,w17,person,fff2089
wis,w17,researchproject,fff2090
wis,w17,staff,fff2091
wis,w17,student,fff2092
wis,w19,course,fff2093
wis,w19,department,fff2094
wis,w19,faculty,fff2095
wis,w19,person,fff2096
wis,w19,researchproject,fff2097
wis,w19,staff,fff2098
wis,w19,student,fff2099
wis,w23,course,fff2100
wis,w23,department,fff2101
wis,w23,faculty,fff2102
wis,w23,person,fff2103
wis,w23,researchproject,fff2104
wis,w23,staff,fff2105
wis,w23,student,fff2106
wis,w24,course,fff2107
wis,w24,department,fff2108
wis,w24,faculty,fff2109
wis,w24,person,fff2110
wis,w24,researchproject,fff2111
wis,w24,staff,fff2112
wis,w24,student,fff2113
wis,w31,course,fff2114
wis,w31,department,fff2115
wis,w31,faculty,fff2116
wis,w31,person,fff2117
wis,w31,researchproject,fff2118
wis,w31,staff,fff2119
wis,w31,student,fff2120
wis,w48,course,fff2121
wis,w48,department,fff2122
wis,w48,faculty,fff2123
wis,w48,person,fff2124
wis,w48,researchproject,fff2125
wis,w48,staff,fff2126
wis,w48,student,fff2127
wis,w74,course,fff2128
wis,w74,department,fff2129
wis,w74,faculty,fff2130
wis,w74,person,fff2131
wis,w74,researchproject,fff2132
wis,w74,staff,fff2133
wis,w74,student,fff2134
wis,w81,course,fff2135
wis,w81,department,fff2136
wis,w81,faculty,fff2137
wis,w81,person,fff2138
wis,w81,researchproject,fff2139
wis,w81,staff,fff2140
wis,w81,student,fff2141
wis,w85,course,fff2142
wis,w85,department,fff2143
wis,w85,faculty,fff2144
wis,w85,person,fff2145
wis,w85,researchproject,fff2146
wis,w85,staff,fff2147
wis,w85,student,fff2148
wis,w90,course,fff2149
wis,w90,department,fff2150
wis,w90,faculty,fff2151
wis,w90,person,fff2152
wis,w90,researchproject,fff2153
wis,w90,staff,fff2154
wis,w90,student,fff2155
wis,w93,course,fff2156
wis,w93,department,fff2157
wis,w93,faculty,fff2158
wis,w93,person,fff2159
wis,w93,researchproject,fff2160
wis,w93,staff,fff2161
wis,w93,student,fff2162
wis,w94,course,fff2163
wis,w94,department,fff2164
wis,w94,faculty,fff2165
wis,w94,person,fff2166
wis,w94,researchproject,fff2167
wis,w94,staff,fff2168
wis,w94,student,fff2169
wis,w100,course,fff2170
wis,w100,department,fff2171
wis,w100,faculty,fff2172
wis,w100,person,fff2173
wis,w100,researchproject,fff2174
wis,w100,staff,fff2175
wis,w100,student,fff2176
wis,w105,course,fff2177
wis,w105,department,fff2178
wis,w105,faculty,fff2179
wis,w105,person,fff2180
wis,w105,researchproject,fff2181
wis,w105,staff,fff2182
wis,w105,student,fff2183
wis,w133,course,fff2184
wis,w133,department,fff2185
wis,w133,faculty,fff2186
wis,w133,person,fff2187
wis,w133,researchproject,fff2188
wis,w133,staff,fff2189
wis,w133,student,fff2190
wis,w136,course,fff2191
wis,w136,department,fff2192
wis,w136,faculty,fff2193
wis,w136,person,fff2194
wis,w136,researchproject,fff2195
wis,w136,staff,fff2196
wis,w136,student,fff2197
wis,w139,course,fff2198
wis,w139,department,fff2199
wis,w139,faculty,fff2200
wis,w139,person,fff2201
wis,w139,researchproject,fff2202
wis,w139,staff,fff2203
wis,w139,student,fff2204
wis,w143,course,fff2205
wis,w143,department,fff2206
wis,w143,faculty,fff2207
wis,w143,person,fff2208
wis,w143,researchproject,fff2209
wis,w143,staff,fff2210
wis,w143,student,fff2211
wis,w150,course,fff2212
wis,w150,department,fff2213
wis,w150,faculty,fff2214
wis,w150,person,fff2215
wis,w150,researchproject,fff2216
wis,w150,staff,fff2217
wis,w150,student,fff2218
wis,w167,course,fff2219
wis,w167,department,fff2220
wis,w167,faculty,fff2221
wis,w167,person,fff2222
wis,w167,researchproject,fff2223
wis,w167,staff,fff2224
wis,w167,student,fff2225
wis,w175,course,fff2226
wis,w175,department,fff2227
wis,w175,faculty,fff2228
wis,w175,person,fff2229
wis,w175,researchproject,fff2230
wis,w175,staff,fff2231
wis,w175,student,fff2232
wis,w179,course,fff2233
wis,w179,department,fff2234
wis,w179,faculty,fff2235
wis,w179,person,fff2236
wis,w179,researchproject,fff2237
wis,w179,staff,fff2238
wis,w179,student,fff2239
wis,w188,course,fff2240
wis,w188,department,fff2241
wis,w188,faculty,fff2242
wis,w188,person,fff2243
wis,w188,researchproject,fff2244
wis,w188,staff,fff2245
wis,w188,student,fff2246
wis,w191,course,fff2247
wis,w191,department,fff2248
wis,w191,faculty,fff2249
wis,w191,person,fff2250
wis,w191,researchproject,fff2251
wis,w191,staff,fff2252
wis,w191,student,fff2253
wis,w210,course,fff2254
wis,w210,department,fff2255
wis,w210,faculty,fff2256
wis,w210,person,fff2257
wis,w210,researchproject,fff2258
wis,w210,staff,fff2259
wis,w210,student,fff2260
wis,w230,course,fff2261
wis,w230,department,fff2262
wis,w230,faculty,fff2263
wis,w230,person,fff2264
wis,w230,researchproject,fff2265
wis,w230,staff,fff2266
wis,w230,student,fff2267
wis,w231,course,fff2268
wis,w231,department,fff2269
wis,w231,faculty,fff2270
wis,w231,person,fff2271
wis,w231,researchproject,fff2272
wis,w231,staff,fff2273
wis,w231,student,fff2274
wis,w235,course,fff2275
wis,w235,department,fff2276
wis,w235,faculty,fff2277
wis,w235,person,fff2278
wis,w235,researchproject,fff2279
wis,w235,staff,fff2280
wis,w235,student,fff2281
wis,w241,course,fff2282
wis,w241,department,fff2283
wis,w241,faculty,fff2284
wis,w241,person,fff2285
wis,w241,researchproject,fff2286
wis,w241,staff,fff2287
wis,w241,student,fff2288
wis,w254,course,fff2289
wis,w254,department,fff2290
wis,w254,faculty,fff2291
wis,w254,person,fff2292
wis,w254,researchproject,fff2293
wis,w254,staff,fff2294
wis,w254,student,fff2295
wis,w258,course,fff2296
wis,w258,department,fff2297
wis,w258,faculty,fff2298
wis,w258,person,fff2299
wis,w258,researchproject,fff2300
wis,w258,staff,fff2301
wis,w258,student,fff2302
wis,w273,course,fff2303
wis,w273,department,fff2304
wis,w273,faculty,fff2305
wis,w273,person,fff2306
wis,w273,researchproject,fff2307
wis,w273,staff,fff2308
wis,w273,student,fff2309
wis,w282,course,fff2310
wis,w282,department,fff2311
wis,w282,faculty,fff2312
wis,w282,person,fff2313
wis,w282,researchproject,fff2314
wis,w282,staff,fff2315
wis,w282,student,fff2316
wis,w283,course,fff2317
wis,w283,department,fff2318
wis,w283,faculty,fff2319
wis,w283,person,fff2320
wis,w283,researchproject,fff2321
wis,w283,staff,fff2322
wis,w283,student,fff2323
wis,w291,course,fff2324
wis,w291,department,fff2325
wis,w291,faculty,fff2326
wis,w291,person,fff2327
wis,w291,researchproject,fff2328
wis,w291,staff,fff2329
wis,w291,student,fff2330
wis,w299,course,fff2331
wis,w299,department,fff2332
wis,w299,faculty,fff2333
wis,w299,person,fff2334
wis,w299,researchproject,fff2335
wis,w299,staff,fff2336
wis,w299,student,fff2337
wis,w301,course,fff2338
wis,w301,department,fff2339
wis,w301,faculty,fff2340
wis,w301,person,fff2341
wis,w301,researchproject,fff2342
wis,w301,staff,fff2343
wis,w301,student,fff2344
wis,w312,course,fff2345
wis,w312,department,fff2346
wis,w312,faculty,fff2347
wis,w312,person,fff2348
wis,w312,researchproject,fff2349
wis,w312,staff,fff2350
wis,w312,student,fff2351
wis,w314,course,fff2352
wis,w314,department,fff2353
wis,w314,faculty,fff2354
wis,w314,person,fff2355
wis,w314,researchproject,fff2356
wis,w314,staff,fff2357
wis,w314,student,fff2358
wis,w325,course,fff2359
wis,w325,department,fff2360
wis,w325,faculty,fff2361
wis,w325,person,fff2362
wis,w325,researchproject,fff2363
wis,w325,staff,fff2364
wis,w325,student,fff2365
wis,w326,course,fff2366
wis,w326,department,fff2367
wis,w326,faculty,fff2368
wis,w326,person,fff2369
wis,w326,researchproject,fff2370
wis,w326,staff,fff2371
wis,w326,student,fff2372
wis,w327,course,fff2373
wis,w327,department,fff2374
wis,w327,faculty,fff2375
wis,w327,person,fff2376
wis,w327,researchproject,fff2377
wis,w327,staff,fff2378
wis,w327,student,fff2379
wis,w341,course,fff2380
wis,w341,department,fff2381
wis,w341,faculty,fff2382
wis,w341,person,fff2383
wis,w341,researchproject,fff2384
wis,w341,staff,fff2385
wis,w341,student,fff2386
wis,w353,course,fff2387
wis,w353,department,fff2388
wis,w353,faculty,fff2389
wis,w353,person,fff2390
wis,w353,researchproject,fff2391
wis,w353,staff,fff2392
wis,w353,student,fff2393
wis,w357,course,fff2394
wis,w357,department,fff2395
wis,w357,faculty,fff2396
wis,w357,person,fff2397
wis,w357,researchproject,fff2398
wis,w357,staff,fff2399
wis,w357,student,fff2400
wis,w365,course,fff2401
wis,w365,department,fff2402
wis,w365,faculty,fff2403
wis,w365,person,fff2404
wis,w365,researchproject,fff2405
wis,w365,staff,fff2406
wis,w365,student,fff2407
wis,w391,course,fff2408
wis,w391,department,fff2409
wis,w391,faculty,fff2410
wis,w391,person,fff2411
wis,w391,researchproject,fff2412
wis,w391,staff,fff2413
wis,w391,student,fff2414
wis,w410,course,fff2415
wis,w410,department,fff2416
wis,w410,faculty,fff2417
wis,w410,person,fff2418
wis,w410,researchproject,fff2419
wis,w410,staff,fff2420
wis,w410,student,fff2421
wis,w418,course,fff2422
wis,w418,department,fff2423
wis,w418,faculty,fff2424
wis,w418,person,fff2425
wis,w418,researchproject,fff2426
wis,w418,staff,fff2427
wis,w418,student,fff2428
wis,w422,course,fff2429
wis,w422,department,fff2430
wis,w422,faculty,fff2431
wis,w422,person,fff2432
wis,w422,researchproject,fff2433
wis,w422,staff,fff2434
wis,w422,student,fff2435
wis,w423,course,fff2436
wis,w423,department,fff2437
wis,w423,faculty,fff2438
wis,w423,person,fff2439
wis,w423,researchproject,fff2440
wis,w423,staff,fff2441
wis,w423,student,fff2442
wis,w424,course,fff2443
wis,w424,department,fff2444
wis,w424,faculty,fff2445
wis,w424,person,fff2446
wis,w424,researchproject,fff2447
wis,w424,staff,fff2448
wis,w424,student,fff2449
wis,w428,course,fff2450
wis,w428,department,fff2451
wis,w428,faculty,fff2452
wis,w428,person,fff2453
wis,w428,researchproject,fff2454
wis,w428,staff,fff2455
wis,w428,student,fff2456
wis,w437,course,fff2457
wis,w437,department,fff2458
wis,w437,faculty,fff2459
wis,w437,person,fff2460
wis,w437,researchproject,fff2461
wis,w437,staff,fff2462
wis,w437,student,fff2463
wis,w442,course,fff2464
wis,w442,department,fff2465
wis,w442,faculty,fff2466
wis,w442,person,fff2467
wis,w442,researchproject,fff2468
wis,w442,staff,fff2469
wis,w442,student,fff2470
wis,w446,course,fff2471
wis,w446,department,fff2472
wis,w446,faculty,fff2473
wis,w446,person,fff2474
wis,w446,researchproject,fff2475
wis,w446,staff,fff2476
wis,w446,student,fff2477
wis,w457,course,fff2478
wis,w457,department,fff2479
wis,w457,faculty,fff2480
wis,w457,person,fff2481
wis,w457,researchproject,fff2482
wis,w457,staff,fff2483
wis,w457,student,fff2484
wis,w479,course,fff2485
wis,w479,department,fff2486
wis,w479,faculty,fff2487
wis,w479,person,fff2488
wis,w479,researchproject,fff2489
wis,w479,staff,fff2490
wis,w479,student,fff2491
wis,w482,course,fff2492
wis,w482,department,fff2493
wis,w482,faculty,fff2494
wis,w482,person,fff2495
wis,w482,researchproject,fff2496
wis,w482,staff,fff2497
wis,w482,student,fff2498
wis,w531,course,fff2499
wis,w531,department,fff2500
wis,w531,faculty,fff2501
wis,w531,person,fff2502
wis,w531,researchproject,fff2503
wis,w531,staff,fff2504
wis,w531,student,fff2505
wis,w533,course,fff2506
wis,w533,department,fff2507
wis,w533,faculty,fff2508
wis,w533,person,fff2509
wis,w533,researchproject,fff2510
wis,w533,staff,fff2511
wis,w533,student,fff2512
wis,w538,course,fff2513
wis,w538,department,fff2514
wis,w538,faculty,fff2515
wis,w538,person,fff2516
wis,w538,researchproject,fff2517
wis,w538,staff,fff2518
wis,w538,student,fff2519
wis,w542,course,fff2520
wis,w542,department,fff2521
wis,w542,faculty,fff2522
wis,w542,person,fff2523
wis,w542,researchproject,fff2524
wis,w542,staff,fff2525
wis,w542,student,fff2526
wis,w543,course,fff2527
wis,w543,department,fff2528
wis,w543,faculty,fff2529
wis,w543,person,fff2530
wis,w543,researchproject,fff2531
wis,w543,staff,fff2532
wis,w543,student,fff2533
wis,w553,course,fff2534
wis,w553,department,fff2535
wis,w553,faculty,fff2536
wis,w553,person,fff2537
wis,w553,researchproject,fff2538
wis,w553,staff,fff2539
wis,w553,student,fff2540
wis,w556,course,fff2541
wis,w556,department,fff2542
wis,w556,faculty,fff2543
wis,w556,person,fff2544
wis,w556,researchproject,fff2545
wis,w556,staff,fff2546
wis,w556,student,fff2547
wis,w586,course,fff2548
wis,w586,department,fff2549
wis,w586,faculty,fff2550
wis,w586,person,fff2551
wis,w586,researchproject,fff2552
wis,w586,staff,fff2553
wis,w586,student,fff2554
wis,w593,course,fff2555
wis,w593,department,fff2556
wis,w593,faculty,fff2557
wis,w593,person,fff2558
wis,w593,researchproject,fff2559
wis,w593,staff,fff2560
wis,w593,student,fff2561
wis,w594,course,fff2562
wis,w594,department,fff2563
wis,w594,faculty,fff2564
wis,w594,person,fff2565
wis,w594,researchproject,fff2566
wis,w594,staff,fff2567
wis,w594,student,fff2568
wis,w596,course,fff2569
wis,w596,department,fff2570
wis,w596,faculty,fff2571
wis,w596,person,fff2572
wis,w596,researchproject,fff2573
wis,w596,staff,fff2574
wis,w596,student,fff2575
wis,w604,course,fff2576
wis,w604,department,fff2577
wis,w604,faculty,fff2578
wis,w604,person,fff2579
wis,w604,researchproject,fff2580
wis,w604,staff,fff2581
wis,w604,student,fff2582
wis,w607,course,fff2583
wis,w607,department,fff2584
wis,w607,faculty,fff2585
wis,w607,person,fff2586
wis,w607,researchproject,fff2587
wis,w607,staff,fff2588
wis,w607,student,fff2589
wis,w619,course,fff2590
wis,w619,department,fff2591
wis,w619,faculty,fff2592
wis,w619,person,fff2593
wis,w619,researchproject,fff2594
wis,w619,staff,fff2595
wis,w619,student,fff2596
wis,w622,course,fff2597
wis,w622,department,fff2598
wis,w622,faculty,fff2599
wis,w622,person,fff2600
wis,w622,researchproject,fff2601
wis,w622,staff,fff2602
wis,w622,student,fff2603
wis,w623,course,fff2604
wis,w623,department,fff2605
wis,w623,faculty,fff2606
wis,w623,person,fff2607
wis,w623,researchproject,fff2608
wis,w623,staff,fff2609
wis,w623,student,fff2610
wis,w638,course,fff2611
wis,w638,department,fff2612
wis,w638,faculty,fff2613
wis,w638,person,fff2614
wis,w638,researchproject,fff2615
wis,w638,staff,fff2616
wis,w638,student,fff2617
wis,w644,course,fff2618
wis,w644,department,fff2619
wis,w644,faculty,fff2620
wis,w644,person,fff2621
wis,w644,researchproject,fff2622
wis,w644,staff,fff2623
wis,w644,student,fff2624
wis,w651,course,fff2625
wis,w651,department,fff2626
wis,w651,faculty,fff2627
wis,w651,person,fff2628
wis,w651,researchproject,fff2629
wis,w651,staff,fff2630
wis,w651,student,fff2631
wis,w654,course,fff2632
wis,w654,department,fff2633
wis,w654,faculty,fff2634
wis,w654,person,fff2635
wis,w654,researchproject,fff2636
wis,w654,staff,fff2637
wis,w654,student,fff2638
wis,w660,course,fff2639
wis,w660,department,fff2640
wis,w660,faculty,fff2641
wis,w660,person,fff2642
wis,w660,researchproject,fff2643
wis,w660,staff,fff2644
wis,w660,student,fff2645
wis,w664,course,fff2646
wis,w664,department,fff2647
wis,w664,faculty,fff2648
wis,w664,person,fff2649
wis,w664,researchproject,fff2650
wis,w664,staff,fff2651
wis,w664,student,fff2652
wis,w670,course,fff2653
wis,w670,department,fff2654
wis,w670,faculty,fff2655
wis,w670,person,fff2656
wis,w670,researchproject,fff2657
wis,w670,staff,fff2658
wis,w670,student,fff2659
wis,w671,course,fff2660
wis,w671,department,fff2661
wis,w671,faculty,fff2662
wis,w671,person,fff2663
wis,w671,researchproject,fff2664
wis,w671,staff,fff2665
wis,w671,student,fff2666
wis,w672,course,fff2667
wis,w672,department,fff2668
wis,w672,faculty,fff2669
wis,w672,person,fff2670
wis,w672,researchproject,fff2671
wis,w672,staff,fff2672
wis,w672,student,fff2673
wis,w681,course,fff2674
wis,w681,department,fff2675
wis,w681,faculty,fff2676
wis,w681,person,fff2677
wis,w681,researchproject,fff2678
wis,w681,staff,fff2679
wis,w681,student,fff2680
wis,w716,course,fff2681
wis,w716,department,fff2682
wis,w716,faculty,fff2683
wis,w716,person,fff2684
wis,w716,researchproject,fff2685
wis,w716,staff,fff2686
wis,w716,student,fff2687
wis,w721,course,fff2688
wis,w721,department,fff2689
wis,w721,faculty,fff2690
wis,w721,person,fff2691
wis,w721,researchproject,fff2692
wis,w721,staff,fff2693
wis,w721,student,fff2694
wis,w730,course,fff2695
wis,w730,department,fff2696
wis,w730,faculty,fff2697
wis,w730,person,fff2698
wis,w730,researchproject,fff2699
wis,w730,staff,fff2700
wis,w730,student,fff2701
wis,w733,course,fff2702
wis,w733,department,fff2703
wis,w733,faculty,fff2704
wis,w733,person,fff2705
wis,w733,researchproject,fff2706
wis,w733,staff,fff2707
wis,w733,student,fff2708
wis,w734,course,fff2709
wis,w734,department,fff2710
wis,w734,faculty,fff2711
wis,w734,person,fff2712
wis,w734,researchproject,fff2713
wis,w734,staff,fff2714
wis,w734,student,fff2715
wis,w736,course,fff2716
wis,w736,department,fff2717
wis,w736,faculty,fff2718
wis,w736,person,fff2719
wis,w736,researchproject,fff2720
wis,w736,staff,fff2721
wis,w736,student,fff2722
wis,w737,course,fff2723
wis,w737,department,fff2724
wis,w737,faculty,fff2725
wis,w737,person,fff2726
wis,w737,researchproject,fff2727
wis,w737,staff,fff2728
wis,w737,student,fff2729
wis,w738,course,fff2730
wis,w738,department,fff2731
wis,w738,faculty,fff2732
wis,w738,person,fff2733
wis,w738,researchproject,fff2734
wis,w738,staff,fff2735
wis,w738,student,fff2736
wis,w751,course,fff2737
wis,w751,department,fff2738
wis,w751,faculty,fff2739
wis,w751,person,fff2740
wis,w751,researchproject,fff2741
wis,w751,staff,fff2742
wis,w751,student,fff2743
wis,w752,course,fff2744
wis,w752,department,fff2745
wis,w752,faculty,fff2746
wis,w752,person,fff2747
wis,w752,researchproject,fff2748
wis,w752,staff,fff2749
wis,w752,student,fff2750
wis,w758,course,fff2751
wis,w758,department,fff2752
wis,w758,faculty,fff2753
wis,w758,person,fff2754
wis,w758,researchproject,fff2755
wis,w758,staff,fff2756
wis,w758,student,fff2757
wis,w759,course,fff2758
wis,w759,department,fff2759
wis,w759,faculty,fff2760
wis,w759,person,fff2761
wis,w759,researchproject,fff2762
wis,w759,staff,fff2763
wis,w759,student,fff2764
wis,w767,course,fff2765
wis,w767,department,fff2766
wis,w767,faculty,fff2767
wis,w767,person,fff2768
wis,w767,researchproject,fff2769
wis,w767,staff,fff2770
wis,w767,student,fff2771
