p19,p19,fff57
p19,p18,fff58
p19,p17,fff59
p19,p16,fff60
p19,p15,fff61
p19,p14,fff62
p19,p13,fff63
p19,p12,fff64
p19,p11,fff65
p19,p10,fff66
p19,p9,fff67
p19,p8,fff68
p19,p7,fff69
p19,p6,fff70
p19,p5,fff71
p19,p4,fff72
p19,p3,fff73
p19,p2,fff74
p19,p1,fff75
p18,p19,fff76
p18,p18,fff77
p18,p17,fff78
p18,p16,fff79
p18,p15,fff80
p18,p14,fff81
p18,p13,fff82
p18,p12,fff83
p18,p11,fff84
p18,p10,fff85
p18,p9,fff86
p18,p8,fff87
p18,p7,fff88
p18,p6,fff89
p18,p5,fff90
p18,p4,fff91
p18,p3,fff92
p18,p2,fff93
p18,p1,fff94
p17,p19,fff95
p17,p18,fff96
p17,p17,fff97
p17,p16,fff98
p17,p15,fff99
p17,p14,fff100
p17,p13,fff101
p17,p12,fff102
p17,p11,fff103
p17,p10,fff104
p17,p9,fff105
p17,p8,fff106
p17,p7,fff107
p17,p6,fff108
p17,p5,fff109
p17,p4,fff110
p17,p3,fff111
p17,p2,fff112
p17,p1,fff113
p16,p19,fff114
p16,p18,fff115
p16,p17,fff116
p16,p16,fff117
p16,p15,fff118
p16,p14,fff119
p16,p13,fff120
p16,p12,fff121
p16,p11,fff122
p16,p10,fff123
p16,p9,fff124
p16,p8,fff125
p16,p7,fff126
p16,p6,fff127
p16,p5,fff128
p16,p4,fff129
p16,p3,fff130
p16,p2,fff131
p16,p1,fff132
p15,p19,fff133
p15,p18,fff134
p15,p17,fff135
p15,p16,fff136
p15,p15,fff137
p15,p14,fff138
p15,p13,fff139
p15,p12,fff140
p15,p11,fff141
p15,p10,fff142
p15,p9,fff143
p15,p8,fff144
p15,p7,fff145
p15,p6,fff146
p15,p5,fff147
p15,p4,fff148
p15,p3,fff149
p15,p2,fff150
p15,p1,fff151
p14,p19,fff152
p14,p18,fff153
p14,p17,fff154
p14,p16,fff155
p14,p15,fff156
p14,p14,fff157
p14,p13,fff158
p14,p12,fff159
p14,p11,fff160
p14,p10,fff161
p14,p9,fff162
p14,p8,fff163
p14,p7,fff164
p14,p6,fff165
p14,p5,fff166
p14,p4,fff167
p14,p3,fff168
p14,p2,fff169
p14,p1,fff170
p13,p19,fff171
p13,p18,fff172
p13,p17,fff173
p13,p16,fff174
p13,p15,fff175
p13,p14,fff176
p13,p13,fff177
p13,p12,fff178
p13,p11,fff179
p13,p10,fff180
p13,p9,fff181
p13,p8,fff182
p13,p7,fff183
p13,p6,fff184
p13,p5,fff185
p13,p4,fff186
p13,p3,fff187
p13,p2,fff188
p13,p1,fff189
p12,p19,fff190
p12,p18,fff191
p12,p17,fff192
p12,p16,fff193
p12,p15,fff194
p12,p14,fff195
p12,p13,fff196
p12,p12,fff197
p12,p11,fff198
p12,p10,fff199
p12,p9,fff200
p12,p8,fff201
p12,p7,fff202
p12,p6,fff203
p12,p5,fff204
p12,p4,fff205
p12,p3,fff206
p12,p2,fff207
p12,p1,fff208
p11,p19,fff209
p11,p18,fff210
p11,p17,fff211
p11,p16,fff212
p11,p15,fff213
p11,p14,fff214
p11,p13,fff215
p11,p12,fff216
p11,p11,fff217
p11,p10,fff218
p11,p9,fff219
p11,p8,fff220
p11,p7,fff221
p11,p6,fff222
p11,p5,fff223
p11,p4,fff224
p11,p3,fff225
p11,p2,fff226
p11,p1,fff227
p10,p19,fff228
p10,p18,fff229
p10,p17,fff230
p10,p16,fff231
p10,p15,fff232
p10,p14,fff233
p10,p13,fff234
p10,p12,fff235
p10,p11,fff236
p10,p10,fff237
p10,p9,fff238
p10,p8,fff239
p10,p7,fff240
p10,p6,fff241
p10,p5,fff242
p10,p4,fff243
p10,p3,fff244
p10,p2,fff245
p10,p1,fff246
p9,p19,fff247
p9,p18,fff248
p9,p17,fff249
p9,p16,fff250
p9,p15,fff251
p9,p14,fff252
p9,p13,fff253
p9,p12,fff254
p9,p11,fff255
p9,p10,fff256
p9,p9,fff257
p9,p8,fff258
p9,p7,fff259
p9,p6,fff260
p9,p5,fff261
p9,p4,fff262
p9,p3,fff263
p9,p2,fff264
p9,p1,fff265
p8,p19,fff266
p8,p18,fff267
p8,p17,fff268
p8,p16,fff269
p8,p15,fff270
p8,p14,fff271
p8,p13,fff272
p8,p12,fff273
p8,p11,fff274
p8,p10,fff275
p8,p9,fff276
p8,p8,fff277
p8,p7,fff278
p8,p6,fff279
p8,p5,fff280
p8,p4,fff281
p8,p3,fff282
p8,p2,fff283
p8,p1,fff284
p7,p19,fff285
p7,p18,fff286
p7,p17,fff287
p7,p16,fff288
p7,p15,fff289
p7,p14,fff290
p7,p13,fff291
p7,p12,fff292
p7,p11,fff293
p7,p10,fff294
p7,p9,fff295
p7,p8,fff296
p7,p7,fff297
p7,p6,fff298
p7,p5,fff299
p7,p4,fff300
p7,p3,fff301
p7,p2,fff302
p7,p1,fff303
p6,p19,fff304
p6,p18,fff305
p6,p17,fff306
p6,p16,fff307
p6,p15,fff308
p6,p14,fff309
p6,p13,fff310
p6,p12,fff311
p6,p11,fff312
p6,p10,fff313
p6,p9,fff314
p6,p8,fff315
p6,p7,fff316
p6,p6,fff317
p6,p5,fff318
p6,p4,fff319
p6,p3,fff320
p6,p2,fff321
p6,p1,fff322
p5,p19,fff323
p5,p18,fff324
p5,p17,fff325
p5,p16,fff326
p5,p15,fff327
p5,p14,fff328
p5,p13,fff329
p5,p12,fff330
p5,p11,fff331
p5,p10,fff332
p5,p9,fff333
p5,p8,fff334
p5,p7,fff335
p5,p6,fff336
p5,p5,fff337
p5,p4,fff338
p5,p3,fff339
p5,p2,fff340
p5,p1,fff341
p4,p19,fff342
p4,p18,fff343
p4,p17,fff344
p4,p16,fff345
p4,p15,fff346
p4,p14,fff347
p4,p13,fff348
p4,p12,fff349
p4,p11,fff350
p4,p10,fff351
p4,p9,fff352
p4,p8,fff353
p4,p7,fff354
p4,p6,fff355
p4,p5,fff356
p4,p4,fff357
p4,p3,fff358
p4,p2,fff359
p4,p1,fff360
p3,p19,fff361
p3,p18,fff362
p3,p17,fff363
p3,p16,fff364
p3,p15,fff365
p3,p14,fff366
p3,p13,fff367
p3,p12,fff368
p3,p11,fff369
p3,p10,fff370
p3,p9,fff371
p3,p8,fff372
p3,p7,fff373
p3,p6,fff374
p3,p5,fff375
p3,p4,fff376
p3,p3,fff377
p3,p2,fff378
p3,p1,fff379
p2,p19,fff380
p2,p18,fff381
p2,p17,fff382
p2,p16,fff383
p2,p15,fff384
p2,p14,fff385
p2,p13,fff386
p2,p12,fff387
p2,p11,fff388
p2,p10,fff389
p2,p9,fff390
p2,p8,fff391
p2,p7,fff392
p2,p6,fff393
p2,p5,fff394
p2,p4,fff395
p2,p3,fff396
p2,p2,fff397
p2,p1,fff398
p1,p19,fff399
p1,p18,fff400
p1,p17,fff401
p1,p16,fff402
p1,p15,fff403
p1,p14,fff404
p1,p13,fff405
p1,p12,fff406
p1,p11,fff407
p1,p10,fff408
p1,p9,fff409
p1,p8,fff410
p1,p7,fff411
p1,p6,fff412
p1,p5,fff413
p1,p4,fff414
p1,p3,fff415
p1,p2,fff416
p1,p1,fff417
