p20,fff20
p19,fff22
p18,fff24
p17,fff26
p16,fff28
p15,fff30
p14,fff32
p13,fff34
p12,fff36
p11,fff38
p10,fff40
p9,fff42
p8,fff44
p7,fff46
p6,fff48
p5,fff50
p4,fff52
p3,fff54
p2,fff56
p1,fff58
