p13,p17
p17,p13
p9,p14
p14,p9
p6,p8
p8,p6
p11,p13
p13,p11
p1,p7
p7,p1
p3,p7
p7,p3
p9,p11
p11,p9
p1,p5
p5,p1
p10,p12
p12,p10
p13,p14
p14,p13
p6,p7
p7,p6
p1,p10
p10,p1
p8,p14
p14,p8
p5,p6
p6,p5
p8,p13
p13,p8
p7,p14
p14,p7
p5,p12
p12,p5
p1,p13
p13,p1
p2,p12
p12,p2
p3,p8
p8,p3
p3,p12
p12,p3
p10,p13
p13,p10
p3,p4
p4,p3
p4,p12
p12,p4
