Department0-University0-Course0,ff3423
Department0-University0-Course1,ff3424
Department0-University0-Course2,ff3425
Department0-University0-Course3,ff3426
Department0-University0-Course4,ff3427
Department0-University0-Course5,ff3428
Department0-University0-Course6,ff3429
Department0-University0-Course7,ff3430
Department0-University0-Course8,ff3431
Department0-University0-Course9,ff3432
Department0-University0-Course10,ff3433
Department0-University0-Course11,ff3434
Department0-University0-Course12,ff3435
Department0-University0-Course13,ff3436
Department0-University0-Course14,ff3437
Department0-University0-Course15,ff3438
Department0-University0-Course16,ff3439
Department0-University0-Course17,ff3440
Department0-University0-Course18,ff3441
Department0-University0-Course19,ff3442
Department0-University0-Course20,ff3443
Department0-University0-Course21,ff3444
Department0-University0-Course22,ff3445
Department0-University0-Course23,ff3446
Department0-University0-Course24,ff3447
Department0-University0-Course25,ff3448
Department0-University0-Course26,ff3449
Department0-University0-Course27,ff3450
Department0-University0-Course28,ff3451
Department0-University0-Course29,ff3452
Department0-University0-Course30,ff3453
Department0-University0-Course31,ff3454
Department0-University0-Course32,ff3455
Department0-University0-Course33,ff3456
Department0-University0-Course34,ff3457
Department0-University0-Course35,ff3458
Department0-University0-Course36,ff3459
Department0-University0-Course37,ff3460
Department0-University0-Course38,ff3461
Department0-University0-Course39,ff3462
Department0-University0-Course40,ff3463
Department0-University0-Course41,ff3464
Department0-University0-Course42,ff3465
Department0-University0-Course43,ff3466
Department0-University0-Course44,ff3467
Department0-University0-Course45,ff3468
Department0-University0-Course46,ff3469
Department0-University0-Course47,ff3470
Department0-University0-Course48,ff3471
Department0-University0-Course49,ff3472
Department0-University0-Course50,ff3473
Department0-University0-Course51,ff3474
Department0-University0-Course52,ff3475
Department0-University0-Course53,ff3476
Department0-University0-Course54,ff3477
Department0-University0-Course55,ff3478
Department0-University0-Course56,ff3479
Department0-University0-Course57,ff3480
Department0-University0-Course58,ff3481
Department0-University0-Course59,ff3482
Department0-University0-Course60,ff3483
Department1-University0-Course0,ff3484
Department1-University0-Course1,ff3485
Department1-University0-Course2,ff3486
Department1-University0-Course3,ff3487
Department1-University0-Course4,ff3488
Department1-University0-Course5,ff3489
Department1-University0-Course6,ff3490
Department1-University0-Course7,ff3491
Department1-University0-Course8,ff3492
Department1-University0-Course9,ff3493
Department1-University0-Course10,ff3494
Department1-University0-Course11,ff3495
Department1-University0-Course12,ff3496
Department1-University0-Course13,ff3497
Department1-University0-Course14,ff3498
Department1-University0-Course15,ff3499
Department1-University0-Course16,ff3500
Department1-University0-Course17,ff3501
Department1-University0-Course18,ff3502
Department1-University0-Course19,ff3503
Department1-University0-Course20,ff3504
Department1-University0-Course21,ff3505
Department1-University0-Course22,ff3506
Department1-University0-Course23,ff3507
Department1-University0-Course24,ff3508
Department1-University0-Course25,ff3509
Department1-University0-Course26,ff3510
Department1-University0-Course27,ff3511
Department1-University0-Course28,ff3512
Department1-University0-Course29,ff3513
Department1-University0-Course30,ff3514
Department1-University0-Course31,ff3515
Department1-University0-Course32,ff3516
Department1-University0-Course33,ff3517
Department1-University0-Course34,ff3518
Department1-University0-Course35,ff3519
Department1-University0-Course36,ff3520
Department1-University0-Course37,ff3521
Department1-University0-Course38,ff3522
Department1-University0-Course39,ff3523
Department1-University0-Course40,ff3524
Department1-University0-Course41,ff3525
Department1-University0-Course42,ff3526
Department1-University0-Course43,ff3527
Department1-University0-Course44,ff3528
Department1-University0-Course45,ff3529
Department1-University0-Course46,ff3530
Department1-University0-Course47,ff3531
Department10-University0-Course0,ff3532
Department10-University0-Course1,ff3533
Department10-University0-Course2,ff3534
Department10-University0-Course3,ff3535
Department10-University0-Course4,ff3536
Department10-University0-Course5,ff3537
Department10-University0-Course6,ff3538
Department10-University0-Course7,ff3539
Department10-University0-Course8,ff3540
Department10-University0-Course9,ff3541
Department10-University0-Course10,ff3542
Department10-University0-Course11,ff3543
Department10-University0-Course12,ff3544
Department10-University0-Course13,ff3545
Department10-University0-Course14,ff3546
Department10-University0-Course15,ff3547
Department10-University0-Course16,ff3548
Department10-University0-Course17,ff3549
Department10-University0-Course18,ff3550
Department10-University0-Course19,ff3551
Department10-University0-Course20,ff3552
Department10-University0-Course21,ff3553
Department10-University0-Course22,ff3554
Department10-University0-Course23,ff3555
Department10-University0-Course24,ff3556
Department10-University0-Course25,ff3557
Department10-University0-Course26,ff3558
Department10-University0-Course27,ff3559
Department10-University0-Course28,ff3560
Department10-University0-Course29,ff3561
Department10-University0-Course30,ff3562
Department10-University0-Course31,ff3563
Department10-University0-Course32,ff3564
Department10-University0-Course33,ff3565
Department10-University0-Course34,ff3566
Department10-University0-Course35,ff3567
Department10-University0-Course36,ff3568
Department10-University0-Course37,ff3569
Department10-University0-Course38,ff3570
Department10-University0-Course39,ff3571
Department10-University0-Course40,ff3572
Department10-University0-Course41,ff3573
Department10-University0-Course42,ff3574
Department10-University0-Course43,ff3575
Department10-University0-Course44,ff3576
Department10-University0-Course45,ff3577
Department10-University0-Course46,ff3578
Department10-University0-Course47,ff3579
Department10-University0-Course48,ff3580
Department10-University0-Course49,ff3581
Department10-University0-Course50,ff3582
Department10-University0-Course51,ff3583
Department10-University0-Course52,ff3584
Department10-University0-Course53,ff3585
Department10-University0-Course54,ff3586
Department10-University0-Course55,ff3587
Department10-University0-Course56,ff3588
Department11-University0-Course0,ff3589
Department11-University0-Course1,ff3590
Department11-University0-Course2,ff3591
Department11-University0-Course3,ff3592
Department11-University0-Course4,ff3593
Department11-University0-Course5,ff3594
Department11-University0-Course6,ff3595
Department11-University0-Course7,ff3596
Department11-University0-Course8,ff3597
Department11-University0-Course9,ff3598
Department11-University0-Course10,ff3599
Department11-University0-Course11,ff3600
Department11-University0-Course12,ff3601
Department11-University0-Course13,ff3602
Department11-University0-Course14,ff3603
Department11-University0-Course15,ff3604
Department11-University0-Course16,ff3605
Department11-University0-Course17,ff3606
Department11-University0-Course18,ff3607
Department11-University0-Course19,ff3608
Department11-University0-Course20,ff3609
Department11-University0-Course21,ff3610
Department11-University0-Course22,ff3611
Department11-University0-Course23,ff3612
Department11-University0-Course24,ff3613
Department11-University0-Course25,ff3614
Department11-University0-Course26,ff3615
Department11-University0-Course27,ff3616
Department11-University0-Course28,ff3617
Department11-University0-Course29,ff3618
Department11-University0-Course30,ff3619
Department11-University0-Course31,ff3620
Department11-University0-Course32,ff3621
Department11-University0-Course33,ff3622
Department11-University0-Course34,ff3623
Department11-University0-Course35,ff3624
Department11-University0-Course36,ff3625
Department11-University0-Course37,ff3626
Department11-University0-Course38,ff3627
Department11-University0-Course39,ff3628
Department11-University0-Course40,ff3629
Department11-University0-Course41,ff3630
Department11-University0-Course42,ff3631
Department11-University0-Course43,ff3632
Department11-University0-Course44,ff3633
Department11-University0-Course45,ff3634
Department11-University0-Course46,ff3635
Department11-University0-Course47,ff3636
Department11-University0-Course48,ff3637
Department11-University0-Course49,ff3638
Department11-University0-Course50,ff3639
Department11-University0-Course51,ff3640
Department11-University0-Course52,ff3641
Department11-University0-Course53,ff3642
Department11-University0-Course54,ff3643
Department11-University0-Course55,ff3644
Department11-University0-Course56,ff3645
Department11-University0-Course57,ff3646
Department11-University0-Course58,ff3647
Department12-University0-Course0,ff3648
Department12-University0-Course1,ff3649
Department12-University0-Course2,ff3650
Department12-University0-Course3,ff3651
Department12-University0-Course4,ff3652
Department12-University0-Course5,ff3653
Department12-University0-Course6,ff3654
Department12-University0-Course7,ff3655
Department12-University0-Course8,ff3656
Department12-University0-Course9,ff3657
Department12-University0-Course10,ff3658
Department12-University0-Course11,ff3659
Department12-University0-Course12,ff3660
Department12-University0-Course13,ff3661
Department12-University0-Course14,ff3662
Department12-University0-Course15,ff3663
Department12-University0-Course16,ff3664
Department12-University0-Course17,ff3665
Department12-University0-Course18,ff3666
Department12-University0-Course19,ff3667
Department12-University0-Course20,ff3668
Department12-University0-Course21,ff3669
Department12-University0-Course22,ff3670
Department12-University0-Course23,ff3671
Department12-University0-Course24,ff3672
Department12-University0-Course25,ff3673
Department12-University0-Course26,ff3674
Department12-University0-Course27,ff3675
Department12-University0-Course28,ff3676
Department12-University0-Course29,ff3677
Department12-University0-Course30,ff3678
Department12-University0-Course31,ff3679
Department12-University0-Course32,ff3680
Department12-University0-Course33,ff3681
Department12-University0-Course34,ff3682
Department12-University0-Course35,ff3683
Department12-University0-Course36,ff3684
Department12-University0-Course37,ff3685
Department12-University0-Course38,ff3686
Department12-University0-Course39,ff3687
Department12-University0-Course40,ff3688
Department12-University0-Course41,ff3689
Department12-University0-Course42,ff3690
Department12-University0-Course43,ff3691
Department12-University0-Course44,ff3692
Department12-University0-Course45,ff3693
Department12-University0-Course46,ff3694
Department12-University0-Course47,ff3695
Department12-University0-Course48,ff3696
Department12-University0-Course49,ff3697
Department12-University0-Course50,ff3698
Department12-University0-Course51,ff3699
Department12-University0-Course52,ff3700
Department12-University0-Course53,ff3701
Department12-University0-Course54,ff3702
Department12-University0-Course55,ff3703
Department13-University0-Course0,ff3704
Department13-University0-Course1,ff3705
Department13-University0-Course2,ff3706
Department13-University0-Course3,ff3707
Department13-University0-Course4,ff3708
Department13-University0-Course5,ff3709
Department13-University0-Course6,ff3710
Department13-University0-Course7,ff3711
Department13-University0-Course8,ff3712
Department13-University0-Course9,ff3713
Department13-University0-Course10,ff3714
Department13-University0-Course11,ff3715
Department13-University0-Course12,ff3716
Department13-University0-Course13,ff3717
Department13-University0-Course14,ff3718
Department13-University0-Course15,ff3719
Department13-University0-Course16,ff3720
Department13-University0-Course17,ff3721
Department13-University0-Course18,ff3722
Department13-University0-Course19,ff3723
Department13-University0-Course20,ff3724
Department13-University0-Course21,ff3725
Department13-University0-Course22,ff3726
Department13-University0-Course23,ff3727
Department13-University0-Course24,ff3728
Department13-University0-Course25,ff3729
Department13-University0-Course26,ff3730
Department13-University0-Course27,ff3731
Department13-University0-Course28,ff3732
Department13-University0-Course29,ff3733
Department13-University0-Course30,ff3734
Department13-University0-Course31,ff3735
Department13-University0-Course32,ff3736
Department13-University0-Course33,ff3737
Department13-University0-Course34,ff3738
Department13-University0-Course35,ff3739
Department13-University0-Course36,ff3740
Department13-University0-Course37,ff3741
Department13-University0-Course38,ff3742
Department13-University0-Course39,ff3743
Department13-University0-Course40,ff3744
Department13-University0-Course41,ff3745
Department13-University0-Course42,ff3746
Department13-University0-Course43,ff3747
Department13-University0-Course44,ff3748
Department13-University0-Course45,ff3749
Department13-University0-Course46,ff3750
Department13-University0-Course47,ff3751
Department13-University0-Course48,ff3752
Department13-University0-Course49,ff3753
Department13-University0-Course50,ff3754
Department13-University0-Course51,ff3755
Department13-University0-Course52,ff3756
Department13-University0-Course53,ff3757
Department13-University0-Course54,ff3758
Department14-University0-Course0,ff3759
Department14-University0-Course1,ff3760
Department14-University0-Course2,ff3761
Department14-University0-Course3,ff3762
Department14-University0-Course4,ff3763
Department14-University0-Course5,ff3764
Department14-University0-Course6,ff3765
Department14-University0-Course7,ff3766
Department14-University0-Course8,ff3767
Department14-University0-Course9,ff3768
Department14-University0-Course10,ff3769
Department14-University0-Course11,ff3770
Department14-University0-Course12,ff3771
Department14-University0-Course13,ff3772
Department14-University0-Course14,ff3773
Department14-University0-Course15,ff3774
Department14-University0-Course16,ff3775
Department14-University0-Course17,ff3776
Department14-University0-Course18,ff3777
Department14-University0-Course19,ff3778
Department14-University0-Course20,ff3779
Department14-University0-Course21,ff3780
Department14-University0-Course22,ff3781
Department14-University0-Course23,ff3782
Department14-University0-Course24,ff3783
Department14-University0-Course25,ff3784
Department14-University0-Course26,ff3785
Department14-University0-Course27,ff3786
Department14-University0-Course28,ff3787
Department14-University0-Course29,ff3788
Department14-University0-Course30,ff3789
Department14-University0-Course31,ff3790
Department14-University0-Course32,ff3791
Department14-University0-Course33,ff3792
Department14-University0-Course34,ff3793
Department14-University0-Course35,ff3794
Department14-University0-Course36,ff3795
Department14-University0-Course37,ff3796
Department14-University0-Course38,ff3797
Department14-University0-Course39,ff3798
Department14-University0-Course40,ff3799
Department14-University0-Course41,ff3800
Department14-University0-Course42,ff3801
Department14-University0-Course43,ff3802
Department14-University0-Course44,ff3803
Department14-University0-Course45,ff3804
Department14-University0-Course46,ff3805
Department14-University0-Course47,ff3806
Department14-University0-Course48,ff3807
Department14-University0-Course49,ff3808
Department14-University0-Course50,ff3809
Department2-University0-Course0,ff3810
Department2-University0-Course1,ff3811
Department2-University0-Course2,ff3812
Department2-University0-Course3,ff3813
Department2-University0-Course4,ff3814
Department2-University0-Course5,ff3815
Department2-University0-Course6,ff3816
Department2-University0-Course7,ff3817
Department2-University0-Course8,ff3818
Department2-University0-Course9,ff3819
Department2-University0-Course10,ff3820
Department2-University0-Course11,ff3821
Department2-University0-Course12,ff3822
Department2-University0-Course13,ff3823
Department2-University0-Course14,ff3824
Department2-University0-Course15,ff3825
Department2-University0-Course16,ff3826
Department2-University0-Course17,ff3827
Department2-University0-Course18,ff3828
Department2-University0-Course19,ff3829
Department2-University0-Course20,ff3830
Department2-University0-Course21,ff3831
Department2-University0-Course22,ff3832
Department2-University0-Course23,ff3833
Department2-University0-Course24,ff3834
Department2-University0-Course25,ff3835
Department2-University0-Course26,ff3836
Department2-University0-Course27,ff3837
Department2-University0-Course28,ff3838
Department2-University0-Course29,ff3839
Department2-University0-Course30,ff3840
Department2-University0-Course31,ff3841
Department2-University0-Course32,ff3842
Department2-University0-Course33,ff3843
Department2-University0-Course34,ff3844
Department2-University0-Course35,ff3845
Department2-University0-Course36,ff3846
Department2-University0-Course37,ff3847
Department2-University0-Course38,ff3848
Department2-University0-Course39,ff3849
Department2-University0-Course40,ff3850
Department2-University0-Course41,ff3851
Department2-University0-Course42,ff3852
Department2-University0-Course43,ff3853
Department2-University0-Course44,ff3854
Department2-University0-Course45,ff3855
Department2-University0-Course46,ff3856
Department2-University0-Course47,ff3857
Department2-University0-Course48,ff3858
Department3-University0-Course0,ff3859
Department3-University0-Course1,ff3860
Department3-University0-Course2,ff3861
Department3-University0-Course3,ff3862
Department3-University0-Course4,ff3863
Department3-University0-Course5,ff3864
Department3-University0-Course6,ff3865
Department3-University0-Course7,ff3866
Department3-University0-Course8,ff3867
Department3-University0-Course9,ff3868
Department3-University0-Course10,ff3869
Department3-University0-Course11,ff3870
Department3-University0-Course12,ff3871
Department3-University0-Course13,ff3872
Department3-University0-Course14,ff3873
Department3-University0-Course15,ff3874
Department3-University0-Course16,ff3875
Department3-University0-Course17,ff3876
Department3-University0-Course18,ff3877
Department3-University0-Course19,ff3878
Department3-University0-Course20,ff3879
Department3-University0-Course21,ff3880
Department3-University0-Course22,ff3881
Department3-University0-Course23,ff3882
Department3-University0-Course24,ff3883
Department3-University0-Course25,ff3884
Department3-University0-Course26,ff3885
Department3-University0-Course27,ff3886
Department3-University0-Course28,ff3887
Department3-University0-Course29,ff3888
Department3-University0-Course30,ff3889
Department3-University0-Course31,ff3890
Department3-University0-Course32,ff3891
Department3-University0-Course33,ff3892
Department3-University0-Course34,ff3893
Department3-University0-Course35,ff3894
Department3-University0-Course36,ff3895
Department3-University0-Course37,ff3896
Department3-University0-Course38,ff3897
Department3-University0-Course39,ff3898
Department3-University0-Course40,ff3899
Department3-University0-Course41,ff3900
Department3-University0-Course42,ff3901
Department3-University0-Course43,ff3902
Department3-University0-Course44,ff3903
Department3-University0-Course45,ff3904
Department3-University0-Course46,ff3905
Department3-University0-Course47,ff3906
Department3-University0-Course48,ff3907
Department3-University0-Course49,ff3908
Department3-University0-Course50,ff3909
Department3-University0-Course51,ff3910
Department3-University0-Course52,ff3911
Department3-University0-Course53,ff3912
Department3-University0-Course54,ff3913
Department4-University0-Course0,ff3914
Department4-University0-Course1,ff3915
Department4-University0-Course2,ff3916
Department4-University0-Course3,ff3917
Department4-University0-Course4,ff3918
Department4-University0-Course5,ff3919
Department4-University0-Course6,ff3920
Department4-University0-Course7,ff3921
Department4-University0-Course8,ff3922
Department4-University0-Course9,ff3923
Department4-University0-Course10,ff3924
Department4-University0-Course11,ff3925
Department4-University0-Course12,ff3926
Department4-University0-Course13,ff3927
Department4-University0-Course14,ff3928
Department4-University0-Course15,ff3929
Department4-University0-Course16,ff3930
Department4-University0-Course17,ff3931
Department4-University0-Course18,ff3932
Department4-University0-Course19,ff3933
Department4-University0-Course20,ff3934
Department4-University0-Course21,ff3935
Department4-University0-Course22,ff3936
Department4-University0-Course23,ff3937
Department4-University0-Course24,ff3938
Department4-University0-Course25,ff3939
Department4-University0-Course26,ff3940
Department4-University0-Course27,ff3941
Department4-University0-Course28,ff3942
Department4-University0-Course29,ff3943
Department4-University0-Course30,ff3944
Department4-University0-Course31,ff3945
Department4-University0-Course32,ff3946
Department4-University0-Course33,ff3947
Department4-University0-Course34,ff3948
Department4-University0-Course35,ff3949
Department4-University0-Course36,ff3950
Department4-University0-Course37,ff3951
Department4-University0-Course38,ff3952
Department4-University0-Course39,ff3953
Department4-University0-Course40,ff3954
Department4-University0-Course41,ff3955
Department4-University0-Course42,ff3956
Department4-University0-Course43,ff3957
Department4-University0-Course44,ff3958
Department4-University0-Course45,ff3959
Department4-University0-Course46,ff3960
Department4-University0-Course47,ff3961
Department4-University0-Course48,ff3962
Department4-University0-Course49,ff3963
Department4-University0-Course50,ff3964
Department5-University0-Course0,ff3965
Department5-University0-Course1,ff3966
Department5-University0-Course2,ff3967
Department5-University0-Course3,ff3968
Department5-University0-Course4,ff3969
Department5-University0-Course5,ff3970
Department5-University0-Course6,ff3971
Department5-University0-Course7,ff3972
Department5-University0-Course8,ff3973
Department5-University0-Course9,ff3974
Department5-University0-Course10,ff3975
Department5-University0-Course11,ff3976
Department5-University0-Course12,ff3977
Department5-University0-Course13,ff3978
Department5-University0-Course14,ff3979
Department5-University0-Course15,ff3980
Department5-University0-Course16,ff3981
Department5-University0-Course17,ff3982
Department5-University0-Course18,ff3983
Department5-University0-Course19,ff3984
Department5-University0-Course20,ff3985
Department5-University0-Course21,ff3986
Department5-University0-Course22,ff3987
Department5-University0-Course23,ff3988
Department5-University0-Course24,ff3989
Department5-University0-Course25,ff3990
Department5-University0-Course26,ff3991
Department5-University0-Course27,ff3992
Department5-University0-Course28,ff3993
Department5-University0-Course29,ff3994
Department5-University0-Course30,ff3995
Department5-University0-Course31,ff3996
Department5-University0-Course32,ff3997
Department5-University0-Course33,ff3998
Department5-University0-Course34,ff3999
Department5-University0-Course35,ff4000
Department5-University0-Course36,ff4001
Department5-University0-Course37,ff4002
Department5-University0-Course38,ff4003
Department5-University0-Course39,ff4004
Department5-University0-Course40,ff4005
Department5-University0-Course41,ff4006
Department5-University0-Course42,ff4007
Department5-University0-Course43,ff4008
Department5-University0-Course44,ff4009
Department5-University0-Course45,ff4010
Department5-University0-Course46,ff4011
Department5-University0-Course47,ff4012
Department5-University0-Course48,ff4013
Department5-University0-Course49,ff4014
Department5-University0-Course50,ff4015
Department5-University0-Course51,ff4016
Department5-University0-Course52,ff4017
Department5-University0-Course53,ff4018
Department5-University0-Course54,ff4019
Department5-University0-Course55,ff4020
Department5-University0-Course56,ff4021
Department6-University0-Course0,ff4022
Department6-University0-Course1,ff4023
Department6-University0-Course2,ff4024
Department6-University0-Course3,ff4025
Department6-University0-Course4,ff4026
Department6-University0-Course5,ff4027
Department6-University0-Course6,ff4028
Department6-University0-Course7,ff4029
Department6-University0-Course8,ff4030
Department6-University0-Course9,ff4031
Department6-University0-Course10,ff4032
Department6-University0-Course11,ff4033
Department6-University0-Course12,ff4034
Department6-University0-Course13,ff4035
Department6-University0-Course14,ff4036
Department6-University0-Course15,ff4037
Department6-University0-Course16,ff4038
Department6-University0-Course17,ff4039
Department6-University0-Course18,ff4040
Department6-University0-Course19,ff4041
Department6-University0-Course20,ff4042
Department6-University0-Course21,ff4043
Department6-University0-Course22,ff4044
Department6-University0-Course23,ff4045
Department6-University0-Course24,ff4046
Department6-University0-Course25,ff4047
Department6-University0-Course26,ff4048
Department6-University0-Course27,ff4049
Department6-University0-Course28,ff4050
Department6-University0-Course29,ff4051
Department6-University0-Course30,ff4052
Department6-University0-Course31,ff4053
Department6-University0-Course32,ff4054
Department6-University0-Course33,ff4055
Department6-University0-Course34,ff4056
Department6-University0-Course35,ff4057
Department6-University0-Course36,ff4058
Department6-University0-Course37,ff4059
Department6-University0-Course38,ff4060
Department6-University0-Course39,ff4061
Department6-University0-Course40,ff4062
Department6-University0-Course41,ff4063
Department6-University0-Course42,ff4064
Department6-University0-Course43,ff4065
Department6-University0-Course44,ff4066
Department6-University0-Course45,ff4067
Department6-University0-Course46,ff4068
Department6-University0-Course47,ff4069
Department6-University0-Course48,ff4070
Department6-University0-Course49,ff4071
Department6-University0-Course50,ff4072
Department6-University0-Course51,ff4073
Department6-University0-Course52,ff4074
Department6-University0-Course53,ff4075
Department6-University0-Course54,ff4076
Department6-University0-Course55,ff4077
Department7-University0-Course0,ff4078
Department7-University0-Course1,ff4079
Department7-University0-Course2,ff4080
Department7-University0-Course3,ff4081
Department7-University0-Course4,ff4082
Department7-University0-Course5,ff4083
Department7-University0-Course6,ff4084
Department7-University0-Course7,ff4085
Department7-University0-Course8,ff4086
Department7-University0-Course9,ff4087
Department7-University0-Course10,ff4088
Department7-University0-Course11,ff4089
Department7-University0-Course12,ff4090
Department7-University0-Course13,ff4091
Department7-University0-Course14,ff4092
Department7-University0-Course15,ff4093
Department7-University0-Course16,ff4094
Department7-University0-Course17,ff4095
Department7-University0-Course18,ff4096
Department7-University0-Course19,ff4097
Department7-University0-Course20,ff4098
Department7-University0-Course21,ff4099
Department7-University0-Course22,ff4100
Department7-University0-Course23,ff4101
Department7-University0-Course24,ff4102
Department7-University0-Course25,ff4103
Department7-University0-Course26,ff4104
Department7-University0-Course27,ff4105
Department7-University0-Course28,ff4106
Department7-University0-Course29,ff4107
Department7-University0-Course30,ff4108
Department7-University0-Course31,ff4109
Department7-University0-Course32,ff4110
Department7-University0-Course33,ff4111
Department7-University0-Course34,ff4112
Department7-University0-Course35,ff4113
Department7-University0-Course36,ff4114
Department7-University0-Course37,ff4115
Department7-University0-Course38,ff4116
Department7-University0-Course39,ff4117
Department7-University0-Course40,ff4118
Department7-University0-Course41,ff4119
Department7-University0-Course42,ff4120
Department7-University0-Course43,ff4121
Department7-University0-Course44,ff4122
Department7-University0-Course45,ff4123
Department7-University0-Course46,ff4124
Department7-University0-Course47,ff4125
Department7-University0-Course48,ff4126
Department7-University0-Course49,ff4127
Department7-University0-Course50,ff4128
Department7-University0-Course51,ff4129
Department7-University0-Course52,ff4130
Department7-University0-Course53,ff4131
Department7-University0-Course54,ff4132
Department7-University0-Course55,ff4133
Department7-University0-Course56,ff4134
Department7-University0-Course57,ff4135
Department7-University0-Course58,ff4136
Department7-University0-Course59,ff4137
Department7-University0-Course60,ff4138
Department7-University0-Course61,ff4139
Department7-University0-Course62,ff4140
Department8-University0-Course0,ff4141
Department8-University0-Course1,ff4142
Department8-University0-Course2,ff4143
Department8-University0-Course3,ff4144
Department8-University0-Course4,ff4145
Department8-University0-Course5,ff4146
Department8-University0-Course6,ff4147
Department8-University0-Course7,ff4148
Department8-University0-Course8,ff4149
Department8-University0-Course9,ff4150
Department8-University0-Course10,ff4151
Department8-University0-Course11,ff4152
Department8-University0-Course12,ff4153
Department8-University0-Course13,ff4154
Department8-University0-Course14,ff4155
Department8-University0-Course15,ff4156
Department8-University0-Course16,ff4157
Department8-University0-Course17,ff4158
Department8-University0-Course18,ff4159
Department8-University0-Course19,ff4160
Department8-University0-Course20,ff4161
Department8-University0-Course21,ff4162
Department8-University0-Course22,ff4163
Department8-University0-Course23,ff4164
Department8-University0-Course24,ff4165
Department8-University0-Course25,ff4166
Department8-University0-Course26,ff4167
Department8-University0-Course27,ff4168
Department8-University0-Course28,ff4169
Department8-University0-Course29,ff4170
Department8-University0-Course30,ff4171
Department8-University0-Course31,ff4172
Department8-University0-Course32,ff4173
Department8-University0-Course33,ff4174
Department8-University0-Course34,ff4175
Department8-University0-Course35,ff4176
Department8-University0-Course36,ff4177
Department8-University0-Course37,ff4178
Department8-University0-Course38,ff4179
Department8-University0-Course39,ff4180
Department8-University0-Course40,ff4181
Department8-University0-Course41,ff4182
Department8-University0-Course42,ff4183
Department8-University0-Course43,ff4184
Department8-University0-Course44,ff4185
Department8-University0-Course45,ff4186
Department8-University0-Course46,ff4187
Department8-University0-Course47,ff4188
Department8-University0-Course48,ff4189
Department8-University0-Course49,ff4190
Department8-University0-Course50,ff4191
Department8-University0-Course51,ff4192
Department8-University0-Course52,ff4193
Department8-University0-Course53,ff4194
Department8-University0-Course54,ff4195
Department8-University0-Course55,ff4196
Department8-University0-Course56,ff4197
Department8-University0-Course57,ff4198
Department8-University0-Course58,ff4199
Department8-University0-Course59,ff4200
Department8-University0-Course60,ff4201
Department8-University0-Course61,ff4202
Department9-University0-Course0,ff4203
Department9-University0-Course1,ff4204
Department9-University0-Course2,ff4205
Department9-University0-Course3,ff4206
Department9-University0-Course4,ff4207
Department9-University0-Course5,ff4208
Department9-University0-Course6,ff4209
Department9-University0-Course7,ff4210
Department9-University0-Course8,ff4211
Department9-University0-Course9,ff4212
Department9-University0-Course10,ff4213
Department9-University0-Course11,ff4214
Department9-University0-Course12,ff4215
Department9-University0-Course13,ff4216
Department9-University0-Course14,ff4217
Department9-University0-Course15,ff4218
Department9-University0-Course16,ff4219
Department9-University0-Course17,ff4220
Department9-University0-Course18,ff4221
Department9-University0-Course19,ff4222
Department9-University0-Course20,ff4223
Department9-University0-Course21,ff4224
Department9-University0-Course22,ff4225
Department9-University0-Course23,ff4226
Department9-University0-Course24,ff4227
Department9-University0-Course25,ff4228
Department9-University0-Course26,ff4229
Department9-University0-Course27,ff4230
Department9-University0-Course28,ff4231
Department9-University0-Course29,ff4232
Department9-University0-Course30,ff4233
Department9-University0-Course31,ff4234
Department9-University0-Course32,ff4235
Department9-University0-Course33,ff4236
Department9-University0-Course34,ff4237
Department9-University0-Course35,ff4238
Department9-University0-Course36,ff4239
Department9-University0-Course37,ff4240
Department9-University0-Course38,ff4241
Department9-University0-Course39,ff4242
Department9-University0-Course40,ff4243
Department9-University0-Course41,ff4244
Department9-University0-Course42,ff4245
Department9-University0-Course43,ff4246
Department9-University0-Course44,ff4247
Department9-University0-Course45,ff4248
Department9-University0-Course46,ff4249
Department9-University0-Course47,ff4250
