University0,ff99024
University84,ff99025
University875,ff99026
University241,ff99027
University260,ff99028
University503,ff99029
University882,ff99030
University862,ff99031
University125,ff99032
University653,ff99033
University74,ff99034
University336,ff99035
University112,ff99036
University608,ff99037
University737,ff99038
University143,ff99039
University451,ff99040
University718,ff99041
University358,ff99042
University297,ff99043
University662,ff99044
University135,ff99045
University243,ff99046
University901,ff99047
University222,ff99048
University605,ff99049
University371,ff99050
University688,ff99051
University963,ff99052
University730,ff99053
University151,ff99054
University271,ff99055
University534,ff99056
University428,ff99057
University753,ff99058
University49,ff99059
University911,ff99060
University671,ff99061
University223,ff99062
University986,ff99063
University593,ff99064
University913,ff99065
University155,ff99066
University645,ff99067
University508,ff99068
University6,ff99069
University98,ff99070
University232,ff99071
University702,ff99072
University81,ff99073
University477,ff99074
University373,ff99075
University872,ff99076
University315,ff99077
University778,ff99078
University715,ff99079
University782,ff99080
University362,ff99081
University654,ff99082
University494,ff99083
University393,ff99084
University460,ff99085
University317,ff99086
University126,ff99087
University352,ff99088
University945,ff99089
University546,ff99090
University102,ff99091
University785,ff99092
University416,ff99093
University794,ff99094
University448,ff99095
University924,ff99096
University389,ff99097
University643,ff99098
University644,ff99099
University895,ff99100
University246,ff99101
University158,ff99102
University819,ff99103
University751,ff99104
University226,ff99105
University562,ff99106
University615,ff99107
University462,ff99108
University818,ff99109
University170,ff99110
University188,ff99111
University815,ff99112
University817,ff99113
University575,ff99114
University40,ff99115
University974,ff99116
University627,ff99117
University279,ff99118
University523,ff99119
University868,ff99120
University298,ff99121
University367,ff99122
University107,ff99123
University612,ff99124
University259,ff99125
University497,ff99126
University32,ff99127
University476,ff99128
University16,ff99129
University820,ff99130
University123,ff99131
University340,ff99132
University900,ff99133
University77,ff99134
University149,ff99135
University977,ff99136
University661,ff99137
University145,ff99138
University426,ff99139
University370,ff99140
University579,ff99141
University166,ff99142
University116,ff99143
University994,ff99144
University211,ff99145
University178,ff99146
University941,ff99147
University72,ff99148
University667,ff99149
University517,ff99150
University996,ff99151
University239,ff99152
University716,ff99153
University27,ff99154
University852,ff99155
University628,ff99156
University429,ff99157
University618,ff99158
University291,ff99159
University536,ff99160
University893,ff99161
University700,ff99162
University63,ff99163
University422,ff99164
University765,ff99165
University950,ff99166
University630,ff99167
University990,ff99168
University475,ff99169
University139,ff99170
University527,ff99171
University144,ff99172
University440,ff99173
University971,ff99174
University252,ff99175
University869,ff99176
University391,ff99177
University943,ff99178
University5,ff99179
University228,ff99180
University570,ff99181
University67,ff99182
University140,ff99183
University959,ff99184
University349,ff99185
University7,ff99186
University292,ff99187
University60,ff99188
University573,ff99189
University528,ff99190
University130,ff99191
University186,ff99192
University490,ff99193
University991,ff99194
University958,ff99195
University610,ff99196
University788,ff99197
University810,ff99198
University303,ff99199
University53,ff99200
University280,ff99201
University674,ff99202
University173,ff99203
University752,ff99204
University606,ff99205
University464,ff99206
University920,ff99207
University62,ff99208
University934,ff99209
University205,ff99210
University277,ff99211
University318,ff99212
University14,ff99213
University323,ff99214
University339,ff99215
University708,ff99216
University574,ff99217
University816,ff99218
University892,ff99219
University927,ff99220
University156,ff99221
University2,ff99222
University366,ff99223
University648,ff99224
University995,ff99225
University45,ff99226
University890,ff99227
University851,ff99228
University915,ff99229
University697,ff99230
University880,ff99231
University65,ff99232
University876,ff99233
University314,ff99234
University162,ff99235
University989,ff99236
University638,ff99237
University952,ff99238
University321,ff99239
University687,ff99240
University857,ff99241
University474,ff99242
University590,ff99243
University114,ff99244
University368,ff99245
University423,ff99246
University4,ff99247
University669,ff99248
University672,ff99249
University1,ff99250
University543,ff99251
University36,ff99252
University59,ff99253
University877,ff99254
University564,ff99255
University940,ff99256
University850,ff99257
University846,ff99258
University103,ff99259
University417,ff99260
University512,ff99261
University509,ff99262
University933,ff99263
University337,ff99264
University413,ff99265
University568,ff99266
University383,ff99267
University70,ff99268
University463,ff99269
University539,ff99270
University325,ff99271
University192,ff99272
University363,ff99273
University8,ff99274
University194,ff99275
University984,ff99276
University797,ff99277
University855,ff99278
University436,ff99279
University786,ff99280
University666,ff99281
University584,ff99282
University468,ff99283
University525,ff99284
University54,ff99285
University199,ff99286
University437,ff99287
University728,ff99288
University193,ff99289
University887,ff99290
University776,ff99291
University918,ff99292
University376,ff99293
University946,ff99294
University912,ff99295
University405,ff99296
University515,ff99297
University466,ff99298
University342,ff99299
University290,ff99300
University450,ff99301
University681,ff99302
University614,ff99303
University726,ff99304
University743,ff99305
University438,ff99306
University768,ff99307
University237,ff99308
University636,ff99309
University585,ff99310
University106,ff99311
University180,ff99312
University22,ff99313
University691,ff99314
University312,ff99315
University236,ff99316
University473,ff99317
University96,ff99318
University658,ff99319
University948,ff99320
University322,ff99321
University560,ff99322
University132,ff99323
University481,ff99324
University179,ff99325
University154,ff99326
University204,ff99327
University34,ff99328
University88,ff99329
University914,ff99330
University183,ff99331
University823,ff99332
University235,ff99333
University274,ff99334
University695,ff99335
University547,ff99336
University734,ff99337
University361,ff99338
University847,ff99339
University412,ff99340
University758,ff99341
University542,ff99342
University288,ff99343
University443,ff99344
University469,ff99345
University597,ff99346
University988,ff99347
University596,ff99348
University774,ff99349
University165,ff99350
University374,ff99351
University760,ff99352
University387,ff99353
University978,ff99354
University883,ff99355
University696,ff99356
University704,ff99357
University344,ff99358
University253,ff99359
University553,ff99360
University17,ff99361
University854,ff99362
University160,ff99363
University411,ff99364
University404,ff99365
University302,ff99366
University558,ff99367
University567,ff99368
University33,ff99369
University12,ff99370
University799,ff99371
University554,ff99372
University230,ff99373
University711,ff99374
University55,ff99375
University375,ff99376
University642,ff99377
University100,ff99378
University15,ff99379
University699,ff99380
University611,ff99381
University414,ff99382
University703,ff99383
University66,ff99384
University839,ff99385
University357,ff99386
University733,ff99387
University308,ff99388
University348,ff99389
University415,ff99390
University113,ff99391
University840,ff99392
University141,ff99393
University407,ff99394
University825,ff99395
University566,ff99396
University392,ff99397
University467,ff99398
University272,ff99399
University310,ff99400
University120,ff99401
University240,ff99402
University191,ff99403
University729,ff99404
University545,ff99405
University58,ff99406
University434,ff99407
University807,ff99408
University651,ff99409
University210,ff99410
University750,ff99411
University347,ff99412
University445,ff99413
University212,ff99414
University992,ff99415
University813,ff99416
University207,ff99417
University572,ff99418
University19,ff99419
University954,ff99420
University306,ff99421
University247,ff99422
University548,ff99423
University167,ff99424
University406,ff99425
University214,ff99426
University152,ff99427
University514,ff99428
University581,ff99429
University332,ff99430
University923,ff99431
University216,ff99432
University762,ff99433
University281,ff99434
University242,ff99435
University283,ff99436
University967,ff99437
University942,ff99438
University754,ff99439
University577,ff99440
University115,ff99441
University588,ff99442
University827,ff99443
University351,ff99444
University171,ff99445
University884,ff99446
University395,ff99447
University249,ff99448
University848,ff99449
University828,ff99450
University85,ff99451
University492,ff99452
University976,ff99453
University767,ff99454
University459,ff99455
University419,ff99456
University985,ff99457
University592,ff99458
University68,ff99459
University309,ff99460
University164,ff99461
University410,ff99462
University452,ff99463
University71,ff99464
University498,ff99465
University276,ff99466
University430,ff99467
University529,ff99468
University908,ff99469
University479,ff99470
University739,ff99471
University56,ff99472
University495,ff99473
University161,ff99474
University502,ff99475
University710,ff99476
University932,ff99477
University633,ff99478
University894,ff99479
University993,ff99480
University571,ff99481
University146,ff99482
University346,ff99483
University224,ff99484
University64,ff99485
University552,ff99486
University263,ff99487
University896,ff99488
University94,ff99489
University507,ff99490
University381,ff99491
University804,ff99492
University87,ff99493
University975,ff99494
University486,ff99495
University987,ff99496
University842,ff99497
University313,ff99498
University865,ff99499
University707,ff99500
University9,ff99501
University725,ff99502
University105,ff99503
University52,ff99504
University962,ff99505
University591,ff99506
University589,ff99507
University456,ff99508
University354,ff99509
University50,ff99510
University586,ff99511
University744,ff99512
University770,ff99513
University285,ff99514
University709,ff99515
University505,ff99516
University863,ff99517
University270,ff99518
University550,ff99519
University133,ff99520
University806,ff99521
University287,ff99522
University891,ff99523
University326,ff99524
University576,ff99525
University227,ff99526
University89,ff99527
University471,ff99528
University533,ff99529
University282,ff99530
University822,ff99531
University898,ff99532
University727,ff99533
University740,ff99534
University802,ff99535
University956,ff99536
University748,ff99537
University334,ff99538
University350,ff99539
University677,ff99540
University582,ff99541
University757,ff99542
University501,ff99543
University38,ff99544
University221,ff99545
University454,ff99546
University284,ff99547
University218,ff99548
University233,ff99549
University809,ff99550
University421,ff99551
University732,ff99552
University511,ff99553
University487,ff99554
University69,ff99555
University51,ff99556
University719,ff99557
University766,ff99558
University458,ff99559
University202,ff99560
University24,ff99561
University299,ff99562
University741,ff99563
University372,ff99564
University561,ff99565
University689,ff99566
University427,ff99567
University873,ff99568
University599,ff99569
University485,ff99570
University886,ff99571
University157,ff99572
University44,ff99573
University947,ff99574
University400,ff99575
University692,ff99576
University355,ff99577
University356,ff99578
University803,ff99579
University919,ff99580
University399,ff99581
University338,ff99582
University117,ff99583
University973,ff99584
University731,ff99585
University578,ff99586
University685,ff99587
University907,ff99588
University874,ff99589
University213,ff99590
University500,ff99591
University538,ff99592
University629,ff99593
University624,ff99594
University110,ff99595
University738,ff99596
University563,ff99597
University997,ff99598
University808,ff99599
University686,ff99600
University720,ff99601
University655,ff99602
University209,ff99603
University783,ff99604
University745,ff99605
University264,ff99606
University970,ff99607
University255,ff99608
University866,ff99609
University184,ff99610
University138,ff99611
University316,ff99612
University425,ff99613
University195,ff99614
University378,ff99615
University657,ff99616
University540,ff99617
University620,ff99618
University832,ff99619
University836,ff99620
University353,ff99621
University331,ff99622
University805,ff99623
University795,ff99624
University551,ff99625
University409,ff99626
University424,ff99627
University324,ff99628
University403,ff99629
University329,ff99630
University39,ff99631
University870,ff99632
University698,ff99633
University746,ff99634
University634,ff99635
University439,ff99636
University861,ff99637
University418,ff99638
University647,ff99639
University838,ff99640
University31,ff99641
University101,ff99642
University433,ff99643
University129,ff99644
University172,ff99645
University23,ff99646
University296,ff99647
University544,ff99648
University694,ff99649
University522,ff99650
University773,ff99651
University484,ff99652
University397,ff99653
University531,ff99654
University885,ff99655
University949,ff99656
University580,ff99657
University680,ff99658
University90,ff99659
University521,ff99660
University234,ff99661
University796,ff99662
University871,ff99663
University717,ff99664
University938,ff99665
University670,ff99666
University684,ff99667
University175,ff99668
University377,ff99669
University301,ff99670
University341,ff99671
University640,ff99672
University394,ff99673
University879,ff99674
University626,ff99675
University853,ff99676
University269,ff99677
University478,ff99678
University769,ff99679
University888,ff99680
University369,ff99681
University203,ff99682
University219,ff99683
University621,ff99684
University777,ff99685
University902,ff99686
University201,ff99687
University600,ff99688
University295,ff99689
University220,ff99690
University519,ff99691
University957,ff99692
University265,ff99693
University197,ff99694
University185,ff99695
University735,ff99696
University444,ff99697
University787,ff99698
University41,ff99699
University724,ff99700
University701,ff99701
University121,ff99702
University683,ff99703
University824,ff99704
University43,ff99705
University631,ff99706
University587,ff99707
University650,ff99708
University137,ff99709
University747,ff99710
University109,ff99711
University602,ff99712
University789,ff99713
University37,ff99714
University904,ff99715
University245,ff99716
University604,ff99717
University504,ff99718
University756,ff99719
University791,ff99720
University834,ff99721
University559,ff99722
University189,ff99723
University304,ff99724
University800,ff99725
University99,ff99726
University200,ff99727
University177,ff99728
University668,ff99729
University583,ff99730
University903,ff99731
University676,ff99732
University690,ff99733
University28,ff99734
University491,ff99735
University311,ff99736
University714,ff99737
University617,ff99738
University889,ff99739
University910,ff99740
University526,ff99741
University131,ff99742
University496,ff99743
University679,ff99744
University159,ff99745
University864,ff99746
University639,ff99747
University3,ff99748
University91,ff99749
University457,ff99750
University916,ff99751
University319,ff99752
University541,ff99753
University390,ff99754
University678,ff99755
University983,ff99756
University763,ff99757
University841,ff99758
University981,ff99759
University206,ff99760
University936,ff99761
University905,ff99762
University849,ff99763
University625,ff99764
University208,ff99765
University510,ff99766
University899,ff99767
University779,ff99768
University964,ff99769
University408,ff99770
University632,ff99771
University273,ff99772
University181,ff99773
University446,ff99774
University286,ff99775
University939,ff99776
University565,ff99777
University764,ff99778
University163,ff99779
University982,ff99780
University46,ff99781
University231,ff99782
University998,ff99783
University118,ff99784
University257,ff99785
University878,ff99786
University664,ff99787
University524,ff99788
University380,ff99789
University833,ff99790
University482,ff99791
University926,ff99792
University169,ff99793
University93,ff99794
University268,ff99795
University831,ff99796
University742,ff99797
University930,ff99798
University673,ff99799
University142,ff99800
University613,ff99801
University598,ff99802
University801,ff99803
University781,ff99804
University328,ff99805
University811,ff99806
University398,ff99807
University830,ff99808
University244,ff99809
University953,ff99810
University569,ff99811
University713,ff99812
University721,ff99813
University150,ff99814
University86,ff99815
University761,ff99816
University248,ff99817
University749,ff99818
University122,ff99819
University11,ff99820
University294,ff99821
University793,ff99822
University382,ff99823
University147,ff99824
University432,ff99825
University867,ff99826
University881,ff99827
University860,ff99828
University772,ff99829
University921,ff99830
University18,ff99831
University335,ff99832
University759,ff99833
University845,ff99834
University723,ff99835
University520,ff99836
University897,ff99837
University21,ff99838
University843,ff99839
University61,ff99840
University555,ff99841
University722,ff99842
University75,ff99843
University13,ff99844
University95,ff99845
University254,ff99846
University909,ff99847
University829,ff99848
University784,ff99849
University401,ff99850
University82,ff99851
University499,ff99852
University182,ff99853
University42,ff99854
University775,ff99855
University289,ff99856
University128,ff99857
University960,ff99858
University153,ff99859
University652,ff99860
University278,ff99861
University928,ff99862
University327,ff99863
University937,ff99864
University922,ff99865
University465,ff99866
University814,ff99867
University675,ff99868
University187,ff99869
University812,ff99870
University76,ff99871
University603,ff99872
University455,ff99873
University258,ff99874
University359,ff99875
University659,ff99876
University488,ff99877
University483,ff99878
University513,ff99879
University622,ff99880
University453,ff99881
University442,ff99882
University972,ff99883
University641,ff99884
University969,ff99885
University402,ff99886
University530,ff99887
University262,ff99888
University663,ff99889
University595,ff99890
University168,ff99891
University780,ff99892
University47,ff99893
University176,ff99894
University535,ff99895
University917,ff99896
University856,ff99897
University594,ff99898
University532,ff99899
University365,ff99900
University968,ff99901
University706,ff99902
University556,ff99903
University601,ff99904
University506,ff99905
University364,ff99906
University955,ff99907
University518,ff99908
University108,ff99909
University623,ff99910
University635,ff99911
University190,ff99912
University92,ff99913
University73,ff99914
University705,ff99915
University461,ff99916
University25,ff99917
University844,ff99918
University119,ff99919
University386,ff99920
University20,ff99921
University693,ff99922
University480,ff99923
University251,ff99924
University755,ff99925
University616,ff99926
University826,ff99927
University127,ff99928
University30,ff99929
University619,ff99930
University656,ff99931
University682,ff99932
University384,ff99933
University435,ff99934
University792,ff99935
University174,ff99936
University649,ff99937
University134,ff99938
University472,ff99939
University256,ff99940
University57,ff99941
University78,ff99942
University307,ff99943
University26,ff99944
University225,ff99945
University124,ff99946
University470,ff99947
University489,ff99948
University965,ff99949
University379,ff99950
University29,ff99951
University229,ff99952
University196,ff99953
University420,ff99954
University267,ff99955
University980,ff99956
University771,ff99957
University148,ff99958
University360,ff99959
University712,ff99960
University238,ff99961
University929,ff99962
University449,ff99963
University493,ff99964
University665,ff99965
University388,ff99966
University431,ff99967
University925,ff99968
University330,ff99969
University798,ff99970
University646,ff99971
University97,ff99972
University275,ff99973
University80,ff99974
University951,ff99975
University215,ff99976
University447,ff99977
University607,ff99978
University944,ff99979
University345,ff99980
University837,ff99981
University660,ff99982
University79,ff99983
University198,ff99984
University858,ff99985
University557,ff99986
University609,ff99987
University516,ff99988
University136,ff99989
University217,ff99990
University300,ff99991
University305,ff99992
University266,ff99993
University790,ff99994
University83,ff99995
University104,ff99996
University821,ff99997
University906,ff99998
University111,ff99999
University537,ff100000
University935,ff100001
University931,ff100002
