Department0-University0-GraduateCourse0,ff13261
Department0-University0-GraduateCourse1,ff13262
Department0-University0-GraduateCourse2,ff13263
Department0-University0-GraduateCourse3,ff13264
Department0-University0-GraduateCourse4,ff13265
Department0-University0-GraduateCourse5,ff13266
Department0-University0-GraduateCourse6,ff13267
Department0-University0-GraduateCourse7,ff13268
Department0-University0-GraduateCourse8,ff13269
Department0-University0-GraduateCourse9,ff13270
Department0-University0-GraduateCourse10,ff13271
Department0-University0-GraduateCourse11,ff13272
Department0-University0-GraduateCourse12,ff13273
Department0-University0-GraduateCourse13,ff13274
Department0-University0-GraduateCourse14,ff13275
Department0-University0-GraduateCourse15,ff13276
Department0-University0-GraduateCourse16,ff13277
Department0-University0-GraduateCourse17,ff13278
Department0-University0-GraduateCourse18,ff13279
Department0-University0-GraduateCourse19,ff13280
Department0-University0-GraduateCourse20,ff13281
Department0-University0-GraduateCourse21,ff13282
Department0-University0-GraduateCourse22,ff13283
Department0-University0-GraduateCourse23,ff13284
Department0-University0-GraduateCourse24,ff13285
Department0-University0-GraduateCourse25,ff13286
Department0-University0-GraduateCourse26,ff13287
Department0-University0-GraduateCourse27,ff13288
Department0-University0-GraduateCourse28,ff13289
Department0-University0-GraduateCourse29,ff13290
Department0-University0-GraduateCourse30,ff13291
Department0-University0-GraduateCourse31,ff13292
Department0-University0-GraduateCourse32,ff13293
Department0-University0-GraduateCourse33,ff13294
Department0-University0-GraduateCourse34,ff13295
Department0-University0-GraduateCourse35,ff13296
Department0-University0-GraduateCourse36,ff13297
Department0-University0-GraduateCourse37,ff13298
Department0-University0-GraduateCourse38,ff13299
Department0-University0-GraduateCourse39,ff13300
Department0-University0-GraduateCourse40,ff13301
Department0-University0-GraduateCourse41,ff13302
Department0-University0-GraduateCourse42,ff13303
Department0-University0-GraduateCourse43,ff13304
Department0-University0-GraduateCourse44,ff13305
Department0-University0-GraduateCourse45,ff13306
Department0-University0-GraduateCourse46,ff13307
Department0-University0-GraduateCourse47,ff13308
Department0-University0-GraduateCourse48,ff13309
Department0-University0-GraduateCourse49,ff13310
Department0-University0-GraduateCourse50,ff13311
Department0-University0-GraduateCourse51,ff13312
Department0-University0-GraduateCourse52,ff13313
Department0-University0-GraduateCourse53,ff13314
Department0-University0-GraduateCourse54,ff13315
Department0-University0-GraduateCourse55,ff13316
Department0-University0-GraduateCourse56,ff13317
Department0-University0-GraduateCourse57,ff13318
Department0-University0-GraduateCourse58,ff13319
Department0-University0-GraduateCourse59,ff13320
Department0-University0-GraduateCourse60,ff13321
Department0-University0-GraduateCourse61,ff13322
Department0-University0-GraduateCourse62,ff13323
Department0-University0-GraduateCourse63,ff13324
Department0-University0-GraduateCourse64,ff13325
Department0-University0-GraduateCourse65,ff13326
Department0-University0-GraduateCourse66,ff13327
Department1-University0-GraduateCourse0,ff13328
Department1-University0-GraduateCourse1,ff13329
Department1-University0-GraduateCourse2,ff13330
Department1-University0-GraduateCourse3,ff13331
Department1-University0-GraduateCourse4,ff13332
Department1-University0-GraduateCourse5,ff13333
Department1-University0-GraduateCourse6,ff13334
Department1-University0-GraduateCourse7,ff13335
Department1-University0-GraduateCourse8,ff13336
Department1-University0-GraduateCourse9,ff13337
Department1-University0-GraduateCourse10,ff13338
Department1-University0-GraduateCourse11,ff13339
Department1-University0-GraduateCourse12,ff13340
Department1-University0-GraduateCourse13,ff13341
Department1-University0-GraduateCourse14,ff13342
Department1-University0-GraduateCourse15,ff13343
Department1-University0-GraduateCourse16,ff13344
Department1-University0-GraduateCourse17,ff13345
Department1-University0-GraduateCourse18,ff13346
Department1-University0-GraduateCourse19,ff13347
Department1-University0-GraduateCourse20,ff13348
Department1-University0-GraduateCourse21,ff13349
Department1-University0-GraduateCourse22,ff13350
Department1-University0-GraduateCourse23,ff13351
Department1-University0-GraduateCourse24,ff13352
Department1-University0-GraduateCourse25,ff13353
Department1-University0-GraduateCourse26,ff13354
Department1-University0-GraduateCourse27,ff13355
Department1-University0-GraduateCourse28,ff13356
Department1-University0-GraduateCourse29,ff13357
Department1-University0-GraduateCourse30,ff13358
Department1-University0-GraduateCourse31,ff13359
Department1-University0-GraduateCourse32,ff13360
Department1-University0-GraduateCourse33,ff13361
Department1-University0-GraduateCourse34,ff13362
Department1-University0-GraduateCourse35,ff13363
Department1-University0-GraduateCourse36,ff13364
Department1-University0-GraduateCourse37,ff13365
Department1-University0-GraduateCourse38,ff13366
Department1-University0-GraduateCourse39,ff13367
Department1-University0-GraduateCourse40,ff13368
Department1-University0-GraduateCourse41,ff13369
Department1-University0-GraduateCourse42,ff13370
Department1-University0-GraduateCourse43,ff13371
Department1-University0-GraduateCourse44,ff13372
Department1-University0-GraduateCourse45,ff13373
Department10-University0-GraduateCourse0,ff13374
Department10-University0-GraduateCourse1,ff13375
Department10-University0-GraduateCourse2,ff13376
Department10-University0-GraduateCourse3,ff13377
Department10-University0-GraduateCourse4,ff13378
Department10-University0-GraduateCourse5,ff13379
Department10-University0-GraduateCourse6,ff13380
Department10-University0-GraduateCourse7,ff13381
Department10-University0-GraduateCourse8,ff13382
Department10-University0-GraduateCourse9,ff13383
Department10-University0-GraduateCourse10,ff13384
Department10-University0-GraduateCourse11,ff13385
Department10-University0-GraduateCourse12,ff13386
Department10-University0-GraduateCourse13,ff13387
Department10-University0-GraduateCourse14,ff13388
Department10-University0-GraduateCourse15,ff13389
Department10-University0-GraduateCourse16,ff13390
Department10-University0-GraduateCourse17,ff13391
Department10-University0-GraduateCourse18,ff13392
Department10-University0-GraduateCourse19,ff13393
Department10-University0-GraduateCourse20,ff13394
Department10-University0-GraduateCourse21,ff13395
Department10-University0-GraduateCourse22,ff13396
Department10-University0-GraduateCourse23,ff13397
Department10-University0-GraduateCourse24,ff13398
Department10-University0-GraduateCourse25,ff13399
Department10-University0-GraduateCourse26,ff13400
Department10-University0-GraduateCourse27,ff13401
Department10-University0-GraduateCourse28,ff13402
Department10-University0-GraduateCourse29,ff13403
Department10-University0-GraduateCourse30,ff13404
Department10-University0-GraduateCourse31,ff13405
Department10-University0-GraduateCourse32,ff13406
Department10-University0-GraduateCourse33,ff13407
Department10-University0-GraduateCourse34,ff13408
Department10-University0-GraduateCourse35,ff13409
Department10-University0-GraduateCourse36,ff13410
Department10-University0-GraduateCourse37,ff13411
Department10-University0-GraduateCourse38,ff13412
Department10-University0-GraduateCourse39,ff13413
Department10-University0-GraduateCourse40,ff13414
Department10-University0-GraduateCourse41,ff13415
Department10-University0-GraduateCourse42,ff13416
Department10-University0-GraduateCourse43,ff13417
Department10-University0-GraduateCourse44,ff13418
Department10-University0-GraduateCourse45,ff13419
Department10-University0-GraduateCourse46,ff13420
Department10-University0-GraduateCourse47,ff13421
Department11-University0-GraduateCourse0,ff13422
Department11-University0-GraduateCourse1,ff13423
Department11-University0-GraduateCourse2,ff13424
Department11-University0-GraduateCourse3,ff13425
Department11-University0-GraduateCourse4,ff13426
Department11-University0-GraduateCourse5,ff13427
Department11-University0-GraduateCourse6,ff13428
Department11-University0-GraduateCourse7,ff13429
Department11-University0-GraduateCourse8,ff13430
Department11-University0-GraduateCourse9,ff13431
Department11-University0-GraduateCourse10,ff13432
Department11-University0-GraduateCourse11,ff13433
Department11-University0-GraduateCourse12,ff13434
Department11-University0-GraduateCourse13,ff13435
Department11-University0-GraduateCourse14,ff13436
Department11-University0-GraduateCourse15,ff13437
Department11-University0-GraduateCourse16,ff13438
Department11-University0-GraduateCourse17,ff13439
Department11-University0-GraduateCourse18,ff13440
Department11-University0-GraduateCourse19,ff13441
Department11-University0-GraduateCourse20,ff13442
Department11-University0-GraduateCourse21,ff13443
Department11-University0-GraduateCourse22,ff13444
Department11-University0-GraduateCourse23,ff13445
Department11-University0-GraduateCourse24,ff13446
Department11-University0-GraduateCourse25,ff13447
Department11-University0-GraduateCourse26,ff13448
Department11-University0-GraduateCourse27,ff13449
Department11-University0-GraduateCourse28,ff13450
Department11-University0-GraduateCourse29,ff13451
Department11-University0-GraduateCourse30,ff13452
Department11-University0-GraduateCourse31,ff13453
Department11-University0-GraduateCourse32,ff13454
Department11-University0-GraduateCourse33,ff13455
Department11-University0-GraduateCourse34,ff13456
Department11-University0-GraduateCourse35,ff13457
Department11-University0-GraduateCourse36,ff13458
Department11-University0-GraduateCourse37,ff13459
Department11-University0-GraduateCourse38,ff13460
Department11-University0-GraduateCourse39,ff13461
Department11-University0-GraduateCourse40,ff13462
Department11-University0-GraduateCourse41,ff13463
Department11-University0-GraduateCourse42,ff13464
Department11-University0-GraduateCourse43,ff13465
Department11-University0-GraduateCourse44,ff13466
Department11-University0-GraduateCourse45,ff13467
Department11-University0-GraduateCourse46,ff13468
Department11-University0-GraduateCourse47,ff13469
Department11-University0-GraduateCourse48,ff13470
Department11-University0-GraduateCourse49,ff13471
Department11-University0-GraduateCourse50,ff13472
Department11-University0-GraduateCourse51,ff13473
Department11-University0-GraduateCourse52,ff13474
Department11-University0-GraduateCourse53,ff13475
Department11-University0-GraduateCourse54,ff13476
Department11-University0-GraduateCourse55,ff13477
Department11-University0-GraduateCourse56,ff13478
Department11-University0-GraduateCourse57,ff13479
Department11-University0-GraduateCourse58,ff13480
Department11-University0-GraduateCourse59,ff13481
Department12-University0-GraduateCourse0,ff13482
Department12-University0-GraduateCourse1,ff13483
Department12-University0-GraduateCourse2,ff13484
Department12-University0-GraduateCourse3,ff13485
Department12-University0-GraduateCourse4,ff13486
Department12-University0-GraduateCourse5,ff13487
Department12-University0-GraduateCourse6,ff13488
Department12-University0-GraduateCourse7,ff13489
Department12-University0-GraduateCourse8,ff13490
Department12-University0-GraduateCourse9,ff13491
Department12-University0-GraduateCourse10,ff13492
Department12-University0-GraduateCourse11,ff13493
Department12-University0-GraduateCourse12,ff13494
Department12-University0-GraduateCourse13,ff13495
Department12-University0-GraduateCourse14,ff13496
Department12-University0-GraduateCourse15,ff13497
Department12-University0-GraduateCourse16,ff13498
Department12-University0-GraduateCourse17,ff13499
Department12-University0-GraduateCourse18,ff13500
Department12-University0-GraduateCourse19,ff13501
Department12-University0-GraduateCourse20,ff13502
Department12-University0-GraduateCourse21,ff13503
Department12-University0-GraduateCourse22,ff13504
Department12-University0-GraduateCourse23,ff13505
Department12-University0-GraduateCourse24,ff13506
Department12-University0-GraduateCourse25,ff13507
Department12-University0-GraduateCourse26,ff13508
Department12-University0-GraduateCourse27,ff13509
Department12-University0-GraduateCourse28,ff13510
Department12-University0-GraduateCourse29,ff13511
Department12-University0-GraduateCourse30,ff13512
Department12-University0-GraduateCourse31,ff13513
Department12-University0-GraduateCourse32,ff13514
Department12-University0-GraduateCourse33,ff13515
Department12-University0-GraduateCourse34,ff13516
Department12-University0-GraduateCourse35,ff13517
Department12-University0-GraduateCourse36,ff13518
Department12-University0-GraduateCourse37,ff13519
Department12-University0-GraduateCourse38,ff13520
Department12-University0-GraduateCourse39,ff13521
Department12-University0-GraduateCourse40,ff13522
Department12-University0-GraduateCourse41,ff13523
Department12-University0-GraduateCourse42,ff13524
Department12-University0-GraduateCourse43,ff13525
Department12-University0-GraduateCourse44,ff13526
Department12-University0-GraduateCourse45,ff13527
Department12-University0-GraduateCourse46,ff13528
Department12-University0-GraduateCourse47,ff13529
Department12-University0-GraduateCourse48,ff13530
Department12-University0-GraduateCourse49,ff13531
Department12-University0-GraduateCourse50,ff13532
Department12-University0-GraduateCourse51,ff13533
Department12-University0-GraduateCourse52,ff13534
Department13-University0-GraduateCourse0,ff13535
Department13-University0-GraduateCourse1,ff13536
Department13-University0-GraduateCourse2,ff13537
Department13-University0-GraduateCourse3,ff13538
Department13-University0-GraduateCourse4,ff13539
Department13-University0-GraduateCourse5,ff13540
Department13-University0-GraduateCourse6,ff13541
Department13-University0-GraduateCourse7,ff13542
Department13-University0-GraduateCourse8,ff13543
Department13-University0-GraduateCourse9,ff13544
Department13-University0-GraduateCourse10,ff13545
Department13-University0-GraduateCourse11,ff13546
Department13-University0-GraduateCourse12,ff13547
Department13-University0-GraduateCourse13,ff13548
Department13-University0-GraduateCourse14,ff13549
Department13-University0-GraduateCourse15,ff13550
Department13-University0-GraduateCourse16,ff13551
Department13-University0-GraduateCourse17,ff13552
Department13-University0-GraduateCourse18,ff13553
Department13-University0-GraduateCourse19,ff13554
Department13-University0-GraduateCourse20,ff13555
Department13-University0-GraduateCourse21,ff13556
Department13-University0-GraduateCourse22,ff13557
Department13-University0-GraduateCourse23,ff13558
Department13-University0-GraduateCourse24,ff13559
Department13-University0-GraduateCourse25,ff13560
Department13-University0-GraduateCourse26,ff13561
Department13-University0-GraduateCourse27,ff13562
Department13-University0-GraduateCourse28,ff13563
Department13-University0-GraduateCourse29,ff13564
Department13-University0-GraduateCourse30,ff13565
Department13-University0-GraduateCourse31,ff13566
Department13-University0-GraduateCourse32,ff13567
Department13-University0-GraduateCourse33,ff13568
Department13-University0-GraduateCourse34,ff13569
Department13-University0-GraduateCourse35,ff13570
Department13-University0-GraduateCourse36,ff13571
Department13-University0-GraduateCourse37,ff13572
Department13-University0-GraduateCourse38,ff13573
Department13-University0-GraduateCourse39,ff13574
Department13-University0-GraduateCourse40,ff13575
Department13-University0-GraduateCourse41,ff13576
Department13-University0-GraduateCourse42,ff13577
Department13-University0-GraduateCourse43,ff13578
Department13-University0-GraduateCourse44,ff13579
Department13-University0-GraduateCourse45,ff13580
Department13-University0-GraduateCourse46,ff13581
Department13-University0-GraduateCourse47,ff13582
Department13-University0-GraduateCourse48,ff13583
Department13-University0-GraduateCourse49,ff13584
Department13-University0-GraduateCourse50,ff13585
Department13-University0-GraduateCourse51,ff13586
Department13-University0-GraduateCourse52,ff13587
Department13-University0-GraduateCourse53,ff13588
Department13-University0-GraduateCourse54,ff13589
Department13-University0-GraduateCourse55,ff13590
Department13-University0-GraduateCourse56,ff13591
Department13-University0-GraduateCourse57,ff13592
Department14-University0-GraduateCourse0,ff13593
Department14-University0-GraduateCourse1,ff13594
Department14-University0-GraduateCourse2,ff13595
Department14-University0-GraduateCourse3,ff13596
Department14-University0-GraduateCourse4,ff13597
Department14-University0-GraduateCourse5,ff13598
Department14-University0-GraduateCourse6,ff13599
Department14-University0-GraduateCourse7,ff13600
Department14-University0-GraduateCourse8,ff13601
Department14-University0-GraduateCourse9,ff13602
Department14-University0-GraduateCourse10,ff13603
Department14-University0-GraduateCourse11,ff13604
Department14-University0-GraduateCourse12,ff13605
Department14-University0-GraduateCourse13,ff13606
Department14-University0-GraduateCourse14,ff13607
Department14-University0-GraduateCourse15,ff13608
Department14-University0-GraduateCourse16,ff13609
Department14-University0-GraduateCourse17,ff13610
Department14-University0-GraduateCourse18,ff13611
Department14-University0-GraduateCourse19,ff13612
Department14-University0-GraduateCourse20,ff13613
Department14-University0-GraduateCourse21,ff13614
Department14-University0-GraduateCourse22,ff13615
Department14-University0-GraduateCourse23,ff13616
Department14-University0-GraduateCourse24,ff13617
Department14-University0-GraduateCourse25,ff13618
Department14-University0-GraduateCourse26,ff13619
Department14-University0-GraduateCourse27,ff13620
Department14-University0-GraduateCourse28,ff13621
Department14-University0-GraduateCourse29,ff13622
Department14-University0-GraduateCourse30,ff13623
Department14-University0-GraduateCourse31,ff13624
Department14-University0-GraduateCourse32,ff13625
Department14-University0-GraduateCourse33,ff13626
Department14-University0-GraduateCourse34,ff13627
Department14-University0-GraduateCourse35,ff13628
Department14-University0-GraduateCourse36,ff13629
Department14-University0-GraduateCourse37,ff13630
Department14-University0-GraduateCourse38,ff13631
Department14-University0-GraduateCourse39,ff13632
Department14-University0-GraduateCourse40,ff13633
Department14-University0-GraduateCourse41,ff13634
Department14-University0-GraduateCourse42,ff13635
Department14-University0-GraduateCourse43,ff13636
Department14-University0-GraduateCourse44,ff13637
Department14-University0-GraduateCourse45,ff13638
Department2-University0-GraduateCourse0,ff13639
Department2-University0-GraduateCourse1,ff13640
Department2-University0-GraduateCourse2,ff13641
Department2-University0-GraduateCourse3,ff13642
Department2-University0-GraduateCourse4,ff13643
Department2-University0-GraduateCourse5,ff13644
Department2-University0-GraduateCourse6,ff13645
Department2-University0-GraduateCourse7,ff13646
Department2-University0-GraduateCourse8,ff13647
Department2-University0-GraduateCourse9,ff13648
Department2-University0-GraduateCourse10,ff13649
Department2-University0-GraduateCourse11,ff13650
Department2-University0-GraduateCourse12,ff13651
Department2-University0-GraduateCourse13,ff13652
Department2-University0-GraduateCourse14,ff13653
Department2-University0-GraduateCourse15,ff13654
Department2-University0-GraduateCourse16,ff13655
Department2-University0-GraduateCourse17,ff13656
Department2-University0-GraduateCourse18,ff13657
Department2-University0-GraduateCourse19,ff13658
Department2-University0-GraduateCourse20,ff13659
Department2-University0-GraduateCourse21,ff13660
Department2-University0-GraduateCourse22,ff13661
Department2-University0-GraduateCourse23,ff13662
Department2-University0-GraduateCourse24,ff13663
Department2-University0-GraduateCourse25,ff13664
Department2-University0-GraduateCourse26,ff13665
Department2-University0-GraduateCourse27,ff13666
Department2-University0-GraduateCourse28,ff13667
Department2-University0-GraduateCourse29,ff13668
Department2-University0-GraduateCourse30,ff13669
Department2-University0-GraduateCourse31,ff13670
Department2-University0-GraduateCourse32,ff13671
Department2-University0-GraduateCourse33,ff13672
Department2-University0-GraduateCourse34,ff13673
Department2-University0-GraduateCourse35,ff13674
Department2-University0-GraduateCourse36,ff13675
Department2-University0-GraduateCourse37,ff13676
Department2-University0-GraduateCourse38,ff13677
Department2-University0-GraduateCourse39,ff13678
Department2-University0-GraduateCourse40,ff13679
Department2-University0-GraduateCourse41,ff13680
Department2-University0-GraduateCourse42,ff13681
Department2-University0-GraduateCourse43,ff13682
Department2-University0-GraduateCourse44,ff13683
Department2-University0-GraduateCourse45,ff13684
Department2-University0-GraduateCourse46,ff13685
Department3-University0-GraduateCourse0,ff13686
Department3-University0-GraduateCourse1,ff13687
Department3-University0-GraduateCourse2,ff13688
Department3-University0-GraduateCourse3,ff13689
Department3-University0-GraduateCourse4,ff13690
Department3-University0-GraduateCourse5,ff13691
Department3-University0-GraduateCourse6,ff13692
Department3-University0-GraduateCourse7,ff13693
Department3-University0-GraduateCourse8,ff13694
Department3-University0-GraduateCourse9,ff13695
Department3-University0-GraduateCourse10,ff13696
Department3-University0-GraduateCourse11,ff13697
Department3-University0-GraduateCourse12,ff13698
Department3-University0-GraduateCourse13,ff13699
Department3-University0-GraduateCourse14,ff13700
Department3-University0-GraduateCourse15,ff13701
Department3-University0-GraduateCourse16,ff13702
Department3-University0-GraduateCourse17,ff13703
Department3-University0-GraduateCourse18,ff13704
Department3-University0-GraduateCourse19,ff13705
Department3-University0-GraduateCourse20,ff13706
Department3-University0-GraduateCourse21,ff13707
Department3-University0-GraduateCourse22,ff13708
Department3-University0-GraduateCourse23,ff13709
Department3-University0-GraduateCourse24,ff13710
Department3-University0-GraduateCourse25,ff13711
Department3-University0-GraduateCourse26,ff13712
Department3-University0-GraduateCourse27,ff13713
Department3-University0-GraduateCourse28,ff13714
Department3-University0-GraduateCourse29,ff13715
Department3-University0-GraduateCourse30,ff13716
Department3-University0-GraduateCourse31,ff13717
Department3-University0-GraduateCourse32,ff13718
Department3-University0-GraduateCourse33,ff13719
Department3-University0-GraduateCourse34,ff13720
Department3-University0-GraduateCourse35,ff13721
Department3-University0-GraduateCourse36,ff13722
Department3-University0-GraduateCourse37,ff13723
Department3-University0-GraduateCourse38,ff13724
Department3-University0-GraduateCourse39,ff13725
Department3-University0-GraduateCourse40,ff13726
Department3-University0-GraduateCourse41,ff13727
Department3-University0-GraduateCourse42,ff13728
Department3-University0-GraduateCourse43,ff13729
Department3-University0-GraduateCourse44,ff13730
Department3-University0-GraduateCourse45,ff13731
Department3-University0-GraduateCourse46,ff13732
Department3-University0-GraduateCourse47,ff13733
Department3-University0-GraduateCourse48,ff13734
Department3-University0-GraduateCourse49,ff13735
Department3-University0-GraduateCourse50,ff13736
Department3-University0-GraduateCourse51,ff13737
Department3-University0-GraduateCourse52,ff13738
Department3-University0-GraduateCourse53,ff13739
Department3-University0-GraduateCourse54,ff13740
Department3-University0-GraduateCourse55,ff13741
Department3-University0-GraduateCourse56,ff13742
Department3-University0-GraduateCourse57,ff13743
Department4-University0-GraduateCourse0,ff13744
Department4-University0-GraduateCourse1,ff13745
Department4-University0-GraduateCourse2,ff13746
Department4-University0-GraduateCourse3,ff13747
Department4-University0-GraduateCourse4,ff13748
Department4-University0-GraduateCourse5,ff13749
Department4-University0-GraduateCourse6,ff13750
Department4-University0-GraduateCourse7,ff13751
Department4-University0-GraduateCourse8,ff13752
Department4-University0-GraduateCourse9,ff13753
Department4-University0-GraduateCourse10,ff13754
Department4-University0-GraduateCourse11,ff13755
Department4-University0-GraduateCourse12,ff13756
Department4-University0-GraduateCourse13,ff13757
Department4-University0-GraduateCourse14,ff13758
Department4-University0-GraduateCourse15,ff13759
Department4-University0-GraduateCourse16,ff13760
Department4-University0-GraduateCourse17,ff13761
Department4-University0-GraduateCourse18,ff13762
Department4-University0-GraduateCourse19,ff13763
Department4-University0-GraduateCourse20,ff13764
Department4-University0-GraduateCourse21,ff13765
Department4-University0-GraduateCourse22,ff13766
Department4-University0-GraduateCourse23,ff13767
Department4-University0-GraduateCourse24,ff13768
Department4-University0-GraduateCourse25,ff13769
Department4-University0-GraduateCourse26,ff13770
Department4-University0-GraduateCourse27,ff13771
Department4-University0-GraduateCourse28,ff13772
Department4-University0-GraduateCourse29,ff13773
Department4-University0-GraduateCourse30,ff13774
Department4-University0-GraduateCourse31,ff13775
Department4-University0-GraduateCourse32,ff13776
Department4-University0-GraduateCourse33,ff13777
Department4-University0-GraduateCourse34,ff13778
Department4-University0-GraduateCourse35,ff13779
Department4-University0-GraduateCourse36,ff13780
Department4-University0-GraduateCourse37,ff13781
Department4-University0-GraduateCourse38,ff13782
Department4-University0-GraduateCourse39,ff13783
Department4-University0-GraduateCourse40,ff13784
Department4-University0-GraduateCourse41,ff13785
Department4-University0-GraduateCourse42,ff13786
Department4-University0-GraduateCourse43,ff13787
Department4-University0-GraduateCourse44,ff13788
Department4-University0-GraduateCourse45,ff13789
Department4-University0-GraduateCourse46,ff13790
Department4-University0-GraduateCourse47,ff13791
Department4-University0-GraduateCourse48,ff13792
Department4-University0-GraduateCourse49,ff13793
Department4-University0-GraduateCourse50,ff13794
Department5-University0-GraduateCourse0,ff13795
Department5-University0-GraduateCourse1,ff13796
Department5-University0-GraduateCourse2,ff13797
Department5-University0-GraduateCourse3,ff13798
Department5-University0-GraduateCourse4,ff13799
Department5-University0-GraduateCourse5,ff13800
Department5-University0-GraduateCourse6,ff13801
Department5-University0-GraduateCourse7,ff13802
Department5-University0-GraduateCourse8,ff13803
Department5-University0-GraduateCourse9,ff13804
Department5-University0-GraduateCourse10,ff13805
Department5-University0-GraduateCourse11,ff13806
Department5-University0-GraduateCourse12,ff13807
Department5-University0-GraduateCourse13,ff13808
Department5-University0-GraduateCourse14,ff13809
Department5-University0-GraduateCourse15,ff13810
Department5-University0-GraduateCourse16,ff13811
Department5-University0-GraduateCourse17,ff13812
Department5-University0-GraduateCourse18,ff13813
Department5-University0-GraduateCourse19,ff13814
Department5-University0-GraduateCourse20,ff13815
Department5-University0-GraduateCourse21,ff13816
Department5-University0-GraduateCourse22,ff13817
Department5-University0-GraduateCourse23,ff13818
Department5-University0-GraduateCourse24,ff13819
Department5-University0-GraduateCourse25,ff13820
Department5-University0-GraduateCourse26,ff13821
Department5-University0-GraduateCourse27,ff13822
Department5-University0-GraduateCourse28,ff13823
Department5-University0-GraduateCourse29,ff13824
Department5-University0-GraduateCourse30,ff13825
Department5-University0-GraduateCourse31,ff13826
Department5-University0-GraduateCourse32,ff13827
Department5-University0-GraduateCourse33,ff13828
Department5-University0-GraduateCourse34,ff13829
Department5-University0-GraduateCourse35,ff13830
Department5-University0-GraduateCourse36,ff13831
Department5-University0-GraduateCourse37,ff13832
Department5-University0-GraduateCourse38,ff13833
Department5-University0-GraduateCourse39,ff13834
Department5-University0-GraduateCourse40,ff13835
Department5-University0-GraduateCourse41,ff13836
Department5-University0-GraduateCourse42,ff13837
Department5-University0-GraduateCourse43,ff13838
Department5-University0-GraduateCourse44,ff13839
Department5-University0-GraduateCourse45,ff13840
Department5-University0-GraduateCourse46,ff13841
Department5-University0-GraduateCourse47,ff13842
Department5-University0-GraduateCourse48,ff13843
Department5-University0-GraduateCourse49,ff13844
Department6-University0-GraduateCourse0,ff13845
Department6-University0-GraduateCourse1,ff13846
Department6-University0-GraduateCourse2,ff13847
Department6-University0-GraduateCourse3,ff13848
Department6-University0-GraduateCourse4,ff13849
Department6-University0-GraduateCourse5,ff13850
Department6-University0-GraduateCourse6,ff13851
Department6-University0-GraduateCourse7,ff13852
Department6-University0-GraduateCourse8,ff13853
Department6-University0-GraduateCourse9,ff13854
Department6-University0-GraduateCourse10,ff13855
Department6-University0-GraduateCourse11,ff13856
Department6-University0-GraduateCourse12,ff13857
Department6-University0-GraduateCourse13,ff13858
Department6-University0-GraduateCourse14,ff13859
Department6-University0-GraduateCourse15,ff13860
Department6-University0-GraduateCourse16,ff13861
Department6-University0-GraduateCourse17,ff13862
Department6-University0-GraduateCourse18,ff13863
Department6-University0-GraduateCourse19,ff13864
Department6-University0-GraduateCourse20,ff13865
Department6-University0-GraduateCourse21,ff13866
Department6-University0-GraduateCourse22,ff13867
Department6-University0-GraduateCourse23,ff13868
Department6-University0-GraduateCourse24,ff13869
Department6-University0-GraduateCourse25,ff13870
Department6-University0-GraduateCourse26,ff13871
Department6-University0-GraduateCourse27,ff13872
Department6-University0-GraduateCourse28,ff13873
Department6-University0-GraduateCourse29,ff13874
Department6-University0-GraduateCourse30,ff13875
Department6-University0-GraduateCourse31,ff13876
Department6-University0-GraduateCourse32,ff13877
Department6-University0-GraduateCourse33,ff13878
Department6-University0-GraduateCourse34,ff13879
Department6-University0-GraduateCourse35,ff13880
Department6-University0-GraduateCourse36,ff13881
Department6-University0-GraduateCourse37,ff13882
Department6-University0-GraduateCourse38,ff13883
Department6-University0-GraduateCourse39,ff13884
Department6-University0-GraduateCourse40,ff13885
Department6-University0-GraduateCourse41,ff13886
Department6-University0-GraduateCourse42,ff13887
Department6-University0-GraduateCourse43,ff13888
Department6-University0-GraduateCourse44,ff13889
Department6-University0-GraduateCourse45,ff13890
Department6-University0-GraduateCourse46,ff13891
Department6-University0-GraduateCourse47,ff13892
Department7-University0-GraduateCourse0,ff13893
Department7-University0-GraduateCourse1,ff13894
Department7-University0-GraduateCourse2,ff13895
Department7-University0-GraduateCourse3,ff13896
Department7-University0-GraduateCourse4,ff13897
Department7-University0-GraduateCourse5,ff13898
Department7-University0-GraduateCourse6,ff13899
Department7-University0-GraduateCourse7,ff13900
Department7-University0-GraduateCourse8,ff13901
Department7-University0-GraduateCourse9,ff13902
Department7-University0-GraduateCourse10,ff13903
Department7-University0-GraduateCourse11,ff13904
Department7-University0-GraduateCourse12,ff13905
Department7-University0-GraduateCourse13,ff13906
Department7-University0-GraduateCourse14,ff13907
Department7-University0-GraduateCourse15,ff13908
Department7-University0-GraduateCourse16,ff13909
Department7-University0-GraduateCourse17,ff13910
Department7-University0-GraduateCourse18,ff13911
Department7-University0-GraduateCourse19,ff13912
Department7-University0-GraduateCourse20,ff13913
Department7-University0-GraduateCourse21,ff13914
Department7-University0-GraduateCourse22,ff13915
Department7-University0-GraduateCourse23,ff13916
Department7-University0-GraduateCourse24,ff13917
Department7-University0-GraduateCourse25,ff13918
Department7-University0-GraduateCourse26,ff13919
Department7-University0-GraduateCourse27,ff13920
Department7-University0-GraduateCourse28,ff13921
Department7-University0-GraduateCourse29,ff13922
Department7-University0-GraduateCourse30,ff13923
Department7-University0-GraduateCourse31,ff13924
Department7-University0-GraduateCourse32,ff13925
Department7-University0-GraduateCourse33,ff13926
Department7-University0-GraduateCourse34,ff13927
Department7-University0-GraduateCourse35,ff13928
Department7-University0-GraduateCourse36,ff13929
Department7-University0-GraduateCourse37,ff13930
Department7-University0-GraduateCourse38,ff13931
Department7-University0-GraduateCourse39,ff13932
Department7-University0-GraduateCourse40,ff13933
Department7-University0-GraduateCourse41,ff13934
Department7-University0-GraduateCourse42,ff13935
Department7-University0-GraduateCourse43,ff13936
Department7-University0-GraduateCourse44,ff13937
Department7-University0-GraduateCourse45,ff13938
Department7-University0-GraduateCourse46,ff13939
Department7-University0-GraduateCourse47,ff13940
Department7-University0-GraduateCourse48,ff13941
Department7-University0-GraduateCourse49,ff13942
Department7-University0-GraduateCourse50,ff13943
Department7-University0-GraduateCourse51,ff13944
Department7-University0-GraduateCourse52,ff13945
Department7-University0-GraduateCourse53,ff13946
Department7-University0-GraduateCourse54,ff13947
Department7-University0-GraduateCourse55,ff13948
Department7-University0-GraduateCourse56,ff13949
Department7-University0-GraduateCourse57,ff13950
Department8-University0-GraduateCourse0,ff13951
Department8-University0-GraduateCourse1,ff13952
Department8-University0-GraduateCourse2,ff13953
Department8-University0-GraduateCourse3,ff13954
Department8-University0-GraduateCourse4,ff13955
Department8-University0-GraduateCourse5,ff13956
Department8-University0-GraduateCourse6,ff13957
Department8-University0-GraduateCourse7,ff13958
Department8-University0-GraduateCourse8,ff13959
Department8-University0-GraduateCourse9,ff13960
Department8-University0-GraduateCourse10,ff13961
Department8-University0-GraduateCourse11,ff13962
Department8-University0-GraduateCourse12,ff13963
Department8-University0-GraduateCourse13,ff13964
Department8-University0-GraduateCourse14,ff13965
Department8-University0-GraduateCourse15,ff13966
Department8-University0-GraduateCourse16,ff13967
Department8-University0-GraduateCourse17,ff13968
Department8-University0-GraduateCourse18,ff13969
Department8-University0-GraduateCourse19,ff13970
Department8-University0-GraduateCourse20,ff13971
Department8-University0-GraduateCourse21,ff13972
Department8-University0-GraduateCourse22,ff13973
Department8-University0-GraduateCourse23,ff13974
Department8-University0-GraduateCourse24,ff13975
Department8-University0-GraduateCourse25,ff13976
Department8-University0-GraduateCourse26,ff13977
Department8-University0-GraduateCourse27,ff13978
Department8-University0-GraduateCourse28,ff13979
Department8-University0-GraduateCourse29,ff13980
Department8-University0-GraduateCourse30,ff13981
Department8-University0-GraduateCourse31,ff13982
Department8-University0-GraduateCourse32,ff13983
Department8-University0-GraduateCourse33,ff13984
Department8-University0-GraduateCourse34,ff13985
Department8-University0-GraduateCourse35,ff13986
Department8-University0-GraduateCourse36,ff13987
Department8-University0-GraduateCourse37,ff13988
Department8-University0-GraduateCourse38,ff13989
Department8-University0-GraduateCourse39,ff13990
Department8-University0-GraduateCourse40,ff13991
Department8-University0-GraduateCourse41,ff13992
Department8-University0-GraduateCourse42,ff13993
Department8-University0-GraduateCourse43,ff13994
Department8-University0-GraduateCourse44,ff13995
Department8-University0-GraduateCourse45,ff13996
Department8-University0-GraduateCourse46,ff13997
Department8-University0-GraduateCourse47,ff13998
Department8-University0-GraduateCourse48,ff13999
Department8-University0-GraduateCourse49,ff14000
Department8-University0-GraduateCourse50,ff14001
Department9-University0-GraduateCourse0,ff14002
Department9-University0-GraduateCourse1,ff14003
Department9-University0-GraduateCourse2,ff14004
Department9-University0-GraduateCourse3,ff14005
Department9-University0-GraduateCourse4,ff14006
Department9-University0-GraduateCourse5,ff14007
Department9-University0-GraduateCourse6,ff14008
Department9-University0-GraduateCourse7,ff14009
Department9-University0-GraduateCourse8,ff14010
Department9-University0-GraduateCourse9,ff14011
Department9-University0-GraduateCourse10,ff14012
Department9-University0-GraduateCourse11,ff14013
Department9-University0-GraduateCourse12,ff14014
Department9-University0-GraduateCourse13,ff14015
Department9-University0-GraduateCourse14,ff14016
Department9-University0-GraduateCourse15,ff14017
Department9-University0-GraduateCourse16,ff14018
Department9-University0-GraduateCourse17,ff14019
Department9-University0-GraduateCourse18,ff14020
Department9-University0-GraduateCourse19,ff14021
Department9-University0-GraduateCourse20,ff14022
Department9-University0-GraduateCourse21,ff14023
Department9-University0-GraduateCourse22,ff14024
Department9-University0-GraduateCourse23,ff14025
Department9-University0-GraduateCourse24,ff14026
Department9-University0-GraduateCourse25,ff14027
Department9-University0-GraduateCourse26,ff14028
Department9-University0-GraduateCourse27,ff14029
Department9-University0-GraduateCourse28,ff14030
Department9-University0-GraduateCourse29,ff14031
Department9-University0-GraduateCourse30,ff14032
Department9-University0-GraduateCourse31,ff14033
Department9-University0-GraduateCourse32,ff14034
Department9-University0-GraduateCourse33,ff14035
Department9-University0-GraduateCourse34,ff14036
Department9-University0-GraduateCourse35,ff14037
Department9-University0-GraduateCourse36,ff14038
Department9-University0-GraduateCourse37,ff14039
Department9-University0-GraduateCourse38,ff14040
Department9-University0-GraduateCourse39,ff14041
Department9-University0-GraduateCourse40,ff14042
Department9-University0-GraduateCourse41,ff14043
Department9-University0-GraduateCourse42,ff14044
Department9-University0-GraduateCourse43,ff14045
Department9-University0-GraduateCourse44,ff14046
Department9-University0-GraduateCourse45,ff14047
Department9-University0-GraduateCourse46,ff14048
Department9-University0-GraduateCourse47,ff14049
Department9-University0-GraduateCourse48,ff14050
Department9-University0-GraduateCourse49,ff14051
Department9-University0-GraduateCourse50,ff14052
Department9-University0-GraduateCourse51,ff14053
Department9-University0-GraduateCourse52,ff14054
Department9-University0-GraduateCourse53,ff14055
Department9-University0-GraduateCourse54,ff14056
Department9-University0-GraduateCourse55,ff14057
Department9-University0-GraduateCourse56,ff14058
Department9-University0-GraduateCourse57,ff14059
