Department0-University0-FullProfessor0,University875,ff16042
Department0-University0-FullProfessor1,University503,ff16043
Department0-University0-FullProfessor2,University125,ff16044
Department0-University0-FullProfessor3,University336,ff16045
Department0-University0-FullProfessor4,University737,ff16046
Department0-University0-FullProfessor5,University718,ff16047
Department0-University0-FullProfessor6,University662,ff16048
Department0-University0-FullProfessor7,University901,ff16049
Department0-University0-FullProfessor8,University605,ff16050
Department0-University0-FullProfessor9,University963,ff16051
Department0-University0-AssociateProfessor0,University271,ff16052
Department0-University0-AssociateProfessor1,University753,ff16053
Department0-University0-AssociateProfessor2,University671,ff16054
Department0-University0-AssociateProfessor3,University593,ff16055
Department0-University0-AssociateProfessor4,University645,ff16056
Department0-University0-AssociateProfessor5,University98,ff16057
Department0-University0-AssociateProfessor6,University81,ff16058
Department0-University0-AssociateProfessor7,University872,ff16059
Department0-University0-AssociateProfessor8,University715,ff16060
Department0-University0-AssociateProfessor9,University654,ff16061
Department0-University0-AssociateProfessor10,University460,ff16062
Department0-University0-AssociateProfessor11,University352,ff16063
Department0-University0-AssociateProfessor12,University102,ff16064
Department0-University0-AssociateProfessor13,University794,ff16065
Department0-University0-AssistantProfessor0,University389,ff16066
Department0-University0-AssistantProfessor1,University895,ff16067
Department0-University0-AssistantProfessor2,University0,ff16068
Department0-University0-AssistantProfessor3,University751,ff16069
Department0-University0-AssistantProfessor4,University615,ff16070
Department0-University0-AssistantProfessor5,University170,ff16071
Department0-University0-AssistantProfessor6,University817,ff16072
Department0-University0-AssistantProfessor7,University974,ff16073
Department0-University0-AssistantProfessor8,University523,ff16074
Department0-University0-AssistantProfessor9,University367,ff16075
Department0-University0-Lecturer0,University259,ff16076
Department0-University0-Lecturer1,University32,ff16077
Department0-University0-Lecturer2,University820,ff16078
Department0-University0-Lecturer3,University911,ff16079
Department0-University0-Lecturer4,University900,ff16080
Department0-University0-Lecturer5,University149,ff16081
Department0-University0-Lecturer6,University977,ff16082
Department1-University0-FullProfessor0,University509,ff16083
Department1-University0-FullProfessor1,University337,ff16084
Department1-University0-FullProfessor2,University782,ff16085
Department1-University0-FullProfessor3,University546,ff16086
Department1-University0-FullProfessor4,University463,ff16087
Department1-University0-FullProfessor5,University192,ff16088
Department1-University0-FullProfessor6,University194,ff16089
Department1-University0-FullProfessor7,University986,ff16090
Department1-University0-FullProfessor8,University436,ff16091
Department1-University0-FullProfessor9,University584,ff16092
Department1-University0-AssociateProfessor0,University539,ff16093
Department1-University0-AssociateProfessor1,University54,ff16094
Department1-University0-AssociateProfessor2,University728,ff16095
Department1-University0-AssociateProfessor3,University368,ff16096
Department1-University0-AssociateProfessor4,University918,ff16097
Department1-University0-AssociateProfessor5,University946,ff16098
Department1-University0-AssociateProfessor6,University405,ff16099
Department1-University0-AssociateProfessor7,University342,ff16100
Department1-University0-AssociateProfessor8,University228,ff16101
Department1-University0-AssociateProfessor9,University614,ff16102
Department1-University0-AssistantProfessor0,University743,ff16103
Department1-University0-AssistantProfessor1,University797,ff16104
Department1-University0-AssistantProfessor2,University648,ff16105
Department1-University0-AssistantProfessor3,University260,ff16106
Department1-University0-AssistantProfessor4,University180,ff16107
Department1-University0-AssistantProfessor5,University691,ff16108
Department1-University0-AssistantProfessor6,University473,ff16109
Department1-University0-AssistantProfessor7,University658,ff16110
Department1-University0-Lecturer0,University322,ff16111
Department1-University0-Lecturer1,University560,ff16112
Department1-University0-Lecturer2,University179,ff16113
Department1-University0-Lecturer3,University204,ff16114
Department1-University0-Lecturer4,University88,ff16115
Department1-University0-Lecturer5,University823,ff16116
Department10-University0-FullProfessor0,University807,ff16117
Department10-University0-FullProfessor1,University750,ff16118
Department10-University0-FullProfessor2,University445,ff16119
Department10-University0-FullProfessor3,University813,ff16120
Department10-University0-FullProfessor4,University572,ff16121
Department10-University0-FullProfessor5,University352,ff16122
Department10-University0-FullProfessor6,University426,ff16123
Department10-University0-AssociateProfessor0,University548,ff16124
Department10-University0-AssociateProfessor1,University406,ff16125
Department10-University0-AssociateProfessor2,University514,ff16126
Department10-University0-AssociateProfessor3,University332,ff16127
Department10-University0-AssociateProfessor4,University762,ff16128
Department10-University0-AssociateProfessor5,University242,ff16129
Department10-University0-AssociateProfessor6,University283,ff16130
Department10-University0-AssociateProfessor7,University636,ff16131
Department10-University0-AssociateProfessor8,University797,ff16132
Department10-University0-AssociateProfessor9,University754,ff16133
Department10-University0-AssociateProfessor10,University854,ff16134
Department10-University0-AssistantProfessor0,University241,ff16135
Department10-University0-AssistantProfessor1,University827,ff16136
Department10-University0-AssistantProfessor2,University171,ff16137
Department10-University0-AssistantProfessor3,University65,ff16138
Department10-University0-AssistantProfessor4,University542,ff16139
Department10-University0-AssistantProfessor5,University848,ff16140
Department10-University0-AssistantProfessor6,University840,ff16141
Department10-University0-AssistantProfessor7,University85,ff16142
Department10-University0-AssistantProfessor8,University976,ff16143
Department10-University0-AssistantProfessor9,University459,ff16144
Department10-University0-AssistantProfessor10,University392,ff16145
Department10-University0-Lecturer0,University546,ff16146
Department10-University0-Lecturer1,University309,ff16147
Department10-University0-Lecturer2,University536,ff16148
Department10-University0-Lecturer3,University410,ff16149
Department10-University0-Lecturer4,University430,ff16150
Department10-University0-Lecturer5,University529,ff16151
Department10-University0-Lecturer6,University739,ff16152
Department11-University0-FullProfessor0,University239,ff16153
Department11-University0-FullProfessor1,University114,ff16154
Department11-University0-FullProfessor2,University14,ff16155
Department11-University0-FullProfessor3,University475,ff16156
Department11-University0-FullProfessor4,University525,ff16157
Department11-University0-FullProfessor5,University732,ff16158
Department11-University0-FullProfessor6,University49,ff16159
Department11-University0-FullProfessor7,University748,ff16160
Department11-University0-AssociateProfessor0,University362,ff16161
Department11-University0-AssociateProfessor1,University719,ff16162
Department11-University0-AssociateProfessor2,University202,ff16163
Department11-University0-AssociateProfessor3,University24,ff16164
Department11-University0-AssociateProfessor4,University581,ff16165
Department11-University0-AssociateProfessor5,University561,ff16166
Department11-University0-AssociateProfessor6,University585,ff16167
Department11-University0-AssociateProfessor7,University570,ff16168
Department11-University0-AssociateProfessor8,University873,ff16169
Department11-University0-AssociateProfessor9,University862,ff16170
Department11-University0-AssociateProfessor10,University44,ff16171
Department11-University0-AssociateProfessor11,University662,ff16172
Department11-University0-AssociateProfessor12,University211,ff16173
Department11-University0-AssociateProfessor13,University952,ff16174
Department11-University0-AssistantProfessor0,University543,ff16175
Department11-University0-AssistantProfessor1,University355,ff16176
Department11-University0-AssistantProfessor2,University919,ff16177
Department11-University0-AssistantProfessor3,University338,ff16178
Department11-University0-AssistantProfessor4,University863,ff16179
Department11-University0-AssistantProfessor5,University578,ff16180
Department11-University0-AssistantProfessor6,University954,ff16181
Department11-University0-AssistantProfessor7,University685,ff16182
Department11-University0-AssistantProfessor8,University874,ff16183
Department11-University0-AssistantProfessor9,University538,ff16184
Department11-University0-AssistantProfessor10,University236,ff16185
Department11-University0-Lecturer0,University629,ff16186
Department11-University0-Lecturer1,University110,ff16187
Department11-University0-Lecturer2,University738,ff16188
Department11-University0-Lecturer3,University154,ff16189
Department11-University0-Lecturer4,University538,ff16190
Department11-University0-Lecturer5,University997,ff16191
Department12-University0-FullProfessor0,University397,ff16192
Department12-University0-FullProfessor1,University531,ff16193
Department12-University0-FullProfessor2,University970,ff16194
Department12-University0-FullProfessor3,University580,ff16195
Department12-University0-FullProfessor4,University992,ff16196
Department12-University0-FullProfessor5,University796,ff16197
Department12-University0-FullProfessor6,University125,ff16198
Department12-University0-FullProfessor7,University836,ff16199
Department12-University0-FullProfessor8,University684,ff16200
Department12-University0-AssociateProfessor0,University377,ff16201
Department12-University0-AssociateProfessor1,University341,ff16202
Department12-University0-AssociateProfessor2,University947,ff16203
Department12-University0-AssociateProfessor3,University415,ff16204
Department12-University0-AssociateProfessor4,University387,ff16205
Department12-University0-AssociateProfessor5,University269,ff16206
Department12-University0-AssociateProfessor6,University352,ff16207
Department12-University0-AssociateProfessor7,University443,ff16208
Department12-University0-AssociateProfessor8,University517,ff16209
Department12-University0-AssociateProfessor9,University923,ff16210
Department12-University0-AssociateProfessor10,University313,ff16211
Department12-University0-AssistantProfessor0,University219,ff16212
Department12-University0-AssistantProfessor1,University54,ff16213
Department12-University0-AssistantProfessor2,University407,ff16214
Department12-University0-AssistantProfessor3,University222,ff16215
Department12-University0-AssistantProfessor4,University201,ff16216
Department12-University0-AssistantProfessor5,University962,ff16217
Department12-University0-AssistantProfessor6,University247,ff16218
Department12-University0-AssistantProfessor7,University220,ff16219
Department12-University0-AssistantProfessor8,University501,ff16220
Department12-University0-AssistantProfessor9,University519,ff16221
Department12-University0-AssistantProfessor10,University155,ff16222
Department12-University0-Lecturer0,University372,ff16223
Department12-University0-Lecturer1,University932,ff16224
Department12-University0-Lecturer2,University709,ff16225
Department12-University0-Lecturer3,University272,ff16226
Department12-University0-Lecturer4,University444,ff16227
Department13-University0-FullProfessor0,University778,ff16228
Department13-University0-FullProfessor1,University583,ff16229
Department13-University0-FullProfessor2,University800,ff16230
Department13-University0-FullProfessor3,University232,ff16231
Department13-University0-FullProfessor4,University521,ff16232
Department13-University0-FullProfessor5,University49,ff16233
Department13-University0-FullProfessor6,University249,ff16234
Department13-University0-FullProfessor7,University216,ff16235
Department13-University0-AssociateProfessor0,University787,ff16236
Department13-University0-AssociateProfessor1,University988,ff16237
Department13-University0-AssociateProfessor2,University544,ff16238
Department13-University0-AssociateProfessor3,University411,ff16239
Department13-University0-AssociateProfessor4,University639,ff16240
Department13-University0-AssociateProfessor5,University691,ff16241
Department13-University0-AssociateProfessor6,University680,ff16242
Department13-University0-AssociateProfessor7,University606,ff16243
Department13-University0-AssociateProfessor8,University319,ff16244
Department13-University0-AssociateProfessor9,University416,ff16245
Department13-University0-AssociateProfessor10,University678,ff16246
Department13-University0-AssociateProfessor11,University983,ff16247
Department13-University0-AssociateProfessor12,University517,ff16248
Department13-University0-AssociateProfessor13,University841,ff16249
Department13-University0-AssistantProfessor0,University704,ff16250
Department13-University0-AssistantProfessor1,University541,ff16251
Department13-University0-AssistantProfessor2,University936,ff16252
Department13-University0-AssistantProfessor3,University727,ff16253
Department13-University0-AssistantProfessor4,University905,ff16254
Department13-University0-AssistantProfessor5,University290,ff16255
Department13-University0-AssistantProfessor6,University876,ff16256
Department13-University0-AssistantProfessor7,University877,ff16257
Department13-University0-AssistantProfessor8,University208,ff16258
Department13-University0-AssistantProfessor9,University899,ff16259
Department13-University0-AssistantProfessor10,University473,ff16260
Department13-University0-Lecturer0,University179,ff16261
Department13-University0-Lecturer1,University815,ff16262
Department13-University0-Lecturer2,University166,ff16263
Department13-University0-Lecturer3,University339,ff16264
Department13-University0-Lecturer4,University714,ff16265
Department14-University0-FullProfessor0,University199,ff16266
Department14-University0-FullProfessor1,University612,ff16267
Department14-University0-FullProfessor2,University625,ff16268
Department14-University0-FullProfessor3,University527,ff16269
Department14-University0-FullProfessor4,University912,ff16270
Department14-University0-FullProfessor5,University668,ff16271
Department14-University0-FullProfessor6,University100,ff16272
Department14-University0-AssociateProfessor0,University511,ff16273
Department14-University0-AssociateProfessor1,University348,ff16274
Department14-University0-AssociateProfessor2,University185,ff16275
Department14-University0-AssociateProfessor3,University328,ff16276
Department14-University0-AssociateProfessor4,University783,ff16277
Department14-University0-AssociateProfessor5,University566,ff16278
Department14-University0-AssociateProfessor6,University765,ff16279
Department14-University0-AssociateProfessor7,University64,ff16280
Department14-University0-AssociateProfessor8,University27,ff16281
Department14-University0-AssociateProfessor9,University567,ff16282
Department14-University0-AssociateProfessor10,University113,ff16283
Department14-University0-AssociateProfessor11,University208,ff16284
Department14-University0-AssistantProfessor0,University504,ff16285
Department14-University0-AssistantProfessor1,University329,ff16286
Department14-University0-AssistantProfessor2,University713,ff16287
Department14-University0-AssistantProfessor3,University907,ff16288
Department14-University0-AssistantProfessor4,University150,ff16289
Department14-University0-AssistantProfessor5,University761,ff16290
Department14-University0-AssistantProfessor6,University319,ff16291
Department14-University0-AssistantProfessor7,University210,ff16292
Department14-University0-Lecturer0,University248,ff16293
Department14-University0-Lecturer1,University654,ff16294
Department14-University0-Lecturer2,University341,ff16295
Department14-University0-Lecturer3,University847,ff16296
Department14-University0-Lecturer4,University282,ff16297
Department14-University0-Lecturer5,University914,ff16298
Department2-University0-FullProfessor0,University272,ff16299
Department2-University0-FullProfessor1,University803,ff16300
Department2-University0-FullProfessor2,University434,ff16301
Department2-University0-FullProfessor3,University749,ff16302
Department2-University0-FullProfessor4,University721,ff16303
Department2-University0-FullProfessor5,University95,ff16304
Department2-University0-FullProfessor6,University249,ff16305
Department2-University0-AssociateProfessor0,University399,ff16306
Department2-University0-AssociateProfessor1,University338,ff16307
Department2-University0-AssociateProfessor2,University367,ff16308
Department2-University0-AssociateProfessor3,University963,ff16309
Department2-University0-AssociateProfessor4,University163,ff16310
Department2-University0-AssociateProfessor5,University848,ff16311
Department2-University0-AssociateProfessor6,University466,ff16312
Department2-University0-AssociateProfessor7,University382,ff16313
Department2-University0-AssociateProfessor8,University585,ff16314
Department2-University0-AssociateProfessor9,University82,ff16315
Department2-University0-AssociateProfessor10,University499,ff16316
Department2-University0-AssociateProfessor11,University728,ff16317
Department2-University0-AssistantProfessor0,University732,ff16318
Department2-University0-AssistantProfessor1,University98,ff16319
Department2-University0-AssistantProfessor2,University948,ff16320
Department2-University0-AssistantProfessor3,University404,ff16321
Department2-University0-AssistantProfessor4,University412,ff16322
Department2-University0-AssistantProfessor5,University361,ff16323
Department2-University0-AssistantProfessor6,University106,ff16324
Department2-University0-AssistantProfessor7,University153,ff16325
Department2-University0-Lecturer0,University325,ff16326
Department2-University0-Lecturer1,University504,ff16327
Department2-University0-Lecturer2,University211,ff16328
Department2-University0-Lecturer3,University762,ff16329
Department2-University0-Lecturer4,University278,ff16330
Department2-University0-Lecturer5,University522,ff16331
Department2-University0-Lecturer6,University937,ff16332
Department3-University0-FullProfessor0,University760,ff16333
Department3-University0-FullProfessor1,University967,ff16334
Department3-University0-FullProfessor2,University13,ff16335
Department3-University0-FullProfessor3,University664,ff16336
Department3-University0-FullProfessor4,University459,ff16337
Department3-University0-FullProfessor5,University742,ff16338
Department3-University0-FullProfessor6,University228,ff16339
Department3-University0-FullProfessor7,University395,ff16340
Department3-University0-FullProfessor8,University389,ff16341
Department3-University0-AssociateProfessor0,University566,ff16342
Department3-University0-AssociateProfessor1,University724,ff16343
Department3-University0-AssociateProfessor2,University222,ff16344
Department3-University0-AssociateProfessor3,University728,ff16345
Department3-University0-AssociateProfessor4,University121,ff16346
Department3-University0-AssociateProfessor5,University760,ff16347
Department3-University0-AssociateProfessor6,University595,ff16348
Department3-University0-AssociateProfessor7,University392,ff16349
Department3-University0-AssociateProfessor8,University168,ff16350
Department3-University0-AssociateProfessor9,University47,ff16351
Department3-University0-AssociateProfessor10,University958,ff16352
Department3-University0-AssociateProfessor11,University572,ff16353
Department3-University0-AssistantProfessor0,University541,ff16354
Department3-University0-AssistantProfessor1,University49,ff16355
Department3-University0-AssistantProfessor2,University535,ff16356
Department3-University0-AssistantProfessor3,University244,ff16357
Department3-University0-AssistantProfessor4,University917,ff16358
Department3-University0-AssistantProfessor5,University856,ff16359
Department3-University0-AssistantProfessor6,University860,ff16360
Department3-University0-AssistantProfessor7,University726,ff16361
Department3-University0-AssistantProfessor8,University613,ff16362
Department3-University0-AssistantProfessor9,University594,ff16363
Department3-University0-Lecturer0,University763,ff16364
Department3-University0-Lecturer1,University532,ff16365
Department3-University0-Lecturer2,University194,ff16366
Department3-University0-Lecturer3,University558,ff16367
Department3-University0-Lecturer4,University723,ff16368
Department3-University0-Lecturer5,University591,ff16369
Department4-University0-FullProfessor0,University693,ff16370
Department4-University0-FullProfessor1,University288,ff16371
Department4-University0-FullProfessor2,University745,ff16372
Department4-University0-FullProfessor3,University930,ff16373
Department4-University0-FullProfessor4,University874,ff16374
Department4-University0-FullProfessor5,University799,ff16375
Department4-University0-FullProfessor6,University894,ff16376
Department4-University0-AssociateProfessor0,University452,ff16377
Department4-University0-AssociateProfessor1,University741,ff16378
Department4-University0-AssociateProfessor2,University477,ff16379
Department4-University0-AssociateProfessor3,University116,ff16380
Department4-University0-AssociateProfessor4,University755,ff16381
Department4-University0-AssociateProfessor5,University826,ff16382
Department4-University0-AssociateProfessor6,University149,ff16383
Department4-University0-AssociateProfessor7,University397,ff16384
Department4-University0-AssociateProfessor8,University659,ff16385
Department4-University0-AssociateProfessor9,University348,ff16386
Department4-University0-AssistantProfessor0,University730,ff16387
Department4-University0-AssistantProfessor1,University682,ff16388
Department4-University0-AssistantProfessor2,University410,ff16389
Department4-University0-AssistantProfessor3,University304,ff16390
Department4-University0-AssistantProfessor4,University762,ff16391
Department4-University0-AssistantProfessor5,University382,ff16392
Department4-University0-AssistantProfessor6,University107,ff16393
Department4-University0-AssistantProfessor7,University676,ff16394
Department4-University0-AssistantProfessor8,University21,ff16395
Department4-University0-AssistantProfessor9,University236,ff16396
Department4-University0-Lecturer0,University938,ff16397
Department4-University0-Lecturer1,University886,ff16398
Department4-University0-Lecturer2,University867,ff16399
Department4-University0-Lecturer3,University768,ff16400
Department4-University0-Lecturer4,University683,ff16401
Department4-University0-Lecturer5,University185,ff16402
Department4-University0-Lecturer6,University461,ff16403
Department5-University0-FullProfessor0,University26,ff16404
Department5-University0-FullProfessor1,University27,ff16405
Department5-University0-FullProfessor2,University47,ff16406
Department5-University0-FullProfessor3,University828,ff16407
Department5-University0-FullProfessor4,University124,ff16408
Department5-University0-FullProfessor5,University591,ff16409
Department5-University0-FullProfessor6,University766,ff16410
Department5-University0-FullProfessor7,University458,ff16411
Department5-University0-FullProfessor8,University86,ff16412
Department5-University0-FullProfessor9,University724,ff16413
Department5-University0-AssociateProfessor0,University873,ff16414
Department5-University0-AssociateProfessor1,University486,ff16415
Department5-University0-AssociateProfessor2,University361,ff16416
Department5-University0-AssociateProfessor3,University796,ff16417
Department5-University0-AssociateProfessor4,University895,ff16418
Department5-University0-AssociateProfessor5,University460,ff16419
Department5-University0-AssociateProfessor6,University258,ff16420
Department5-University0-AssociateProfessor7,University471,ff16421
Department5-University0-AssociateProfessor8,University573,ff16422
Department5-University0-AssociateProfessor9,University781,ff16423
Department5-University0-AssociateProfessor10,University796,ff16424
Department5-University0-AssistantProfessor0,University724,ff16425
Department5-University0-AssistantProfessor1,University313,ff16426
Department5-University0-AssistantProfessor2,University648,ff16427
Department5-University0-AssistantProfessor3,University942,ff16428
Department5-University0-AssistantProfessor4,University264,ff16429
Department5-University0-AssistantProfessor5,University67,ff16430
Department5-University0-AssistantProfessor6,University965,ff16431
Department5-University0-AssistantProfessor7,University210,ff16432
Department5-University0-Lecturer0,University485,ff16433
Department5-University0-Lecturer1,University824,ff16434
Department5-University0-Lecturer2,University434,ff16435
Department5-University0-Lecturer3,University912,ff16436
Department5-University0-Lecturer4,University263,ff16437
Department5-University0-Lecturer5,University848,ff16438
Department6-University0-FullProfessor0,University474,ff16439
Department6-University0-FullProfessor1,University238,ff16440
Department6-University0-FullProfessor2,University302,ff16441
Department6-University0-FullProfessor3,University929,ff16442
Department6-University0-FullProfessor4,University742,ff16443
Department6-University0-FullProfessor5,University22,ff16444
Department6-University0-FullProfessor6,University162,ff16445
Department6-University0-FullProfessor7,University661,ff16446
Department6-University0-FullProfessor8,University712,ff16447
Department6-University0-FullProfessor9,University934,ff16448
Department6-University0-AssociateProfessor0,University742,ff16449
Department6-University0-AssociateProfessor1,University665,ff16450
Department6-University0-AssociateProfessor2,University297,ff16451
Department6-University0-AssociateProfessor3,University151,ff16452
Department6-University0-AssociateProfessor4,University182,ff16453
Department6-University0-AssociateProfessor5,University553,ff16454
Department6-University0-AssociateProfessor6,University875,ff16455
Department6-University0-AssociateProfessor7,University495,ff16456
Department6-University0-AssociateProfessor8,University685,ff16457
Department6-University0-AssociateProfessor9,University404,ff16458
Department6-University0-AssistantProfessor0,University505,ff16459
Department6-University0-AssistantProfessor1,University76,ff16460
Department6-University0-AssistantProfessor2,University371,ff16461
Department6-University0-AssistantProfessor3,University550,ff16462
Department6-University0-AssistantProfessor4,University403,ff16463
Department6-University0-AssistantProfessor5,University824,ff16464
Department6-University0-AssistantProfessor6,University684,ff16465
Department6-University0-AssistantProfessor7,University664,ff16466
Department6-University0-Lecturer0,University407,ff16467
Department6-University0-Lecturer1,University929,ff16468
Department6-University0-Lecturer2,University856,ff16469
Department6-University0-Lecturer3,University520,ff16470
Department6-University0-Lecturer4,University96,ff16471
Department6-University0-Lecturer5,University905,ff16472
Department7-University0-FullProfessor0,University827,ff16473
Department7-University0-FullProfessor1,University468,ff16474
Department7-University0-FullProfessor2,University646,ff16475
Department7-University0-FullProfessor3,University435,ff16476
Department7-University0-FullProfessor4,University228,ff16477
Department7-University0-FullProfessor5,University793,ff16478
Department7-University0-FullProfessor6,University540,ff16479
Department7-University0-AssociateProfessor0,University139,ff16480
Department7-University0-AssociateProfessor1,University546,ff16481
Department7-University0-AssociateProfessor2,University985,ff16482
Department7-University0-AssociateProfessor3,University924,ff16483
Department7-University0-AssociateProfessor4,University759,ff16484
Department7-University0-AssociateProfessor5,University784,ff16485
Department7-University0-AssociateProfessor6,University577,ff16486
Department7-University0-AssociateProfessor7,University181,ff16487
Department7-University0-AssociateProfessor8,University663,ff16488
Department7-University0-AssociateProfessor9,University747,ff16489
Department7-University0-AssociateProfessor10,University186,ff16490
Department7-University0-AssociateProfessor11,University80,ff16491
Department7-University0-AssociateProfessor12,University425,ff16492
Department7-University0-AssociateProfessor13,University487,ff16493
Department7-University0-AssistantProfessor0,University620,ff16494
Department7-University0-AssistantProfessor1,University829,ff16495
Department7-University0-AssistantProfessor2,University688,ff16496
Department7-University0-AssistantProfessor3,University755,ff16497
Department7-University0-AssistantProfessor4,University540,ff16498
Department7-University0-AssistantProfessor5,University97,ff16499
Department7-University0-AssistantProfessor6,University12,ff16500
Department7-University0-AssistantProfessor7,University50,ff16501
Department7-University0-AssistantProfessor8,University39,ff16502
Department7-University0-AssistantProfessor9,University503,ff16503
Department7-University0-Lecturer0,University733,ff16504
Department7-University0-Lecturer1,University520,ff16505
Department7-University0-Lecturer2,University903,ff16506
Department7-University0-Lecturer3,University169,ff16507
Department7-University0-Lecturer4,University728,ff16508
Department7-University0-Lecturer5,University350,ff16509
Department8-University0-FullProfessor0,University839,ff16510
Department8-University0-FullProfessor1,University624,ff16511
Department8-University0-FullProfessor2,University94,ff16512
Department8-University0-FullProfessor3,University837,ff16513
Department8-University0-FullProfessor4,University234,ff16514
Department8-University0-FullProfessor5,University660,ff16515
Department8-University0-FullProfessor6,University413,ff16516
Department8-University0-FullProfessor7,University495,ff16517
Department8-University0-FullProfessor8,University722,ff16518
Department8-University0-AssociateProfessor0,University79,ff16519
Department8-University0-AssociateProfessor1,University198,ff16520
Department8-University0-AssociateProfessor2,University610,ff16521
Department8-University0-AssociateProfessor3,University847,ff16522
Department8-University0-AssociateProfessor4,University742,ff16523
Department8-University0-AssociateProfessor5,University747,ff16524
Department8-University0-AssociateProfessor6,University38,ff16525
Department8-University0-AssociateProfessor7,University732,ff16526
Department8-University0-AssociateProfessor8,University850,ff16527
Department8-University0-AssociateProfessor9,University95,ff16528
Department8-University0-AssociateProfessor10,University462,ff16529
Department8-University0-AssistantProfessor0,University634,ff16530
Department8-University0-AssistantProfessor1,University93,ff16531
Department8-University0-AssistantProfessor2,University814,ff16532
Department8-University0-AssistantProfessor3,University181,ff16533
Department8-University0-AssistantProfessor4,University813,ff16534
Department8-University0-AssistantProfessor5,University449,ff16535
Department8-University0-AssistantProfessor6,University750,ff16536
Department8-University0-AssistantProfessor7,University301,ff16537
Department8-University0-AssistantProfessor8,University271,ff16538
Department8-University0-AssistantProfessor9,University890,ff16539
Department8-University0-AssistantProfessor10,University267,ff16540
Department8-University0-Lecturer0,University609,ff16541
Department8-University0-Lecturer1,University939,ff16542
Department8-University0-Lecturer2,University446,ff16543
Department8-University0-Lecturer3,University492,ff16544
Department8-University0-Lecturer4,University70,ff16545
Department8-University0-Lecturer5,University494,ff16546
Department9-University0-FullProfessor0,University707,ff16547
Department9-University0-FullProfessor1,University995,ff16548
Department9-University0-FullProfessor2,University328,ff16549
Department9-University0-FullProfessor3,University236,ff16550
Department9-University0-FullProfessor4,University551,ff16551
Department9-University0-FullProfessor5,University633,ff16552
Department9-University0-FullProfessor6,University965,ff16553
Department9-University0-AssociateProfessor0,University568,ff16554
Department9-University0-AssociateProfessor1,University963,ff16555
Department9-University0-AssociateProfessor2,University796,ff16556
Department9-University0-AssociateProfessor3,University505,ff16557
Department9-University0-AssociateProfessor4,University321,ff16558
Department9-University0-AssociateProfessor5,University624,ff16559
Department9-University0-AssociateProfessor6,University73,ff16560
Department9-University0-AssociateProfessor7,University69,ff16561
Department9-University0-AssociateProfessor8,University697,ff16562
Department9-University0-AssociateProfessor9,University380,ff16563
Department9-University0-AssistantProfessor0,University883,ff16564
Department9-University0-AssistantProfessor1,University92,ff16565
Department9-University0-AssistantProfessor2,University51,ff16566
Department9-University0-AssistantProfessor3,University104,ff16567
Department9-University0-AssistantProfessor4,University85,ff16568
Department9-University0-AssistantProfessor5,University817,ff16569
Department9-University0-AssistantProfessor6,University906,ff16570
Department9-University0-AssistantProfessor7,University697,ff16571
Department9-University0-AssistantProfessor8,University643,ff16572
Department9-University0-AssistantProfessor9,University551,ff16573
Department9-University0-AssistantProfessor10,University445,ff16574
Department9-University0-Lecturer0,University561,ff16575
Department9-University0-Lecturer1,University38,ff16576
Department9-University0-Lecturer2,University476,ff16577
Department9-University0-Lecturer3,University175,ff16578
Department9-University0-Lecturer4,University461,ff16579
Department9-University0-Lecturer5,University571,ff16580
Department9-University0-Lecturer6,University919,ff16581
