Department0-University0-FullProfessor0,ff13136
Department0-University0-FullProfessor1,ff13137
Department0-University0-FullProfessor2,ff13138
Department0-University0-FullProfessor3,ff13139
Department0-University0-FullProfessor4,ff13140
Department0-University0-FullProfessor5,ff13141
Department0-University0-FullProfessor6,ff13142
Department0-University0-FullProfessor7,ff13143
Department0-University0-FullProfessor8,ff13144
Department0-University0-FullProfessor9,ff13145
Department1-University0-FullProfessor0,ff13146
Department1-University0-FullProfessor1,ff13147
Department1-University0-FullProfessor2,ff13148
Department1-University0-FullProfessor3,ff13149
Department1-University0-FullProfessor4,ff13150
Department1-University0-FullProfessor5,ff13151
Department1-University0-FullProfessor6,ff13152
Department1-University0-FullProfessor7,ff13153
Department1-University0-FullProfessor8,ff13154
Department1-University0-FullProfessor9,ff13155
Department10-University0-FullProfessor0,ff13156
Department10-University0-FullProfessor1,ff13157
Department10-University0-FullProfessor2,ff13158
Department10-University0-FullProfessor3,ff13159
Department10-University0-FullProfessor4,ff13160
Department10-University0-FullProfessor5,ff13161
Department10-University0-FullProfessor6,ff13162
Department11-University0-FullProfessor0,ff13163
Department11-University0-FullProfessor1,ff13164
Department11-University0-FullProfessor2,ff13165
Department11-University0-FullProfessor3,ff13166
Department11-University0-FullProfessor4,ff13167
Department11-University0-FullProfessor5,ff13168
Department11-University0-FullProfessor6,ff13169
Department11-University0-FullProfessor7,ff13170
Department12-University0-FullProfessor0,ff13171
Department12-University0-FullProfessor1,ff13172
Department12-University0-FullProfessor2,ff13173
Department12-University0-FullProfessor3,ff13174
Department12-University0-FullProfessor4,ff13175
Department12-University0-FullProfessor5,ff13176
Department12-University0-FullProfessor6,ff13177
Department12-University0-FullProfessor7,ff13178
Department12-University0-FullProfessor8,ff13179
Department13-University0-FullProfessor0,ff13180
Department13-University0-FullProfessor1,ff13181
Department13-University0-FullProfessor2,ff13182
Department13-University0-FullProfessor3,ff13183
Department13-University0-FullProfessor4,ff13184
Department13-University0-FullProfessor5,ff13185
Department13-University0-FullProfessor6,ff13186
Department13-University0-FullProfessor7,ff13187
Department14-University0-FullProfessor0,ff13188
Department14-University0-FullProfessor1,ff13189
Department14-University0-FullProfessor2,ff13190
Department14-University0-FullProfessor3,ff13191
Department14-University0-FullProfessor4,ff13192
Department14-University0-FullProfessor5,ff13193
Department14-University0-FullProfessor6,ff13194
Department2-University0-FullProfessor0,ff13195
Department2-University0-FullProfessor1,ff13196
Department2-University0-FullProfessor2,ff13197
Department2-University0-FullProfessor3,ff13198
Department2-University0-FullProfessor4,ff13199
Department2-University0-FullProfessor5,ff13200
Department2-University0-FullProfessor6,ff13201
Department3-University0-FullProfessor0,ff13202
Department3-University0-FullProfessor1,ff13203
Department3-University0-FullProfessor2,ff13204
Department3-University0-FullProfessor3,ff13205
Department3-University0-FullProfessor4,ff13206
Department3-University0-FullProfessor5,ff13207
Department3-University0-FullProfessor6,ff13208
Department3-University0-FullProfessor7,ff13209
Department3-University0-FullProfessor8,ff13210
Department4-University0-FullProfessor0,ff13211
Department4-University0-FullProfessor1,ff13212
Department4-University0-FullProfessor2,ff13213
Department4-University0-FullProfessor3,ff13214
Department4-University0-FullProfessor4,ff13215
Department4-University0-FullProfessor5,ff13216
Department4-University0-FullProfessor6,ff13217
Department5-University0-FullProfessor0,ff13218
Department5-University0-FullProfessor1,ff13219
Department5-University0-FullProfessor2,ff13220
Department5-University0-FullProfessor3,ff13221
Department5-University0-FullProfessor4,ff13222
Department5-University0-FullProfessor5,ff13223
Department5-University0-FullProfessor6,ff13224
Department5-University0-FullProfessor7,ff13225
Department5-University0-FullProfessor8,ff13226
Department5-University0-FullProfessor9,ff13227
Department6-University0-FullProfessor0,ff13228
Department6-University0-FullProfessor1,ff13229
Department6-University0-FullProfessor2,ff13230
Department6-University0-FullProfessor3,ff13231
Department6-University0-FullProfessor4,ff13232
Department6-University0-FullProfessor5,ff13233
Department6-University0-FullProfessor6,ff13234
Department6-University0-FullProfessor7,ff13235
Department6-University0-FullProfessor8,ff13236
Department6-University0-FullProfessor9,ff13237
Department7-University0-FullProfessor0,ff13238
Department7-University0-FullProfessor1,ff13239
Department7-University0-FullProfessor2,ff13240
Department7-University0-FullProfessor3,ff13241
Department7-University0-FullProfessor4,ff13242
Department7-University0-FullProfessor5,ff13243
Department7-University0-FullProfessor6,ff13244
Department8-University0-FullProfessor0,ff13245
Department8-University0-FullProfessor1,ff13246
Department8-University0-FullProfessor2,ff13247
Department8-University0-FullProfessor3,ff13248
Department8-University0-FullProfessor4,ff13249
Department8-University0-FullProfessor5,ff13250
Department8-University0-FullProfessor6,ff13251
Department8-University0-FullProfessor7,ff13252
Department8-University0-FullProfessor8,ff13253
Department9-University0-FullProfessor0,ff13254
Department9-University0-FullProfessor1,ff13255
Department9-University0-FullProfessor2,ff13256
Department9-University0-FullProfessor3,ff13257
Department9-University0-FullProfessor4,ff13258
Department9-University0-FullProfessor5,ff13259
Department9-University0-FullProfessor6,ff13260
