Department0-University0-GraduateStudent1,Department0-University0-Course25,ff81957
Department0-University0-GraduateStudent2,Department0-University0-Course35,ff81958
Department0-University0-GraduateStudent5,Department0-University0-Course42,ff81959
Department0-University0-GraduateStudent7,Department0-University0-Course18,ff81960
Department0-University0-GraduateStudent14,Department0-University0-Course30,ff81961
Department0-University0-GraduateStudent15,Department0-University0-Course12,ff81962
Department0-University0-GraduateStudent17,Department0-University0-Course21,ff81963
Department0-University0-GraduateStudent26,Department0-University0-Course29,ff81964
Department0-University0-GraduateStudent27,Department0-University0-Course20,ff81965
Department0-University0-GraduateStudent34,Department0-University0-Course27,ff81966
Department0-University0-GraduateStudent43,Department0-University0-Course14,ff81967
Department0-University0-GraduateStudent46,Department0-University0-Course53,ff81968
Department0-University0-GraduateStudent52,Department0-University0-Course4,ff81969
Department0-University0-GraduateStudent58,Department0-University0-Course41,ff81970
Department0-University0-GraduateStudent59,Department0-University0-Course40,ff81971
Department0-University0-GraduateStudent67,Department0-University0-Course8,ff81972
Department0-University0-GraduateStudent76,Department0-University0-Course17,ff81973
Department0-University0-GraduateStudent90,Department0-University0-Course11,ff81974
Department0-University0-GraduateStudent93,Department0-University0-Course59,ff81975
Department0-University0-GraduateStudent94,Department0-University0-Course37,ff81976
Department0-University0-GraduateStudent96,Department0-University0-Course9,ff81977
Department0-University0-GraduateStudent109,Department0-University0-Course28,ff81978
Department0-University0-GraduateStudent110,Department0-University0-Course0,ff81979
Department0-University0-GraduateStudent113,Department0-University0-Course32,ff81980
Department0-University0-GraduateStudent114,Department0-University0-Course47,ff81981
Department0-University0-GraduateStudent130,Department0-University0-Course34,ff81982
Department0-University0-GraduateStudent142,Department0-University0-Course55,ff81983
Department0-University0-GraduateStudent143,Department0-University0-Course2,ff81984
Department0-University0-GraduateStudent144,Department0-University0-Course36,ff81985
Department1-University0-GraduateStudent3,Department1-University0-Course12,ff81986
Department1-University0-GraduateStudent6,Department1-University0-Course30,ff81987
Department1-University0-GraduateStudent9,Department1-University0-Course4,ff81988
Department1-University0-GraduateStudent12,Department1-University0-Course46,ff81989
Department1-University0-GraduateStudent16,Department1-University0-Course17,ff81990
Department1-University0-GraduateStudent20,Department1-University0-Course26,ff81991
Department1-University0-GraduateStudent24,Department1-University0-Course44,ff81992
Department1-University0-GraduateStudent27,Department1-University0-Course31,ff81993
Department1-University0-GraduateStudent28,Department1-University0-Course6,ff81994
Department1-University0-GraduateStudent30,Department1-University0-Course39,ff81995
Department1-University0-GraduateStudent31,Department1-University0-Course47,ff81996
Department1-University0-GraduateStudent34,Department1-University0-Course1,ff81997
Department1-University0-GraduateStudent35,Department1-University0-Course25,ff81998
Department1-University0-GraduateStudent40,Department1-University0-Course41,ff81999
Department1-University0-GraduateStudent45,Department1-University0-Course13,ff82000
Department1-University0-GraduateStudent57,Department1-University0-Course33,ff82001
Department1-University0-GraduateStudent72,Department1-University0-Course42,ff82002
Department1-University0-GraduateStudent75,Department1-University0-Course28,ff82003
Department1-University0-GraduateStudent78,Department1-University0-Course0,ff82004
Department1-University0-GraduateStudent79,Department1-University0-Course3,ff82005
Department1-University0-GraduateStudent91,Department1-University0-Course38,ff82006
Department1-University0-GraduateStudent93,Department1-University0-Course10,ff82007
Department1-University0-GraduateStudent98,Department1-University0-Course27,ff82008
Department1-University0-GraduateStudent100,Department1-University0-Course36,ff82009
Department1-University0-GraduateStudent106,Department1-University0-Course34,ff82010
Department1-University0-GraduateStudent107,Department1-University0-Course5,ff82011
Department1-University0-GraduateStudent109,Department1-University0-Course9,ff82012
Department10-University0-GraduateStudent6,Department10-University0-Course1,ff82013
Department10-University0-GraduateStudent7,Department10-University0-Course16,ff82014
Department10-University0-GraduateStudent18,Department10-University0-Course20,ff82015
Department10-University0-GraduateStudent20,Department10-University0-Course36,ff82016
Department10-University0-GraduateStudent22,Department10-University0-Course33,ff82017
Department10-University0-GraduateStudent31,Department10-University0-Course43,ff82018
Department10-University0-GraduateStudent32,Department10-University0-Course21,ff82019
Department10-University0-GraduateStudent35,Department10-University0-Course11,ff82020
Department10-University0-GraduateStudent45,Department10-University0-Course47,ff82021
Department10-University0-GraduateStudent46,Department10-University0-Course27,ff82022
Department10-University0-GraduateStudent50,Department10-University0-Course45,ff82023
Department10-University0-GraduateStudent58,Department10-University0-Course29,ff82024
Department10-University0-GraduateStudent59,Department10-University0-Course19,ff82025
Department10-University0-GraduateStudent67,Department10-University0-Course44,ff82026
Department10-University0-GraduateStudent70,Department10-University0-Course9,ff82027
Department10-University0-GraduateStudent75,Department10-University0-Course48,ff82028
Department10-University0-GraduateStudent89,Department10-University0-Course10,ff82029
Department10-University0-GraduateStudent91,Department10-University0-Course52,ff82030
Department10-University0-GraduateStudent95,Department10-University0-Course34,ff82031
Department10-University0-GraduateStudent98,Department10-University0-Course14,ff82032
Department10-University0-GraduateStudent111,Department10-University0-Course23,ff82033
Department10-University0-GraduateStudent113,Department10-University0-Course28,ff82034
Department10-University0-GraduateStudent117,Department10-University0-Course31,ff82035
Department10-University0-GraduateStudent119,Department10-University0-Course38,ff82036
Department10-University0-GraduateStudent120,Department10-University0-Course2,ff82037
Department10-University0-GraduateStudent121,Department10-University0-Course37,ff82038
Department10-University0-GraduateStudent129,Department10-University0-Course4,ff82039
Department10-University0-GraduateStudent131,Department10-University0-Course8,ff82040
Department10-University0-GraduateStudent132,Department10-University0-Course12,ff82041
Department10-University0-GraduateStudent133,Department10-University0-Course6,ff82042
Department10-University0-GraduateStudent137,Department10-University0-Course50,ff82043
Department11-University0-GraduateStudent2,Department11-University0-Course13,ff82044
Department11-University0-GraduateStudent3,Department11-University0-Course1,ff82045
Department11-University0-GraduateStudent6,Department11-University0-Course24,ff82046
Department11-University0-GraduateStudent9,Department11-University0-Course52,ff82047
Department11-University0-GraduateStudent10,Department11-University0-Course6,ff82048
Department11-University0-GraduateStudent23,Department11-University0-Course31,ff82049
Department11-University0-GraduateStudent24,Department11-University0-Course18,ff82050
Department11-University0-GraduateStudent28,Department11-University0-Course11,ff82051
Department11-University0-GraduateStudent32,Department11-University0-Course20,ff82052
Department11-University0-GraduateStudent44,Department11-University0-Course51,ff82053
Department11-University0-GraduateStudent47,Department11-University0-Course42,ff82054
Department11-University0-GraduateStudent53,Department11-University0-Course30,ff82055
Department11-University0-GraduateStudent57,Department11-University0-Course21,ff82056
Department11-University0-GraduateStudent58,Department11-University0-Course35,ff82057
Department11-University0-GraduateStudent61,Department11-University0-Course40,ff82058
Department11-University0-GraduateStudent64,Department11-University0-Course36,ff82059
Department11-University0-GraduateStudent67,Department11-University0-Course25,ff82060
Department11-University0-GraduateStudent83,Department11-University0-Course57,ff82061
Department11-University0-GraduateStudent88,Department11-University0-Course33,ff82062
Department11-University0-GraduateStudent97,Department11-University0-Course44,ff82063
Department11-University0-GraduateStudent98,Department11-University0-Course29,ff82064
Department11-University0-GraduateStudent99,Department11-University0-Course10,ff82065
Department11-University0-GraduateStudent100,Department11-University0-Course55,ff82066
Department11-University0-GraduateStudent102,Department11-University0-Course4,ff82067
Department11-University0-GraduateStudent103,Department11-University0-Course53,ff82068
Department11-University0-GraduateStudent107,Department11-University0-Course46,ff82069
Department11-University0-GraduateStudent119,Department11-University0-Course9,ff82070
Department11-University0-GraduateStudent135,Department11-University0-Course34,ff82071
Department11-University0-GraduateStudent140,Department11-University0-Course7,ff82072
Department12-University0-GraduateStudent3,Department12-University0-Course53,ff82073
Department12-University0-GraduateStudent7,Department12-University0-Course17,ff82074
Department12-University0-GraduateStudent8,Department12-University0-Course6,ff82075
Department12-University0-GraduateStudent10,Department12-University0-Course3,ff82076
Department12-University0-GraduateStudent13,Department12-University0-Course8,ff82077
Department12-University0-GraduateStudent19,Department12-University0-Course23,ff82078
Department12-University0-GraduateStudent24,Department12-University0-Course22,ff82079
Department12-University0-GraduateStudent36,Department12-University0-Course5,ff82080
Department12-University0-GraduateStudent37,Department12-University0-Course40,ff82081
Department12-University0-GraduateStudent43,Department12-University0-Course33,ff82082
Department12-University0-GraduateStudent45,Department12-University0-Course16,ff82083
Department12-University0-GraduateStudent46,Department12-University0-Course12,ff82084
Department12-University0-GraduateStudent50,Department12-University0-Course2,ff82085
Department12-University0-GraduateStudent52,Department12-University0-Course21,ff82086
Department12-University0-GraduateStudent61,Department12-University0-Course44,ff82087
Department12-University0-GraduateStudent63,Department12-University0-Course20,ff82088
Department12-University0-GraduateStudent73,Department12-University0-Course36,ff82089
Department12-University0-GraduateStudent74,Department12-University0-Course37,ff82090
Department12-University0-GraduateStudent76,Department12-University0-Course26,ff82091
Department12-University0-GraduateStudent81,Department12-University0-Course41,ff82092
Department12-University0-GraduateStudent83,Department12-University0-Course0,ff82093
Department12-University0-GraduateStudent90,Department12-University0-Course51,ff82094
Department12-University0-GraduateStudent94,Department12-University0-Course27,ff82095
Department12-University0-GraduateStudent99,Department12-University0-Course25,ff82096
Department12-University0-GraduateStudent100,Department12-University0-Course9,ff82097
Department12-University0-GraduateStudent102,Department12-University0-Course24,ff82098
Department12-University0-GraduateStudent110,Department12-University0-Course15,ff82099
Department13-University0-GraduateStudent4,Department13-University0-Course28,ff82100
Department13-University0-GraduateStudent5,Department13-University0-Course41,ff82101
Department13-University0-GraduateStudent7,Department13-University0-Course53,ff82102
Department13-University0-GraduateStudent10,Department13-University0-Course10,ff82103
Department13-University0-GraduateStudent11,Department13-University0-Course13,ff82104
Department13-University0-GraduateStudent16,Department13-University0-Course6,ff82105
Department13-University0-GraduateStudent18,Department13-University0-Course37,ff82106
Department13-University0-GraduateStudent23,Department13-University0-Course46,ff82107
Department13-University0-GraduateStudent26,Department13-University0-Course40,ff82108
Department13-University0-GraduateStudent30,Department13-University0-Course32,ff82109
Department13-University0-GraduateStudent38,Department13-University0-Course8,ff82110
Department13-University0-GraduateStudent42,Department13-University0-Course21,ff82111
Department13-University0-GraduateStudent52,Department13-University0-Course19,ff82112
Department13-University0-GraduateStudent58,Department13-University0-Course43,ff82113
Department13-University0-GraduateStudent64,Department13-University0-Course34,ff82114
Department13-University0-GraduateStudent68,Department13-University0-Course2,ff82115
Department13-University0-GraduateStudent73,Department13-University0-Course35,ff82116
Department13-University0-GraduateStudent74,Department13-University0-Course18,ff82117
Department13-University0-GraduateStudent80,Department13-University0-Course1,ff82118
Department13-University0-GraduateStudent81,Department13-University0-Course31,ff82119
Department13-University0-GraduateStudent87,Department13-University0-Course27,ff82120
Department13-University0-GraduateStudent91,Department13-University0-Course30,ff82121
Department13-University0-GraduateStudent99,Department13-University0-Course5,ff82122
Department13-University0-GraduateStudent105,Department13-University0-Course17,ff82123
Department13-University0-GraduateStudent112,Department13-University0-Course24,ff82124
Department13-University0-GraduateStudent116,Department13-University0-Course26,ff82125
Department13-University0-GraduateStudent118,Department13-University0-Course42,ff82126
Department13-University0-GraduateStudent122,Department13-University0-Course7,ff82127
Department13-University0-GraduateStudent132,Department13-University0-Course16,ff82128
Department13-University0-GraduateStudent139,Department13-University0-Course36,ff82129
Department14-University0-GraduateStudent0,Department14-University0-Course3,ff82130
Department14-University0-GraduateStudent10,Department14-University0-Course29,ff82131
Department14-University0-GraduateStudent12,Department14-University0-Course25,ff82132
Department14-University0-GraduateStudent14,Department14-University0-Course32,ff82133
Department14-University0-GraduateStudent19,Department14-University0-Course40,ff82134
Department14-University0-GraduateStudent21,Department14-University0-Course35,ff82135
Department14-University0-GraduateStudent32,Department14-University0-Course27,ff82136
Department14-University0-GraduateStudent35,Department14-University0-Course5,ff82137
Department14-University0-GraduateStudent36,Department14-University0-Course38,ff82138
Department14-University0-GraduateStudent45,Department14-University0-Course49,ff82139
Department14-University0-GraduateStudent49,Department14-University0-Course9,ff82140
Department14-University0-GraduateStudent70,Department14-University0-Course15,ff82141
Department14-University0-GraduateStudent74,Department14-University0-Course7,ff82142
Department14-University0-GraduateStudent81,Department14-University0-Course1,ff82143
Department14-University0-GraduateStudent83,Department14-University0-Course46,ff82144
Department14-University0-GraduateStudent86,Department14-University0-Course0,ff82145
Department14-University0-GraduateStudent87,Department14-University0-Course6,ff82146
Department14-University0-GraduateStudent92,Department14-University0-Course23,ff82147
Department14-University0-GraduateStudent95,Department14-University0-Course17,ff82148
Department14-University0-GraduateStudent103,Department14-University0-Course36,ff82149
Department14-University0-GraduateStudent105,Department14-University0-Course26,ff82150
Department14-University0-GraduateStudent107,Department14-University0-Course11,ff82151
Department2-University0-GraduateStudent1,Department2-University0-Course14,ff82152
Department2-University0-GraduateStudent8,Department2-University0-Course40,ff82153
Department2-University0-GraduateStudent9,Department2-University0-Course46,ff82154
Department2-University0-GraduateStudent10,Department2-University0-Course4,ff82155
Department2-University0-GraduateStudent22,Department2-University0-Course34,ff82156
Department2-University0-GraduateStudent23,Department2-University0-Course18,ff82157
Department2-University0-GraduateStudent24,Department2-University0-Course2,ff82158
Department2-University0-GraduateStudent26,Department2-University0-Course16,ff82159
Department2-University0-GraduateStudent27,Department2-University0-Course47,ff82160
Department2-University0-GraduateStudent29,Department2-University0-Course26,ff82161
Department2-University0-GraduateStudent32,Department2-University0-Course31,ff82162
Department2-University0-GraduateStudent40,Department2-University0-Course39,ff82163
Department2-University0-GraduateStudent43,Department2-University0-Course19,ff82164
Department2-University0-GraduateStudent47,Department2-University0-Course6,ff82165
Department2-University0-GraduateStudent48,Department2-University0-Course37,ff82166
Department2-University0-GraduateStudent56,Department2-University0-Course48,ff82167
Department2-University0-GraduateStudent71,Department2-University0-Course3,ff82168
Department2-University0-GraduateStudent73,Department2-University0-Course32,ff82169
Department2-University0-GraduateStudent86,Department2-University0-Course10,ff82170
Department2-University0-GraduateStudent92,Department2-University0-Course41,ff82171
Department2-University0-GraduateStudent99,Department2-University0-Course30,ff82172
Department2-University0-GraduateStudent103,Department2-University0-Course42,ff82173
Department2-University0-GraduateStudent106,Department2-University0-Course0,ff82174
Department3-University0-GraduateStudent0,Department3-University0-Course7,ff82175
Department3-University0-GraduateStudent2,Department3-University0-Course46,ff82176
Department3-University0-GraduateStudent3,Department3-University0-Course22,ff82177
Department3-University0-GraduateStudent5,Department3-University0-Course51,ff82178
Department3-University0-GraduateStudent8,Department3-University0-Course0,ff82179
Department3-University0-GraduateStudent17,Department3-University0-Course53,ff82180
Department3-University0-GraduateStudent22,Department3-University0-Course10,ff82181
Department3-University0-GraduateStudent29,Department3-University0-Course26,ff82182
Department3-University0-GraduateStudent30,Department3-University0-Course37,ff82183
Department3-University0-GraduateStudent40,Department3-University0-Course31,ff82184
Department3-University0-GraduateStudent41,Department3-University0-Course17,ff82185
Department3-University0-GraduateStudent42,Department3-University0-Course12,ff82186
Department3-University0-GraduateStudent61,Department3-University0-Course35,ff82187
Department3-University0-GraduateStudent63,Department3-University0-Course41,ff82188
Department3-University0-GraduateStudent66,Department3-University0-Course15,ff82189
Department3-University0-GraduateStudent70,Department3-University0-Course14,ff82190
Department3-University0-GraduateStudent78,Department3-University0-Course27,ff82191
Department3-University0-GraduateStudent82,Department3-University0-Course1,ff82192
Department3-University0-GraduateStudent85,Department3-University0-Course23,ff82193
Department3-University0-GraduateStudent93,Department3-University0-Course33,ff82194
Department3-University0-GraduateStudent102,Department3-University0-Course20,ff82195
Department3-University0-GraduateStudent108,Department3-University0-Course16,ff82196
Department3-University0-GraduateStudent111,Department3-University0-Course19,ff82197
Department3-University0-GraduateStudent116,Department3-University0-Course5,ff82198
Department3-University0-GraduateStudent119,Department3-University0-Course18,ff82199
Department4-University0-GraduateStudent4,Department4-University0-Course0,ff82200
Department4-University0-GraduateStudent7,Department4-University0-Course10,ff82201
Department4-University0-GraduateStudent13,Department4-University0-Course14,ff82202
Department4-University0-GraduateStudent17,Department4-University0-Course42,ff82203
Department4-University0-GraduateStudent21,Department4-University0-Course5,ff82204
Department4-University0-GraduateStudent22,Department4-University0-Course48,ff82205
Department4-University0-GraduateStudent23,Department4-University0-Course2,ff82206
Department4-University0-GraduateStudent28,Department4-University0-Course34,ff82207
Department4-University0-GraduateStudent42,Department4-University0-Course41,ff82208
Department4-University0-GraduateStudent51,Department4-University0-Course43,ff82209
Department4-University0-GraduateStudent55,Department4-University0-Course17,ff82210
Department4-University0-GraduateStudent57,Department4-University0-Course25,ff82211
Department4-University0-GraduateStudent61,Department4-University0-Course28,ff82212
Department4-University0-GraduateStudent62,Department4-University0-Course46,ff82213
Department4-University0-GraduateStudent63,Department4-University0-Course4,ff82214
Department4-University0-GraduateStudent66,Department4-University0-Course49,ff82215
Department4-University0-GraduateStudent69,Department4-University0-Course6,ff82216
Department4-University0-GraduateStudent78,Department4-University0-Course20,ff82217
Department4-University0-GraduateStudent81,Department4-University0-Course33,ff82218
Department4-University0-GraduateStudent83,Department4-University0-Course37,ff82219
Department4-University0-GraduateStudent84,Department4-University0-Course22,ff82220
Department4-University0-GraduateStudent87,Department4-University0-Course32,ff82221
Department4-University0-GraduateStudent92,Department4-University0-Course13,ff82222
Department4-University0-GraduateStudent95,Department4-University0-Course3,ff82223
Department4-University0-GraduateStudent100,Department4-University0-Course23,ff82224
Department4-University0-GraduateStudent111,Department4-University0-Course27,ff82225
Department4-University0-GraduateStudent115,Department4-University0-Course31,ff82226
Department4-University0-GraduateStudent119,Department4-University0-Course35,ff82227
Department4-University0-GraduateStudent122,Department4-University0-Course50,ff82228
Department5-University0-GraduateStudent0,Department5-University0-Course38,ff82229
Department5-University0-GraduateStudent10,Department5-University0-Course24,ff82230
Department5-University0-GraduateStudent13,Department5-University0-Course55,ff82231
Department5-University0-GraduateStudent15,Department5-University0-Course5,ff82232
Department5-University0-GraduateStudent22,Department5-University0-Course19,ff82233
Department5-University0-GraduateStudent23,Department5-University0-Course29,ff82234
Department5-University0-GraduateStudent26,Department5-University0-Course33,ff82235
Department5-University0-GraduateStudent31,Department5-University0-Course18,ff82236
Department5-University0-GraduateStudent34,Department5-University0-Course39,ff82237
Department5-University0-GraduateStudent39,Department5-University0-Course47,ff82238
Department5-University0-GraduateStudent42,Department5-University0-Course37,ff82239
Department5-University0-GraduateStudent45,Department5-University0-Course9,ff82240
Department5-University0-GraduateStudent47,Department5-University0-Course3,ff82241
Department5-University0-GraduateStudent48,Department5-University0-Course32,ff82242
Department5-University0-GraduateStudent49,Department5-University0-Course41,ff82243
Department5-University0-GraduateStudent51,Department5-University0-Course13,ff82244
Department5-University0-GraduateStudent53,Department5-University0-Course30,ff82245
Department5-University0-GraduateStudent58,Department5-University0-Course17,ff82246
Department5-University0-GraduateStudent70,Department5-University0-Course15,ff82247
Department5-University0-GraduateStudent73,Department5-University0-Course52,ff82248
Department5-University0-GraduateStudent78,Department5-University0-Course49,ff82249
Department5-University0-GraduateStudent88,Department5-University0-Course4,ff82250
Department5-University0-GraduateStudent95,Department5-University0-Course36,ff82251
Department5-University0-GraduateStudent96,Department5-University0-Course21,ff82252
Department5-University0-GraduateStudent104,Department5-University0-Course12,ff82253
Department5-University0-GraduateStudent108,Department5-University0-Course27,ff82254
Department6-University0-GraduateStudent7,Department6-University0-Course49,ff82255
Department6-University0-GraduateStudent10,Department6-University0-Course54,ff82256
Department6-University0-GraduateStudent13,Department6-University0-Course16,ff82257
Department6-University0-GraduateStudent20,Department6-University0-Course0,ff82258
Department6-University0-GraduateStudent30,Department6-University0-Course26,ff82259
Department6-University0-GraduateStudent33,Department6-University0-Course11,ff82260
Department6-University0-GraduateStudent36,Department6-University0-Course35,ff82261
Department6-University0-GraduateStudent42,Department6-University0-Course33,ff82262
Department6-University0-GraduateStudent47,Department6-University0-Course5,ff82263
Department6-University0-GraduateStudent48,Department6-University0-Course37,ff82264
Department6-University0-GraduateStudent51,Department6-University0-Course50,ff82265
Department6-University0-GraduateStudent54,Department6-University0-Course9,ff82266
Department6-University0-GraduateStudent57,Department6-University0-Course12,ff82267
Department6-University0-GraduateStudent58,Department6-University0-Course17,ff82268
Department6-University0-GraduateStudent59,Department6-University0-Course34,ff82269
Department6-University0-GraduateStudent62,Department6-University0-Course40,ff82270
Department6-University0-GraduateStudent64,Department6-University0-Course2,ff82271
Department6-University0-GraduateStudent70,Department6-University0-Course41,ff82272
Department6-University0-GraduateStudent78,Department6-University0-Course31,ff82273
Department6-University0-GraduateStudent79,Department6-University0-Course51,ff82274
Department6-University0-GraduateStudent88,Department6-University0-Course4,ff82275
Department6-University0-GraduateStudent90,Department6-University0-Course46,ff82276
Department6-University0-GraduateStudent94,Department6-University0-Course38,ff82277
Department6-University0-GraduateStudent99,Department6-University0-Course25,ff82278
Department6-University0-GraduateStudent100,Department6-University0-Course28,ff82279
Department6-University0-GraduateStudent104,Department6-University0-Course55,ff82280
Department7-University0-GraduateStudent0,Department7-University0-Course7,ff82281
Department7-University0-GraduateStudent2,Department7-University0-Course26,ff82282
Department7-University0-GraduateStudent3,Department7-University0-Course15,ff82283
Department7-University0-GraduateStudent10,Department7-University0-Course30,ff82284
Department7-University0-GraduateStudent11,Department7-University0-Course43,ff82285
Department7-University0-GraduateStudent12,Department7-University0-Course24,ff82286
Department7-University0-GraduateStudent15,Department7-University0-Course42,ff82287
Department7-University0-GraduateStudent24,Department7-University0-Course61,ff82288
Department7-University0-GraduateStudent43,Department7-University0-Course19,ff82289
Department7-University0-GraduateStudent45,Department7-University0-Course44,ff82290
Department7-University0-GraduateStudent54,Department7-University0-Course37,ff82291
Department7-University0-GraduateStudent62,Department7-University0-Course8,ff82292
Department7-University0-GraduateStudent67,Department7-University0-Course46,ff82293
Department7-University0-GraduateStudent77,Department7-University0-Course36,ff82294
Department7-University0-GraduateStudent79,Department7-University0-Course62,ff82295
Department7-University0-GraduateStudent81,Department7-University0-Course28,ff82296
Department7-University0-GraduateStudent92,Department7-University0-Course51,ff82297
Department7-University0-GraduateStudent96,Department7-University0-Course55,ff82298
Department7-University0-GraduateStudent98,Department7-University0-Course11,ff82299
Department7-University0-GraduateStudent99,Department7-University0-Course14,ff82300
Department7-University0-GraduateStudent100,Department7-University0-Course50,ff82301
Department7-University0-GraduateStudent108,Department7-University0-Course60,ff82302
Department7-University0-GraduateStudent110,Department7-University0-Course54,ff82303
Department7-University0-GraduateStudent117,Department7-University0-Course4,ff82304
Department7-University0-GraduateStudent118,Department7-University0-Course22,ff82305
Department8-University0-GraduateStudent7,Department8-University0-Course16,ff82306
Department8-University0-GraduateStudent20,Department8-University0-Course29,ff82307
Department8-University0-GraduateStudent21,Department8-University0-Course43,ff82308
Department8-University0-GraduateStudent23,Department8-University0-Course60,ff82309
Department8-University0-GraduateStudent25,Department8-University0-Course49,ff82310
Department8-University0-GraduateStudent29,Department8-University0-Course19,ff82311
Department8-University0-GraduateStudent32,Department8-University0-Course32,ff82312
Department8-University0-GraduateStudent33,Department8-University0-Course23,ff82313
Department8-University0-GraduateStudent42,Department8-University0-Course42,ff82314
Department8-University0-GraduateStudent47,Department8-University0-Course53,ff82315
Department8-University0-GraduateStudent49,Department8-University0-Course13,ff82316
Department8-University0-GraduateStudent53,Department8-University0-Course6,ff82317
Department8-University0-GraduateStudent54,Department8-University0-Course38,ff82318
Department8-University0-GraduateStudent58,Department8-University0-Course56,ff82319
Department8-University0-GraduateStudent59,Department8-University0-Course39,ff82320
Department8-University0-GraduateStudent60,Department8-University0-Course36,ff82321
Department8-University0-GraduateStudent64,Department8-University0-Course5,ff82322
Department8-University0-GraduateStudent75,Department8-University0-Course50,ff82323
Department8-University0-GraduateStudent76,Department8-University0-Course12,ff82324
Department8-University0-GraduateStudent78,Department8-University0-Course11,ff82325
Department8-University0-GraduateStudent85,Department8-University0-Course17,ff82326
Department8-University0-GraduateStudent107,Department8-University0-Course20,ff82327
Department8-University0-GraduateStudent110,Department8-University0-Course28,ff82328
Department8-University0-GraduateStudent112,Department8-University0-Course35,ff82329
Department8-University0-GraduateStudent116,Department8-University0-Course4,ff82330
Department8-University0-GraduateStudent117,Department8-University0-Course30,ff82331
Department8-University0-GraduateStudent121,Department8-University0-Course40,ff82332
Department8-University0-GraduateStudent122,Department8-University0-Course61,ff82333
Department8-University0-GraduateStudent125,Department8-University0-Course59,ff82334
Department8-University0-GraduateStudent126,Department8-University0-Course47,ff82335
Department8-University0-GraduateStudent128,Department8-University0-Course18,ff82336
Department8-University0-GraduateStudent130,Department8-University0-Course45,ff82337
Department8-University0-GraduateStudent134,Department8-University0-Course31,ff82338
Department8-University0-GraduateStudent140,Department8-University0-Course57,ff82339
Department9-University0-GraduateStudent1,Department9-University0-Course45,ff82340
Department9-University0-GraduateStudent4,Department9-University0-Course42,ff82341
Department9-University0-GraduateStudent11,Department9-University0-Course32,ff82342
Department9-University0-GraduateStudent12,Department9-University0-Course18,ff82343
Department9-University0-GraduateStudent14,Department9-University0-Course1,ff82344
Department9-University0-GraduateStudent28,Department9-University0-Course27,ff82345
Department9-University0-GraduateStudent34,Department9-University0-Course20,ff82346
Department9-University0-GraduateStudent38,Department9-University0-Course10,ff82347
Department9-University0-GraduateStudent41,Department9-University0-Course31,ff82348
Department9-University0-GraduateStudent43,Department9-University0-Course40,ff82349
Department9-University0-GraduateStudent48,Department9-University0-Course5,ff82350
Department9-University0-GraduateStudent51,Department9-University0-Course16,ff82351
Department9-University0-GraduateStudent52,Department9-University0-Course24,ff82352
Department9-University0-GraduateStudent65,Department9-University0-Course13,ff82353
Department9-University0-GraduateStudent66,Department9-University0-Course29,ff82354
Department9-University0-GraduateStudent71,Department9-University0-Course28,ff82355
Department9-University0-GraduateStudent76,Department9-University0-Course25,ff82356
Department9-University0-GraduateStudent79,Department9-University0-Course34,ff82357
Department9-University0-GraduateStudent85,Department9-University0-Course37,ff82358
Department9-University0-GraduateStudent86,Department9-University0-Course3,ff82359
Department9-University0-GraduateStudent88,Department9-University0-Course26,ff82360
Department9-University0-GraduateStudent92,Department9-University0-Course35,ff82361
Department9-University0-GraduateStudent96,Department9-University0-Course11,ff82362
Department9-University0-GraduateStudent104,Department9-University0-Course0,ff82363
