p5,p7
p7,p5
p9,p11
p11,p9
p1,p5
p5,p1
p8,p9
p9,p8
p13,p14
p14,p13
p9,p12
p12,p9
p1,p6
p6,p1
p7,p11
p11,p7
p3,p6
p6,p3
p2,p14
p14,p2
p8,p10
p10,p8
p6,p11
p11,p6
p1,p12
p12,p1
p6,p12
p12,p6
p4,p7
p7,p4
p1,p8
p8,p1
p3,p9
p9,p3
p1,p2
p2,p1
