Department0-University0-AssistantProfessor0,ff39255
Department0-University0-AssistantProfessor1,ff39256
Department0-University0-AssistantProfessor2,ff39257
Department0-University0-AssistantProfessor3,ff39258
Department0-University0-AssistantProfessor4,ff39259
Department0-University0-AssistantProfessor5,ff39260
Department0-University0-AssistantProfessor6,ff39261
Department0-University0-AssistantProfessor7,ff39262
Department0-University0-AssistantProfessor8,ff39263
Department0-University0-AssistantProfessor9,ff39264
Department0-University1-AssistantProfessor0,ff39265
Department0-University1-AssistantProfessor1,ff39266
Department0-University1-AssistantProfessor2,ff39267
Department0-University1-AssistantProfessor3,ff39268
Department0-University1-AssistantProfessor4,ff39269
Department0-University1-AssistantProfessor5,ff39270
Department0-University1-AssistantProfessor6,ff39271
Department0-University1-AssistantProfessor7,ff39272
Department0-University1-AssistantProfessor8,ff39273
Department0-University2-AssistantProfessor0,ff39274
Department0-University2-AssistantProfessor1,ff39275
Department0-University2-AssistantProfessor2,ff39276
Department0-University2-AssistantProfessor3,ff39277
Department0-University2-AssistantProfessor4,ff39278
Department0-University2-AssistantProfessor5,ff39279
Department0-University2-AssistantProfessor6,ff39280
Department0-University2-AssistantProfessor7,ff39281
Department0-University3-AssistantProfessor0,ff39282
Department0-University3-AssistantProfessor10,ff39283
Department0-University3-AssistantProfessor1,ff39284
Department0-University3-AssistantProfessor2,ff39285
Department0-University3-AssistantProfessor3,ff39286
Department0-University3-AssistantProfessor4,ff39287
Department0-University3-AssistantProfessor5,ff39288
Department0-University3-AssistantProfessor6,ff39289
Department0-University3-AssistantProfessor7,ff39290
Department0-University3-AssistantProfessor8,ff39291
Department0-University3-AssistantProfessor9,ff39292
Department0-University4-AssistantProfessor0,ff39293
Department0-University4-AssistantProfessor10,ff39294
Department0-University4-AssistantProfessor1,ff39295
Department0-University4-AssistantProfessor2,ff39296
Department0-University4-AssistantProfessor3,ff39297
Department0-University4-AssistantProfessor4,ff39298
Department0-University4-AssistantProfessor5,ff39299
Department0-University4-AssistantProfessor6,ff39300
Department0-University4-AssistantProfessor7,ff39301
Department0-University4-AssistantProfessor8,ff39302
Department0-University4-AssistantProfessor9,ff39303
Department0-University5-AssistantProfessor0,ff39304
Department0-University5-AssistantProfessor1,ff39305
Department0-University5-AssistantProfessor2,ff39306
Department0-University5-AssistantProfessor3,ff39307
Department0-University5-AssistantProfessor4,ff39308
Department0-University5-AssistantProfessor5,ff39309
Department0-University5-AssistantProfessor6,ff39310
Department0-University5-AssistantProfessor7,ff39311
Department0-University5-AssistantProfessor8,ff39312
Department0-University5-AssistantProfessor9,ff39313
Department0-University6-AssistantProfessor0,ff39314
Department0-University6-AssistantProfessor1,ff39315
Department0-University6-AssistantProfessor2,ff39316
Department0-University6-AssistantProfessor3,ff39317
Department0-University6-AssistantProfessor4,ff39318
Department0-University6-AssistantProfessor5,ff39319
Department0-University6-AssistantProfessor6,ff39320
Department0-University6-AssistantProfessor7,ff39321
Department0-University7-AssistantProfessor0,ff39322
Department0-University7-AssistantProfessor1,ff39323
Department0-University7-AssistantProfessor2,ff39324
Department0-University7-AssistantProfessor3,ff39325
Department0-University7-AssistantProfessor4,ff39326
Department0-University7-AssistantProfessor5,ff39327
Department0-University7-AssistantProfessor6,ff39328
Department0-University7-AssistantProfessor7,ff39329
Department0-University8-AssistantProfessor0,ff39330
Department0-University8-AssistantProfessor1,ff39331
Department0-University8-AssistantProfessor2,ff39332
Department0-University8-AssistantProfessor3,ff39333
Department0-University8-AssistantProfessor4,ff39334
Department0-University8-AssistantProfessor5,ff39335
Department0-University8-AssistantProfessor6,ff39336
Department0-University8-AssistantProfessor7,ff39337
Department0-University9-AssistantProfessor0,ff39338
Department0-University9-AssistantProfessor10,ff39339
Department0-University9-AssistantProfessor1,ff39340
Department0-University9-AssistantProfessor2,ff39341
Department0-University9-AssistantProfessor3,ff39342
Department0-University9-AssistantProfessor4,ff39343
Department0-University9-AssistantProfessor5,ff39344
Department0-University9-AssistantProfessor6,ff39345
Department0-University9-AssistantProfessor7,ff39346
Department0-University9-AssistantProfessor8,ff39347
Department0-University9-AssistantProfessor9,ff39348
Department10-University0-AssistantProfessor0,ff39349
Department10-University0-AssistantProfessor10,ff39350
Department10-University0-AssistantProfessor1,ff39351
Department10-University0-AssistantProfessor2,ff39352
Department10-University0-AssistantProfessor3,ff39353
Department10-University0-AssistantProfessor4,ff39354
Department10-University0-AssistantProfessor5,ff39355
Department10-University0-AssistantProfessor6,ff39356
Department10-University0-AssistantProfessor7,ff39357
Department10-University0-AssistantProfessor8,ff39358
Department10-University0-AssistantProfessor9,ff39359
Department10-University1-AssistantProfessor0,ff39360
Department10-University1-AssistantProfessor10,ff39361
Department10-University1-AssistantProfessor1,ff39362
Department10-University1-AssistantProfessor2,ff39363
Department10-University1-AssistantProfessor3,ff39364
Department10-University1-AssistantProfessor4,ff39365
Department10-University1-AssistantProfessor5,ff39366
Department10-University1-AssistantProfessor6,ff39367
Department10-University1-AssistantProfessor7,ff39368
Department10-University1-AssistantProfessor8,ff39369
Department10-University1-AssistantProfessor9,ff39370
Department10-University2-AssistantProfessor0,ff39371
Department10-University2-AssistantProfessor10,ff39372
Department10-University2-AssistantProfessor1,ff39373
Department10-University2-AssistantProfessor2,ff39374
Department10-University2-AssistantProfessor3,ff39375
Department10-University2-AssistantProfessor4,ff39376
Department10-University2-AssistantProfessor5,ff39377
Department10-University2-AssistantProfessor6,ff39378
Department10-University2-AssistantProfessor7,ff39379
Department10-University2-AssistantProfessor8,ff39380
Department10-University2-AssistantProfessor9,ff39381
Department10-University3-AssistantProfessor0,ff39382
Department10-University3-AssistantProfessor1,ff39383
Department10-University3-AssistantProfessor2,ff39384
Department10-University3-AssistantProfessor3,ff39385
Department10-University3-AssistantProfessor4,ff39386
Department10-University3-AssistantProfessor5,ff39387
Department10-University3-AssistantProfessor6,ff39388
Department10-University3-AssistantProfessor7,ff39389
Department10-University3-AssistantProfessor8,ff39390
Department10-University4-AssistantProfessor0,ff39391
Department10-University4-AssistantProfessor1,ff39392
Department10-University4-AssistantProfessor2,ff39393
Department10-University4-AssistantProfessor3,ff39394
Department10-University4-AssistantProfessor4,ff39395
Department10-University4-AssistantProfessor5,ff39396
Department10-University4-AssistantProfessor6,ff39397
Department10-University4-AssistantProfessor7,ff39398
Department10-University5-AssistantProfessor0,ff39399
Department10-University5-AssistantProfessor1,ff39400
Department10-University5-AssistantProfessor2,ff39401
Department10-University5-AssistantProfessor3,ff39402
Department10-University5-AssistantProfessor4,ff39403
Department10-University5-AssistantProfessor5,ff39404
Department10-University5-AssistantProfessor6,ff39405
Department10-University5-AssistantProfessor7,ff39406
Department10-University5-AssistantProfessor8,ff39407
Department10-University5-AssistantProfessor9,ff39408
Department10-University6-AssistantProfessor0,ff39409
Department10-University6-AssistantProfessor1,ff39410
Department10-University6-AssistantProfessor2,ff39411
Department10-University6-AssistantProfessor3,ff39412
Department10-University6-AssistantProfessor4,ff39413
Department10-University6-AssistantProfessor5,ff39414
Department10-University6-AssistantProfessor6,ff39415
Department10-University6-AssistantProfessor7,ff39416
Department10-University6-AssistantProfessor8,ff39417
Department10-University7-AssistantProfessor0,ff39418
Department10-University7-AssistantProfessor10,ff39419
Department10-University7-AssistantProfessor1,ff39420
Department10-University7-AssistantProfessor2,ff39421
Department10-University7-AssistantProfessor3,ff39422
Department10-University7-AssistantProfessor4,ff39423
Department10-University7-AssistantProfessor5,ff39424
Department10-University7-AssistantProfessor6,ff39425
Department10-University7-AssistantProfessor7,ff39426
Department10-University7-AssistantProfessor8,ff39427
Department10-University7-AssistantProfessor9,ff39428
Department10-University8-AssistantProfessor0,ff39429
Department10-University8-AssistantProfessor1,ff39430
Department10-University8-AssistantProfessor2,ff39431
Department10-University8-AssistantProfessor3,ff39432
Department10-University8-AssistantProfessor4,ff39433
Department10-University8-AssistantProfessor5,ff39434
Department10-University8-AssistantProfessor6,ff39435
Department10-University8-AssistantProfessor7,ff39436
Department10-University8-AssistantProfessor8,ff39437
Department10-University9-AssistantProfessor0,ff39438
Department10-University9-AssistantProfessor1,ff39439
Department10-University9-AssistantProfessor2,ff39440
Department10-University9-AssistantProfessor3,ff39441
Department10-University9-AssistantProfessor4,ff39442
Department10-University9-AssistantProfessor5,ff39443
Department10-University9-AssistantProfessor6,ff39444
Department10-University9-AssistantProfessor7,ff39445
Department10-University9-AssistantProfessor8,ff39446
Department10-University9-AssistantProfessor9,ff39447
Department11-University0-AssistantProfessor0,ff39448
Department11-University0-AssistantProfessor10,ff39449
Department11-University0-AssistantProfessor1,ff39450
Department11-University0-AssistantProfessor2,ff39451
Department11-University0-AssistantProfessor3,ff39452
Department11-University0-AssistantProfessor4,ff39453
Department11-University0-AssistantProfessor5,ff39454
Department11-University0-AssistantProfessor6,ff39455
Department11-University0-AssistantProfessor7,ff39456
Department11-University0-AssistantProfessor8,ff39457
Department11-University0-AssistantProfessor9,ff39458
Department11-University1-AssistantProfessor0,ff39459
Department11-University1-AssistantProfessor1,ff39460
Department11-University1-AssistantProfessor2,ff39461
Department11-University1-AssistantProfessor3,ff39462
Department11-University1-AssistantProfessor4,ff39463
Department11-University1-AssistantProfessor5,ff39464
Department11-University1-AssistantProfessor6,ff39465
Department11-University1-AssistantProfessor7,ff39466
Department11-University2-AssistantProfessor0,ff39467
Department11-University2-AssistantProfessor1,ff39468
Department11-University2-AssistantProfessor2,ff39469
Department11-University2-AssistantProfessor3,ff39470
Department11-University2-AssistantProfessor4,ff39471
Department11-University2-AssistantProfessor5,ff39472
Department11-University2-AssistantProfessor6,ff39473
Department11-University2-AssistantProfessor7,ff39474
Department11-University3-AssistantProfessor0,ff39475
Department11-University3-AssistantProfessor10,ff39476
Department11-University3-AssistantProfessor1,ff39477
Department11-University3-AssistantProfessor2,ff39478
Department11-University3-AssistantProfessor3,ff39479
Department11-University3-AssistantProfessor4,ff39480
Department11-University3-AssistantProfessor5,ff39481
Department11-University3-AssistantProfessor6,ff39482
Department11-University3-AssistantProfessor7,ff39483
Department11-University3-AssistantProfessor8,ff39484
Department11-University3-AssistantProfessor9,ff39485
Department11-University4-AssistantProfessor0,ff39486
Department11-University4-AssistantProfessor10,ff39487
Department11-University4-AssistantProfessor1,ff39488
Department11-University4-AssistantProfessor2,ff39489
Department11-University4-AssistantProfessor3,ff39490
Department11-University4-AssistantProfessor4,ff39491
Department11-University4-AssistantProfessor5,ff39492
Department11-University4-AssistantProfessor6,ff39493
Department11-University4-AssistantProfessor7,ff39494
Department11-University4-AssistantProfessor8,ff39495
Department11-University4-AssistantProfessor9,ff39496
Department11-University5-AssistantProfessor0,ff39497
Department11-University5-AssistantProfessor1,ff39498
Department11-University5-AssistantProfessor2,ff39499
Department11-University5-AssistantProfessor3,ff39500
Department11-University5-AssistantProfessor4,ff39501
Department11-University5-AssistantProfessor5,ff39502
Department11-University5-AssistantProfessor6,ff39503
Department11-University5-AssistantProfessor7,ff39504
Department11-University6-AssistantProfessor0,ff39505
Department11-University6-AssistantProfessor1,ff39506
Department11-University6-AssistantProfessor2,ff39507
Department11-University6-AssistantProfessor3,ff39508
Department11-University6-AssistantProfessor4,ff39509
Department11-University6-AssistantProfessor5,ff39510
Department11-University6-AssistantProfessor6,ff39511
Department11-University6-AssistantProfessor7,ff39512
Department11-University6-AssistantProfessor8,ff39513
Department11-University7-AssistantProfessor0,ff39514
Department11-University7-AssistantProfessor10,ff39515
Department11-University7-AssistantProfessor1,ff39516
Department11-University7-AssistantProfessor2,ff39517
Department11-University7-AssistantProfessor3,ff39518
Department11-University7-AssistantProfessor4,ff39519
Department11-University7-AssistantProfessor5,ff39520
Department11-University7-AssistantProfessor6,ff39521
Department11-University7-AssistantProfessor7,ff39522
Department11-University7-AssistantProfessor8,ff39523
Department11-University7-AssistantProfessor9,ff39524
Department11-University8-AssistantProfessor0,ff39525
Department11-University8-AssistantProfessor1,ff39526
Department11-University8-AssistantProfessor2,ff39527
Department11-University8-AssistantProfessor3,ff39528
Department11-University8-AssistantProfessor4,ff39529
Department11-University8-AssistantProfessor5,ff39530
Department11-University8-AssistantProfessor6,ff39531
Department11-University8-AssistantProfessor7,ff39532
Department11-University9-AssistantProfessor0,ff39533
Department11-University9-AssistantProfessor10,ff39534
Department11-University9-AssistantProfessor1,ff39535
Department11-University9-AssistantProfessor2,ff39536
Department11-University9-AssistantProfessor3,ff39537
Department11-University9-AssistantProfessor4,ff39538
Department11-University9-AssistantProfessor5,ff39539
Department11-University9-AssistantProfessor6,ff39540
Department11-University9-AssistantProfessor7,ff39541
Department11-University9-AssistantProfessor8,ff39542
Department11-University9-AssistantProfessor9,ff39543
Department12-University0-AssistantProfessor0,ff39544
Department12-University0-AssistantProfessor10,ff39545
Department12-University0-AssistantProfessor1,ff39546
Department12-University0-AssistantProfessor2,ff39547
Department12-University0-AssistantProfessor3,ff39548
Department12-University0-AssistantProfessor4,ff39549
Department12-University0-AssistantProfessor5,ff39550
Department12-University0-AssistantProfessor6,ff39551
Department12-University0-AssistantProfessor7,ff39552
Department12-University0-AssistantProfessor8,ff39553
Department12-University0-AssistantProfessor9,ff39554
Department12-University1-AssistantProfessor0,ff39555
Department12-University1-AssistantProfessor1,ff39556
Department12-University1-AssistantProfessor2,ff39557
Department12-University1-AssistantProfessor3,ff39558
Department12-University1-AssistantProfessor4,ff39559
Department12-University1-AssistantProfessor5,ff39560
Department12-University1-AssistantProfessor6,ff39561
Department12-University1-AssistantProfessor7,ff39562
Department12-University1-AssistantProfessor8,ff39563
Department12-University2-AssistantProfessor0,ff39564
Department12-University2-AssistantProfessor10,ff39565
Department12-University2-AssistantProfessor1,ff39566
Department12-University2-AssistantProfessor2,ff39567
Department12-University2-AssistantProfessor3,ff39568
Department12-University2-AssistantProfessor4,ff39569
Department12-University2-AssistantProfessor5,ff39570
Department12-University2-AssistantProfessor6,ff39571
Department12-University2-AssistantProfessor7,ff39572
Department12-University2-AssistantProfessor8,ff39573
Department12-University2-AssistantProfessor9,ff39574
Department12-University3-AssistantProfessor0,ff39575
Department12-University3-AssistantProfessor1,ff39576
Department12-University3-AssistantProfessor2,ff39577
Department12-University3-AssistantProfessor3,ff39578
Department12-University3-AssistantProfessor4,ff39579
Department12-University3-AssistantProfessor5,ff39580
Department12-University3-AssistantProfessor6,ff39581
Department12-University3-AssistantProfessor7,ff39582
Department12-University3-AssistantProfessor8,ff39583
Department12-University3-AssistantProfessor9,ff39584
Department12-University4-AssistantProfessor0,ff39585
Department12-University4-AssistantProfessor1,ff39586
Department12-University4-AssistantProfessor2,ff39587
Department12-University4-AssistantProfessor3,ff39588
Department12-University4-AssistantProfessor4,ff39589
Department12-University4-AssistantProfessor5,ff39590
Department12-University4-AssistantProfessor6,ff39591
Department12-University4-AssistantProfessor7,ff39592
Department12-University4-AssistantProfessor8,ff39593
Department12-University4-AssistantProfessor9,ff39594
Department12-University5-AssistantProfessor0,ff39595
Department12-University5-AssistantProfessor1,ff39596
Department12-University5-AssistantProfessor2,ff39597
Department12-University5-AssistantProfessor3,ff39598
Department12-University5-AssistantProfessor4,ff39599
Department12-University5-AssistantProfessor5,ff39600
Department12-University5-AssistantProfessor6,ff39601
Department12-University5-AssistantProfessor7,ff39602
Department12-University5-AssistantProfessor8,ff39603
Department12-University6-AssistantProfessor0,ff39604
Department12-University6-AssistantProfessor10,ff39605
Department12-University6-AssistantProfessor1,ff39606
Department12-University6-AssistantProfessor2,ff39607
Department12-University6-AssistantProfessor3,ff39608
Department12-University6-AssistantProfessor4,ff39609
Department12-University6-AssistantProfessor5,ff39610
Department12-University6-AssistantProfessor6,ff39611
Department12-University6-AssistantProfessor7,ff39612
Department12-University6-AssistantProfessor8,ff39613
Department12-University6-AssistantProfessor9,ff39614
Department12-University7-AssistantProfessor0,ff39615
Department12-University7-AssistantProfessor1,ff39616
Department12-University7-AssistantProfessor2,ff39617
Department12-University7-AssistantProfessor3,ff39618
Department12-University7-AssistantProfessor4,ff39619
Department12-University7-AssistantProfessor5,ff39620
Department12-University7-AssistantProfessor6,ff39621
Department12-University7-AssistantProfessor7,ff39622
Department12-University7-AssistantProfessor8,ff39623
Department12-University7-AssistantProfessor9,ff39624
Department12-University8-AssistantProfessor0,ff39625
Department12-University8-AssistantProfessor1,ff39626
Department12-University8-AssistantProfessor2,ff39627
Department12-University8-AssistantProfessor3,ff39628
Department12-University8-AssistantProfessor4,ff39629
Department12-University8-AssistantProfessor5,ff39630
Department12-University8-AssistantProfessor6,ff39631
Department12-University8-AssistantProfessor7,ff39632
Department12-University8-AssistantProfessor8,ff39633
Department12-University9-AssistantProfessor0,ff39634
Department12-University9-AssistantProfessor1,ff39635
Department12-University9-AssistantProfessor2,ff39636
Department12-University9-AssistantProfessor3,ff39637
Department12-University9-AssistantProfessor4,ff39638
Department12-University9-AssistantProfessor5,ff39639
Department12-University9-AssistantProfessor6,ff39640
Department12-University9-AssistantProfessor7,ff39641
Department12-University9-AssistantProfessor8,ff39642
Department13-University0-AssistantProfessor0,ff39643
Department13-University0-AssistantProfessor10,ff39644
Department13-University0-AssistantProfessor1,ff39645
Department13-University0-AssistantProfessor2,ff39646
Department13-University0-AssistantProfessor3,ff39647
Department13-University0-AssistantProfessor4,ff39648
Department13-University0-AssistantProfessor5,ff39649
Department13-University0-AssistantProfessor6,ff39650
Department13-University0-AssistantProfessor7,ff39651
Department13-University0-AssistantProfessor8,ff39652
Department13-University0-AssistantProfessor9,ff39653
Department13-University1-AssistantProfessor0,ff39654
Department13-University1-AssistantProfessor1,ff39655
Department13-University1-AssistantProfessor2,ff39656
Department13-University1-AssistantProfessor3,ff39657
Department13-University1-AssistantProfessor4,ff39658
Department13-University1-AssistantProfessor5,ff39659
Department13-University1-AssistantProfessor6,ff39660
Department13-University1-AssistantProfessor7,ff39661
Department13-University1-AssistantProfessor8,ff39662
Department13-University2-AssistantProfessor0,ff39663
Department13-University2-AssistantProfessor10,ff39664
Department13-University2-AssistantProfessor1,ff39665
Department13-University2-AssistantProfessor2,ff39666
Department13-University2-AssistantProfessor3,ff39667
Department13-University2-AssistantProfessor4,ff39668
Department13-University2-AssistantProfessor5,ff39669
Department13-University2-AssistantProfessor6,ff39670
Department13-University2-AssistantProfessor7,ff39671
Department13-University2-AssistantProfessor8,ff39672
Department13-University2-AssistantProfessor9,ff39673
Department13-University3-AssistantProfessor0,ff39674
Department13-University3-AssistantProfessor1,ff39675
Department13-University3-AssistantProfessor2,ff39676
Department13-University3-AssistantProfessor3,ff39677
Department13-University3-AssistantProfessor4,ff39678
Department13-University3-AssistantProfessor5,ff39679
Department13-University3-AssistantProfessor6,ff39680
Department13-University3-AssistantProfessor7,ff39681
Department13-University3-AssistantProfessor8,ff39682
Department13-University4-AssistantProfessor0,ff39683
Department13-University4-AssistantProfessor10,ff39684
Department13-University4-AssistantProfessor1,ff39685
Department13-University4-AssistantProfessor2,ff39686
Department13-University4-AssistantProfessor3,ff39687
Department13-University4-AssistantProfessor4,ff39688
Department13-University4-AssistantProfessor5,ff39689
Department13-University4-AssistantProfessor6,ff39690
Department13-University4-AssistantProfessor7,ff39691
Department13-University4-AssistantProfessor8,ff39692
Department13-University4-AssistantProfessor9,ff39693
Department13-University5-AssistantProfessor0,ff39694
Department13-University5-AssistantProfessor1,ff39695
Department13-University5-AssistantProfessor2,ff39696
Department13-University5-AssistantProfessor3,ff39697
Department13-University5-AssistantProfessor4,ff39698
Department13-University5-AssistantProfessor5,ff39699
Department13-University5-AssistantProfessor6,ff39700
Department13-University5-AssistantProfessor7,ff39701
Department13-University6-AssistantProfessor0,ff39702
Department13-University6-AssistantProfessor1,ff39703
Department13-University6-AssistantProfessor2,ff39704
Department13-University6-AssistantProfessor3,ff39705
Department13-University6-AssistantProfessor4,ff39706
Department13-University6-AssistantProfessor5,ff39707
Department13-University6-AssistantProfessor6,ff39708
Department13-University6-AssistantProfessor7,ff39709
Department13-University6-AssistantProfessor8,ff39710
Department13-University6-AssistantProfessor9,ff39711
Department13-University7-AssistantProfessor0,ff39712
Department13-University7-AssistantProfessor10,ff39713
Department13-University7-AssistantProfessor1,ff39714
Department13-University7-AssistantProfessor2,ff39715
Department13-University7-AssistantProfessor3,ff39716
Department13-University7-AssistantProfessor4,ff39717
Department13-University7-AssistantProfessor5,ff39718
Department13-University7-AssistantProfessor6,ff39719
Department13-University7-AssistantProfessor7,ff39720
Department13-University7-AssistantProfessor8,ff39721
Department13-University7-AssistantProfessor9,ff39722
Department13-University8-AssistantProfessor0,ff39723
Department13-University8-AssistantProfessor1,ff39724
Department13-University8-AssistantProfessor2,ff39725
Department13-University8-AssistantProfessor3,ff39726
Department13-University8-AssistantProfessor4,ff39727
Department13-University8-AssistantProfessor5,ff39728
Department13-University8-AssistantProfessor6,ff39729
Department13-University8-AssistantProfessor7,ff39730
Department13-University9-AssistantProfessor0,ff39731
Department13-University9-AssistantProfessor1,ff39732
Department13-University9-AssistantProfessor2,ff39733
Department13-University9-AssistantProfessor3,ff39734
Department13-University9-AssistantProfessor4,ff39735
Department13-University9-AssistantProfessor5,ff39736
Department13-University9-AssistantProfessor6,ff39737
Department13-University9-AssistantProfessor7,ff39738
Department13-University9-AssistantProfessor8,ff39739
Department13-University9-AssistantProfessor9,ff39740
Department14-University0-AssistantProfessor0,ff39741
Department14-University0-AssistantProfessor1,ff39742
Department14-University0-AssistantProfessor2,ff39743
Department14-University0-AssistantProfessor3,ff39744
Department14-University0-AssistantProfessor4,ff39745
Department14-University0-AssistantProfessor5,ff39746
Department14-University0-AssistantProfessor6,ff39747
Department14-University0-AssistantProfessor7,ff39748
Department14-University1-AssistantProfessor0,ff39749
Department14-University1-AssistantProfessor1,ff39750
Department14-University1-AssistantProfessor2,ff39751
Department14-University1-AssistantProfessor3,ff39752
Department14-University1-AssistantProfessor4,ff39753
Department14-University1-AssistantProfessor5,ff39754
Department14-University1-AssistantProfessor6,ff39755
Department14-University1-AssistantProfessor7,ff39756
Department14-University1-AssistantProfessor8,ff39757
Department14-University1-AssistantProfessor9,ff39758
Department14-University2-AssistantProfessor0,ff39759
Department14-University2-AssistantProfessor1,ff39760
Department14-University2-AssistantProfessor2,ff39761
Department14-University2-AssistantProfessor3,ff39762
Department14-University2-AssistantProfessor4,ff39763
Department14-University2-AssistantProfessor5,ff39764
Department14-University2-AssistantProfessor6,ff39765
Department14-University2-AssistantProfessor7,ff39766
Department14-University2-AssistantProfessor8,ff39767
Department14-University2-AssistantProfessor9,ff39768
Department14-University3-AssistantProfessor0,ff39769
Department14-University3-AssistantProfessor1,ff39770
Department14-University3-AssistantProfessor2,ff39771
Department14-University3-AssistantProfessor3,ff39772
Department14-University3-AssistantProfessor4,ff39773
Department14-University3-AssistantProfessor5,ff39774
Department14-University3-AssistantProfessor6,ff39775
Department14-University3-AssistantProfessor7,ff39776
Department14-University3-AssistantProfessor8,ff39777
Department14-University3-AssistantProfessor9,ff39778
Department14-University4-AssistantProfessor0,ff39779
Department14-University4-AssistantProfessor1,ff39780
Department14-University4-AssistantProfessor2,ff39781
Department14-University4-AssistantProfessor3,ff39782
Department14-University4-AssistantProfessor4,ff39783
Department14-University4-AssistantProfessor5,ff39784
Department14-University4-AssistantProfessor6,ff39785
Department14-University4-AssistantProfessor7,ff39786
Department14-University4-AssistantProfessor8,ff39787
Department14-University4-AssistantProfessor9,ff39788
Department14-University5-AssistantProfessor0,ff39789
Department14-University5-AssistantProfessor10,ff39790
Department14-University5-AssistantProfessor1,ff39791
Department14-University5-AssistantProfessor2,ff39792
Department14-University5-AssistantProfessor3,ff39793
Department14-University5-AssistantProfessor4,ff39794
Department14-University5-AssistantProfessor5,ff39795
Department14-University5-AssistantProfessor6,ff39796
Department14-University5-AssistantProfessor7,ff39797
Department14-University5-AssistantProfessor8,ff39798
Department14-University5-AssistantProfessor9,ff39799
Department14-University6-AssistantProfessor0,ff39800
Department14-University6-AssistantProfessor1,ff39801
Department14-University6-AssistantProfessor2,ff39802
Department14-University6-AssistantProfessor3,ff39803
Department14-University6-AssistantProfessor4,ff39804
Department14-University6-AssistantProfessor5,ff39805
Department14-University6-AssistantProfessor6,ff39806
Department14-University6-AssistantProfessor7,ff39807
Department14-University6-AssistantProfessor8,ff39808
Department14-University7-AssistantProfessor0,ff39809
Department14-University7-AssistantProfessor1,ff39810
Department14-University7-AssistantProfessor2,ff39811
Department14-University7-AssistantProfessor3,ff39812
Department14-University7-AssistantProfessor4,ff39813
Department14-University7-AssistantProfessor5,ff39814
Department14-University7-AssistantProfessor6,ff39815
Department14-University7-AssistantProfessor7,ff39816
Department14-University7-AssistantProfessor8,ff39817
Department14-University7-AssistantProfessor9,ff39818
Department14-University8-AssistantProfessor0,ff39819
Department14-University8-AssistantProfessor10,ff39820
Department14-University8-AssistantProfessor1,ff39821
Department14-University8-AssistantProfessor2,ff39822
Department14-University8-AssistantProfessor3,ff39823
Department14-University8-AssistantProfessor4,ff39824
Department14-University8-AssistantProfessor5,ff39825
Department14-University8-AssistantProfessor6,ff39826
Department14-University8-AssistantProfessor7,ff39827
Department14-University8-AssistantProfessor8,ff39828
Department14-University8-AssistantProfessor9,ff39829
Department14-University9-AssistantProfessor0,ff39830
Department14-University9-AssistantProfessor1,ff39831
Department14-University9-AssistantProfessor2,ff39832
Department14-University9-AssistantProfessor3,ff39833
Department14-University9-AssistantProfessor4,ff39834
Department14-University9-AssistantProfessor5,ff39835
Department14-University9-AssistantProfessor6,ff39836
Department14-University9-AssistantProfessor7,ff39837
Department14-University9-AssistantProfessor8,ff39838
Department15-University1-AssistantProfessor0,ff39839
Department15-University1-AssistantProfessor1,ff39840
Department15-University1-AssistantProfessor2,ff39841
Department15-University1-AssistantProfessor3,ff39842
Department15-University1-AssistantProfessor4,ff39843
Department15-University1-AssistantProfessor5,ff39844
Department15-University1-AssistantProfessor6,ff39845
Department15-University1-AssistantProfessor7,ff39846
Department15-University1-AssistantProfessor8,ff39847
Department15-University1-AssistantProfessor9,ff39848
Department15-University2-AssistantProfessor0,ff39849
Department15-University2-AssistantProfessor1,ff39850
Department15-University2-AssistantProfessor2,ff39851
Department15-University2-AssistantProfessor3,ff39852
Department15-University2-AssistantProfessor4,ff39853
Department15-University2-AssistantProfessor5,ff39854
Department15-University2-AssistantProfessor6,ff39855
Department15-University2-AssistantProfessor7,ff39856
Department15-University2-AssistantProfessor8,ff39857
Department15-University3-AssistantProfessor0,ff39858
Department15-University3-AssistantProfessor10,ff39859
Department15-University3-AssistantProfessor1,ff39860
Department15-University3-AssistantProfessor2,ff39861
Department15-University3-AssistantProfessor3,ff39862
Department15-University3-AssistantProfessor4,ff39863
Department15-University3-AssistantProfessor5,ff39864
Department15-University3-AssistantProfessor6,ff39865
Department15-University3-AssistantProfessor7,ff39866
Department15-University3-AssistantProfessor8,ff39867
Department15-University3-AssistantProfessor9,ff39868
Department15-University4-AssistantProfessor0,ff39869
Department15-University4-AssistantProfessor1,ff39870
Department15-University4-AssistantProfessor2,ff39871
Department15-University4-AssistantProfessor3,ff39872
Department15-University4-AssistantProfessor4,ff39873
Department15-University4-AssistantProfessor5,ff39874
Department15-University4-AssistantProfessor6,ff39875
Department15-University4-AssistantProfessor7,ff39876
Department15-University6-AssistantProfessor0,ff39877
Department15-University6-AssistantProfessor1,ff39878
Department15-University6-AssistantProfessor2,ff39879
Department15-University6-AssistantProfessor3,ff39880
Department15-University6-AssistantProfessor4,ff39881
Department15-University6-AssistantProfessor5,ff39882
Department15-University6-AssistantProfessor6,ff39883
Department15-University6-AssistantProfessor7,ff39884
Department15-University7-AssistantProfessor0,ff39885
Department15-University7-AssistantProfessor1,ff39886
Department15-University7-AssistantProfessor2,ff39887
Department15-University7-AssistantProfessor3,ff39888
Department15-University7-AssistantProfessor4,ff39889
Department15-University7-AssistantProfessor5,ff39890
Department15-University7-AssistantProfessor6,ff39891
Department15-University7-AssistantProfessor7,ff39892
Department15-University7-AssistantProfessor8,ff39893
Department15-University7-AssistantProfessor9,ff39894
Department15-University8-AssistantProfessor0,ff39895
Department15-University8-AssistantProfessor1,ff39896
Department15-University8-AssistantProfessor2,ff39897
Department15-University8-AssistantProfessor3,ff39898
Department15-University8-AssistantProfessor4,ff39899
Department15-University8-AssistantProfessor5,ff39900
Department15-University8-AssistantProfessor6,ff39901
Department15-University8-AssistantProfessor7,ff39902
Department15-University9-AssistantProfessor0,ff39903
Department15-University9-AssistantProfessor1,ff39904
Department15-University9-AssistantProfessor2,ff39905
Department15-University9-AssistantProfessor3,ff39906
Department15-University9-AssistantProfessor4,ff39907
Department15-University9-AssistantProfessor5,ff39908
Department15-University9-AssistantProfessor6,ff39909
Department15-University9-AssistantProfessor7,ff39910
Department15-University9-AssistantProfessor8,ff39911
Department16-University1-AssistantProfessor0,ff39912
Department16-University1-AssistantProfessor10,ff39913
Department16-University1-AssistantProfessor1,ff39914
Department16-University1-AssistantProfessor2,ff39915
Department16-University1-AssistantProfessor3,ff39916
Department16-University1-AssistantProfessor4,ff39917
Department16-University1-AssistantProfessor5,ff39918
Department16-University1-AssistantProfessor6,ff39919
Department16-University1-AssistantProfessor7,ff39920
Department16-University1-AssistantProfessor8,ff39921
Department16-University1-AssistantProfessor9,ff39922
Department16-University3-AssistantProfessor0,ff39923
Department16-University3-AssistantProfessor1,ff39924
Department16-University3-AssistantProfessor2,ff39925
Department16-University3-AssistantProfessor3,ff39926
Department16-University3-AssistantProfessor4,ff39927
Department16-University3-AssistantProfessor5,ff39928
Department16-University3-AssistantProfessor6,ff39929
Department16-University3-AssistantProfessor7,ff39930
Department16-University3-AssistantProfessor8,ff39931
Department16-University3-AssistantProfessor9,ff39932
Department16-University4-AssistantProfessor0,ff39933
Department16-University4-AssistantProfessor1,ff39934
Department16-University4-AssistantProfessor2,ff39935
Department16-University4-AssistantProfessor3,ff39936
Department16-University4-AssistantProfessor4,ff39937
Department16-University4-AssistantProfessor5,ff39938
Department16-University4-AssistantProfessor6,ff39939
Department16-University4-AssistantProfessor7,ff39940
Department16-University6-AssistantProfessor0,ff39941
Department16-University6-AssistantProfessor1,ff39942
Department16-University6-AssistantProfessor2,ff39943
Department16-University6-AssistantProfessor3,ff39944
Department16-University6-AssistantProfessor4,ff39945
Department16-University6-AssistantProfessor5,ff39946
Department16-University6-AssistantProfessor6,ff39947
Department16-University6-AssistantProfessor7,ff39948
Department16-University7-AssistantProfessor0,ff39949
Department16-University7-AssistantProfessor1,ff39950
Department16-University7-AssistantProfessor2,ff39951
Department16-University7-AssistantProfessor3,ff39952
Department16-University7-AssistantProfessor4,ff39953
Department16-University7-AssistantProfessor5,ff39954
Department16-University7-AssistantProfessor6,ff39955
Department16-University7-AssistantProfessor7,ff39956
Department16-University7-AssistantProfessor8,ff39957
Department16-University7-AssistantProfessor9,ff39958
Department16-University8-AssistantProfessor0,ff39959
Department16-University8-AssistantProfessor1,ff39960
Department16-University8-AssistantProfessor2,ff39961
Department16-University8-AssistantProfessor3,ff39962
Department16-University8-AssistantProfessor4,ff39963
Department16-University8-AssistantProfessor5,ff39964
Department16-University8-AssistantProfessor6,ff39965
Department16-University8-AssistantProfessor7,ff39966
Department16-University8-AssistantProfessor8,ff39967
Department16-University8-AssistantProfessor9,ff39968
Department16-University9-AssistantProfessor0,ff39969
Department16-University9-AssistantProfessor1,ff39970
Department16-University9-AssistantProfessor2,ff39971
Department16-University9-AssistantProfessor3,ff39972
Department16-University9-AssistantProfessor4,ff39973
Department16-University9-AssistantProfessor5,ff39974
Department16-University9-AssistantProfessor6,ff39975
Department16-University9-AssistantProfessor7,ff39976
Department16-University9-AssistantProfessor8,ff39977
Department16-University9-AssistantProfessor9,ff39978
Department17-University1-AssistantProfessor0,ff39979
Department17-University1-AssistantProfessor10,ff39980
Department17-University1-AssistantProfessor1,ff39981
Department17-University1-AssistantProfessor2,ff39982
Department17-University1-AssistantProfessor3,ff39983
Department17-University1-AssistantProfessor4,ff39984
Department17-University1-AssistantProfessor5,ff39985
Department17-University1-AssistantProfessor6,ff39986
Department17-University1-AssistantProfessor7,ff39987
Department17-University1-AssistantProfessor8,ff39988
Department17-University1-AssistantProfessor9,ff39989
Department17-University3-AssistantProfessor0,ff39990
Department17-University3-AssistantProfessor1,ff39991
Department17-University3-AssistantProfessor2,ff39992
Department17-University3-AssistantProfessor3,ff39993
Department17-University3-AssistantProfessor4,ff39994
Department17-University3-AssistantProfessor5,ff39995
Department17-University3-AssistantProfessor6,ff39996
Department17-University3-AssistantProfessor7,ff39997
Department17-University3-AssistantProfessor8,ff39998
Department17-University3-AssistantProfessor9,ff39999
Department17-University4-AssistantProfessor0,ff40000
Department17-University4-AssistantProfessor10,ff40001
Department17-University4-AssistantProfessor1,ff40002
Department17-University4-AssistantProfessor2,ff40003
Department17-University4-AssistantProfessor3,ff40004
Department17-University4-AssistantProfessor4,ff40005
Department17-University4-AssistantProfessor5,ff40006
Department17-University4-AssistantProfessor6,ff40007
Department17-University4-AssistantProfessor7,ff40008
Department17-University4-AssistantProfessor8,ff40009
Department17-University4-AssistantProfessor9,ff40010
Department17-University6-AssistantProfessor0,ff40011
Department17-University6-AssistantProfessor1,ff40012
Department17-University6-AssistantProfessor2,ff40013
Department17-University6-AssistantProfessor3,ff40014
Department17-University6-AssistantProfessor4,ff40015
Department17-University6-AssistantProfessor5,ff40016
Department17-University6-AssistantProfessor6,ff40017
Department17-University6-AssistantProfessor7,ff40018
Department17-University6-AssistantProfessor8,ff40019
Department17-University6-AssistantProfessor9,ff40020
Department17-University8-AssistantProfessor0,ff40021
Department17-University8-AssistantProfessor1,ff40022
Department17-University8-AssistantProfessor2,ff40023
Department17-University8-AssistantProfessor3,ff40024
Department17-University8-AssistantProfessor4,ff40025
Department17-University8-AssistantProfessor5,ff40026
Department17-University8-AssistantProfessor6,ff40027
Department17-University8-AssistantProfessor7,ff40028
Department17-University9-AssistantProfessor0,ff40029
Department17-University9-AssistantProfessor1,ff40030
Department17-University9-AssistantProfessor2,ff40031
Department17-University9-AssistantProfessor3,ff40032
Department17-University9-AssistantProfessor4,ff40033
Department17-University9-AssistantProfessor5,ff40034
Department17-University9-AssistantProfessor6,ff40035
Department17-University9-AssistantProfessor7,ff40036
Department17-University9-AssistantProfessor8,ff40037
Department17-University9-AssistantProfessor9,ff40038
Department18-University1-AssistantProfessor0,ff40039
Department18-University1-AssistantProfessor1,ff40040
Department18-University1-AssistantProfessor2,ff40041
Department18-University1-AssistantProfessor3,ff40042
Department18-University1-AssistantProfessor4,ff40043
Department18-University1-AssistantProfessor5,ff40044
Department18-University1-AssistantProfessor6,ff40045
Department18-University1-AssistantProfessor7,ff40046
Department18-University1-AssistantProfessor8,ff40047
Department18-University3-AssistantProfessor0,ff40048
Department18-University3-AssistantProfessor1,ff40049
Department18-University3-AssistantProfessor2,ff40050
Department18-University3-AssistantProfessor3,ff40051
Department18-University3-AssistantProfessor4,ff40052
Department18-University3-AssistantProfessor5,ff40053
Department18-University3-AssistantProfessor6,ff40054
Department18-University3-AssistantProfessor7,ff40055
Department18-University3-AssistantProfessor8,ff40056
Department18-University3-AssistantProfessor9,ff40057
Department18-University4-AssistantProfessor0,ff40058
Department18-University4-AssistantProfessor1,ff40059
Department18-University4-AssistantProfessor2,ff40060
Department18-University4-AssistantProfessor3,ff40061
Department18-University4-AssistantProfessor4,ff40062
Department18-University4-AssistantProfessor5,ff40063
Department18-University4-AssistantProfessor6,ff40064
Department18-University4-AssistantProfessor7,ff40065
Department18-University6-AssistantProfessor0,ff40066
Department18-University6-AssistantProfessor1,ff40067
Department18-University6-AssistantProfessor2,ff40068
Department18-University6-AssistantProfessor3,ff40069
Department18-University6-AssistantProfessor4,ff40070
Department18-University6-AssistantProfessor5,ff40071
Department18-University6-AssistantProfessor6,ff40072
Department18-University6-AssistantProfessor7,ff40073
Department18-University9-AssistantProfessor0,ff40074
Department18-University9-AssistantProfessor1,ff40075
Department18-University9-AssistantProfessor2,ff40076
Department18-University9-AssistantProfessor3,ff40077
Department18-University9-AssistantProfessor4,ff40078
Department18-University9-AssistantProfessor5,ff40079
Department18-University9-AssistantProfessor6,ff40080
Department18-University9-AssistantProfessor7,ff40081
Department18-University9-AssistantProfessor8,ff40082
Department19-University3-AssistantProfessor0,ff40083
Department19-University3-AssistantProfessor10,ff40084
Department19-University3-AssistantProfessor1,ff40085
Department19-University3-AssistantProfessor2,ff40086
Department19-University3-AssistantProfessor3,ff40087
Department19-University3-AssistantProfessor4,ff40088
Department19-University3-AssistantProfessor5,ff40089
Department19-University3-AssistantProfessor6,ff40090
Department19-University3-AssistantProfessor7,ff40091
Department19-University3-AssistantProfessor8,ff40092
Department19-University3-AssistantProfessor9,ff40093
Department19-University4-AssistantProfessor0,ff40094
Department19-University4-AssistantProfessor10,ff40095
Department19-University4-AssistantProfessor1,ff40096
Department19-University4-AssistantProfessor2,ff40097
Department19-University4-AssistantProfessor3,ff40098
Department19-University4-AssistantProfessor4,ff40099
Department19-University4-AssistantProfessor5,ff40100
Department19-University4-AssistantProfessor6,ff40101
Department19-University4-AssistantProfessor7,ff40102
Department19-University4-AssistantProfessor8,ff40103
Department19-University4-AssistantProfessor9,ff40104
Department19-University6-AssistantProfessor0,ff40105
Department19-University6-AssistantProfessor1,ff40106
Department19-University6-AssistantProfessor2,ff40107
Department19-University6-AssistantProfessor3,ff40108
Department19-University6-AssistantProfessor4,ff40109
Department19-University6-AssistantProfessor5,ff40110
Department19-University6-AssistantProfessor6,ff40111
Department19-University6-AssistantProfessor7,ff40112
Department19-University6-AssistantProfessor8,ff40113
Department19-University6-AssistantProfessor9,ff40114
Department19-University9-AssistantProfessor0,ff40115
Department19-University9-AssistantProfessor10,ff40116
Department19-University9-AssistantProfessor1,ff40117
Department19-University9-AssistantProfessor2,ff40118
Department19-University9-AssistantProfessor3,ff40119
Department19-University9-AssistantProfessor4,ff40120
Department19-University9-AssistantProfessor5,ff40121
Department19-University9-AssistantProfessor6,ff40122
Department19-University9-AssistantProfessor7,ff40123
Department19-University9-AssistantProfessor8,ff40124
Department19-University9-AssistantProfessor9,ff40125
Department1-University0-AssistantProfessor0,ff40126
Department1-University0-AssistantProfessor1,ff40127
Department1-University0-AssistantProfessor2,ff40128
Department1-University0-AssistantProfessor3,ff40129
Department1-University0-AssistantProfessor4,ff40130
Department1-University0-AssistantProfessor5,ff40131
Department1-University0-AssistantProfessor6,ff40132
Department1-University0-AssistantProfessor7,ff40133
Department1-University1-AssistantProfessor0,ff40134
Department1-University1-AssistantProfessor1,ff40135
Department1-University1-AssistantProfessor2,ff40136
Department1-University1-AssistantProfessor3,ff40137
Department1-University1-AssistantProfessor4,ff40138
Department1-University1-AssistantProfessor5,ff40139
Department1-University1-AssistantProfessor6,ff40140
Department1-University1-AssistantProfessor7,ff40141
Department1-University1-AssistantProfessor8,ff40142
Department1-University1-AssistantProfessor9,ff40143
Department1-University2-AssistantProfessor0,ff40144
Department1-University2-AssistantProfessor1,ff40145
Department1-University2-AssistantProfessor2,ff40146
Department1-University2-AssistantProfessor3,ff40147
Department1-University2-AssistantProfessor4,ff40148
Department1-University2-AssistantProfessor5,ff40149
Department1-University2-AssistantProfessor6,ff40150
Department1-University2-AssistantProfessor7,ff40151
Department1-University2-AssistantProfessor8,ff40152
Department1-University3-AssistantProfessor0,ff40153
Department1-University3-AssistantProfessor10,ff40154
Department1-University3-AssistantProfessor1,ff40155
Department1-University3-AssistantProfessor2,ff40156
Department1-University3-AssistantProfessor3,ff40157
Department1-University3-AssistantProfessor4,ff40158
Department1-University3-AssistantProfessor5,ff40159
Department1-University3-AssistantProfessor6,ff40160
Department1-University3-AssistantProfessor7,ff40161
Department1-University3-AssistantProfessor8,ff40162
Department1-University3-AssistantProfessor9,ff40163
Department1-University4-AssistantProfessor0,ff40164
Department1-University4-AssistantProfessor1,ff40165
Department1-University4-AssistantProfessor2,ff40166
Department1-University4-AssistantProfessor3,ff40167
Department1-University4-AssistantProfessor4,ff40168
Department1-University4-AssistantProfessor5,ff40169
Department1-University4-AssistantProfessor6,ff40170
Department1-University4-AssistantProfessor7,ff40171
Department1-University4-AssistantProfessor8,ff40172
Department1-University4-AssistantProfessor9,ff40173
Department1-University5-AssistantProfessor0,ff40174
Department1-University5-AssistantProfessor1,ff40175
Department1-University5-AssistantProfessor2,ff40176
Department1-University5-AssistantProfessor3,ff40177
Department1-University5-AssistantProfessor4,ff40178
Department1-University5-AssistantProfessor5,ff40179
Department1-University5-AssistantProfessor6,ff40180
Department1-University5-AssistantProfessor7,ff40181
Department1-University6-AssistantProfessor0,ff40182
Department1-University6-AssistantProfessor1,ff40183
Department1-University6-AssistantProfessor2,ff40184
Department1-University6-AssistantProfessor3,ff40185
Department1-University6-AssistantProfessor4,ff40186
Department1-University6-AssistantProfessor5,ff40187
Department1-University6-AssistantProfessor6,ff40188
Department1-University6-AssistantProfessor7,ff40189
Department1-University6-AssistantProfessor8,ff40190
Department1-University7-AssistantProfessor0,ff40191
Department1-University7-AssistantProfessor10,ff40192
Department1-University7-AssistantProfessor1,ff40193
Department1-University7-AssistantProfessor2,ff40194
Department1-University7-AssistantProfessor3,ff40195
Department1-University7-AssistantProfessor4,ff40196
Department1-University7-AssistantProfessor5,ff40197
Department1-University7-AssistantProfessor6,ff40198
Department1-University7-AssistantProfessor7,ff40199
Department1-University7-AssistantProfessor8,ff40200
Department1-University7-AssistantProfessor9,ff40201
Department1-University8-AssistantProfessor0,ff40202
Department1-University8-AssistantProfessor10,ff40203
Department1-University8-AssistantProfessor1,ff40204
Department1-University8-AssistantProfessor2,ff40205
Department1-University8-AssistantProfessor3,ff40206
Department1-University8-AssistantProfessor4,ff40207
Department1-University8-AssistantProfessor5,ff40208
Department1-University8-AssistantProfessor6,ff40209
Department1-University8-AssistantProfessor7,ff40210
Department1-University8-AssistantProfessor8,ff40211
Department1-University8-AssistantProfessor9,ff40212
Department1-University9-AssistantProfessor0,ff40213
Department1-University9-AssistantProfessor10,ff40214
Department1-University9-AssistantProfessor1,ff40215
Department1-University9-AssistantProfessor2,ff40216
Department1-University9-AssistantProfessor3,ff40217
Department1-University9-AssistantProfessor4,ff40218
Department1-University9-AssistantProfessor5,ff40219
Department1-University9-AssistantProfessor6,ff40220
Department1-University9-AssistantProfessor7,ff40221
Department1-University9-AssistantProfessor8,ff40222
Department1-University9-AssistantProfessor9,ff40223
Department20-University3-AssistantProfessor0,ff40224
Department20-University3-AssistantProfessor1,ff40225
Department20-University3-AssistantProfessor2,ff40226
Department20-University3-AssistantProfessor3,ff40227
Department20-University3-AssistantProfessor4,ff40228
Department20-University3-AssistantProfessor5,ff40229
Department20-University3-AssistantProfessor6,ff40230
Department20-University3-AssistantProfessor7,ff40231
Department20-University3-AssistantProfessor8,ff40232
Department20-University3-AssistantProfessor9,ff40233
Department20-University4-AssistantProfessor0,ff40234
Department20-University4-AssistantProfessor10,ff40235
Department20-University4-AssistantProfessor1,ff40236
Department20-University4-AssistantProfessor2,ff40237
Department20-University4-AssistantProfessor3,ff40238
Department20-University4-AssistantProfessor4,ff40239
Department20-University4-AssistantProfessor5,ff40240
Department20-University4-AssistantProfessor6,ff40241
Department20-University4-AssistantProfessor7,ff40242
Department20-University4-AssistantProfessor8,ff40243
Department20-University4-AssistantProfessor9,ff40244
Department20-University6-AssistantProfessor0,ff40245
Department20-University6-AssistantProfessor1,ff40246
Department20-University6-AssistantProfessor2,ff40247
Department20-University6-AssistantProfessor3,ff40248
Department20-University6-AssistantProfessor4,ff40249
Department20-University6-AssistantProfessor5,ff40250
Department20-University6-AssistantProfessor6,ff40251
Department20-University6-AssistantProfessor7,ff40252
Department20-University9-AssistantProfessor0,ff40253
Department20-University9-AssistantProfessor1,ff40254
Department20-University9-AssistantProfessor2,ff40255
Department20-University9-AssistantProfessor3,ff40256
Department20-University9-AssistantProfessor4,ff40257
Department20-University9-AssistantProfessor5,ff40258
Department20-University9-AssistantProfessor6,ff40259
Department20-University9-AssistantProfessor7,ff40260
Department21-University4-AssistantProfessor0,ff40261
Department21-University4-AssistantProfessor1,ff40262
Department21-University4-AssistantProfessor2,ff40263
Department21-University4-AssistantProfessor3,ff40264
Department21-University4-AssistantProfessor4,ff40265
Department21-University4-AssistantProfessor5,ff40266
Department21-University4-AssistantProfessor6,ff40267
Department21-University4-AssistantProfessor7,ff40268
Department21-University6-AssistantProfessor0,ff40269
Department21-University6-AssistantProfessor1,ff40270
Department21-University6-AssistantProfessor2,ff40271
Department21-University6-AssistantProfessor3,ff40272
Department21-University6-AssistantProfessor4,ff40273
Department21-University6-AssistantProfessor5,ff40274
Department21-University6-AssistantProfessor6,ff40275
Department21-University6-AssistantProfessor7,ff40276
Department21-University6-AssistantProfessor8,ff40277
Department21-University6-AssistantProfessor9,ff40278
Department21-University9-AssistantProfessor0,ff40279
Department21-University9-AssistantProfessor1,ff40280
Department21-University9-AssistantProfessor2,ff40281
Department21-University9-AssistantProfessor3,ff40282
Department21-University9-AssistantProfessor4,ff40283
Department21-University9-AssistantProfessor5,ff40284
Department21-University9-AssistantProfessor6,ff40285
Department21-University9-AssistantProfessor7,ff40286
Department21-University9-AssistantProfessor8,ff40287
Department22-University6-AssistantProfessor0,ff40288
Department22-University6-AssistantProfessor1,ff40289
Department22-University6-AssistantProfessor2,ff40290
Department22-University6-AssistantProfessor3,ff40291
Department22-University6-AssistantProfessor4,ff40292
Department22-University6-AssistantProfessor5,ff40293
Department22-University6-AssistantProfessor6,ff40294
Department22-University6-AssistantProfessor7,ff40295
Department22-University6-AssistantProfessor8,ff40296
Department22-University6-AssistantProfessor9,ff40297
Department23-University6-AssistantProfessor0,ff40298
Department23-University6-AssistantProfessor10,ff40299
Department23-University6-AssistantProfessor1,ff40300
Department23-University6-AssistantProfessor2,ff40301
Department23-University6-AssistantProfessor3,ff40302
Department23-University6-AssistantProfessor4,ff40303
Department23-University6-AssistantProfessor5,ff40304
Department23-University6-AssistantProfessor6,ff40305
Department23-University6-AssistantProfessor7,ff40306
Department23-University6-AssistantProfessor8,ff40307
Department23-University6-AssistantProfessor9,ff40308
Department2-University0-AssistantProfessor0,ff40309
Department2-University0-AssistantProfessor1,ff40310
Department2-University0-AssistantProfessor2,ff40311
Department2-University0-AssistantProfessor3,ff40312
Department2-University0-AssistantProfessor4,ff40313
Department2-University0-AssistantProfessor5,ff40314
Department2-University0-AssistantProfessor6,ff40315
Department2-University0-AssistantProfessor7,ff40316
Department2-University1-AssistantProfessor0,ff40317
Department2-University1-AssistantProfessor1,ff40318
Department2-University1-AssistantProfessor2,ff40319
Department2-University1-AssistantProfessor3,ff40320
Department2-University1-AssistantProfessor4,ff40321
Department2-University1-AssistantProfessor5,ff40322
Department2-University1-AssistantProfessor6,ff40323
Department2-University1-AssistantProfessor7,ff40324
Department2-University2-AssistantProfessor0,ff40325
Department2-University2-AssistantProfessor1,ff40326
Department2-University2-AssistantProfessor2,ff40327
Department2-University2-AssistantProfessor3,ff40328
Department2-University2-AssistantProfessor4,ff40329
Department2-University2-AssistantProfessor5,ff40330
Department2-University2-AssistantProfessor6,ff40331
Department2-University2-AssistantProfessor7,ff40332
Department2-University2-AssistantProfessor8,ff40333
Department2-University3-AssistantProfessor0,ff40334
Department2-University3-AssistantProfessor1,ff40335
Department2-University3-AssistantProfessor2,ff40336
Department2-University3-AssistantProfessor3,ff40337
Department2-University3-AssistantProfessor4,ff40338
Department2-University3-AssistantProfessor5,ff40339
Department2-University3-AssistantProfessor6,ff40340
Department2-University3-AssistantProfessor7,ff40341
Department2-University4-AssistantProfessor0,ff40342
Department2-University4-AssistantProfessor1,ff40343
Department2-University4-AssistantProfessor2,ff40344
Department2-University4-AssistantProfessor3,ff40345
Department2-University4-AssistantProfessor4,ff40346
Department2-University4-AssistantProfessor5,ff40347
Department2-University4-AssistantProfessor6,ff40348
Department2-University4-AssistantProfessor7,ff40349
Department2-University4-AssistantProfessor8,ff40350
Department2-University4-AssistantProfessor9,ff40351
Department2-University5-AssistantProfessor0,ff40352
Department2-University5-AssistantProfessor1,ff40353
Department2-University5-AssistantProfessor2,ff40354
Department2-University5-AssistantProfessor3,ff40355
Department2-University5-AssistantProfessor4,ff40356
Department2-University5-AssistantProfessor5,ff40357
Department2-University5-AssistantProfessor6,ff40358
Department2-University5-AssistantProfessor7,ff40359
Department2-University6-AssistantProfessor0,ff40360
Department2-University6-AssistantProfessor10,ff40361
Department2-University6-AssistantProfessor1,ff40362
Department2-University6-AssistantProfessor2,ff40363
Department2-University6-AssistantProfessor3,ff40364
Department2-University6-AssistantProfessor4,ff40365
Department2-University6-AssistantProfessor5,ff40366
Department2-University6-AssistantProfessor6,ff40367
Department2-University6-AssistantProfessor7,ff40368
Department2-University6-AssistantProfessor8,ff40369
Department2-University6-AssistantProfessor9,ff40370
Department2-University7-AssistantProfessor0,ff40371
Department2-University7-AssistantProfessor1,ff40372
Department2-University7-AssistantProfessor2,ff40373
Department2-University7-AssistantProfessor3,ff40374
Department2-University7-AssistantProfessor4,ff40375
Department2-University7-AssistantProfessor5,ff40376
Department2-University7-AssistantProfessor6,ff40377
Department2-University7-AssistantProfessor7,ff40378
Department2-University7-AssistantProfessor8,ff40379
Department2-University8-AssistantProfessor0,ff40380
Department2-University8-AssistantProfessor1,ff40381
Department2-University8-AssistantProfessor2,ff40382
Department2-University8-AssistantProfessor3,ff40383
Department2-University8-AssistantProfessor4,ff40384
Department2-University8-AssistantProfessor5,ff40385
Department2-University8-AssistantProfessor6,ff40386
Department2-University8-AssistantProfessor7,ff40387
Department2-University9-AssistantProfessor0,ff40388
Department2-University9-AssistantProfessor1,ff40389
Department2-University9-AssistantProfessor2,ff40390
Department2-University9-AssistantProfessor3,ff40391
Department2-University9-AssistantProfessor4,ff40392
Department2-University9-AssistantProfessor5,ff40393
Department2-University9-AssistantProfessor6,ff40394
Department2-University9-AssistantProfessor7,ff40395
Department2-University9-AssistantProfessor8,ff40396
Department2-University9-AssistantProfessor9,ff40397
Department3-University0-AssistantProfessor0,ff40398
Department3-University0-AssistantProfessor1,ff40399
Department3-University0-AssistantProfessor2,ff40400
Department3-University0-AssistantProfessor3,ff40401
Department3-University0-AssistantProfessor4,ff40402
Department3-University0-AssistantProfessor5,ff40403
Department3-University0-AssistantProfessor6,ff40404
Department3-University0-AssistantProfessor7,ff40405
Department3-University0-AssistantProfessor8,ff40406
Department3-University0-AssistantProfessor9,ff40407
Department3-University1-AssistantProfessor0,ff40408
Department3-University1-AssistantProfessor10,ff40409
Department3-University1-AssistantProfessor1,ff40410
Department3-University1-AssistantProfessor2,ff40411
Department3-University1-AssistantProfessor3,ff40412
Department3-University1-AssistantProfessor4,ff40413
Department3-University1-AssistantProfessor5,ff40414
Department3-University1-AssistantProfessor6,ff40415
Department3-University1-AssistantProfessor7,ff40416
Department3-University1-AssistantProfessor8,ff40417
Department3-University1-AssistantProfessor9,ff40418
Department3-University2-AssistantProfessor0,ff40419
Department3-University2-AssistantProfessor1,ff40420
Department3-University2-AssistantProfessor2,ff40421
Department3-University2-AssistantProfessor3,ff40422
Department3-University2-AssistantProfessor4,ff40423
Department3-University2-AssistantProfessor5,ff40424
Department3-University2-AssistantProfessor6,ff40425
Department3-University2-AssistantProfessor7,ff40426
Department3-University3-AssistantProfessor0,ff40427
Department3-University3-AssistantProfessor1,ff40428
Department3-University3-AssistantProfessor2,ff40429
Department3-University3-AssistantProfessor3,ff40430
Department3-University3-AssistantProfessor4,ff40431
Department3-University3-AssistantProfessor5,ff40432
Department3-University3-AssistantProfessor6,ff40433
Department3-University3-AssistantProfessor7,ff40434
Department3-University3-AssistantProfessor8,ff40435
Department3-University4-AssistantProfessor0,ff40436
Department3-University4-AssistantProfessor1,ff40437
Department3-University4-AssistantProfessor2,ff40438
Department3-University4-AssistantProfessor3,ff40439
Department3-University4-AssistantProfessor4,ff40440
Department3-University4-AssistantProfessor5,ff40441
Department3-University4-AssistantProfessor6,ff40442
Department3-University4-AssistantProfessor7,ff40443
Department3-University5-AssistantProfessor0,ff40444
Department3-University5-AssistantProfessor1,ff40445
Department3-University5-AssistantProfessor2,ff40446
Department3-University5-AssistantProfessor3,ff40447
Department3-University5-AssistantProfessor4,ff40448
Department3-University5-AssistantProfessor5,ff40449
Department3-University5-AssistantProfessor6,ff40450
Department3-University5-AssistantProfessor7,ff40451
Department3-University5-AssistantProfessor8,ff40452
Department3-University6-AssistantProfessor0,ff40453
Department3-University6-AssistantProfessor1,ff40454
Department3-University6-AssistantProfessor2,ff40455
Department3-University6-AssistantProfessor3,ff40456
Department3-University6-AssistantProfessor4,ff40457
Department3-University6-AssistantProfessor5,ff40458
Department3-University6-AssistantProfessor6,ff40459
Department3-University6-AssistantProfessor7,ff40460
Department3-University6-AssistantProfessor8,ff40461
Department3-University6-AssistantProfessor9,ff40462
Department3-University7-AssistantProfessor0,ff40463
Department3-University7-AssistantProfessor1,ff40464
Department3-University7-AssistantProfessor2,ff40465
Department3-University7-AssistantProfessor3,ff40466
Department3-University7-AssistantProfessor4,ff40467
Department3-University7-AssistantProfessor5,ff40468
Department3-University7-AssistantProfessor6,ff40469
Department3-University7-AssistantProfessor7,ff40470
Department3-University8-AssistantProfessor0,ff40471
Department3-University8-AssistantProfessor10,ff40472
Department3-University8-AssistantProfessor1,ff40473
Department3-University8-AssistantProfessor2,ff40474
Department3-University8-AssistantProfessor3,ff40475
Department3-University8-AssistantProfessor4,ff40476
Department3-University8-AssistantProfessor5,ff40477
Department3-University8-AssistantProfessor6,ff40478
Department3-University8-AssistantProfessor7,ff40479
Department3-University8-AssistantProfessor8,ff40480
Department3-University8-AssistantProfessor9,ff40481
Department3-University9-AssistantProfessor0,ff40482
Department3-University9-AssistantProfessor1,ff40483
Department3-University9-AssistantProfessor2,ff40484
Department3-University9-AssistantProfessor3,ff40485
Department3-University9-AssistantProfessor4,ff40486
Department3-University9-AssistantProfessor5,ff40487
Department3-University9-AssistantProfessor6,ff40488
Department3-University9-AssistantProfessor7,ff40489
Department3-University9-AssistantProfessor8,ff40490
Department4-University0-AssistantProfessor0,ff40491
Department4-University0-AssistantProfessor1,ff40492
Department4-University0-AssistantProfessor2,ff40493
Department4-University0-AssistantProfessor3,ff40494
Department4-University0-AssistantProfessor4,ff40495
Department4-University0-AssistantProfessor5,ff40496
Department4-University0-AssistantProfessor6,ff40497
Department4-University0-AssistantProfessor7,ff40498
Department4-University0-AssistantProfessor8,ff40499
Department4-University0-AssistantProfessor9,ff40500
Department4-University1-AssistantProfessor0,ff40501
Department4-University1-AssistantProfessor1,ff40502
Department4-University1-AssistantProfessor2,ff40503
Department4-University1-AssistantProfessor3,ff40504
Department4-University1-AssistantProfessor4,ff40505
Department4-University1-AssistantProfessor5,ff40506
Department4-University1-AssistantProfessor6,ff40507
Department4-University1-AssistantProfessor7,ff40508
Department4-University1-AssistantProfessor8,ff40509
Department4-University1-AssistantProfessor9,ff40510
Department4-University2-AssistantProfessor0,ff40511
Department4-University2-AssistantProfessor1,ff40512
Department4-University2-AssistantProfessor2,ff40513
Department4-University2-AssistantProfessor3,ff40514
Department4-University2-AssistantProfessor4,ff40515
Department4-University2-AssistantProfessor5,ff40516
Department4-University2-AssistantProfessor6,ff40517
Department4-University2-AssistantProfessor7,ff40518
Department4-University2-AssistantProfessor8,ff40519
Department4-University3-AssistantProfessor0,ff40520
Department4-University3-AssistantProfessor1,ff40521
Department4-University3-AssistantProfessor2,ff40522
Department4-University3-AssistantProfessor3,ff40523
Department4-University3-AssistantProfessor4,ff40524
Department4-University3-AssistantProfessor5,ff40525
Department4-University3-AssistantProfessor6,ff40526
Department4-University3-AssistantProfessor7,ff40527
Department4-University3-AssistantProfessor8,ff40528
Department4-University3-AssistantProfessor9,ff40529
Department4-University4-AssistantProfessor0,ff40530
Department4-University4-AssistantProfessor10,ff40531
Department4-University4-AssistantProfessor1,ff40532
Department4-University4-AssistantProfessor2,ff40533
Department4-University4-AssistantProfessor3,ff40534
Department4-University4-AssistantProfessor4,ff40535
Department4-University4-AssistantProfessor5,ff40536
Department4-University4-AssistantProfessor6,ff40537
Department4-University4-AssistantProfessor7,ff40538
Department4-University4-AssistantProfessor8,ff40539
Department4-University4-AssistantProfessor9,ff40540
Department4-University5-AssistantProfessor0,ff40541
Department4-University5-AssistantProfessor1,ff40542
Department4-University5-AssistantProfessor2,ff40543
Department4-University5-AssistantProfessor3,ff40544
Department4-University5-AssistantProfessor4,ff40545
Department4-University5-AssistantProfessor5,ff40546
Department4-University5-AssistantProfessor6,ff40547
Department4-University5-AssistantProfessor7,ff40548
Department4-University6-AssistantProfessor0,ff40549
Department4-University6-AssistantProfessor1,ff40550
Department4-University6-AssistantProfessor2,ff40551
Department4-University6-AssistantProfessor3,ff40552
Department4-University6-AssistantProfessor4,ff40553
Department4-University6-AssistantProfessor5,ff40554
Department4-University6-AssistantProfessor6,ff40555
Department4-University6-AssistantProfessor7,ff40556
Department4-University6-AssistantProfessor8,ff40557
Department4-University7-AssistantProfessor0,ff40558
Department4-University7-AssistantProfessor10,ff40559
Department4-University7-AssistantProfessor1,ff40560
Department4-University7-AssistantProfessor2,ff40561
Department4-University7-AssistantProfessor3,ff40562
Department4-University7-AssistantProfessor4,ff40563
Department4-University7-AssistantProfessor5,ff40564
Department4-University7-AssistantProfessor6,ff40565
Department4-University7-AssistantProfessor7,ff40566
Department4-University7-AssistantProfessor8,ff40567
Department4-University7-AssistantProfessor9,ff40568
Department4-University8-AssistantProfessor0,ff40569
Department4-University8-AssistantProfessor1,ff40570
Department4-University8-AssistantProfessor2,ff40571
Department4-University8-AssistantProfessor3,ff40572
Department4-University8-AssistantProfessor4,ff40573
Department4-University8-AssistantProfessor5,ff40574
Department4-University8-AssistantProfessor6,ff40575
Department4-University8-AssistantProfessor7,ff40576
Department4-University9-AssistantProfessor0,ff40577
Department4-University9-AssistantProfessor10,ff40578
Department4-University9-AssistantProfessor1,ff40579
Department4-University9-AssistantProfessor2,ff40580
Department4-University9-AssistantProfessor3,ff40581
Department4-University9-AssistantProfessor4,ff40582
Department4-University9-AssistantProfessor5,ff40583
Department4-University9-AssistantProfessor6,ff40584
Department4-University9-AssistantProfessor7,ff40585
Department4-University9-AssistantProfessor8,ff40586
Department4-University9-AssistantProfessor9,ff40587
Department5-University0-AssistantProfessor0,ff40588
Department5-University0-AssistantProfessor1,ff40589
Department5-University0-AssistantProfessor2,ff40590
Department5-University0-AssistantProfessor3,ff40591
Department5-University0-AssistantProfessor4,ff40592
Department5-University0-AssistantProfessor5,ff40593
Department5-University0-AssistantProfessor6,ff40594
Department5-University0-AssistantProfessor7,ff40595
Department5-University1-AssistantProfessor0,ff40596
Department5-University1-AssistantProfessor1,ff40597
Department5-University1-AssistantProfessor2,ff40598
Department5-University1-AssistantProfessor3,ff40599
Department5-University1-AssistantProfessor4,ff40600
Department5-University1-AssistantProfessor5,ff40601
Department5-University1-AssistantProfessor6,ff40602
Department5-University1-AssistantProfessor7,ff40603
Department5-University1-AssistantProfessor8,ff40604
Department5-University1-AssistantProfessor9,ff40605
Department5-University2-AssistantProfessor0,ff40606
Department5-University2-AssistantProfessor1,ff40607
Department5-University2-AssistantProfessor2,ff40608
Department5-University2-AssistantProfessor3,ff40609
Department5-University2-AssistantProfessor4,ff40610
Department5-University2-AssistantProfessor5,ff40611
Department5-University2-AssistantProfessor6,ff40612
Department5-University2-AssistantProfessor7,ff40613
Department5-University2-AssistantProfessor8,ff40614
Department5-University3-AssistantProfessor0,ff40615
Department5-University3-AssistantProfessor1,ff40616
Department5-University3-AssistantProfessor2,ff40617
Department5-University3-AssistantProfessor3,ff40618
Department5-University3-AssistantProfessor4,ff40619
Department5-University3-AssistantProfessor5,ff40620
Department5-University3-AssistantProfessor6,ff40621
Department5-University3-AssistantProfessor7,ff40622
Department5-University3-AssistantProfessor8,ff40623
Department5-University3-AssistantProfessor9,ff40624
Department5-University4-AssistantProfessor0,ff40625
Department5-University4-AssistantProfessor1,ff40626
Department5-University4-AssistantProfessor2,ff40627
Department5-University4-AssistantProfessor3,ff40628
Department5-University4-AssistantProfessor4,ff40629
Department5-University4-AssistantProfessor5,ff40630
Department5-University4-AssistantProfessor6,ff40631
Department5-University4-AssistantProfessor7,ff40632
Department5-University5-AssistantProfessor0,ff40633
Department5-University5-AssistantProfessor1,ff40634
Department5-University5-AssistantProfessor2,ff40635
Department5-University5-AssistantProfessor3,ff40636
Department5-University5-AssistantProfessor4,ff40637
Department5-University5-AssistantProfessor5,ff40638
Department5-University5-AssistantProfessor6,ff40639
Department5-University5-AssistantProfessor7,ff40640
Department5-University5-AssistantProfessor8,ff40641
Department5-University5-AssistantProfessor9,ff40642
Department5-University6-AssistantProfessor0,ff40643
Department5-University6-AssistantProfessor1,ff40644
Department5-University6-AssistantProfessor2,ff40645
Department5-University6-AssistantProfessor3,ff40646
Department5-University6-AssistantProfessor4,ff40647
Department5-University6-AssistantProfessor5,ff40648
Department5-University6-AssistantProfessor6,ff40649
Department5-University6-AssistantProfessor7,ff40650
Department5-University7-AssistantProfessor0,ff40651
Department5-University7-AssistantProfessor1,ff40652
Department5-University7-AssistantProfessor2,ff40653
Department5-University7-AssistantProfessor3,ff40654
Department5-University7-AssistantProfessor4,ff40655
Department5-University7-AssistantProfessor5,ff40656
Department5-University7-AssistantProfessor6,ff40657
Department5-University7-AssistantProfessor7,ff40658
Department5-University7-AssistantProfessor8,ff40659
Department5-University7-AssistantProfessor9,ff40660
Department5-University8-AssistantProfessor0,ff40661
Department5-University8-AssistantProfessor10,ff40662
Department5-University8-AssistantProfessor1,ff40663
Department5-University8-AssistantProfessor2,ff40664
Department5-University8-AssistantProfessor3,ff40665
Department5-University8-AssistantProfessor4,ff40666
Department5-University8-AssistantProfessor5,ff40667
Department5-University8-AssistantProfessor6,ff40668
Department5-University8-AssistantProfessor7,ff40669
Department5-University8-AssistantProfessor8,ff40670
Department5-University8-AssistantProfessor9,ff40671
Department5-University9-AssistantProfessor0,ff40672
Department5-University9-AssistantProfessor1,ff40673
Department5-University9-AssistantProfessor2,ff40674
Department5-University9-AssistantProfessor3,ff40675
Department5-University9-AssistantProfessor4,ff40676
Department5-University9-AssistantProfessor5,ff40677
Department5-University9-AssistantProfessor6,ff40678
Department5-University9-AssistantProfessor7,ff40679
Department5-University9-AssistantProfessor8,ff40680
Department5-University9-AssistantProfessor9,ff40681
Department6-University0-AssistantProfessor0,ff40682
Department6-University0-AssistantProfessor1,ff40683
Department6-University0-AssistantProfessor2,ff40684
Department6-University0-AssistantProfessor3,ff40685
Department6-University0-AssistantProfessor4,ff40686
Department6-University0-AssistantProfessor5,ff40687
Department6-University0-AssistantProfessor6,ff40688
Department6-University0-AssistantProfessor7,ff40689
Department6-University1-AssistantProfessor0,ff40690
Department6-University1-AssistantProfessor10,ff40691
Department6-University1-AssistantProfessor1,ff40692
Department6-University1-AssistantProfessor2,ff40693
Department6-University1-AssistantProfessor3,ff40694
Department6-University1-AssistantProfessor4,ff40695
Department6-University1-AssistantProfessor5,ff40696
Department6-University1-AssistantProfessor6,ff40697
Department6-University1-AssistantProfessor7,ff40698
Department6-University1-AssistantProfessor8,ff40699
Department6-University1-AssistantProfessor9,ff40700
Department6-University2-AssistantProfessor0,ff40701
Department6-University2-AssistantProfessor1,ff40702
Department6-University2-AssistantProfessor2,ff40703
Department6-University2-AssistantProfessor3,ff40704
Department6-University2-AssistantProfessor4,ff40705
Department6-University2-AssistantProfessor5,ff40706
Department6-University2-AssistantProfessor6,ff40707
Department6-University2-AssistantProfessor7,ff40708
Department6-University3-AssistantProfessor0,ff40709
Department6-University3-AssistantProfessor1,ff40710
Department6-University3-AssistantProfessor2,ff40711
Department6-University3-AssistantProfessor3,ff40712
Department6-University3-AssistantProfessor4,ff40713
Department6-University3-AssistantProfessor5,ff40714
Department6-University3-AssistantProfessor6,ff40715
Department6-University3-AssistantProfessor7,ff40716
Department6-University3-AssistantProfessor8,ff40717
Department6-University3-AssistantProfessor9,ff40718
Department6-University4-AssistantProfessor0,ff40719
Department6-University4-AssistantProfessor10,ff40720
Department6-University4-AssistantProfessor1,ff40721
Department6-University4-AssistantProfessor2,ff40722
Department6-University4-AssistantProfessor3,ff40723
Department6-University4-AssistantProfessor4,ff40724
Department6-University4-AssistantProfessor5,ff40725
Department6-University4-AssistantProfessor6,ff40726
Department6-University4-AssistantProfessor7,ff40727
Department6-University4-AssistantProfessor8,ff40728
Department6-University4-AssistantProfessor9,ff40729
Department6-University5-AssistantProfessor0,ff40730
Department6-University5-AssistantProfessor10,ff40731
Department6-University5-AssistantProfessor1,ff40732
Department6-University5-AssistantProfessor2,ff40733
Department6-University5-AssistantProfessor3,ff40734
Department6-University5-AssistantProfessor4,ff40735
Department6-University5-AssistantProfessor5,ff40736
Department6-University5-AssistantProfessor6,ff40737
Department6-University5-AssistantProfessor7,ff40738
Department6-University5-AssistantProfessor8,ff40739
Department6-University5-AssistantProfessor9,ff40740
Department6-University6-AssistantProfessor0,ff40741
Department6-University6-AssistantProfessor1,ff40742
Department6-University6-AssistantProfessor2,ff40743
Department6-University6-AssistantProfessor3,ff40744
Department6-University6-AssistantProfessor4,ff40745
Department6-University6-AssistantProfessor5,ff40746
Department6-University6-AssistantProfessor6,ff40747
Department6-University6-AssistantProfessor7,ff40748
Department6-University6-AssistantProfessor8,ff40749
Department6-University6-AssistantProfessor9,ff40750
Department6-University7-AssistantProfessor0,ff40751
Department6-University7-AssistantProfessor1,ff40752
Department6-University7-AssistantProfessor2,ff40753
Department6-University7-AssistantProfessor3,ff40754
Department6-University7-AssistantProfessor4,ff40755
Department6-University7-AssistantProfessor5,ff40756
Department6-University7-AssistantProfessor6,ff40757
Department6-University7-AssistantProfessor7,ff40758
Department6-University7-AssistantProfessor8,ff40759
Department6-University8-AssistantProfessor0,ff40760
Department6-University8-AssistantProfessor1,ff40761
Department6-University8-AssistantProfessor2,ff40762
Department6-University8-AssistantProfessor3,ff40763
Department6-University8-AssistantProfessor4,ff40764
Department6-University8-AssistantProfessor5,ff40765
Department6-University8-AssistantProfessor6,ff40766
Department6-University8-AssistantProfessor7,ff40767
Department6-University8-AssistantProfessor8,ff40768
Department6-University8-AssistantProfessor9,ff40769
Department6-University9-AssistantProfessor0,ff40770
Department6-University9-AssistantProfessor10,ff40771
Department6-University9-AssistantProfessor1,ff40772
Department6-University9-AssistantProfessor2,ff40773
Department6-University9-AssistantProfessor3,ff40774
Department6-University9-AssistantProfessor4,ff40775
Department6-University9-AssistantProfessor5,ff40776
Department6-University9-AssistantProfessor6,ff40777
Department6-University9-AssistantProfessor7,ff40778
Department6-University9-AssistantProfessor8,ff40779
Department6-University9-AssistantProfessor9,ff40780
Department7-University0-AssistantProfessor0,ff40781
Department7-University0-AssistantProfessor1,ff40782
Department7-University0-AssistantProfessor2,ff40783
Department7-University0-AssistantProfessor3,ff40784
Department7-University0-AssistantProfessor4,ff40785
Department7-University0-AssistantProfessor5,ff40786
Department7-University0-AssistantProfessor6,ff40787
Department7-University0-AssistantProfessor7,ff40788
Department7-University0-AssistantProfessor8,ff40789
Department7-University0-AssistantProfessor9,ff40790
Department7-University1-AssistantProfessor0,ff40791
Department7-University1-AssistantProfessor10,ff40792
Department7-University1-AssistantProfessor1,ff40793
Department7-University1-AssistantProfessor2,ff40794
Department7-University1-AssistantProfessor3,ff40795
Department7-University1-AssistantProfessor4,ff40796
Department7-University1-AssistantProfessor5,ff40797
Department7-University1-AssistantProfessor6,ff40798
Department7-University1-AssistantProfessor7,ff40799
Department7-University1-AssistantProfessor8,ff40800
Department7-University1-AssistantProfessor9,ff40801
Department7-University2-AssistantProfessor0,ff40802
Department7-University2-AssistantProfessor10,ff40803
Department7-University2-AssistantProfessor1,ff40804
Department7-University2-AssistantProfessor2,ff40805
Department7-University2-AssistantProfessor3,ff40806
Department7-University2-AssistantProfessor4,ff40807
Department7-University2-AssistantProfessor5,ff40808
Department7-University2-AssistantProfessor6,ff40809
Department7-University2-AssistantProfessor7,ff40810
Department7-University2-AssistantProfessor8,ff40811
Department7-University2-AssistantProfessor9,ff40812
Department7-University3-AssistantProfessor0,ff40813
Department7-University3-AssistantProfessor1,ff40814
Department7-University3-AssistantProfessor2,ff40815
Department7-University3-AssistantProfessor3,ff40816
Department7-University3-AssistantProfessor4,ff40817
Department7-University3-AssistantProfessor5,ff40818
Department7-University3-AssistantProfessor6,ff40819
Department7-University3-AssistantProfessor7,ff40820
Department7-University3-AssistantProfessor8,ff40821
Department7-University3-AssistantProfessor9,ff40822
Department7-University4-AssistantProfessor0,ff40823
Department7-University4-AssistantProfessor1,ff40824
Department7-University4-AssistantProfessor2,ff40825
Department7-University4-AssistantProfessor3,ff40826
Department7-University4-AssistantProfessor4,ff40827
Department7-University4-AssistantProfessor5,ff40828
Department7-University4-AssistantProfessor6,ff40829
Department7-University4-AssistantProfessor7,ff40830
Department7-University4-AssistantProfessor8,ff40831
Department7-University4-AssistantProfessor9,ff40832
Department7-University5-AssistantProfessor0,ff40833
Department7-University5-AssistantProfessor1,ff40834
Department7-University5-AssistantProfessor2,ff40835
Department7-University5-AssistantProfessor3,ff40836
Department7-University5-AssistantProfessor4,ff40837
Department7-University5-AssistantProfessor5,ff40838
Department7-University5-AssistantProfessor6,ff40839
Department7-University5-AssistantProfessor7,ff40840
Department7-University6-AssistantProfessor0,ff40841
Department7-University6-AssistantProfessor1,ff40842
Department7-University6-AssistantProfessor2,ff40843
Department7-University6-AssistantProfessor3,ff40844
Department7-University6-AssistantProfessor4,ff40845
Department7-University6-AssistantProfessor5,ff40846
Department7-University6-AssistantProfessor6,ff40847
Department7-University6-AssistantProfessor7,ff40848
Department7-University6-AssistantProfessor8,ff40849
Department7-University6-AssistantProfessor9,ff40850
Department7-University7-AssistantProfessor0,ff40851
Department7-University7-AssistantProfessor1,ff40852
Department7-University7-AssistantProfessor2,ff40853
Department7-University7-AssistantProfessor3,ff40854
Department7-University7-AssistantProfessor4,ff40855
Department7-University7-AssistantProfessor5,ff40856
Department7-University7-AssistantProfessor6,ff40857
Department7-University7-AssistantProfessor7,ff40858
Department7-University7-AssistantProfessor8,ff40859
Department7-University8-AssistantProfessor0,ff40860
Department7-University8-AssistantProfessor1,ff40861
Department7-University8-AssistantProfessor2,ff40862
Department7-University8-AssistantProfessor3,ff40863
Department7-University8-AssistantProfessor4,ff40864
Department7-University8-AssistantProfessor5,ff40865
Department7-University8-AssistantProfessor6,ff40866
Department7-University8-AssistantProfessor7,ff40867
Department7-University8-AssistantProfessor8,ff40868
Department7-University8-AssistantProfessor9,ff40869
Department7-University9-AssistantProfessor0,ff40870
Department7-University9-AssistantProfessor1,ff40871
Department7-University9-AssistantProfessor2,ff40872
Department7-University9-AssistantProfessor3,ff40873
Department7-University9-AssistantProfessor4,ff40874
Department7-University9-AssistantProfessor5,ff40875
Department7-University9-AssistantProfessor6,ff40876
Department7-University9-AssistantProfessor7,ff40877
Department8-University0-AssistantProfessor0,ff40878
Department8-University0-AssistantProfessor10,ff40879
Department8-University0-AssistantProfessor1,ff40880
Department8-University0-AssistantProfessor2,ff40881
Department8-University0-AssistantProfessor3,ff40882
Department8-University0-AssistantProfessor4,ff40883
Department8-University0-AssistantProfessor5,ff40884
Department8-University0-AssistantProfessor6,ff40885
Department8-University0-AssistantProfessor7,ff40886
Department8-University0-AssistantProfessor8,ff40887
Department8-University0-AssistantProfessor9,ff40888
Department8-University1-AssistantProfessor0,ff40889
Department8-University1-AssistantProfessor1,ff40890
Department8-University1-AssistantProfessor2,ff40891
Department8-University1-AssistantProfessor3,ff40892
Department8-University1-AssistantProfessor4,ff40893
Department8-University1-AssistantProfessor5,ff40894
Department8-University1-AssistantProfessor6,ff40895
Department8-University1-AssistantProfessor7,ff40896
Department8-University1-AssistantProfessor8,ff40897
Department8-University1-AssistantProfessor9,ff40898
Department8-University2-AssistantProfessor0,ff40899
Department8-University2-AssistantProfessor10,ff40900
Department8-University2-AssistantProfessor1,ff40901
Department8-University2-AssistantProfessor2,ff40902
Department8-University2-AssistantProfessor3,ff40903
Department8-University2-AssistantProfessor4,ff40904
Department8-University2-AssistantProfessor5,ff40905
Department8-University2-AssistantProfessor6,ff40906
Department8-University2-AssistantProfessor7,ff40907
Department8-University2-AssistantProfessor8,ff40908
Department8-University2-AssistantProfessor9,ff40909
Department8-University3-AssistantProfessor0,ff40910
Department8-University3-AssistantProfessor10,ff40911
Department8-University3-AssistantProfessor1,ff40912
Department8-University3-AssistantProfessor2,ff40913
Department8-University3-AssistantProfessor3,ff40914
Department8-University3-AssistantProfessor4,ff40915
Department8-University3-AssistantProfessor5,ff40916
Department8-University3-AssistantProfessor6,ff40917
Department8-University3-AssistantProfessor7,ff40918
Department8-University3-AssistantProfessor8,ff40919
Department8-University3-AssistantProfessor9,ff40920
Department8-University4-AssistantProfessor0,ff40921
Department8-University4-AssistantProfessor1,ff40922
Department8-University4-AssistantProfessor2,ff40923
Department8-University4-AssistantProfessor3,ff40924
Department8-University4-AssistantProfessor4,ff40925
Department8-University4-AssistantProfessor5,ff40926
Department8-University4-AssistantProfessor6,ff40927
Department8-University4-AssistantProfessor7,ff40928
Department8-University4-AssistantProfessor8,ff40929
Department8-University4-AssistantProfessor9,ff40930
Department8-University5-AssistantProfessor0,ff40931
Department8-University5-AssistantProfessor10,ff40932
Department8-University5-AssistantProfessor1,ff40933
Department8-University5-AssistantProfessor2,ff40934
Department8-University5-AssistantProfessor3,ff40935
Department8-University5-AssistantProfessor4,ff40936
Department8-University5-AssistantProfessor5,ff40937
Department8-University5-AssistantProfessor6,ff40938
Department8-University5-AssistantProfessor7,ff40939
Department8-University5-AssistantProfessor8,ff40940
Department8-University5-AssistantProfessor9,ff40941
Department8-University6-AssistantProfessor0,ff40942
Department8-University6-AssistantProfessor1,ff40943
Department8-University6-AssistantProfessor2,ff40944
Department8-University6-AssistantProfessor3,ff40945
Department8-University6-AssistantProfessor4,ff40946
Department8-University6-AssistantProfessor5,ff40947
Department8-University6-AssistantProfessor6,ff40948
Department8-University6-AssistantProfessor7,ff40949
Department8-University6-AssistantProfessor8,ff40950
Department8-University7-AssistantProfessor0,ff40951
Department8-University7-AssistantProfessor1,ff40952
Department8-University7-AssistantProfessor2,ff40953
Department8-University7-AssistantProfessor3,ff40954
Department8-University7-AssistantProfessor4,ff40955
Department8-University7-AssistantProfessor5,ff40956
Department8-University7-AssistantProfessor6,ff40957
Department8-University7-AssistantProfessor7,ff40958
Department8-University7-AssistantProfessor8,ff40959
Department8-University7-AssistantProfessor9,ff40960
Department8-University8-AssistantProfessor0,ff40961
Department8-University8-AssistantProfessor1,ff40962
Department8-University8-AssistantProfessor2,ff40963
Department8-University8-AssistantProfessor3,ff40964
Department8-University8-AssistantProfessor4,ff40965
Department8-University8-AssistantProfessor5,ff40966
Department8-University8-AssistantProfessor6,ff40967
Department8-University8-AssistantProfessor7,ff40968
Department8-University8-AssistantProfessor8,ff40969
Department8-University9-AssistantProfessor0,ff40970
Department8-University9-AssistantProfessor10,ff40971
Department8-University9-AssistantProfessor1,ff40972
Department8-University9-AssistantProfessor2,ff40973
Department8-University9-AssistantProfessor3,ff40974
Department8-University9-AssistantProfessor4,ff40975
Department8-University9-AssistantProfessor5,ff40976
Department8-University9-AssistantProfessor6,ff40977
Department8-University9-AssistantProfessor7,ff40978
Department8-University9-AssistantProfessor8,ff40979
Department8-University9-AssistantProfessor9,ff40980
Department9-University0-AssistantProfessor0,ff40981
Department9-University0-AssistantProfessor10,ff40982
Department9-University0-AssistantProfessor1,ff40983
Department9-University0-AssistantProfessor2,ff40984
Department9-University0-AssistantProfessor3,ff40985
Department9-University0-AssistantProfessor4,ff40986
Department9-University0-AssistantProfessor5,ff40987
Department9-University0-AssistantProfessor6,ff40988
Department9-University0-AssistantProfessor7,ff40989
Department9-University0-AssistantProfessor8,ff40990
Department9-University0-AssistantProfessor9,ff40991
Department9-University1-AssistantProfessor0,ff40992
Department9-University1-AssistantProfessor1,ff40993
Department9-University1-AssistantProfessor2,ff40994
Department9-University1-AssistantProfessor3,ff40995
Department9-University1-AssistantProfessor4,ff40996
Department9-University1-AssistantProfessor5,ff40997
Department9-University1-AssistantProfessor6,ff40998
Department9-University1-AssistantProfessor7,ff40999
Department9-University1-AssistantProfessor8,ff41000
Department9-University2-AssistantProfessor0,ff41001
Department9-University2-AssistantProfessor1,ff41002
Department9-University2-AssistantProfessor2,ff41003
Department9-University2-AssistantProfessor3,ff41004
Department9-University2-AssistantProfessor4,ff41005
Department9-University2-AssistantProfessor5,ff41006
Department9-University2-AssistantProfessor6,ff41007
Department9-University2-AssistantProfessor7,ff41008
Department9-University2-AssistantProfessor8,ff41009
Department9-University2-AssistantProfessor9,ff41010
Department9-University3-AssistantProfessor0,ff41011
Department9-University3-AssistantProfessor1,ff41012
Department9-University3-AssistantProfessor2,ff41013
Department9-University3-AssistantProfessor3,ff41014
Department9-University3-AssistantProfessor4,ff41015
Department9-University3-AssistantProfessor5,ff41016
Department9-University3-AssistantProfessor6,ff41017
Department9-University3-AssistantProfessor7,ff41018
Department9-University3-AssistantProfessor8,ff41019
Department9-University4-AssistantProfessor0,ff41020
Department9-University4-AssistantProfessor1,ff41021
Department9-University4-AssistantProfessor2,ff41022
Department9-University4-AssistantProfessor3,ff41023
Department9-University4-AssistantProfessor4,ff41024
Department9-University4-AssistantProfessor5,ff41025
Department9-University4-AssistantProfessor6,ff41026
Department9-University4-AssistantProfessor7,ff41027
Department9-University5-AssistantProfessor0,ff41028
Department9-University5-AssistantProfessor1,ff41029
Department9-University5-AssistantProfessor2,ff41030
Department9-University5-AssistantProfessor3,ff41031
Department9-University5-AssistantProfessor4,ff41032
Department9-University5-AssistantProfessor5,ff41033
Department9-University5-AssistantProfessor6,ff41034
Department9-University5-AssistantProfessor7,ff41035
Department9-University5-AssistantProfessor8,ff41036
Department9-University5-AssistantProfessor9,ff41037
Department9-University6-AssistantProfessor0,ff41038
Department9-University6-AssistantProfessor1,ff41039
Department9-University6-AssistantProfessor2,ff41040
Department9-University6-AssistantProfessor3,ff41041
Department9-University6-AssistantProfessor4,ff41042
Department9-University6-AssistantProfessor5,ff41043
Department9-University6-AssistantProfessor6,ff41044
Department9-University6-AssistantProfessor7,ff41045
Department9-University6-AssistantProfessor8,ff41046
Department9-University6-AssistantProfessor9,ff41047
Department9-University7-AssistantProfessor0,ff41048
Department9-University7-AssistantProfessor1,ff41049
Department9-University7-AssistantProfessor2,ff41050
Department9-University7-AssistantProfessor3,ff41051
Department9-University7-AssistantProfessor4,ff41052
Department9-University7-AssistantProfessor5,ff41053
Department9-University7-AssistantProfessor6,ff41054
Department9-University7-AssistantProfessor7,ff41055
Department9-University7-AssistantProfessor8,ff41056
Department9-University8-AssistantProfessor0,ff41057
Department9-University8-AssistantProfessor1,ff41058
Department9-University8-AssistantProfessor2,ff41059
Department9-University8-AssistantProfessor3,ff41060
Department9-University8-AssistantProfessor4,ff41061
Department9-University8-AssistantProfessor5,ff41062
Department9-University8-AssistantProfessor6,ff41063
Department9-University8-AssistantProfessor7,ff41064
Department9-University8-AssistantProfessor8,ff41065
Department9-University8-AssistantProfessor9,ff41066
Department9-University9-AssistantProfessor0,ff41067
Department9-University9-AssistantProfessor1,ff41068
Department9-University9-AssistantProfessor2,ff41069
Department9-University9-AssistantProfessor3,ff41070
Department9-University9-AssistantProfessor4,ff41071
Department9-University9-AssistantProfessor5,ff41072
Department9-University9-AssistantProfessor6,ff41073
Department9-University9-AssistantProfessor7,ff41074
Department9-University9-AssistantProfessor8,ff41075
Department9-University9-AssistantProfessor9,ff41076
