p1,p14
p14,p1
p6,p8
p8,p6
p11,p13
p13,p11
p5,p7
p7,p5
p8,p12
p12,p8
p1,p3
p3,p1
p6,p10
p10,p6
p4,p9
p9,p4
p1,p5
p5,p1
p6,p7
p7,p6
p1,p10
p10,p1
p6,p14
p14,p6
p1,p6
p6,p1
p2,p10
p10,p2
p9,p10
p10,p9
p10,p14
p14,p10
p1,p9
p9,p1
p2,p3
p3,p2
p11,p12
p12,p11
p3,p12
p12,p3
p3,p11
p11,p3
p5,p13
p13,p5
p1,p2
p2,p1
