p4,p8
p8,p4
p5,p7
p7,p5
p1,p7
p7,p1
p8,p12
p12,p8
p3,p7
p7,p3
p1,p3
p3,p1
p8,p13
p13,p8
p9,p12
p12,p9
p8,p10
p10,p8
p4,p6
p6,p4
p2,p4
p4,p2
p1,p12
p12,p1
p1,p8
p8,p1
p1,p2
p2,p1
p5,p8
p8,p5
